camera_position = { 0.0 3.0 -25.0 }
camera_look_at 	= { 0.0 3.0 0.0 }
fov 			= 50					# Field of view
near 			= 0.1					# Z Near
far 			= 100					# Z Far
min_zoom		= -10
max_zoom		= 50

position 		=  { { 0.0 -5.0 0.0 }
					 { 0.0 -6.5 0.0 }
					 { 0.0 -5.0 0.0 } }
zoom			= { 0.0f -5.5f 0.0f }

unit_type		= -1