civil_war = {
	potential = {
		is_free_or_tributary_trigger = yes
		NOT = { has_country_flag = had_civil_war }
		NOT = { has_reform = native_basic_reform }
		NOT = { has_reform = colonial_government_reform }
		NOT = { has_reform = presidential_dictatorship_reform }
		
		average_home_autonomy = 30
	}
	
	can_start = {
		has_any_disaster = no
		average_home_autonomy = 30
		OR = {
		NOT = { stability = 0 }
		AND = { government = monarchy NOT = { legitimacy = 50 } }
		AND = { government = republic NOT = { republican_tradition = 50 } }
		AND = { government = theocracy has_dlc = "Common Sense" NOT = { devotion = 50 } }
		AND = { is_nomad = yes has_dlc = "The Cossacks" NOT = { horde_unity = 50 } }
		AND = { is_nomad = yes NOT = { has_dlc = "The Cossacks" } NOT = { legitimacy = 50 } }
		AND = { is_emperor_of_china = yes has_dlc = "Mandate of Heaven" NOT = { meritocracy = 50 } } 
		}
		
	}
	
	can_stop = {
		OR = {
			has_any_disaster = yes
			OR = {
				AND = { government = monarchy legitimacy = 75 }
				AND = { government = republic republican_tradition = 75 }
				AND = { government = theocracy has_dlc = "Common Sense" devotion = 75 }
				AND = { is_nomad = yes has_dlc = "The Cossacks" horde_unity = 75 }
				AND = { is_nomad = yes NOT = { has_dlc = "The Cossacks" } legitimacy = 75 }
				AND = { is_emperor_of_china = yes has_dlc = "Mandate of Heaven" meritocracy = 75 } 
			}
			has_regency = yes
		}
	}
	
	progress = {
		modifier = {
			factor = 1
			NOT = { ADM = 1 }
		}
		modifier = {
			factor = 1
			NOT = { DIP = 1 }
		}
		modifier = {
			factor = 1
			NOT = { MIL = 1 }
		}
		modifier = {
			factor = 1
			overextension_percentage = 0.10
		}		
		modifier = {
			factor = 2.5
			revolt_percentage = 0.10
		}
		modifier = {
			factor = 0.5
			NOT = { stability = 0 }
		}		
	}
	
	can_end = {
		stability = 3
		OR = {
		AND = { government = monarchy legitimacy = 95 }
		AND = { government = republic republican_tradition = 95 }
		AND = { government = theocracy has_dlc = "Common Sense" devotion = 95 }
		AND = { is_nomad = yes has_dlc = "The Cossacks" horde_unity = 95 }
		AND = { is_nomad = yes NOT = { has_dlc = "The Cossacks" } legitimacy = 95 }
		AND = { is_emperor_of_china = yes has_dlc = "Mandate of Heaven" meritocracy = 95 } 
		}
	}
	
	modifier = {
		global_unrest = 7.5
		stability_cost_modifier = 0.75
		harsh_treatment_cost = 0.75
	}		
	
	on_start = civil_war.1
	on_end = civil_war.100
	
	on_monthly = {
		events = {
		}
		random_events = { 
			1000 = 0
			100 = civil_war.8
			100 = civil_war.10
			100 = civil_war.12
		}
	}
}