name="Elder Scrolls Universalis"
replace_path="common/countries"
replace_path="common/bookmarks"
replace_path="common/disasters"
replace_path="common/ideas"
replace_path="common/estate_agendas"
replace_path="common/estate_crown_land"
replace_path="common/estate_privileges"
replace_path="common/estates"
replace_path="common/estates_preload"
replace_path="common/institutions"
replace_path="common/government_names"
replace_path="common/parliament_bribes"
replace_path="common/parliament_issues"
replace_path="common/personal_deities"
replace_path="common/province_names"
replace_path="common/rebel_types"
replace_path="common/units"
replace_path="customizable_localization"
replace_path="decisions"
replace_path="events"
replace_path="gfx/flags"
replace_path="history/advisors"
replace_path="history/countries"
replace_path="history/diplomacy"
replace_path="history/provinces"
replace_path="history/wars"
replace_path="map"
replace_path="missions"
tags={
	"Alternative History"
	"Balance"
	"Events"
	"Expansion"
	"Fixes"
	"Gameplay"
	"Graphics"
	"Map"
	"Military"
	"Missions and Decisions"
	"National Ideas"
	"Religion"
	"Sound"
	"Technologies"
	"Trade"
	"Utilities"
}
picture="thumbnail.png"
version="2.4.0"
supported_version="1.33.*.*"
remote_file_id="1449952810"