name="Elder Scrolls Universalis"
replace_path="common/advisortypes"
replace_path="common/ages"
replace_path="common/ai_army"
replace_path="common/ai_personalities"
replace_path="common/ancestor_personalities"
replace_path="common/bookmarks"
replace_path="common/buildings"
replace_path="common/cb_types"
replace_path="common/centers_of_trade"
replace_path="common/church_aspects"
replace_path="common/client_states"
replace_path="common/colonial_regions"
replace_path="common/countries"
replace_path="common/country_colors"
replace_path="common/country_tags"
replace_path="common/cultures"
replace_path="common/custom_country_colors"
replace_path="common/custom_gui"
replace_path="common/custom_ideas"
replace_path="common/decrees"
replace_path="common/defender_of_faith"
replace_path="common/defines"
replace_path="common/diplomatic_actions"
replace_path="common/disasters"
replace_path="common/estate_agendas"
replace_path="common/estate_crown_land"
replace_path="common/estate_privileges"
replace_path="common/estates"
replace_path="common/estates_preload"
replace_path="common/event_modifiers"
replace_path="common/factions"
replace_path="common/federation_advancements"
replace_path="common/fervor"
replace_path="common/fetishist_cults"
replace_path="common/flagship_modifications"
replace_path="common/golden_bulls"
replace_path="common/government_mechanics"
replace_path="common/government_names"
replace_path="common/government_ranks"
replace_path="common/government_reforms"
replace_path="common/governments"
replace_path="common/great_projects"
replace_path="common/hegemons"
replace_path="common/holy_orders"
replace_path="common/ideas"
replace_path="common/imperial_incidents"
replace_path="common/imperial_reforms"
replace_path="common/incidents"
replace_path="common/institutions"
replace_path="common/insults"
replace_path="common/isolationism"
replace_path="common/mercenary_companies"
replace_path="common/natives"
replace_path="common/naval_doctrines"
replace_path="common/new_diplomatic_actions"
replace_path="common/on_actions"
replace_path="common/opinion_modifiers"
replace_path="common/parliament_bribes"
replace_path="common/parliament_issues"
replace_path="common/peace_treaties"
replace_path="common/personal_deities"
replace_path="common/policies"
replace_path="common/powerprojection"
replace_path="common/prices"
replace_path="common/professionalism"
replace_path="common/province_names"
replace_path="common/province_triggered_modifiers"
replace_path="common/rebel_types"
replace_path="common/region_colors"
replace_path="common/religions"
replace_path="common/religious_conversions"
replace_path="common/religious_reforms"
replace_path="common/revolt_triggers"
replace_path="common/revolution"
replace_path="common/ruler_personalities"
replace_path="common/scripted_effects"
replace_path="common/scripted_functions"
replace_path="common/scripted_triggers"
replace_path="common/state_edicts"
replace_path="common/static_modifiers"
replace_path="common/subject_type_upgrades"
replace_path="common/subject_types"
replace_path="common/technologies"
replace_path="common/timed_modifiers"
replace_path="common/trade_companies"
replace_path="common/tradecompany_investments"
replace_path="common/tradegoods"
replace_path="common/tradenodes"
replace_path="common/trading_policies"
replace_path="common/triggered_modifiers"
replace_path="common/units"
replace_path="common/units_display"
replace_path="common/wargoal_types"
replace_path="customizable_localization"
replace_path="decisions"
replace_path="events"
replace_path="gfx/flags"
replace_path="gfx/loadingscreens"
replace_path="gfx/sprite_packs"
replace_path="history/advisors"
replace_path="history/countries"
replace_path="history/diplomacy"
replace_path="history/provinces"
replace_path="history/wars"
replace_path="map"
replace_path="missions"
replace_path="music"
tags={
	"Alternative History"
	"Balance"
	"Events"
	"Expansion"
	"Gameplay"
	"Graphics"
	"Map"
	"Missions and Decisions"
	"National Ideas"
	"New Nations"
}
picture="thumbnail.png"
version="3.3.3"
supported_version="v1.37.*"
remote_file_id="1449952810"