estate_mages_increase_monthly_administrative_power = {
	can_select = {
		NOT = { monthly_adm = 10 }
	}
	selection_weight = {
		factor = 1
	}
	task_requirements = {
		monthly_adm = 10
	}
    task_completed_effect = {
		add_estate_loyalty = {
			estate = estate_mages
			loyalty = 10
		}
		add_adm_power = 50
    }
    failing_effect = {
        add_estate_loyalty_modifier = {
            estate = estate_mages
			desc = EST_VAL_AGENDA_DENIED
			loyalty = -10
			duration = 7300
        }
    }
}

estate_priests_increase_monthly_administrative_power = {
	can_select = {
		NOT = { monthly_adm = 10 }
	}
	selection_weight = {
		factor = 1
	}
	task_requirements = {
		monthly_adm = 10
	}
    task_completed_effect = {
		add_estate_loyalty = {
			estate = estate_priests
			loyalty = 10
		}
		add_adm_power = 50
    }
    failing_effect = {
        add_estate_loyalty_modifier = {
            estate = estate_priests
			desc = EST_VAL_AGENDA_DENIED
			loyalty = -10
			duration = 7300
        }
    }
}

estate_commoners_increase_monthly_diplomatic_power = {
	can_select = {
		NOT = { monthly_dip = 10 }
	}
	selection_weight = {
		factor = 1
	}
	task_requirements = {
		monthly_dip = 10
	}
    task_completed_effect = {
		add_estate_loyalty = {
			estate = estate_commoners
			loyalty = 10
		}
		add_dip_power = 50
    }
    failing_effect = {
        add_estate_loyalty_modifier = {
            estate = estate_commoners
			desc = EST_VAL_AGENDA_DENIED
			loyalty = -10
			duration = 7300
        }
    }
}

estate_merchants_increase_monthly_diplomatic_power = {
	can_select = {
		NOT = { monthly_dip = 10 }
	}
	selection_weight = {
		factor = 1
	}
	task_requirements = {
		monthly_dip = 10
	}
    task_completed_effect = {
		add_estate_loyalty = {
			estate = estate_merchants
			loyalty = 10
		}
		add_dip_power = 50
    }
    failing_effect = {
        add_estate_loyalty_modifier = {
            estate = estate_merchants
			desc = EST_VAL_AGENDA_DENIED
			loyalty = -10
			duration = 7300
        }
    }
}

estate_slavers_increase_monthly_diplomatic_power = {
	can_select = {
		NOT = { monthly_dip = 10 }
	}
	selection_weight = {
		factor = 1
	}
	task_requirements = {
		monthly_dip = 10
	}
    task_completed_effect = {
		add_estate_loyalty = {
			estate = estate_slavers
			loyalty = 10
		}
		add_dip_power = 50
    }
    failing_effect = {
        add_estate_loyalty_modifier = {
            estate = estate_slavers
			desc = EST_VAL_AGENDA_DENIED
			loyalty = -10
			duration = 7300
        }
    }
}

estate_assassins_increase_monthly_military_power = {
	can_select = {
		NOT = { monthly_mil = 10 }
	}
	selection_weight = {
		factor = 1
	}
	task_requirements = {
		monthly_mil = 10
	}
    task_completed_effect = {
		add_estate_loyalty = {
			estate = estate_assassins
			loyalty = 10
		}
		add_mil_power = 50
    }
    failing_effect = {
        add_estate_loyalty_modifier = {
            estate = estate_assassins
			desc = EST_VAL_AGENDA_DENIED
			loyalty = -10
			duration = 7300
        }
    }
}

estate_dark_brotherhood_increase_monthly_military_power = {
	can_select = {
		NOT = { monthly_mil = 10 }
	}
	selection_weight = {
		factor = 1
	}
	task_requirements = {
		monthly_mil = 10
	}
    task_completed_effect = {
		add_estate_loyalty = {
			estate = estate_dark_brotherhood
			loyalty = 10
		}
		add_mil_power = 50
    }
    failing_effect = {
        add_estate_loyalty_modifier = {
            estate = estate_dark_brotherhood
			desc = EST_VAL_AGENDA_DENIED
			loyalty = -10
			duration = 7300
        }
    }
}

estate_morag_tong_increase_monthly_military_power = {
	can_select = {
		NOT = { monthly_mil = 10 }
	}
	selection_weight = {
		factor = 1
	}
	task_requirements = {
		monthly_mil = 10
	}
    task_completed_effect = {
		add_estate_loyalty = {
			estate = estate_morag_tong
			loyalty = 10
		}
		add_mil_power = 50
    }
    failing_effect = {
        add_estate_loyalty_modifier = {
            estate = estate_morag_tong
			desc = EST_VAL_AGENDA_DENIED
			loyalty = -10
			duration = 7300
        }
    }
}

estate_nobility_increase_monthly_military_power = {
	can_select = {
		NOT = { monthly_mil = 10 }
	}
	selection_weight = {
		factor = 1
	}
	task_requirements = {
		monthly_mil = 10
	}
    task_completed_effect = {
		add_estate_loyalty = {
			estate = estate_nobility
			loyalty = 10
		}
		add_mil_power = 50
    }
    failing_effect = {
        add_estate_loyalty_modifier = {
            estate = estate_nobility
			desc = EST_VAL_AGENDA_DENIED
			loyalty = -10
			duration = 7300
        }
    }
}

estate_warriors_increase_monthly_military_power = {
	can_select = {
		NOT = { monthly_mil = 10 }
	}
	selection_weight = {
		factor = 1
	}
	task_requirements = {
		monthly_mil = 10
	}
    task_completed_effect = {
		add_estate_loyalty = {
			estate = estate_warriors
			loyalty = 10
		}
		add_mil_power = 50
    }
    failing_effect = {
        add_estate_loyalty_modifier = {
            estate = estate_warriors
			desc = EST_VAL_AGENDA_DENIED
			loyalty = -10
			duration = 7300
        }
    }
}

###################################################################################################

estate_mages_stop_converting_province_x = {
	can_select = {
		num_of_missionaries = 1
		any_owned_province = {
			has_missionary = yes
			missionary_strength = 0.01
		}
		is_free_or_tributary_trigger = yes
	}
	selection_weight = {
		factor = 1
	}
	pre_effect = {
		random_owned_province = {
			limit = {
				has_missionary = yes
				missionary_strength = 0.01
			}
			save_event_target_as = agenda_province
		}
	}
	fail_if = {
		event_target:agenda_province = {
			OR = {
				NOT = { owned_by = root }
				religion = root
			}
		}
	}
	provinces_to_highlight = {
		province_id = event_target:agenda_province
	}
	task_requirements = {
		event_target:agenda_province = {
			has_missionary = no
			NOT = { religion = root }
		}
	}
    task_completed_effect = {
		add_estate_loyalty = {
			estate = estate_mages
			loyalty = 10
		}
		event_target:agenda_province = {
			add_province_modifier = {
				name = agenda_guaranteed_minority_rights
				duration = 7300
			}
		}
    }
    failing_effect = {
        add_estate_loyalty_modifier = {
            estate = estate_mages
			desc = EST_VAL_AGENDA_DENIED
			loyalty = -10
			duration = 7300
        }
    }
}

estate_commoners_stop_converting_province_x = {
	can_select = {
		num_of_missionaries = 1
		any_owned_province = {
			has_missionary = yes
			missionary_strength = 0.01
		}
		is_free_or_tributary_trigger = yes
	}
	selection_weight = {
		factor = 1
	}
	pre_effect = {
		random_owned_province = {
			limit = {
				has_missionary = yes
				missionary_strength = 0.01
			}
			save_event_target_as = agenda_province
		}
	}
	fail_if = {
		event_target:agenda_province = {
			OR = {
				NOT = { owned_by = root }
				religion = root
			}
		}
	}
	provinces_to_highlight = {
		province_id = event_target:agenda_province
	}
	task_requirements = {
		event_target:agenda_province = {
			has_missionary = no
			NOT = { religion = root }
		}
	}
    task_completed_effect = {
		add_estate_loyalty = {
			estate = estate_commoners
			loyalty = 10
		}
		event_target:agenda_province = {
			add_province_modifier = {
				name = agenda_guaranteed_minority_rights
				duration = 7300
			}
		}
    }
    failing_effect = {
        add_estate_loyalty_modifier = {
            estate = estate_commoners
			desc = EST_VAL_AGENDA_DENIED
			loyalty = -10
			duration = 7300
        }
    }
}

###################################################################################################

estate_assassins_humiliate_rival = {
	can_select = {
		any_rival_country = {
			NOT = { truce_with = ROOT }
			NOT = { humiliated_by = root }
		}
	}
	selection_weight = {
		factor = 1
	}
	pre_effect = {
		random_rival_country = {
			limit = {
				NOT = { truce_with = ROOT }
				NOT = { humiliated_by = root }
			}
			save_event_target_as = agenda_country
		}
	}
	task_requirements = {
		event_target:agenda_country = {
			OR = {
				humiliated_by = root
				has_been_eclipsed_by = root
			}
		}
	}
	fail_if = {
		event_target:agenda_country = {
			has_eclipsed = root
		}
	}
	task_completed_effect = {
		add_estate_loyalty = {
			estate = estate_assassins
			loyalty = 10
		}
		add_mil_power = 50
	}
    failing_effect = {
        add_estate_loyalty_modifier = {
            estate = estate_assassins
			desc = EST_VAL_AGENDA_DENIED
			loyalty = -10
			duration = 7300
        }
    }
}

estate_dark_brotherhood_humiliate_rival = {
	can_select = {
		any_rival_country = {
			NOT = { truce_with = ROOT }
			NOT = { humiliated_by = root }
		}
	}
	selection_weight = {
		factor = 1
	}
	pre_effect = {
		random_rival_country = {
			limit = {
				NOT = { truce_with = ROOT }
				NOT = { humiliated_by = root }
			}
			save_event_target_as = agenda_country
		}
	}
	task_requirements = {
		event_target:agenda_country = {
			OR = {
				humiliated_by = root
				has_been_eclipsed_by = root
			}
		}
	}
	fail_if = {
		event_target:agenda_country = {
			has_eclipsed = root
		}
	}
	task_completed_effect = {
		add_estate_loyalty = {
			estate = estate_dark_brotherhood
			loyalty = 10
		}
		add_mil_power = 50
	}
    failing_effect = {
        add_estate_loyalty_modifier = {
            estate = estate_dark_brotherhood
			desc = EST_VAL_AGENDA_DENIED
			loyalty = -10
			duration = 7300
        }
    }
}

estate_morag_tong_humiliate_rival = {
	can_select = {
		any_rival_country = {
			NOT = { truce_with = ROOT }
			NOT = { humiliated_by = root }
		}
	}
	selection_weight = {
		factor = 1
	}
	pre_effect = {
		random_rival_country = {
			limit = {
				NOT = { truce_with = ROOT }
				NOT = { humiliated_by = root }
			}
			save_event_target_as = agenda_country
		}
	}
	task_requirements = {
		event_target:agenda_country = {
			OR = {
				humiliated_by = root
				has_been_eclipsed_by = root
			}
		}
	}
	fail_if = {
		event_target:agenda_country = {
			has_eclipsed = root
		}
	}
	task_completed_effect = {
		add_estate_loyalty = {
			estate = estate_morag_tong
			loyalty = 10
		}
		add_mil_power = 50
	}
    failing_effect = {
        add_estate_loyalty_modifier = {
            estate = estate_morag_tong
			desc = EST_VAL_AGENDA_DENIED
			loyalty = -10
			duration = 7300
        }
    }
}

estate_nobility_humiliate_rival = {
	can_select = {
		any_rival_country = {
			NOT = { truce_with = ROOT }
			NOT = { humiliated_by = root }
		}
	}
	selection_weight = {
		factor = 1
	}
	pre_effect = {
		random_rival_country = {
			limit = {
				NOT = { truce_with = ROOT }
				NOT = { humiliated_by = root }
			}
			save_event_target_as = agenda_country
		}
	}
	task_requirements = {
		event_target:agenda_country = {
			OR = {
				humiliated_by = root
				has_been_eclipsed_by = root
			}
		}
	}
	fail_if = {
		event_target:agenda_country = {
			has_eclipsed = root
		}
	}
	task_completed_effect = {
		add_estate_loyalty = {
			estate = estate_nobility
			loyalty = 10
		}
		add_mil_power = 50
	}
    failing_effect = {
        add_estate_loyalty_modifier = {
            estate = estate_nobility
			desc = EST_VAL_AGENDA_DENIED
			loyalty = -10
			duration = 7300
        }
    }
}

estate_warriors_humiliate_rival = {
	can_select = {
		any_rival_country = {
			NOT = { truce_with = ROOT }
			NOT = { humiliated_by = root }
		}
	}
	selection_weight = {
		factor = 1
	}
	pre_effect = {
		random_rival_country = {
			limit = {
				NOT = { truce_with = ROOT }
				NOT = { humiliated_by = root }
			}
			save_event_target_as = agenda_country
		}
	}
	task_requirements = {
		event_target:agenda_country = {
			OR = {
				humiliated_by = root
				has_been_eclipsed_by = root
			}
		}
	}
	fail_if = {
		event_target:agenda_country = {
			has_eclipsed = root
		}
	}
	task_completed_effect = {
		add_estate_loyalty = {
			estate = estate_warriors
			loyalty = 10
		}
		add_mil_power = 50
	}
    failing_effect = {
        add_estate_loyalty_modifier = {
            estate = estate_warriors
			desc = EST_VAL_AGENDA_DENIED
			loyalty = -10
			duration = 7300
        }
    }
}

###################################################################################################

estate_nobility_crush_revolts = {
	can_select = {
		num_of_rebel_armies = 1
	}
	selection_weight = {
		factor = 2
		modifier = {
			factor = 2.5
			num_of_rebel_controlled_provinces = 3
		}
		modifier = {
			factor = 2.5
			num_of_rebel_controlled_provinces = 5
		}
	}
	provinces_to_highlight = {
		owned_by = root
		controlled_by = REB
	}
	fail_if = {
		has_country_modifier = just_lost_to_rebels
	}
	task_requirements = {
		NOT = { num_of_rebel_controlled_provinces = 1 }
		NOT = { num_of_rebel_armies = 1 }
		hidden_trigger = { NOT = { has_country_modifier = just_lost_to_rebels } }
	}
	task_completed_effect = {
		add_estate_loyalty = {
			estate = estate_nobility
			loyalty = 10
		}
		add_prestige = 10
	}
    failing_effect = {
        add_estate_loyalty_modifier = {
            estate = estate_nobility
			desc = EST_VAL_AGENDA_DENIED
			loyalty = -10
			duration = 7300
        }
    }
}

estate_warriors_crush_revolts = {
	can_select = {
		num_of_rebel_armies = 1
	}
	selection_weight = {
		factor = 2
		modifier = {
			factor = 2.5
			num_of_rebel_controlled_provinces = 3
		}
		modifier = {
			factor = 2.5
			num_of_rebel_controlled_provinces = 5
		}
	}
	provinces_to_highlight = {
		owned_by = root
		controlled_by = REB
	}
	fail_if = {
		has_country_modifier = just_lost_to_rebels
	}
	task_requirements = {
		NOT = { num_of_rebel_controlled_provinces = 1 }
		NOT = { num_of_rebel_armies = 1 }
		hidden_trigger = { NOT = { has_country_modifier = just_lost_to_rebels } }
	}
	task_completed_effect = {
		add_estate_loyalty = {
			estate = estate_warriors
			loyalty = 10
		}
		add_prestige = 10
	}
    failing_effect = {
        add_estate_loyalty_modifier = {
            estate = estate_warriors
			desc = EST_VAL_AGENDA_DENIED
			loyalty = -10
			duration = 7300
        }
    }
}

###################################################################################################

#Defeat Large Army
estate_assassins_defeat_large_army = {
	can_select = {
		is_bankrupt = no
		army_size = 20
	}
	selection_weight = {
		factor = 1
	}
	pre_effect = {
	}
	provinces_to_highlight = {
	}
	task_requirements = {
		check_variable = {
			which = land_units_killed
			value = 25000
		}
	}
	fail_if = {
		NOT = { army_size = 1 }
		is_at_war = no
	}
    task_completed_effect = {
		add_estate_loyalty = {
			estate = estate_assassins
			loyalty = 10
		}
		add_army_tradition = 5
    }
    failing_effect = {
        add_estate_loyalty_modifier = {
            estate = estate_assassins
			desc = EST_VAL_AGENDA_DENIED
			loyalty = -10
			duration = 7300
        }
    }
}

estate_dark_brotherhood_defeat_large_army = {
	can_select = {
		is_bankrupt = no
		army_size = 20
	}
	selection_weight = {
		factor = 1
	}
	pre_effect = {
	}
	provinces_to_highlight = {
	}
	task_requirements = {
		check_variable = {
			which = land_units_killed
			value = 25000
		}
	}
	fail_if = {
		NOT = { army_size = 1 }
		is_at_war = no
	}
    task_completed_effect = {
		add_estate_loyalty = {
			estate = estate_dark_brotherhood
			loyalty = 10
		}
		add_army_tradition = 5
    }
    failing_effect = {
        add_estate_loyalty_modifier = {
            estate = estate_dark_brotherhood
			desc = EST_VAL_AGENDA_DENIED
			loyalty = -10
			duration = 7300
        }
    }
}

estate_morag_tong_defeat_large_army = {
	can_select = {
		is_bankrupt = no
		army_size = 20
	}
	selection_weight = {
		factor = 1
	}
	pre_effect = {
	}
	provinces_to_highlight = {
	}
	task_requirements = {
		check_variable = {
			which = land_units_killed
			value = 25000
		}
	}
	fail_if = {
		NOT = { army_size = 1 }
		is_at_war = no
	}
    task_completed_effect = {
		add_estate_loyalty = {
			estate = estate_morag_tong
			loyalty = 10
		}
		add_army_tradition = 5
    }
    failing_effect = {
        add_estate_loyalty_modifier = {
            estate = estate_morag_tong
			desc = EST_VAL_AGENDA_DENIED
			loyalty = -10
			duration = 7300
        }
    }
}

estate_nobility_defeat_large_army = {
	can_select = {
		is_bankrupt = no
		army_size = 20
	}
	selection_weight = {
		factor = 1
	}
	pre_effect = {
	}
	provinces_to_highlight = {
	}
	task_requirements = {
		check_variable = {
			which = land_units_killed
			value = 25000
		}
	}
	fail_if = {
		NOT = { army_size = 1 }
		is_at_war = no
	}
    task_completed_effect = {
		add_estate_loyalty = {
			estate = estate_nobility
			loyalty = 10
		}
		add_army_tradition = 5
    }
    failing_effect = {
        add_estate_loyalty_modifier = {
            estate = estate_nobility
			desc = EST_VAL_AGENDA_DENIED
			loyalty = -10
			duration = 7300
        }
    }
}

estate_warriors_defeat_large_army = {
	can_select = {
		is_bankrupt = no
		army_size = 20
	}
	selection_weight = {
		factor = 1
	}
	pre_effect = {
	}
	provinces_to_highlight = {
	}
	task_requirements = {
		check_variable = {
			which = land_units_killed
			value = 25000
		}
	}
	fail_if = {
		NOT = { army_size = 1 }
		is_at_war = no
	}
    task_completed_effect = {
		add_estate_loyalty = {
			estate = estate_warriors
			loyalty = 10
		}
		add_army_tradition = 5
    }
    failing_effect = {
        add_estate_loyalty_modifier = {
            estate = estate_warriors
			desc = EST_VAL_AGENDA_DENIED
			loyalty = -10
			duration = 7300
        }
    }
}

###################################################################################################

#Build Cavalry
estate_nobility_build_cavalry = {
	can_select = {
		is_bankrupt = no
		NOT = { cavalry_fraction = 0.25 }
	}
	selection_weight = {
		factor = 1
	}
	pre_effect = {
	}
	provinces_to_highlight = {
	}
	task_requirements = {
		cavalry_fraction = 0.25
	}
	fail_if = {
		is_bankrupt = yes
	}
    task_completed_effect = {
		add_estate_loyalty = {
			estate = estate_nobility
			loyalty = 10
		}
    }
    failing_effect = {
        add_estate_loyalty_modifier = {
            estate = estate_nobility
			desc = EST_VAL_AGENDA_DENIED
			loyalty = -10
			duration = 7300
        }
    }
}

estate_warriors_build_cavalry = {
	can_select = {
		is_bankrupt = no
		NOT = { cavalry_fraction = 0.25 }
	}
	selection_weight = {
		factor = 1
	}
	pre_effect = {
	}
	provinces_to_highlight = {
	}
	task_requirements = {
		cavalry_fraction = 0.25
	}
	fail_if = {
		is_bankrupt = yes
	}
    task_completed_effect = {
		add_estate_loyalty = {
			estate = estate_warriors
			loyalty = 10
		}
    }
    failing_effect = {
        add_estate_loyalty_modifier = {
            estate = estate_warriors
			desc = EST_VAL_AGENDA_DENIED
			loyalty = -10
			duration = 7300
        }
    }
}

###################################################################################################

estate_merchants_subject_gifts_agenda = {
	selection_weight = {
		factor = 1
	}
	can_select = {
		calc_true_if = {
			all_subject_country = {
				OR = { 
					is_subject_of_type = vassal 
					is_subject_of_type = march 
					is_subject_of_type = personal_union 
					is_subject_of_type = tributary_state 
					is_subject_of_type = alliance_member 
				}
			}
			amount = 3
		}
	}
	task_requirements = {
		calc_true_if = {
			all_subject_country = {
				all_subject_country = {
					OR = { 
						is_subject_of_type = vassal 
						is_subject_of_type = march 
						is_subject_of_type = personal_union 
						is_subject_of_type = tributary_state 
						is_subject_of_type = alliance_member 
					}
				}
				OR = {
					has_opinion_modifier = {
						who = ROOT 
						modifier = sent_gift
					}
					has_liberty_desire_modifier = bestowed_gifts  
				}
			}
			amount = 3
		}
	}
    task_completed_effect = {
		custom_tooltip = es_reduce_all_subjects_we_interacted_with_ld_tt
		hidden_effect = {
			every_subject_country = {
				limit = { 
					is_subject_of = ROOT 
					OR = {
						has_opinion_modifier = {
							who = ROOT 
							modifier = sent_gift
						}
						has_liberty_desire_modifier = bestowed_gifts  
					}
				}
				add_liberty_desire = -10
				add_trust = {
					who = ROOT 
					value = 10 
					mutual = yes 
				}
			}
		}
		add_estate_loyalty = {
			estate = estate_merchants 
			loyalty = 10 
		}
    }
    failing_effect = {
        add_estate_loyalty_modifier = {
            estate = estate_merchants
			desc = EST_VAL_AGENDA_DENIED
			loyalty = -10
			duration = 7300
        }
		custom_tooltip = es_worsen_ld_subjects_tt
		hidden_effect = {
			every_subject_country = {
				limit = { is_subject_of = ROOT } 
				add_liberty_desire = 20
			}
		}
    }
}

estate_slavers_subject_gifts_agenda = {
	selection_weight = {
		factor = 1
	}
	can_select = {
		calc_true_if = {
			all_subject_country = {
				OR = { 
					is_subject_of_type = vassal 
					is_subject_of_type = march 
					is_subject_of_type = personal_union 
					is_subject_of_type = tributary_state 
					is_subject_of_type = alliance_member 
				}
			}
			amount = 3
		}
	}
	task_requirements = {
		calc_true_if = {
			all_subject_country = {
				all_subject_country = {
					OR = { 
						is_subject_of_type = vassal 
						is_subject_of_type = march 
						is_subject_of_type = personal_union 
						is_subject_of_type = tributary_state 
						is_subject_of_type = alliance_member 
					}
				}
				OR = {
					has_opinion_modifier = {
						who = ROOT 
						modifier = sent_gift
					}
					has_liberty_desire_modifier = bestowed_gifts  
				}
			}
			amount = 3
		}
	}
    task_completed_effect = {
		custom_tooltip = es_reduce_all_subjects_we_interacted_with_ld_tt
		hidden_effect = {
			every_subject_country = {
				limit = { 
					is_subject_of = ROOT 
					OR = {
						has_opinion_modifier = {
							who = ROOT 
							modifier = sent_gift
						}
						has_liberty_desire_modifier = bestowed_gifts  
					}
				}
				add_liberty_desire = -10
				add_trust = {
					who = ROOT 
					value = 10 
					mutual = yes 
				}
			}
		}
		add_estate_loyalty = {
			estate = estate_slavers 
			loyalty = 10 
		}
    }
    failing_effect = {
        add_estate_loyalty_modifier = {
            estate = estate_slavers
			desc = EST_VAL_AGENDA_DENIED
			loyalty = -10
			duration = 7300
        }
		custom_tooltip = es_worsen_ld_subjects_tt
		hidden_effect = {
			every_subject_country = {
				limit = { is_subject_of = ROOT } 
				add_liberty_desire = 20
			}
		}
    }
}

estate_nobility_subject_gifts_agenda = {
	selection_weight = {
		factor = 1
	}
	can_select = {
		calc_true_if = {
			all_subject_country = {
				OR = { 
					is_subject_of_type = vassal 
					is_subject_of_type = march 
					is_subject_of_type = personal_union 
					is_subject_of_type = tributary_state 
					is_subject_of_type = alliance_member 
				}
			}
			amount = 3
		}
	}
	task_requirements = {
		calc_true_if = {
			all_subject_country = {
				all_subject_country = {
					OR = { 
						is_subject_of_type = vassal 
						is_subject_of_type = march 
						is_subject_of_type = personal_union 
						is_subject_of_type = tributary_state 
						is_subject_of_type = alliance_member 
					}
				}
				OR = {
					has_opinion_modifier = {
						who = ROOT 
						modifier = sent_gift
					}
					has_liberty_desire_modifier = bestowed_gifts  
				}
			}
			amount = 3
		}
	}
    task_completed_effect = {
		custom_tooltip = es_reduce_all_subjects_we_interacted_with_ld_tt
		hidden_effect = {
			every_subject_country = {
				limit = { 
					is_subject_of = ROOT 
					OR = {
						has_opinion_modifier = {
							who = ROOT 
							modifier = sent_gift
						}
						has_liberty_desire_modifier = bestowed_gifts  
					}
				}
				add_liberty_desire = -10
				add_trust = {
					who = ROOT 
					value = 10 
					mutual = yes 
				}
			}
		}
		add_estate_loyalty = {
			estate = estate_nobility 
			loyalty = 10 
		}
    }
    failing_effect = {
        add_estate_loyalty_modifier = {
            estate = estate_nobility
			desc = EST_VAL_AGENDA_DENIED
			loyalty = -10
			duration = 7300
        }
		custom_tooltip = es_worsen_ld_subjects_tt
		hidden_effect = {
			every_subject_country = {
				limit = { is_subject_of = ROOT } 
				add_liberty_desire = 20
			}
		}
    }
}

###################################################################################################

estate_merchants_subsidize_subjects_agenda = {
	can_select = {
		calc_true_if = {
			all_subject_country = {
				OR = { 
					is_subject_of_type = vassal 
					is_subject_of_type = march 
					is_subject_of_type = personal_union 
					is_subject_of_type = tributary_state 
					is_subject_of_type = alliance_member 
				}
			}
			amount = 5
		}
	}
	task_requirements = {
		calc_true_if = {
			all_subject_country = {
				OR = { 
					is_subject_of_type = vassal 
					is_subject_of_type = march 
					is_subject_of_type = personal_union 
					is_subject_of_type = tributary_state 
					is_subject_of_type = alliance_member 
				}
				subsidised_percent_amount = { 
					value = 0.1
				}
			}
			amount = 5
		}
		is_in_deficit = no 
	}
    task_completed_effect = {
		add_country_modifier = {
			name = mng_the_puppetmaster_modifier
			duration = 5475
		}
		add_estate_loyalty = {
			estate = estate_merchants 
			loyalty = 10 
		}
    }
    failing_effect = {
        add_estate_loyalty_modifier = {
            estate = estate_merchants
			desc = EST_VAL_AGENDA_DENIED
			loyalty = -10
			duration = 7300
        }
		custom_tooltip = mng_worsen_ld_subjects_tt
		hidden_effect = {
			every_subject_country = {
				limit = { is_subject_of = ROOT } 
				add_liberty_desire = 20
			}
		}
    }
}

estate_slavers_subsidize_subjects_agenda = {
	can_select = {
		calc_true_if = {
			all_subject_country = {
				OR = { 
					is_subject_of_type = vassal 
					is_subject_of_type = march 
					is_subject_of_type = personal_union 
					is_subject_of_type = tributary_state 
					is_subject_of_type = alliance_member 
				}
			}
			amount = 5
		}
	}
	task_requirements = {
		calc_true_if = {
			all_subject_country = {
				OR = { 
					is_subject_of_type = vassal 
					is_subject_of_type = march 
					is_subject_of_type = personal_union 
					is_subject_of_type = tributary_state 
					is_subject_of_type = alliance_member 
				}
				subsidised_percent_amount = { 
					value = 0.1
				}
			}
			amount = 5
		}
		is_in_deficit = no 
	}
    task_completed_effect = {
		add_country_modifier = {
			name = mng_the_puppetmaster_modifier
			duration = 5475
		}
		add_estate_loyalty = {
			estate = estate_slavers 
			loyalty = 10 
		}
    }
    failing_effect = {
        add_estate_loyalty_modifier = {
            estate = estate_slavers
			desc = EST_VAL_AGENDA_DENIED
			loyalty = -10
			duration = 7300
        }
		custom_tooltip = mng_worsen_ld_subjects_tt
		hidden_effect = {
			every_subject_country = {
				limit = { is_subject_of = ROOT } 
				add_liberty_desire = 20
			}
		}
    }
}

estate_nobility_subsidize_subjects_agenda = {
	can_select = {
		calc_true_if = {
			all_subject_country = {
				OR = { 
					is_subject_of_type = vassal 
					is_subject_of_type = march 
					is_subject_of_type = personal_union 
					is_subject_of_type = tributary_state 
					is_subject_of_type = alliance_member 
				}
			}
			amount = 5
		}
	}
	task_requirements = {
		calc_true_if = {
			all_subject_country = {
				OR = { 
					is_subject_of_type = vassal 
					is_subject_of_type = march 
					is_subject_of_type = personal_union 
					is_subject_of_type = tributary_state 
					is_subject_of_type = alliance_member 
				}
				subsidised_percent_amount = { 
					value = 0.1
				}
			}
			amount = 5
		}
		is_in_deficit = no 
	}
    task_completed_effect = {
		add_country_modifier = {
			name = mng_the_puppetmaster_modifier
			duration = 5475
		}
		add_estate_loyalty = {
			estate = estate_nobility 
			loyalty = 10 
		}
    }
    failing_effect = {
        add_estate_loyalty_modifier = {
            estate = estate_nobility
			desc = EST_VAL_AGENDA_DENIED
			loyalty = -10
			duration = 7300
        }
		custom_tooltip = mng_worsen_ld_subjects_tt
		hidden_effect = {
			every_subject_country = {
				limit = { is_subject_of = ROOT } 
				add_liberty_desire = 20
			}
		}
    }
}

###################################################################################################

estate_slavers_gain_corruption = {
	can_select = {
		NOT = { corruption = 5 }
		is_bankrupt = no
	}
	selection_weight = {
		factor = 1
	}
	task_requirements = {
		corruption = 5
	}
    task_completed_effect = {
		add_estate_loyalty = {
			estate = estate_slavers
			loyalty = 20
		}
    }
    failing_effect = {
        add_estate_loyalty_modifier = {
            estate = estate_slavers
			desc = EST_VAL_AGENDA_DENIED
			loyalty = -10
			duration = 7300
        }
    }
}

estate_assassins_gain_corruption = {
	can_select = {
		NOT = { corruption = 5 }
		is_bankrupt = no
	}
	selection_weight = {
		factor = 1
	}
	task_requirements = {
		corruption = 5
	}
    task_completed_effect = {
		add_estate_loyalty = {
			estate = estate_assassins
			loyalty = 20
		}
    }
    failing_effect = {
        add_estate_loyalty_modifier = {
            estate = estate_assassins
			desc = EST_VAL_AGENDA_DENIED
			loyalty = -10
			duration = 7300
        }
    }
}

estate_dark_brotherhood_gain_corruption = {
	can_select = {
		NOT = { corruption = 5 }
		is_bankrupt = no
	}
	selection_weight = {
		factor = 1
	}
	task_requirements = {
		corruption = 5
	}
    task_completed_effect = {
		add_estate_loyalty = {
			estate = estate_dark_brotherhood
			loyalty = 20
		}
    }
    failing_effect = {
        add_estate_loyalty_modifier = {
            estate = estate_dark_brotherhood
			desc = EST_VAL_AGENDA_DENIED
			loyalty = -10
			duration = 7300
        }
    }
}

estate_morag_tong_gain_corruption = {
	can_select = {
		NOT = { corruption = 5 }
		is_bankrupt = no
	}
	selection_weight = {
		factor = 1
	}
	task_requirements = {
		corruption = 5
	}
    task_completed_effect = {
		add_estate_loyalty = {
			estate = estate_morag_tong
			loyalty = 20
		}
    }
    failing_effect = {
        add_estate_loyalty_modifier = {
            estate = estate_morag_tong
			desc = EST_VAL_AGENDA_DENIED
			loyalty = -10
			duration = 7300
        }
    }
}

###################################################################################################

#Gain Mercantilism
estate_commoners_gain_mercantilism = {
	can_select = {
		NOT = { mercantilism = 100 }
	}
	selection_weight = {
		factor = 1
	}
	pre_effect = {
		set_variable = {
			which = es_gain_mercantilism_var
			value = 0
		}
		if = { limit = { mercantilism = 95 } set_variable = { which = es_gain_mercantilism_var value = 1 } }
		else_if = { limit = { mercantilism = 90 } set_variable = { which = es_gain_mercantilism_var value = 2 } }
		else_if = { limit = { mercantilism = 85 } set_variable = { which = es_gain_mercantilism_var value = 3 } }
		else_if = { limit = { mercantilism = 80 } set_variable = { which = es_gain_mercantilism_var value = 4 } }
		else_if = { limit = { mercantilism = 75 } set_variable = { which = es_gain_mercantilism_var value = 5 } }
		else_if = { limit = { mercantilism = 70 } set_variable = { which = es_gain_mercantilism_var value = 6 } }
		else_if = { limit = { mercantilism = 65 } set_variable = { which = es_gain_mercantilism_var value = 7 } }
		else_if = { limit = { mercantilism = 60 } set_variable = { which = es_gain_mercantilism_var value = 8 } }
		else_if = { limit = { mercantilism = 55 } set_variable = { which = es_gain_mercantilism_var value = 9 } }
		else_if = { limit = { mercantilism = 50 } set_variable = { which = es_gain_mercantilism_var value = 10 } }
		else_if = { limit = { mercantilism = 45 } set_variable = { which = es_gain_mercantilism_var value = 11 } }
		else_if = { limit = { mercantilism = 40 } set_variable = { which = es_gain_mercantilism_var value = 12 } }
		else_if = { limit = { mercantilism = 35 } set_variable = { which = es_gain_mercantilism_var value = 13 } }
		else_if = { limit = { mercantilism = 30 } set_variable = { which = es_gain_mercantilism_var value = 14 } }
		else_if = { limit = { mercantilism = 25 } set_variable = { which = es_gain_mercantilism_var value = 15 } }
		else_if = { limit = { mercantilism = 20 } set_variable = { which = es_gain_mercantilism_var value = 16 } }
		else_if = { limit = { mercantilism = 15 } set_variable = { which = es_gain_mercantilism_var value = 17 } }
		else_if = { limit = { mercantilism = 10 } set_variable = { which = es_gain_mercantilism_var value = 18 } }
		else_if = { limit = { mercantilism = 5 } set_variable = { which = es_gain_mercantilism_var value = 19 } }
		else = { set_variable = { which = es_gain_mercantilism_var value = 20 } }
	}
	task_requirements = {
		if = { limit = { check_variable = { which = es_gain_mercantilism_var value = 20 } } mercantilism = 5 }
			else_if = { limit = { check_variable = { which = es_gain_mercantilism_var value = 19 } } mercantilism = 10 }
			else_if = { limit = { check_variable = { which = es_gain_mercantilism_var value = 18 } } mercantilism = 15 }
			else_if = { limit = { check_variable = { which = es_gain_mercantilism_var value = 17 } } mercantilism = 20 }
			else_if = { limit = { check_variable = { which = es_gain_mercantilism_var value = 16 } } mercantilism = 25 }
			else_if = { limit = { check_variable = { which = es_gain_mercantilism_var value = 15 } } mercantilism = 30 }
			else_if = { limit = { check_variable = { which = es_gain_mercantilism_var value = 14 } } mercantilism = 35 }
			else_if = { limit = { check_variable = { which = es_gain_mercantilism_var value = 13 } } mercantilism = 40 }
			else_if = { limit = { check_variable = { which = es_gain_mercantilism_var value = 12 } } mercantilism = 45 }
			else_if = { limit = { check_variable = { which = es_gain_mercantilism_var value = 11 } } mercantilism = 50 }
			else_if = { limit = { check_variable = { which = es_gain_mercantilism_var value = 10 } } mercantilism = 55 }
			else_if = { limit = { check_variable = { which = es_gain_mercantilism_var value = 9 } } mercantilism = 60 }
			else_if = { limit = { check_variable = { which = es_gain_mercantilism_var value = 8 } } mercantilism = 65 }
			else_if = { limit = { check_variable = { which = es_gain_mercantilism_var value = 7 } } mercantilism = 70 }
			else_if = { limit = { check_variable = { which = es_gain_mercantilism_var value = 6 } } mercantilism = 75 }
			else_if = { limit = { check_variable = { which = es_gain_mercantilism_var value = 5 } } mercantilism = 80 }
			else_if = { limit = { check_variable = { which = es_gain_mercantilism_var value = 4 } } mercantilism = 85 }
			else_if = { limit = { check_variable = { which = es_gain_mercantilism_var value = 3 } } mercantilism = 90 }
			else_if = { limit = { check_variable = { which = es_gain_mercantilism_var value = 2 } } mercantilism = 95 }
			else_if = { limit = { check_variable = { which = es_gain_mercantilism_var value = 1 } } mercantilism = 100 }
			else = {
				mercantilism = 0	#Fallback, should never be relevant
			}
	}
    task_completed_effect = {
		add_estate_loyalty = {
			estate = estate_commoners
			loyalty = 10
		}
		add_years_of_trade_income = {
			years = 5
			custom_tooltip = YEARS_OF_TRADE_INCOME_5
		}
    }
    failing_effect = {
        add_estate_loyalty_modifier = {
            estate = estate_commoners
			desc = EST_VAL_AGENDA_DENIED
			loyalty = -10
			duration = 7300
        }
    }
}

estate_merchants_gain_mercantilism = {
	can_select = {
		NOT = { mercantilism = 100 }
	}
	selection_weight = {
		factor = 1
	}
	pre_effect = {
		set_variable = {
			which = es_gain_mercantilism_var
			value = 0
		}
		if = { limit = { mercantilism = 95 } set_variable = { which = es_gain_mercantilism_var value = 1 } }
		else_if = { limit = { mercantilism = 90 } set_variable = { which = es_gain_mercantilism_var value = 2 } }
		else_if = { limit = { mercantilism = 85 } set_variable = { which = es_gain_mercantilism_var value = 3 } }
		else_if = { limit = { mercantilism = 80 } set_variable = { which = es_gain_mercantilism_var value = 4 } }
		else_if = { limit = { mercantilism = 75 } set_variable = { which = es_gain_mercantilism_var value = 5 } }
		else_if = { limit = { mercantilism = 70 } set_variable = { which = es_gain_mercantilism_var value = 6 } }
		else_if = { limit = { mercantilism = 65 } set_variable = { which = es_gain_mercantilism_var value = 7 } }
		else_if = { limit = { mercantilism = 60 } set_variable = { which = es_gain_mercantilism_var value = 8 } }
		else_if = { limit = { mercantilism = 55 } set_variable = { which = es_gain_mercantilism_var value = 9 } }
		else_if = { limit = { mercantilism = 50 } set_variable = { which = es_gain_mercantilism_var value = 10 } }
		else_if = { limit = { mercantilism = 45 } set_variable = { which = es_gain_mercantilism_var value = 11 } }
		else_if = { limit = { mercantilism = 40 } set_variable = { which = es_gain_mercantilism_var value = 12 } }
		else_if = { limit = { mercantilism = 35 } set_variable = { which = es_gain_mercantilism_var value = 13 } }
		else_if = { limit = { mercantilism = 30 } set_variable = { which = es_gain_mercantilism_var value = 14 } }
		else_if = { limit = { mercantilism = 25 } set_variable = { which = es_gain_mercantilism_var value = 15 } }
		else_if = { limit = { mercantilism = 20 } set_variable = { which = es_gain_mercantilism_var value = 16 } }
		else_if = { limit = { mercantilism = 15 } set_variable = { which = es_gain_mercantilism_var value = 17 } }
		else_if = { limit = { mercantilism = 10 } set_variable = { which = es_gain_mercantilism_var value = 18 } }
		else_if = { limit = { mercantilism = 5 } set_variable = { which = es_gain_mercantilism_var value = 19 } }
		else = { set_variable = { which = es_gain_mercantilism_var value = 20 } }
	}
	task_requirements = {
		if = { limit = { check_variable = { which = es_gain_mercantilism_var value = 20 } } mercantilism = 5 }
			else_if = { limit = { check_variable = { which = es_gain_mercantilism_var value = 19 } } mercantilism = 10 }
			else_if = { limit = { check_variable = { which = es_gain_mercantilism_var value = 18 } } mercantilism = 15 }
			else_if = { limit = { check_variable = { which = es_gain_mercantilism_var value = 17 } } mercantilism = 20 }
			else_if = { limit = { check_variable = { which = es_gain_mercantilism_var value = 16 } } mercantilism = 25 }
			else_if = { limit = { check_variable = { which = es_gain_mercantilism_var value = 15 } } mercantilism = 30 }
			else_if = { limit = { check_variable = { which = es_gain_mercantilism_var value = 14 } } mercantilism = 35 }
			else_if = { limit = { check_variable = { which = es_gain_mercantilism_var value = 13 } } mercantilism = 40 }
			else_if = { limit = { check_variable = { which = es_gain_mercantilism_var value = 12 } } mercantilism = 45 }
			else_if = { limit = { check_variable = { which = es_gain_mercantilism_var value = 11 } } mercantilism = 50 }
			else_if = { limit = { check_variable = { which = es_gain_mercantilism_var value = 10 } } mercantilism = 55 }
			else_if = { limit = { check_variable = { which = es_gain_mercantilism_var value = 9 } } mercantilism = 60 }
			else_if = { limit = { check_variable = { which = es_gain_mercantilism_var value = 8 } } mercantilism = 65 }
			else_if = { limit = { check_variable = { which = es_gain_mercantilism_var value = 7 } } mercantilism = 70 }
			else_if = { limit = { check_variable = { which = es_gain_mercantilism_var value = 6 } } mercantilism = 75 }
			else_if = { limit = { check_variable = { which = es_gain_mercantilism_var value = 5 } } mercantilism = 80 }
			else_if = { limit = { check_variable = { which = es_gain_mercantilism_var value = 4 } } mercantilism = 85 }
			else_if = { limit = { check_variable = { which = es_gain_mercantilism_var value = 3 } } mercantilism = 90 }
			else_if = { limit = { check_variable = { which = es_gain_mercantilism_var value = 2 } } mercantilism = 95 }
			else_if = { limit = { check_variable = { which = es_gain_mercantilism_var value = 1 } } mercantilism = 100 }
			else = {
				mercantilism = 0	#Fallback, should never be relevant
			}
	}
    task_completed_effect = {
		add_estate_loyalty = {
			estate = estate_merchants
			loyalty = 10
		}
		add_years_of_trade_income = {
			years = 5
			custom_tooltip = YEARS_OF_TRADE_INCOME_5
		}
    }
    failing_effect = {
        add_estate_loyalty_modifier = {
            estate = estate_merchants
			desc = EST_VAL_AGENDA_DENIED
			loyalty = -10
			duration = 7300
        }
    }
}

estate_slavers_gain_mercantilism = {
	can_select = {
		NOT = { mercantilism = 100 }
	}
	selection_weight = {
		factor = 1
	}
	pre_effect = {
		set_variable = {
			which = es_gain_mercantilism_var
			value = 0
		}
		if = { limit = { mercantilism = 95 } set_variable = { which = es_gain_mercantilism_var value = 1 } }
		else_if = { limit = { mercantilism = 90 } set_variable = { which = es_gain_mercantilism_var value = 2 } }
		else_if = { limit = { mercantilism = 85 } set_variable = { which = es_gain_mercantilism_var value = 3 } }
		else_if = { limit = { mercantilism = 80 } set_variable = { which = es_gain_mercantilism_var value = 4 } }
		else_if = { limit = { mercantilism = 75 } set_variable = { which = es_gain_mercantilism_var value = 5 } }
		else_if = { limit = { mercantilism = 70 } set_variable = { which = es_gain_mercantilism_var value = 6 } }
		else_if = { limit = { mercantilism = 65 } set_variable = { which = es_gain_mercantilism_var value = 7 } }
		else_if = { limit = { mercantilism = 60 } set_variable = { which = es_gain_mercantilism_var value = 8 } }
		else_if = { limit = { mercantilism = 55 } set_variable = { which = es_gain_mercantilism_var value = 9 } }
		else_if = { limit = { mercantilism = 50 } set_variable = { which = es_gain_mercantilism_var value = 10 } }
		else_if = { limit = { mercantilism = 45 } set_variable = { which = es_gain_mercantilism_var value = 11 } }
		else_if = { limit = { mercantilism = 40 } set_variable = { which = es_gain_mercantilism_var value = 12 } }
		else_if = { limit = { mercantilism = 35 } set_variable = { which = es_gain_mercantilism_var value = 13 } }
		else_if = { limit = { mercantilism = 30 } set_variable = { which = es_gain_mercantilism_var value = 14 } }
		else_if = { limit = { mercantilism = 25 } set_variable = { which = es_gain_mercantilism_var value = 15 } }
		else_if = { limit = { mercantilism = 20 } set_variable = { which = es_gain_mercantilism_var value = 16 } }
		else_if = { limit = { mercantilism = 15 } set_variable = { which = es_gain_mercantilism_var value = 17 } }
		else_if = { limit = { mercantilism = 10 } set_variable = { which = es_gain_mercantilism_var value = 18 } }
		else_if = { limit = { mercantilism = 5 } set_variable = { which = es_gain_mercantilism_var value = 19 } }
		else = { set_variable = { which = es_gain_mercantilism_var value = 20 } }
	}
	task_requirements = {
		if = { limit = { check_variable = { which = es_gain_mercantilism_var value = 20 } } mercantilism = 5 }
			else_if = { limit = { check_variable = { which = es_gain_mercantilism_var value = 19 } } mercantilism = 10 }
			else_if = { limit = { check_variable = { which = es_gain_mercantilism_var value = 18 } } mercantilism = 15 }
			else_if = { limit = { check_variable = { which = es_gain_mercantilism_var value = 17 } } mercantilism = 20 }
			else_if = { limit = { check_variable = { which = es_gain_mercantilism_var value = 16 } } mercantilism = 25 }
			else_if = { limit = { check_variable = { which = es_gain_mercantilism_var value = 15 } } mercantilism = 30 }
			else_if = { limit = { check_variable = { which = es_gain_mercantilism_var value = 14 } } mercantilism = 35 }
			else_if = { limit = { check_variable = { which = es_gain_mercantilism_var value = 13 } } mercantilism = 40 }
			else_if = { limit = { check_variable = { which = es_gain_mercantilism_var value = 12 } } mercantilism = 45 }
			else_if = { limit = { check_variable = { which = es_gain_mercantilism_var value = 11 } } mercantilism = 50 }
			else_if = { limit = { check_variable = { which = es_gain_mercantilism_var value = 10 } } mercantilism = 55 }
			else_if = { limit = { check_variable = { which = es_gain_mercantilism_var value = 9 } } mercantilism = 60 }
			else_if = { limit = { check_variable = { which = es_gain_mercantilism_var value = 8 } } mercantilism = 65 }
			else_if = { limit = { check_variable = { which = es_gain_mercantilism_var value = 7 } } mercantilism = 70 }
			else_if = { limit = { check_variable = { which = es_gain_mercantilism_var value = 6 } } mercantilism = 75 }
			else_if = { limit = { check_variable = { which = es_gain_mercantilism_var value = 5 } } mercantilism = 80 }
			else_if = { limit = { check_variable = { which = es_gain_mercantilism_var value = 4 } } mercantilism = 85 }
			else_if = { limit = { check_variable = { which = es_gain_mercantilism_var value = 3 } } mercantilism = 90 }
			else_if = { limit = { check_variable = { which = es_gain_mercantilism_var value = 2 } } mercantilism = 95 }
			else_if = { limit = { check_variable = { which = es_gain_mercantilism_var value = 1 } } mercantilism = 100 }
			else = {
				mercantilism = 0	#Fallback, should never be relevant
			}
	}
    task_completed_effect = {
		add_estate_loyalty = {
			estate = estate_slavers
			loyalty = 10
		}
		add_years_of_trade_income = {
			years = 5
			custom_tooltip = YEARS_OF_TRADE_INCOME_5
		}
    }
    failing_effect = {
        add_estate_loyalty_modifier = {
            estate = estate_slavers
			desc = EST_VAL_AGENDA_DENIED
			loyalty = -10
			duration = 7300
        }
    }
}

###################################################################################################

#Colonise something in X area
estate_commoners_colonise_X = {
	can_select = {
		num_of_colonists = 1
		num_of_ports = 1
		any_province = {
			range = root
			is_city = no
			is_wasteland = no
			OR = {
				has_port = yes
				any_neighbor_province = {
					OR = {
						owned_by = root
						owner = {
							is_colonial_nation_of = root
						}
					}
				}
			}
			has_discovered = root
			area_for_scope_province = {
				type = all
				NOT = { owned_by = root }
				NOT = {
					owner = {
						is_colonial_nation_of = root
					}
				}
			}
		}
	}
	selection_weight = {
		factor = 1
	}
	pre_effect = {
		random_province = {
			limit = {
				range = root
				is_city = no
				is_wasteland = no
				OR = {
					has_port = yes
					any_neighbor_province = {
						OR = {
							owned_by = root
							owner = {
								is_colonial_nation_of = root
							}
						}
					}
				}
				has_discovered = root
				area_for_scope_province = {
					type = all
					NOT = { owned_by = root }
					NOT = {
						owner = {
							is_colonial_nation_of = root
						}
					}
				}
			}
			save_event_target_as = agenda_province
		}
	}
	provinces_to_highlight = {
		area_for_scope_province = {
			province_id = event_target:agenda_province
		}
	}
	task_requirements = {
		custom_trigger_tooltip = {
			tooltip = estate_commoners_colonise_X_requirements
			event_target:agenda_province = {
				area_for_scope_province = {
					is_city = yes
					OR = {
						owned_by = root
						owner = {
							is_colonial_nation_of = root
						}
					}
				}
			}
		}
	}
    task_completed_effect = {
		add_estate_loyalty = {
			estate = estate_commoners
			loyalty = 10
		}
		add_country_modifier = {
			name = colonial_enthusiasm
			duration = 3650
		}
	}
	fail_if = {
		OR = {
			AND = {
				NOT = { num_of_colonists = 1 }
				event_target:agenda_province = {
					NOT = { country_or_non_sovereign_subject_holds = root }
				}
			}
			event_target:agenda_province = {
				NOT = { range = root }
				is_colony = no
				NOT = { country_or_non_sovereign_subject_holds = ROOT }
			}
			event_target:agenda_province = {
				area_for_scope_province = {
					type = all
					is_city = yes
					NOT = { country_or_non_sovereign_subject_holds = root }
				}
			}
		}
	}
    failing_effect = {
        add_estate_loyalty_modifier = {
            estate = estate_commoners
			desc = EST_VAL_AGENDA_DENIED
			loyalty = -10
			duration = 7300
        }
    }
}

estate_merchants_colonise_X = {
	can_select = {
		num_of_colonists = 1
		num_of_ports = 1
		any_province = {
			range = root
			is_city = no
			is_wasteland = no
			OR = {
				has_port = yes
				any_neighbor_province = {
					OR = {
						owned_by = root
						owner = {
							is_colonial_nation_of = root
						}
					}
				}
			}
			has_discovered = root
			area_for_scope_province = {
				type = all
				NOT = { owned_by = root }
				NOT = {
					owner = {
						is_colonial_nation_of = root
					}
				}
			}
		}
	}
	selection_weight = {
		factor = 1
	}
	pre_effect = {
		random_province = {
			limit = {
				range = root
				is_city = no
				is_wasteland = no
				OR = {
					has_port = yes
					any_neighbor_province = {
						OR = {
							owned_by = root
							owner = {
								is_colonial_nation_of = root
							}
						}
					}
				}
				has_discovered = root
				area_for_scope_province = {
					type = all
					NOT = { owned_by = root }
					NOT = {
						owner = {
							is_colonial_nation_of = root
						}
					}
				}
			}
			save_event_target_as = agenda_province
		}
	}
	provinces_to_highlight = {
		area_for_scope_province = {
			province_id = event_target:agenda_province
		}
	}
	task_requirements = {
		custom_trigger_tooltip = {
			tooltip = estate_merchants_colonise_X_requirements
			event_target:agenda_province = {
				area_for_scope_province = {
					is_city = yes
					OR = {
						owned_by = root
						owner = {
							is_colonial_nation_of = root
						}
					}
				}
			}
		}
	}
    task_completed_effect = {
		add_estate_loyalty = {
			estate = estate_merchants
			loyalty = 10
		}
		add_country_modifier = {
			name = colonial_enthusiasm
			duration = 3650
		}
	}
	fail_if = {
		OR = {
			AND = {
				NOT = { num_of_colonists = 1 }
				event_target:agenda_province = {
					NOT = { country_or_non_sovereign_subject_holds = root }
				}
			}
			event_target:agenda_province = {
				NOT = { range = root }
				is_colony = no
				NOT = { country_or_non_sovereign_subject_holds = ROOT }
			}
			event_target:agenda_province = {
				area_for_scope_province = {
					type = all
					is_city = yes
					NOT = { country_or_non_sovereign_subject_holds = root }
				}
			}
		}
	}
    failing_effect = {
        add_estate_loyalty_modifier = {
            estate = estate_merchants
			desc = EST_VAL_AGENDA_DENIED
			loyalty = -10
			duration = 7300
        }
    }
}

estate_slavers_colonise_X = {
	can_select = {
		num_of_colonists = 1
		num_of_ports = 1
		any_province = {
			range = root
			is_city = no
			is_wasteland = no
			OR = {
				has_port = yes
				any_neighbor_province = {
					OR = {
						owned_by = root
						owner = {
							is_colonial_nation_of = root
						}
					}
				}
			}
			has_discovered = root
			area_for_scope_province = {
				type = all
				NOT = { owned_by = root }
				NOT = {
					owner = {
						is_colonial_nation_of = root
					}
				}
			}
		}
	}
	selection_weight = {
		factor = 1
	}
	pre_effect = {
		random_province = {
			limit = {
				range = root
				is_city = no
				is_wasteland = no
				OR = {
					has_port = yes
					any_neighbor_province = {
						OR = {
							owned_by = root
							owner = {
								is_colonial_nation_of = root
							}
						}
					}
				}
				has_discovered = root
				area_for_scope_province = {
					type = all
					NOT = { owned_by = root }
					NOT = {
						owner = {
							is_colonial_nation_of = root
						}
					}
				}
			}
			save_event_target_as = agenda_province
		}
	}
	provinces_to_highlight = {
		area_for_scope_province = {
			province_id = event_target:agenda_province
		}
	}
	task_requirements = {
		custom_trigger_tooltip = {
			tooltip = estate_merchants_colonise_X_requirements
			event_target:agenda_province = {
				area_for_scope_province = {
					is_city = yes
					OR = {
						owned_by = root
						owner = {
							is_colonial_nation_of = root
						}
					}
				}
			}
		}
	}
    task_completed_effect = {
		add_estate_loyalty = {
			estate = estate_slavers
			loyalty = 10
		}
		add_country_modifier = {
			name = colonial_enthusiasm
			duration = 3650
		}
	}
	fail_if = {
		OR = {
			AND = {
				NOT = { num_of_colonists = 1 }
				event_target:agenda_province = {
					NOT = { country_or_non_sovereign_subject_holds = root }
				}
			}
			event_target:agenda_province = {
				NOT = { range = root }
				is_colony = no
				NOT = { country_or_non_sovereign_subject_holds = ROOT }
			}
			event_target:agenda_province = {
				area_for_scope_province = {
					type = all
					is_city = yes
					NOT = { country_or_non_sovereign_subject_holds = root }
				}
			}
		}
	}
    failing_effect = {
        add_estate_loyalty_modifier = {
            estate = estate_slavers
			desc = EST_VAL_AGENDA_DENIED
			loyalty = -10
			duration = 7300
        }
    }
}

###################################################################################################

#Colonise more in X area
estate_commoners_colonise_more_X = {
	max_days_active = 9125
	can_select = {
		num_of_colonists = 1
		num_of_ports = 1
		any_province = {
			range = root
			is_city = no
			is_wasteland = no
			has_discovered = root
			area_for_scope_province = {
				OR = {
					owned_by = root
					owner = {
						is_colonial_nation_of = root
					}
				}
				is_city = yes
			}
			area_for_scope_province = {
				type = all
				OR = {
					owned_by = root
					owner = {
						is_colonial_nation_of = root
					}
					is_city = no
				}
			}
		}
	}
	selection_weight = {
		factor = 1
	}
	pre_effect = {
		random_province = {
			limit = {
				range = root
				is_city = no
				is_wasteland = no
				has_discovered = root
				area_for_scope_province = {
					OR = {
						owned_by = root
						owner = {
							is_colonial_nation_of = root
						}
					}
					is_city = yes
				}
				area_for_scope_province = {
					type = all
					OR = {
						owned_by = root
						owner = {
							is_colonial_nation_of = root
						}
						is_city = no
					}
				}
			}
			save_event_target_as = agenda_province
			area = {
				limit = {
					OR = {
						owned_by = root
						owner = {
							is_colonial_nation_of = root
						}
					}
					is_city = yes
				}
				save_event_target_as = agenda_owned_province
			}
		}
	}
	provinces_to_highlight = {
		area_for_scope_province = {
			province_id = event_target:agenda_province
		}
		OR = {
			is_city = no
			owner = {
				NOT = { tag = root }
				NOT = { is_colonial_nation_of = root }
			}
		}
	}
	task_requirements = {
		custom_trigger_tooltip = {
			tooltip = estate_commoners_colonise_more_X_requirements
			event_target:agenda_province = {
				area_for_scope_province = {
					type = all
					is_city = yes
					OR = {
						owned_by = root
						owner = {
							is_colonial_nation_of = root
						}
					}
				}
			}
		}
	}
    task_completed_effect = {
		add_estate_loyalty = {
			estate = estate_commoners
			loyalty = 10
		}
		add_country_modifier = {
			name = colonial_enthusiasm
			duration = 3650
		}
	}
	fail_if = {
		event_target:agenda_province = {
			area_for_scope_province = {
				is_city = yes
				NOT = { owned_by = root }
				NOT = {
					owner = {
						is_colonial_nation_of = root
					}
				}
			}
		}
	}
    failing_effect = {
        add_estate_loyalty_modifier = {
            estate = estate_commoners
			desc = EST_VAL_AGENDA_DENIED
			loyalty = -10
			duration = 7300
        }
    }
}

estate_merchants_colonise_more_X = {
	max_days_active = 9125
	can_select = {
		num_of_colonists = 1
		num_of_ports = 1
		any_province = {
			range = root
			is_city = no
			is_wasteland = no
			has_discovered = root
			area_for_scope_province = {
				OR = {
					owned_by = root
					owner = {
						is_colonial_nation_of = root
					}
				}
				is_city = yes
			}
			area_for_scope_province = {
				type = all
				OR = {
					owned_by = root
					owner = {
						is_colonial_nation_of = root
					}
					is_city = no
				}
			}
		}
	}
	selection_weight = {
		factor = 1
	}
	pre_effect = {
		random_province = {
			limit = {
				range = root
				is_city = no
				is_wasteland = no
				has_discovered = root
				area_for_scope_province = {
					OR = {
						owned_by = root
						owner = {
							is_colonial_nation_of = root
						}
					}
					is_city = yes
				}
				area_for_scope_province = {
					type = all
					OR = {
						owned_by = root
						owner = {
							is_colonial_nation_of = root
						}
						is_city = no
					}
				}
			}
			save_event_target_as = agenda_province
			area = {
				limit = {
					OR = {
						owned_by = root
						owner = {
							is_colonial_nation_of = root
						}
					}
					is_city = yes
				}
				save_event_target_as = agenda_owned_province
			}
		}
	}
	provinces_to_highlight = {
		area_for_scope_province = {
			province_id = event_target:agenda_province
		}
		OR = {
			is_city = no
			owner = {
				NOT = { tag = root }
				NOT = { is_colonial_nation_of = root }
			}
		}
	}
	task_requirements = {
		custom_trigger_tooltip = {
			tooltip = estate_merchants_colonise_more_X_requirements
			event_target:agenda_province = {
				area_for_scope_province = {
					type = all
					is_city = yes
					OR = {
						owned_by = root
						owner = {
							is_colonial_nation_of = root
						}
					}
				}
			}
		}
	}
    task_completed_effect = {
		add_estate_loyalty = {
			estate = estate_merchants
			loyalty = 10
		}
		add_country_modifier = {
			name = colonial_enthusiasm
			duration = 3650
		}
	}
	fail_if = {
		event_target:agenda_province = {
			area_for_scope_province = {
				is_city = yes
				NOT = { owned_by = root }
				NOT = {
					owner = {
						is_colonial_nation_of = root
					}
				}
			}
		}
	}
    failing_effect = {
        add_estate_loyalty_modifier = {
            estate = estate_merchants
			desc = EST_VAL_AGENDA_DENIED
			loyalty = -10
			duration = 7300
        }
    }
}

estate_slavers_colonise_more_X = {
	max_days_active = 9125
	can_select = {
		num_of_colonists = 1
		num_of_ports = 1
		any_province = {
			range = root
			is_city = no
			is_wasteland = no
			has_discovered = root
			area_for_scope_province = {
				OR = {
					owned_by = root
					owner = {
						is_colonial_nation_of = root
					}
				}
				is_city = yes
			}
			area_for_scope_province = {
				type = all
				OR = {
					owned_by = root
					owner = {
						is_colonial_nation_of = root
					}
					is_city = no
				}
			}
		}
	}
	selection_weight = {
		factor = 1
	}
	pre_effect = {
		random_province = {
			limit = {
				range = root
				is_city = no
				is_wasteland = no
				has_discovered = root
				area_for_scope_province = {
					OR = {
						owned_by = root
						owner = {
							is_colonial_nation_of = root
						}
					}
					is_city = yes
				}
				area_for_scope_province = {
					type = all
					OR = {
						owned_by = root
						owner = {
							is_colonial_nation_of = root
						}
						is_city = no
					}
				}
			}
			save_event_target_as = agenda_province
			area = {
				limit = {
					OR = {
						owned_by = root
						owner = {
							is_colonial_nation_of = root
						}
					}
					is_city = yes
				}
				save_event_target_as = agenda_owned_province
			}
		}
	}
	provinces_to_highlight = {
		area_for_scope_province = {
			province_id = event_target:agenda_province
		}
		OR = {
			is_city = no
			owner = {
				NOT = { tag = root }
				NOT = { is_colonial_nation_of = root }
			}
		}
	}
	task_requirements = {
		custom_trigger_tooltip = {
			tooltip = estate_slavers_colonise_more_X_requirements
			event_target:agenda_province = {
				area_for_scope_province = {
					type = all
					is_city = yes
					OR = {
						owned_by = root
						owner = {
							is_colonial_nation_of = root
						}
					}
				}
			}
		}
	}
    task_completed_effect = {
		add_estate_loyalty = {
			estate = estate_slavers
			loyalty = 10
		}
		add_country_modifier = {
			name = colonial_enthusiasm
			duration = 3650
		}
	}
	fail_if = {
		event_target:agenda_province = {
			area_for_scope_province = {
				is_city = yes
				NOT = { owned_by = root }
				NOT = {
					owner = {
						is_colonial_nation_of = root
					}
				}
			}
		}
	}
    failing_effect = {
        add_estate_loyalty_modifier = {
            estate = estate_slavers
			desc = EST_VAL_AGENDA_DENIED
			loyalty = -10
			duration = 7300
        }
    }
}

###################################################################################################

estate_priests_crush_religious_revolts = {
	can_select = {
		num_of_rebel_armies = 1
		has_spawned_rebels = heretic_rebels
	}
	selection_weight = {
		factor = 1
		modifier = {
			factor = 2.5
			num_of_rebel_controlled_provinces = 3
		}
		modifier = {
			factor = 2.5
			num_of_rebel_controlled_provinces = 5
		}
	}
	provinces_to_highlight = {
		owned_by = root
		controlled_by = REB
	}
	fail_if = {
		has_country_modifier = just_lost_to_rebels
	}
	task_requirements = {
		NOT = { num_of_rebel_controlled_provinces = 1 }
		NOT = { num_of_rebel_armies = 1 }
		hidden_trigger = { NOT = { has_country_modifier = just_lost_to_rebels } }
	}
    task_completed_effect = {
		add_estate_loyalty = {
			estate = estate_priests
			loyalty = 15
		}
	}
    failing_effect = {
        add_estate_loyalty_modifier = {
            estate = estate_priests
			desc = EST_VAL_AGENDA_DENIED
			loyalty = -10
			duration = 7300
        }
    }
}