
#This one or the next one will always be valid
estate_warriors_hire_advisor = {
	max_days_active = 1825
	can_select = {
		NOT = {
			employed_advisor = {
				category = ADM
			}
		}
	}
	selection_weight = {
		factor = 1
	}
	task_requirements = {
		employed_advisor = {
			category = ADM
		}
		is_in_deficit = no
	}
    task_completed_effect = {
		add_estate_loyalty = {
			estate = estate_warriors
			loyalty = 10
		}
    }
    failing_effect = {
        add_estate_loyalty_modifier = {
            estate = estate_warriors
			desc = EST_VAL_AGENDA_DENIED
			loyalty = -10
			duration = 7300
        }
    }
}

estate_warriors_fire_advisor = {
	max_days_active = 1825
	can_select = {
		employed_advisor = {
			category = ADM
		}
	}
	selection_weight = {
		factor = 1
	}
	immediate_effect = {
		hidden_effect = {
			set_country_flag = need_to_fire_adm_advisor
		}
	}
	on_invalid = {
		clr_country_flag = need_to_fire_adm_advisor
	}
	task_requirements = {
		custom_trigger_tooltip = {
			tooltip = fire_adm_advisor_tooltip
			has_country_flag = just_fired_adm_advisor
		}
	}
    task_completed_effect = {
		add_estate_loyalty = {
			estate = estate_warriors
			loyalty = 10
		}
		clr_country_flag = just_fired_adm_advisor
		clr_country_flag = need_to_fire_adm_advisor
	}
	invalid_trigger = {
		NOT = {
			employed_advisor = {
				category = ADM
			}
		}
		NOT = { has_country_flag = just_fired_adm_advisor }
	}
    failing_effect = {
        add_estate_loyalty_modifier = {
            estate = estate_warriors
			desc = EST_VAL_AGENDA_DENIED
			loyalty = -10
			duration = 7300
        }
		clr_country_flag = need_to_fire_adm_advisor
    }
}

#Reduce War Exhaustion
estate_warriors_reduce_war_exhaustion = {
	can_select = {
		war_exhaustion = 5
		is_at_war = no
		NOT = { has_country_modifier = national_recovery }
	}
	selection_weight = {
		factor = 2
		modifier = {
			factor = 1.5
			war_exhaustion = 7.5
		}
		modifier = {
			factor = 1.5
			war_exhaustion = 10
		}
	}
	fail_if = {
		is_at_war = yes
	}
	task_requirements = {
		NOT = { war_exhaustion = 1 }
	}
    task_completed_effect = {
		add_estate_loyalty = {
			estate = estate_warriors
			loyalty = 10
		}
		add_country_modifier = {
			name = national_recovery
			duration = 5475
		}
    }
    failing_effect = {
        add_estate_loyalty_modifier = {
            estate = estate_warriors
			desc = EST_VAL_AGENDA_DENIED
			loyalty = -10
			duration = 7300
        }
    }
}

#Stabilise Country
estate_warriors_recover_stability = {
	can_select = {
		NOT = { stability = 0 }
	}
	selection_weight = {
		factor = 2
		modifier = {
			factor = 1.5
			NOT = { stability = -1 }
		}
	}
	task_requirements = {
		stability = 1
	}
    task_completed_effect = {
		add_estate_loyalty = {
			estate = estate_warriors
			loyalty = 10
		}
		add_prestige = 10
    }
    failing_effect = {
        add_estate_loyalty_modifier = {
            estate = estate_warriors
			desc = EST_VAL_AGENDA_DENIED
			loyalty = -10
			duration = 7300
        }
    }
}

#Stabilise Country II
estate_warriors_increase_stability = {
	can_select = {
		NOT = { stability = 2 }
		stability = 1
	}
	selection_weight = {
		factor = 1
	}
	fail_if = {
		NOT = { stability = 0 }
	}
	task_requirements = {
		stability = 3
	}
    task_completed_effect = {
		add_estate_loyalty = {
			estate = estate_warriors
			loyalty = 10
		}
		add_prestige = 10
    }
    failing_effect = {
        add_estate_loyalty_modifier = {
            estate = estate_warriors
			desc = EST_VAL_AGENDA_DENIED
			loyalty = -10
			duration = 7300
        }
    }
}

#Reduce overextension
estate_warriors_reduce_overextension = {
	can_select = {
		overextension_percentage = 0.50
	}
	selection_weight = {
		factor = 2
		modifier = {
			factor = 1.5
			overextension_percentage = 0.75
		}
		modifier = {
			factor = 1.5
			overextension_percentage = 1
		}
	}
	provinces_to_highlight = {
		owned_by = root
		NOT = { is_core = root }
	}
	task_requirements = {
		NOT = { overextension_percentage = 0.01 }
	}
    task_completed_effect = {
		add_estate_loyalty = {
			estate = estate_warriors
			loyalty = 10
		}
		add_adm_power = 50
    }
    failing_effect = {
        add_estate_loyalty_modifier = {
            estate = estate_warriors
			desc = EST_VAL_AGENDA_DENIED
			loyalty = -10
			duration = 7300
        }
    }
}

#Get allies
estate_warriors_get_allies = {
	can_select = {
		NOT = { num_of_allies = 3 }
		NOT = { num_of_subjects = 3 }
		is_at_war = no
		num_of_free_diplomatic_relations = 1
		NOT = { has_country_modifier = foreign_contacts }
	}
	selection_weight = {
		factor = 1
		modifier = {
			factor = 2
			NOT = { num_of_allies = 1 }
			NOT = { num_of_subjects = 1 }
		}
	}
	pre_effect = {
		set_variable = {
			which = estate_warriors_get_allies_variable
			value = 0
		}
		if = {
			limit = {
				OR = {
					NOT = { num_of_allies = 1 }
					AND = {
						num_of_subjects = 2
						NOT = { num_of_allies = 2 }
					}
					AND = {
						NOT = { num_of_allies = 2 }
						NOT = { num_of_free_diplomatic_relations = 2 }
					}
				}
			}
			set_variable = {
				which = estate_warriors_get_allies_variable
				value = 1
			}
		}
		else = {
			set_variable = {
				which = estate_warriors_get_allies_variable
				value = 2
			}
		}
	}
	fail_if = {
		is_free_or_tributary_trigger = no
	}
	task_requirements = {
		if = {
			limit = {
				check_variable = {
					which = estate_warriors_get_allies_variable
					value = 2
				}
			}
			num_of_allies = 3
		}
		else = {
			num_of_allies = 2
		}
	}
	task_completed_effect = {
		add_estate_loyalty = {
			estate = estate_warriors
			loyalty = 10
		}
		add_country_modifier = {
			name = foreign_contacts
			duration = 3650
		}
	}
    failing_effect = {
        add_estate_loyalty_modifier = {
            estate = estate_warriors
			desc = EST_VAL_AGENDA_DENIED
			loyalty = -10
			duration = 7300
        }
    }
}

#Improve Relations with X
estate_warriors_relations_with_X = {
	can_select = {
		any_known_country = {
			NOT = { is_rival = root }
			ROOT = { NOT = { is_rival = prev } }
			OR = {
				is_free_or_tributary_trigger = yes
				is_subject_of = root
			}
			NOT = { war_with = root }
			NOT = { has_opinion = { who = root value = 50 } }
			has_opinion = { who = root value = -50 }
			religion_group = root
			NOT = {
				any_owned_province = {
					is_core = root
				}
			}
			NOT = {
				border_distance = {
					who = root
					distance = 200
				}
			}
		}
	}
	selection_weight = {
		factor = 1
		modifier = {
			factor = 1.5
			any_known_country = {
				OR = {
					army_size = root
					alliance_with = root
				}
				NOT = { is_rival = root }
				ROOT = { NOT = { is_rival = prev } }
				OR = {
					is_free_or_tributary_trigger = yes
					is_subject_of = root
				}
				NOT = { war_with = root }
				NOT = { has_opinion = { who = root value = 50 } }
				has_opinion = { who = root value = -50 }
				religion_group = root
				NOT = {
					any_owned_province = {
						is_core = root
					}
				}
				NOT = {
					border_distance = {
						who = root
						distance = 200
					}
				}
			}
		}
		modifier = {
			factor = 0.5
			NOT = { num_of_free_diplomatic_relations = 1 }
		}
	}
	fail_if = {
		event_target:agenda_country = {
			OR = {
				NOT = { num_of_cities = 1 }
				war_with = root
				NOT = { has_opinion = { who = root value = -100 } }
			}
		}
	}
	pre_effect = {
		set_variable = {
			which = estate_warriors_relations_with_X
			value = 0
		}
		random_known_country = {
			limit = {
				NOT = { is_rival = root }
				ROOT = { NOT = { is_rival = prev } }
				OR = {
					is_free_or_tributary_trigger = yes
					is_subject_of = root
				}
				NOT = { war_with = root }
				NOT = { has_opinion = { who = root value = 50 } }
				has_opinion = { who = root value = -50 }
				religion_group = root
				NOT = {
					any_owned_province = {
						is_core = root
					}
				}
				NOT = {
					border_distance = {
						who = root
						distance = 200
					}
				}
			}
			save_event_target_as = agenda_country
		}
		random_known_country = {
			limit = {
				OR = {
					army_size = root
					alliance_with = root
				}
				NOT = { is_rival = root }
				ROOT = { NOT = { is_rival = prev } }
				OR = {
					is_free_or_tributary_trigger = yes
					is_subject_of = root
				}
				NOT = { war_with = root }
				NOT = { has_opinion = { who = root value = 50 } }
				has_opinion = { who = root value = -50 }
				religion_group = root
				NOT = {
					any_owned_province = {
						is_core = root
					}
				}
				NOT = {
					border_distance = {
						who = root
						distance = 200
					}
				}
			}
			save_event_target_as = agenda_country
		}
		if = {
			limit = {
				event_target:agenda_country = {
					NOT = { has_opinion = { who = root value = 0 } }
				}
			}
			set_variable = {
				which = estate_warriors_relations_with_X
				value = 1
			}
		}
		else = {
			set_variable = {
				which = estate_warriors_relations_with_X
				value = 2
			}
		}
	}
	provinces_to_highlight = {
		is_capital_of = event_target:agenda_country
	}
	task_requirements = {
		if = {
			limit = {
				check_variable = {
					which = estate_warriors_relations_with_X
					value = 2
				}
			}
			event_target:agenda_country = {
				has_opinion = {
					who = root
					value = 100
				}
			}
		}
		else = {
			event_target:agenda_country = {
				has_opinion = {
					who = root
					value = 50
				}
			}
		}
	}
	task_completed_effect = {
		add_estate_loyalty = {
			estate = estate_warriors
			loyalty = 15
		}
	}
    failing_effect = {
        add_estate_loyalty_modifier = {
            estate = estate_warriors
			desc = EST_VAL_AGENDA_DENIED
			loyalty = -10
			duration = 7300
        }
    }
}

#Get AE down (if there is a coalition) 
estate_warriors_break_coalition = {
	can_select = {
		any_country = {
			coalition_target = root
			has_opinion_modifier = {
				who = root
				modifier = aggressive_expansion
			}
			NOT = {
				has_opinion_modifier = {
					who = root
					modifier = aggressive_expansion
					value = -15
				}
			}
		}
		is_at_war = no
	}
	selection_weight = {
		factor = 5
		modifier = {
			factor = 2
			calc_true_if = {
				amount = 5
				all_country = {
					coalition_target = root
				}
			}
		}
		modifier = {
			factor = 0.5
			NOT = {
				any_country = {
					coalition_target = root
					army_size = root
				}
			}
		}
	}
	provinces_to_highlight = {
		is_capital = yes
		owner = {
			OR = {
				coalition_target = root
				AND = {
					has_opinion_modifier = {
						who = root
						modifier = aggressive_expansion
					}
					NOT = {
						has_opinion_modifier = {
							who = root
							modifier = aggressive_expansion
							value = -15
						}
					}
				}
			}
		}
	}
	fail_if = {
		has_country_modifier = just_lost_war_timer
	}
	task_requirements = {
		OR = {
			custom_trigger_tooltip = {
				tooltip = no_coalition_against_us_tooltip
				NOT = {
					any_country = {
						coalition_target = root
					}
				}
			}
			custom_trigger_tooltip = {
				tooltip = no_one_has_15_ae_on_us_tooltip
				NOT = {
					any_country = {
						has_opinion_modifier = {
							who = root
							modifier = aggressive_expansion
						}
						NOT = {
							has_opinion_modifier = {
								who = root
								modifier = aggressive_expansion
								value = -15
							}
						}
					}
				}
			}
		}
	}
	task_completed_effect = {
		add_estate_loyalty = {
			estate = estate_warriors
			loyalty = 10
		}
		add_dip_power = 50
	}
    failing_effect = {
        add_estate_loyalty_modifier = {
            estate = estate_warriors
			desc = EST_VAL_AGENDA_DENIED
			loyalty = -10
			duration = 7300
        }
    }
}

estate_warriors_increase_mil_dev = {
	can_select = {
		always = yes
	}
	provinces_to_highlight = {
		has_province_flag = agenda_owned_province
	}
	selection_weight = {
		factor = 1
	}
	pre_effect = {
		random_owned_province = {
			save_event_target_as = agenda_owned_province
			# Used for province highlight
			set_province_flag = agenda_owned_province
		}
	}
	immediate_effect = {
		set_country_flag = increase_mil_dev_agenda
	}
	task_requirements = {
		custom_trigger_tooltip = {
			tooltip = increase_mil_dev_agenda_tt
			has_country_flag = increase_mil_dev_agenda_completed
		}
	}
    task_completed_effect = {
		add_estate_loyalty = {
			estate = estate_warriors
			loyalty = 10
		}
		# Add extra effects here

		add_yearly_manpower = 0.5

		event_target:agenda_owned_province = {
			clr_province_flag = agenda_owned_province
		}
		clr_country_flag = increase_mil_dev_agenda
		clr_country_flag = increase_mil_dev_agenda_completed
    }
	fail_if = {
		event_target:agenda_owned_province = {
			NOT = { owned_by = root }
		}
	}
    failing_effect = {
        add_estate_loyalty_modifier = {
            estate = estate_warriors
			desc = EST_VAL_AGENDA_DENIED
			loyalty = -10
			duration = 7300
        }
		event_target:agenda_owned_province = {
			clr_province_flag = agenda_owned_province
		}
		clr_country_flag = increase_mil_dev_agenda
		clr_country_flag = increase_mil_dev_agenda_completed
    }
}