bookmark = {
	name = AETHERIUM_CRISIS
	desc = AETHERIUM_CRISIS_DESC
	date = 267.1.1

	center = 1319
	default = yes

	# country = NC8
	# country = NA4
	# country = NE2
	# country = NF7
	# country = NF9
	# country = NB2
	# country = NA3
}