702 = {"Septima" "Septima"}
1133 = { "Sardavar Leed" "Sardavar Leed"}
2375 = {"Reman's Bluff" "Reman's Bluff"}
880 = {"Emperor's Run" "Emperor's Run"}
5719 = {"Hourglass Enclave" "Hourglass Enclave"}
3813 = {"Septim's Gate Pass" "Septim's Gate Pass"}
6027 = {"Septim's Gate" "Septim's Gate"}
1342 = {"Haafingar" "Haafingar"}
7070 = {"Jehenna" "Jehenna"}
1306 = {"Danstrar" "Danstrar"}
1299 = {"Winter Hold" "Winter Hold"}
1276 = {"Kastav" "Fort Kastav"}
6501 = {"Tenmar Wall" "Tenmar Wall"}
5029 = {"Marbruk Field" "Marbruk Field"}
6374 = {"Shadymarch" "Shadymarch"}