3052 = {"Granite Hill" "Granite Hill"}
1355 = {"Markarth Side" "Markarth Side"}
1291 = {"Falcreath" "Falcreath"}
1470 = {"Drangstor" "Drangstor"}
7237 = {"Drangstor Arena" "Drangstor Arena"}
6857 = {"Eagle Brook" "Eagle Brook"}
6178 = {"City of Mages" "City of Mages"}
7283 = {"Sewerworks" "Sewerworks"}