colonial_pyandonea_inner = {
	color = { 0 153 153 }

	# Random New World
	tax_income = 1
	native_size = 1
	native_ferocity = 1
	native_hostileness = 1

	provinces = {
		229 230
	    209 210 211 212 213 1551 1552 2005 2006 2007
		214 215 216 217 218 1553 1554 2008 2009 2010
		219 220 221 222 223 1555 1556 2011 2012 2013
		224 225 226 227 228 1557 1558 2014 2015 2016
		2069 2070 2071 2072 2073 2074 2075 2076 2077
		2087 2088 2089 2090 2091 2092 2093 2094 2017
		2095 2096 2097 2098 2099 2100 2101 2102 2103
		2104 2105 2026 2027 2024 2025
	}
	
	# Generic
	names = {
		name = "COLONIAL_PYANDONEA_Pyandonea_Inner"
	}
	names = {
		name = "COLONIAL_PYANDONEA_Root_Culture_GetGroupName_Pyandonea_Inner"
	}
	
}

colonial_pyandonea_outer = {
	color = { 38 143 65 }

	# Random New World
	tax_income = 1
	native_size = 1
	native_ferocity = 1
	native_hostileness = 1
	
	provinces = {
		231 232 233 1559 1560 2018 2019
		234 235 236 237 238 1561 1562 2020 2021 2022 2068
		239 240 241 244 245 1563 1564 2023 2085 2066 2067
		2028 2029 2030 2031 2032 2033 2034 2035 2083 2084
		2036 2037 2038 2039 2040 2041 2042 2043 2044 2045
		2046 2047 2048 2049 2050 2051 2052 2053 2054 2055
		2056 2057 2058 2059 2060 2061 2062 2063 2064 2065
	    2078 2079 2080 2081 2082 2086
	}
	
	# Generic
	names = {
		name = "COLONIAL_PYANDONEA_Pyandonea_Outer"
	}
	names = {
		name = "COLONIAL_PYANDONEA_Root_Culture_GetGroupName_Pyandonea_Outer"
	}

}

colonial_lower_yokuda = {
	color = { 153 76 0 }

	# Random New World
	tax_income = 1
	native_size = 1
	native_ferocity = 1
	native_hostileness = 1

	provinces = {
	    325 330 331 340 2112 2113 2114 2115
		273 285 332 333 334 2116 2117 2118 2119 2120
		326 342 344 345 346 347 348 2121 2122 2123
		329 341 343 349 350 2124 2125 2126 2127 2128
		319 322 335 2136 2137 2138 2139 2140
	}
	
	# Generic
	names = {
		name = "COLONIAL_LOWER_YOKUDA_Lower_Yokuda"
	}
	names = {
		name = "COLONIAL_LOWER_YOKUDA_Root_Culture_GetGroupName_Lower_Yokuda"
	}
	
}

colonial_upper_yokuda = {
	color = { 0 191 230 }

	# Random New World
	tax_income = 1
	native_size = 1
	native_ferocity = 1
	native_hostileness = 1
	
	provinces = {
		336 354 355 2129 2130 2131 2132 2133 2134 2135
		2146 2147 2148 2149 2150 2151 2152 2153 2154 2155
		2156 2157 2158 2159 2160 2161 2162 2163 2164 2165
		2166 2167 2168 2169 2170 2171 2172 2173 2174 2175
		3451 3452 3453 3454 3455 3456 3457 3458 3459 3460
		3461 3462 3463 3464 3465 3466 3467 3468 3469 3470
	}
	
	# Generic
	names = {
		name = "COLONIAL_UPPER_YOKUDA_Upper_Yokuda"
	}
	names = {
		name = "COLONIAL_UPPER_YOKUDA_Root_Culture_GetGroupName_Upper_Yokuda"
	}
	
}

colonial_yokudan_islands = {
	color = { 254 200 181 }

	# Random New World
	tax_income = 1
	native_size = 1
	native_ferocity = 1
	native_hostileness = 1
	
	provinces = {
		286 318 337 338 339 351 352 353 2141 2142 2143 2144
		320 321 323 324 2106 2107 2108 2109 2110 2111
		327 328 3441 3442 3443 3444 3445 3446 3447 3448 3449 3450
		2145 2176 2177 2178 2179 2180 2181 2182 2183 2184
	}
	
	# Generic
	names = {
		name = "COLONIAL_YOKUDA_Yokudan_Islands"
	}
	names = {
		name = "COLONIAL_YOKUDA_Root_Culture_GetGroupName_Yokudan_Islands"
	}
	
}

colonial_black_mountain = {
	color = { 0 9 26 }

	# Random New World
	tax_income = 1
	native_size = 1
	native_ferocity = 1
	native_hostileness = 1
	
	provinces = {
		491 492 493 494 495 2515 2516 2517 2518 2519
		2666 2667 2668 2669 2670 2671 2672 2673 2674 2675
        3481 3482 3483 3484 3485 3486 3487 3488 3489 3490
        3491 3492 3493 3494 3495 3496 3497 3498 3499 3500
		3501 3502 3503 3504 3505 3506 3507 3508 3509 3510
		3511 3512 3513 3514 3515 3516 3517 3518 3519 3520
		3521 3522 3523 3524 3525 3526 3527 3528 3529 3530
	}
	
	# Generic
	names = {
		name = "COLONIAL_BLACK_MOUNTAIN_Black_Mountain"
	}
	names = {
		name = "COLONIAL_BLACK_MOUNTAIN_Root_Culture_GetGroupName_Black_Mountain"
	}
	
}

colonial_transakavir = {
	color = { 0 0 255 }

	# Random New World
	tax_income = 1
	native_size = 1
	native_ferocity = 1
	native_hostileness = 1
	
	provinces = {
		3541 3542 3543 3544 3545 3546 3547 3548 3549 3550
		3551 3552 3553 3554 3555 3556 3557 3558 3559 3560 
		3561 3562 3563 3564 3565 3566 3567 3568 3569 3570 
		3571 3572 3573 3574 3575 3576 3577 3578 3579 3580
		3581 3582 3583 3584 3585 3586 3587 3588 3589 3590
		3591 3592 3593 3594 3595 3596 3597 3598 3599 3600
		3601 3602 3603 3604 3605 3606 3607 3608 3609 3610 
	}
	
	# Generic
	names = {
		name = "COLONIAL_TRANSAKAVIR_Transakavir"
	}
	names = {
		name = "COLONIAL_TRANSAKAVIR_Root_Culture_GetGroupName_Transakavir"
	}
	
}

colonial_thousand_islands = {
	color = { 0 204 0 }

	# Random New World
	tax_income = 1
	native_size = 1
	native_ferocity = 1
	native_hostileness = 1
	
	provinces = {
	    535 536 537 538 539 1577 1578 1725 1726 1727
		540 541 542 543 544 1579 1580 1728 1729 1730
		545 546 547 548 549 1581 1582 1731 1732 1733
		550 551 552 553 554 1583 1584 1734 1735 1736
		555 556 557 558 559 1585 1586 1737 1738 1739
		560 561 562 563 564 1587 1588 1740 1741 1742
		565 566 567 568 569 1589 1590 1743 1744 1745
		570 571 572 573 574 1591 1592 1746 1747 1748
		600 601 602 603 604 1603 1604 1764 1765 1766
		3611 3612 3613 3614 3615 3616 3617 3618 3619 3620
	}
	
	# Generic
	names = {
		name = "COLONIAL_THOUSAND_ISLANDS_Thousand_Islands"
	}
	names = {
		name = "COLONIAL_THOUSAND_ISLANDS_Root_Culture_GetGroupName_Thousand_Islands"
	}
	
}

colonial_kamal = {
	color = { 255 255 255 }

	# Random New World
	tax_income = 1
	native_size = 1
	native_ferocity = 1
	native_hostileness = 1
	
	provinces = {
		2555 2556 2557 2558 2559 2560 2561 2562 2563 2564
		2565 2566 2567 2568 2569 2570 2571 2572 2573 2574
		2575 2576 2577 2578 2579 2580 2581 2582 2583 2584
		2585 2586 2587 2588 2589 2590 2591 2592 2593 2594
	}
	
	# Generic
	names = {
		name = "COLONIAL_KAMAL_Kamal"
	}
	names = {
		name = "COLONIAL_KAMAL_Root_Culture_GetGroupName_Kamal"
	}
	
}

######################################## Oblivion Colonial Regions changed to trading companies
#colonial_northern_coldharbour = {
#	color = { 188 188 188 }
#
#	# Random New World
#	tax_income = 1
#	native_size = 1
#	native_ferocity = 1
#	native_hostileness = 1
#	
#	trade_goods = {
#	}
#	
#	culture = {
#	}
#	
#	religion = {
#	}
#	
#	provinces = {
#		2721 2722 2723 2724 2725 2726 2727 2728 2729 2730
#		2741 2742 2743 2744 2745 2746 2747 2748 2749 2750
#		2771 2772 2773 2774 2775 2776 2777 2778 2779 2780
#		2791 2792 2793 2794 2795 2796 2797 2798 2799 2800
#		2821 2822 2823 2824 2825 2826 2827 2828 2829 2830
#	}
#	
#	# Generic
#	names = {
#		name = "COLONIAL_NORTHERN_COLDHARBOUR_Northern_Coldharbour"
#	}
#	names = {
#		name = "COLONIAL_NORTHERN_COLDHARBOUR_Root_Culture_GetGroupName_Northern_Coldharbour"
#	}
#	
#}
#
#colonial_southern_coldharbour = {
#	color = { 0 176 176 }
#
#	# Random New World
#	tax_income = 1
#	native_size = 1
#	native_ferocity = 1
#	native_hostileness = 1
#	
#	trade_goods = {
#	}
#	
#	culture = {
#	}
#	
#	religion = {
#	}
#	
#	provinces = {
#		2871 2872 2873 2874 2875 2876 2877 2878 2879 2880
#		2881 2882 2883 2884 2885 2886 2887 2888 2889 2890
#		2961 2962 2963 2964 2965 2966 2967 2968 2969 2970
#		2971 2972 2973 2974 2975 2976 2977 2978 2979 2980
#		2981 2982 2983 2984 2985 2986 2987 2988 2989 2990
#	}
#	
#	# Generic
#	names = {
#		name = "COLONIAL_SOUTHERN_COLDHARBOUR_Southern_Coldharbour"
#	}
#	names = {
#		name = "COLONIAL_SOUTHERN_COLDHARBOUR_Root_Culture_GetGroupName_Southern_Coldharbour"
#	}
#	
#}
#
#colonial_western_coldharbour = {
#	color = { 232 22 22 }
#
#	# Random New World
#	tax_income = 1
#	native_size = 1
#	native_ferocity = 1
#	native_hostileness = 1
#	
#	trade_goods = {
#	}
#	
#	culture = {
#	}
#	
#	religion = {
#	}
#	
#	provinces = {
#	    3141 3142 3143 3144 3145 3146 3147 3148 3149 3150
#		3151 3152 3153 3154 3155 3156 3157 3158 3159 3160
#		3161 3162 3163 3164 3165 3166 3167 3168 3169 3170
#		3171 3172 3173 3174 3175 3176 3177 3178 3179 3180
#		3181 3182 3183 3184 3185 3186 3187 3188 3189 3190
#	}
#	
#	# Generic
#	names = {
#		name = "COLONIAL_WESTERN_COLDHARBOUR_Western_Coldharbour"
#	}
#	names = {
#		name = "COLONIAL_WESTERN_COLDHARBOUR_Root_Culture_GetGroupName_Western_Coldharbour"
#	}
#	
#}
#
#colonial_eastern_coldharbour = {
#	color = { 0 168 0 }
#
#	# Random New World
#	tax_income = 1
#	native_size = 1
#	native_ferocity = 1
#	native_hostileness = 1
#	
#	trade_goods = {
#	}
#	
#	culture = {
#	}
#	
#	religion = {
#	}
#	
#	provinces = {
#		2851 2852 2853 2854 2855 2856 2857 2858 2859 2860
#		2861 2862 2863 2864 2865 2866 2867 2868 2869 2870
#		2901 2902 2903 2904 2905 2906 2907 2908 2909 2910
#		2951 2952 2953 2954 2955 2956 2957 2958 2959 2960
#		2911 2912 2913 2914 2915 2916 2917 2918 2919 2920
#	}
#	
#	# Generic
#	names = {
#		name = "COLONIAL_EASTERN_COLDHARBOUR_Eastern_Coldharbour"
#	}
#	names = {
#		name = "COLONIAL_EASTERN_COLDHARBOUR_Root_Culture_GetGroupName_Eastern_Coldharbour"
#	}
#	
#}
#
#colonial_central_coldharbour = {
#	color = { 255 213 0 }
#
#	# Random New World
#	tax_income = 1
#	native_size = 1
#	native_ferocity = 1
#	native_hostileness = 1
#	
#	trade_goods = {
#	}
#	
#	culture = {
#	}
#	
#	religion = {
#	}
#	
#	provinces = {
#	    2701 2702 2703 2704 2705 2706 2707 2708 2709 2710
#		2751 2752 2753 2754 2755 2756 2757 2758 2759 2760
#		2831 2832 2833 2834 2835 2836 2837 2838 2839 2840
#		2841 2842 2843 2844 2845 2846 2847 2848 2849 2850
#		2891 2892 2893 2894 2895 2896 2897 2898 2899 2900
#		
#	}
#	
#	# Generic
#	names = {
#		name = "COLONIAL_CENTRAL_COLDHARBOUR_Central_Coldharbour"
#	}
#	names = {
#		name = "COLONIAL_CENTRAL_COLDHARBOUR_Root_Culture_GetGroupName_Central_Coldharbour"
#	}
#	
#}
#
#colonial_central_deadlands = {
#	color = { 220 66 0 }
#
#	# Random New World
#	tax_income = 1
#	native_size = 1
#	native_ferocity = 1
#	native_hostileness = 1
#	
#	trade_goods = {
#	}
#	
#	culture = {
#	}
#	
#	religion = {
#	}
#	
#	provinces = {
#		3761 3762 3763 3764 3765 3766 3767 3768 3769 3770
#	    4061 4062 4063 4064 4065 4066 4067 4068 4069 4070
#		4071 4072 4073 4074 4075 4076 4077 4078 4079 4080
#		4161 4162 4163 4164 4165 4166 4167 4168 4169 4170
#		4171 4172 4173 4174 4175 4176 4177 4178 4179 4180
#	}
#	
#	# Generic
#	names = {
#		name = "COLONIAL_CENTRAL_DEADLANDS_Central_Deadlands"
#	}
#	names = {
#		name = "COLONIAL_CENTRAL_DEADLANDS_Root_Culture_GetGroupName_Central_Deadlands"
#	}
#	
#}
#
#colonial_coastal_deadlands = {
#	color = { 255 162 0 }
#
#	# Random New World
#	tax_income = 1
#	native_size = 1
#	native_ferocity = 1
#	native_hostileness = 1
#	
#	trade_goods = {
#	}
#	
#	culture = {
#	}
#	
#	religion = {
#	}
#	
#	provinces = {
#		4311 4312 4313 4314 4315 4316 4317 4318 4319 4320
#		4321 4322 4323 4324 4325 4326 4327 4328 4329 4330
#		4331 4332 4333 4334 4335 4336 4337 4338 4339 4340
#		4341 4342 4343 4344 4345 4346 4347 4348 4349 4350
#		4351 4352 4353 4354 4355 4356 4357 4358 4359 4360
#	}
#	
#	# Generic
#	names = {
#		name = "COLONIAL_COASTAL_DEADLANDS_Coastal_Deadlands"
#	}
#	names = {
#		name = "COLONIAL_COASTAL_DEADLANDS_Root_Culture_GetGroupName_Coastal_Deadlands"
#	}
#	
#}
#
#colonial_eastern_deadlands = {
#	color = { 138 51 0 }
#
#	# Random New World
#	tax_income = 1
#	native_size = 1
#	native_ferocity = 1
#	native_hostileness = 1
#	
#	trade_goods = {
#	}
#	
#	culture = {
#	}
#	
#	religion = {
#	}
#	
#	provinces = {
#		3861 3862 3863 3864 3865 3866 3867 3868 3869 3870
#		3871 3872 3873 3874 3875 3876 3877 3878 3879 3880
#		3881 3882 3883 3884 3885 3886 3887 3888 3889 3890
#		3891 3892 3893 3894 3895 3896 3897 3898 3899 3900
#		4151 4152 4153 4154 4155 4156 4157 4158 4159 4160
#	}
#	
#	# Generic
#	names = {
#		name = "COLONIAL_EASTERN_DEADLANDS_Eastern_Deadlands"
#	}
#	names = {
#		name = "COLONIAL_EASTERN_DEADLANDS_Root_Culture_GetGroupName_Eastern_Deadlands"
#	}
#	
#}
#
#colonial_western_deadlands = {
#	color = { 176 0 65 }
#
#	# Random New World
#	tax_income = 1
#	native_size = 1
#	native_ferocity = 1
#	native_hostileness = 1
#	
#	trade_goods = {
#	}
#	
#	culture = {
#	}
#	
#	religion = {
#	}
#	
#	provinces = {
#		4141 4142 4143 4144 4145 4146 4147 4148 4149 4150
#		4181 4182 4183 4184 4185 4186 4187 4188 4189 4190
#		4191 4192 4193 4194 4195 4196 4197 4198 4199 4200
#		4281 4282 4283 4284 4285 4286 4287 4288 4289 4290
#		4291 4292 4293 4294 4295 4296 4297 4298 4299 4300
#	}
#	
#	# Generic
#	names = {
#		name = "COLONIAL_WESTERN_DEADLANDS_Western_Deadlands"
#	}
#	names = {
#		name = "COLONIAL_WESTERN_DEADLANDS_Root_Culture_GetGroupName_Western_Deadlands"
#	}
#	
#}

colonial_eastern_atmora = {
	color = { 0 204 204 }
	
	tax_income = 1
	native_size = 1
	native_ferocity = 1
	native_hostileness = 1

	
	provinces = {
		360 370 371 389 394 2203 2204 2205 2206 2207
		377 378 383 384 388 1575 1576 2200 2201 2202
		380 381 382 385 386 1571 1572 2194 2195 2196
		2290 2291 2292 2293 2294 2295 2296 2297 2298 2299
		2300 2301 2302 2303 2304 2305 2306 2307 2308 2309
		2340 2341 2342 2343 2344 2345 2346 2347 2348 2349
	}
	names = {
		name = "COLONIAL_EASTERN_ATMORA_Eastern_Atmora"
	}
	names = {
		name = "COLONIAL_EASTERN_ATMORA_Root_Culture_GetGroupName_Eastern_Atmora"
	}
}

colonial_central_atmora = {
	color = { 89 179 0 }
	
	tax_income = 1
	native_size = 1
	native_ferocity = 1
	native_hostileness = 1
	
	provinces = {
		356 366 367 368 369 1567 1568 2191 2192 2193
		372 373 374 375 376 1573 1574 2197 2198 2199
		446 447 448 449 450 2470 2471 2472 2473 2474
		2270 2271 2272 2273 2274 2275 2276 2277 2278 2279
		2280 2281 2282 2283 2284 2285 2286 2287 2288 2289
		2320 2321 2322 2323 2324 2325 2326 2327 2328 2329
		2330 2331 2332 2333 2334 2335 2336 2337 2338 2339
	}
	names = {
		name = "COLONIAL_CENTRAL_ATMORA_Central_Atmora"
	}
	names = {
		name = "COLONIAL_CENTRAL_ATMORA_Root_Culture_GetGroupName_Central_Atmora"
	}
}

colonial_western_atmora = {
	color = { 255 153 170 }
	
	tax_income = 1
	native_size = 1
	native_ferocity = 1
	native_hostileness = 1
	
	provinces = {
		357 358 361 359 362 1565 1566 2185 2186 2187
		363 364 365 379 387 1569 1570 2188 2189 2190
		426 427 428 429 430 2450 2451 2452 2453 2454
		431 432 433 434 435 2455 2456 2457 2458 2459
		486 487 488 489 490 2510 2511 2512 2513 2514
		2230 2231 2232 2233 2234 2235 2236 2237 2238 2239
		2240 2241 2242 2243 2244 2245 2246 2247 2248 2249
		2250 2251 2252 2253 2254 2255 2256 2257 2258 2259
	}
	names = {
		name = "COLONIAL_WESTERN_ATMORA_Western_Atmora"
	}
	names = {
		name = "COLONIAL_WESTERN_ATMORA_Root_Culture_GetGroupName_Western_Atmora"
	}
}

colonial_roscrea = {
	color = { 101 5 173 }
	
	tax_income = 1
	native_size = 1
	native_ferocity = 1
	native_hostileness = 1
	
	provinces = {
		2504 477 2486 2489 2503
		2502 2501 478 479 476
		483 2500 481 463 480
		2220 482 2505 462
		2506 2507 2508 2509
		485 395 392 391 393
		390 2229 2225 2224 2488
		2221 2222 465 484 2223
		464 2228 2487 2227 2226
		2219 2217 2215 2216 2218
	}
	names = {
		name = "COLONIAL_ROSCREA_Roscrea"
	}
	names = {
		name = "COLONIAL_ROSCREA_Root_Culture_GetGroupName_Roscrea"
	}
}

######### NEW ###########

colonial_hammerfell_coast = {
	color = { 199 174 34 }
	
	tax_income = 1
	native_size = 1
	native_ferocity = 1
	native_hostileness = 1
	
	provinces = {
		6392 6368 6433 6333 6352
		6095 6353 6357 6124 6122 6381 6092 6094 6093 1477
		6396 6362 6361 6406 6402 1509 1508 6121 1512 6414
		
		1480 6395 1479 6388 6125
		6422 6399 6398 6403 1507 6401 6373 6383 1476 6397
		6339 6340 6384 6374 6382 1478 6385 6375 6345 6430
		6346 6130 6108 7243 1514 6336 6329 6413 1513 6129
		
		1482 6157 6191 6192 6150
		6099 1515 1448 6237 6232 6236 6100 6220 6219 6330
		6149 1484 1483 1481 6061 1451 6098 6196 6146 6140
		1491 1488 1495 1473 6107 6289 6223 6254 6296 1475
		
		1446 1447 6167 6183 5736
		5794 6180 6155 1453 6170 5730 5735 5727 5700 5729
		6144 6148 6152 6145 6981 6147 6153 6133 6151 1450
		6143 6138 6168 6135 6136 6139 6066 6159 6194 1455
		
		6428 6425 6423 6432 6431 6426 6437 6440 6436 6390
		1506 6393 6394 6391 6439 6386 6407 6405 6389 6421
	}
	names = {
		name = "COLONIAL_HAMMERFELL_COAST_Hammerfell_Coast"
	}
	names = {
		name = "COLONIAL_HAMMERFELL_COAST_Root_Culture_GetGroupName_Hammerfell_Coast"
	}
}

colonial_iliac_bay = {
	color = { 140 18 18 }
	
	tax_income = 1
	native_size = 1
	native_ferocity = 1
	native_hostileness = 1
	
	provinces = {
		6082 1470 6083 6269 7170
		6259 6252 6260 6268 6273
		6264 6257 6280 6277 6089 6263 6262 6248 6261 6267
		6271 1467 6265 6266 7169 6123 1466 6276 6255 6272
		6292 6102 1486 1489 6295 6301 6290 7284 6214 6303
		6274 6278 6216 6287 6282 1490 6298 1471 6105 6294
		6341 1494 6218 1487 6283 6286 6270 6281 6279 6275
		
		1493 6306 6342 6240 6126 6326 6343 6127 6318 6235
		6317 6327 6331 1510 6338
		6372 6337 6334 6371 6347 6109 6344 6349 6323 6335
		1492 6239 6106 6320 6315 6332 6308 6313 6307 6325
		6411 6416 6418 6369 6378 6379 6360 6412 6377 6358
		6404 6350 6415 6376 6351 6229 6410 6409 6419 6420
		6380 6417 6366 6359 6364 6356 6319 6365 6370 6363
		6233 6355 6354 6400 6128 6367 6348 6321 1485 6328
		6238 6322 6309 6311 6310 6324 6305 6103 6288 6316
		6312 6104 6304 6314 6302 6091 6110 6285 6284 6101
	}
	names = {
		name = "COLONIAL_ILIAC_BAY_Iliac_Bay"
	}
	names = {
		name = "COLONIAL_ILIAC_BAY_Root_Culture_GetGroupName_Iliac_Bay"
	}
}

colonial_hammerfell_interior = {
	color = { 219 121 9 }
	
	tax_income = 1
	native_size = 1
	native_ferocity = 1
	native_hostileness = 1
	
	provinces = {
		6190 1463 5756 6182 5753 5355 5681 5687 5750 5712
		6156 6209 6195 6197 6198 6200 6199 1169 1452 6158
		6073 6071 7265 6171 6173 6162 6164 6179 7274 6160
		5746 5798 5758 5744 5759 5751 5797 5800 5732 5755
		6184 6070 6069 6193 6067 6137 6169 5737 5738 5740
		6434 6154 5728 5726 5723 5757 5703 5725 2266 5717
		6068 5670 5702 5724 5745 5747 5733 5734 5713 5720

		7262 1459 7258 6175 6189 6174 6172 6161 7264 7256
		7283 6178 7260 7272 7259
		6253 1469 7110 7236 7240 7215 7168 7167 7237 6982
		7253 6075 7238 7252 7249 7234 7244 7247 7263 1468
		1457 6251 6241 7239 7242 1465 6085 6243 7208 5478
		7241 5752 1460 6072 7109 7257 7107 7108 6242 6247
		7261 7269 7267 6177 7266 7268 6176 7105 1458 5754
		7279 7101 3069 7271 7104 1289 7273 1293 7275 7285
		3060 3058 7282 6166 3045 3050 7102 1298 7106 6163
		3065 7248 7251 6074 7250

		6222 6299 1474 6250 6256
		6249 6246 6201 6208 6187 6084 6165 1464 6077 6244
		6204 6080 6206 6245 6202 6078 6079 6205 6207 6076
		1456 6181 6231 6203 6090 6234 6185 6188 6221 6186
		6215 6258 6088 6087 6293 6213 6212 6211 6300 6210
		5760 6217 5739 1454 1462 6291 6297 1461 6086 1472
	}
	names = {
		name = "COLONIAL_HAMMERFELL_INTERIOR_Hammerfell_Interior"
	}
	names = {
		name = "COLONIAL_HAMMERFELL_INTERIOR_Root_Culture_GetGroupName_Hammerfell_Interior"
	}
}

colonial_southern_black_marsh = {
	color = { 6 199 141 }
	
	tax_income = 1
	native_size = 1
	native_ferocity = 1
	native_hostileness = 1
	
	provinces = {
		6466 1090 1091 6817 6678 6818 1089 1109 6746 6470
		6478 6479 6480 6477 6815 6790 6789 6788 6787 6786
		6671 6672 6673 6674 6676 6677 6679 6680 6675 1097
		6811 6813 6814 6819 6812 6816 1092 6663 6750 6748
		6820 1098 1110 1100 1113
		6742 6743 6744 6747 6745
		6670 6665 6664 6660 6659 6658 6749 6667 6666 6669
		
		1081 6709 6710 6711 6712
		6716 6713 6714 6717 6720 6715 6707 6752 6753 6758
		6706 6705 6704 6703 6702 6701 6460 6539 6708 1083
		6756 6757 6760 6759 6751 1082 6770 6769 6767 6766
		6727 6728 6729 6730 6700 6699 6698 6719 6754 6755
		6694 6693 6692 6695 6697 6696 6691 6761 6690 6762
		
		1086 6461 6462 1087 6668
		6721 6838 6722 6723 6724 6726 1112 5447 5446 6725
		1079 1093 1094 1095 1111 6473 6474 6475 6472 1085
		6464 6471 1088 1099 6735 6734 6732 6731 6465 6463
		6733 6736 6737 6738 6739 6740 6467 6468 6469 6741
	}
	names = {
		name = "COLONIAL_SOUTHERN_BLACK_MARSH_Southern_Black_Marsh"
	}
	names = {
		name = "COLONIAL_SOUTHERN_BLACK_MARSH_Root_Culture_GetGroupName_Southern_Black_Marsh"
	}
}

colonial_eastern_black_marsh = {
	color = { 102 68 0 }
	
	tax_income = 1
	native_size = 1
	native_ferocity = 1
	native_hostileness = 1
	
	provinces = {
		1064 1063 6496 6596 6602
		6491 6492 3842 3841 3843 1065 6443 6442 6441 6444
		6445 6495 6595 6493 6500 1066 6494 6603 1067 6604
		6601 6605 6607 6608 6610 6606 6611 6612 6609 6622
		6614 6615 6618 6619 6620 6617 6613 1106 6624 6623
		6483 6484 6485 1107 6616 6621 1104 1101 1108 6482
		6628 6627 6625 6629 6821 6822 6825 1105 6824 6823
	
		6797 6800 6799 6794 6798
		6801 6802 6803 6804 6805 6807 6808 6809 6806 6481
		6791 6792 6795 6796 6793 6783 6782 6781 6784 6785
		6832 6833 6834 6835 6831 6829 6810 6828 6827 6830
	}
	names = {
		name = "COLONIAL_EASTERN_BLACK_MARSH_Eastern_Black_Marsh"
	}
	names = {
		name = "COLONIAL_EASTERN_BLACK_MARSH_Root_Culture_GetGroupName_Eastern_Black_Marsh"
	}
}

colonial_interior_black_marsh = {
	color = { 56 97 35 }
	
	tax_income = 1
	native_size = 1
	native_ferocity = 1
	native_hostileness = 1
	
	provinces = {
		6682 6644 6642 6649 6645 6646 6641 6647 6661 6662
		6775 6764 6763 6486 6487 6687 6765 6774 6776 6578
		6779 6778 6777 6579 6580 6588 6577 6576 6575 6773
		1075 1102 6839 1103 6826
		6651 6653 6654 6655 6656 6657 6652 6648 1096 6650
		6681 6684 6688 6689 6685 6686 6683 6643 6488 6490
		6557 6558 6559 6561 6771 6574 6560 6772 6780 6768
		6640 6639 6637 6636 6837 6840 6836 6635 6634 6632
		6589 6638 1077 6631 6590 6586 6510 6585 6630 6626
		6459 6457 6544 6456 6458 6553 6554 6556 6555 6552
		6541 6489 6545 6536 6550 6549 6546 6547 6548 6718
		6537 6538 1080 6542 6540 6543 6551 6563 6564 6569

		1073 3226 3227 3228 1069
		1072 1074 1078 6455 1071 6507 6508 6562 1070 6582
		6591 6583 6584 6599 6593 6597 6594 6598 6587 6592
		6571 980 6566 6633 6572 6570 6452 6567 6453 6451
		6505 6504 6502 6503 6568 6518 6512 6514 6513 979
		6600 6499 6498 6497 7002 6509 6501 6581 6573 6506
		6515 6517 6519 6520 6522 6521 6524 6523 6528 6448
		6449 3829 3828 3827 1068 3830 983 6450 6565 6511
		6525 6526 6527 6529 6532 6531 6533 6534 6535 6530
	}
	names = {
		name = "COLONIAL_INTERIOR_BLACK_MARSH_Interior_Black_Marsh"
	}
	names = {
		name = "COLONIAL_INTERIOR_BLACK_MARSH_Root_Culture_GetGroupName_Interior_Black_Marsh"
	}
}