po_tun_pantheon_rebels = {

	color = { 179 51 51 }
	area = nation 					# Sticks to provinces of their nation
	government = theocracy 			# Desires Theocracy
	religion = po_tun_pantheon
	defection = none				# Will not defect
	defect_delay = 120				# Held provinces will auto-defect after 18 months, regardless of accept/enforce demands.
	independence = none				# Does not strive for independence
	unit_transfer = no
	gfx_type = culture_province
	will_relocate = yes
	
	resilient = no
	reinforcing = yes
	general = yes
	smart = yes
	
	artillery = 0.0
	infantry = 0.7
	cavalry = 0.3
	
	morale = 1.1

	# Possible handle actions
	handle_action_negotiate = yes
	handle_action_stability = yes
	handle_action_build_core = yes
	handle_action_send_missionary = yes		
	
	# The rebel type with the highest modifier for this province gets picked
	spawn_chance = {
		factor = 1
		modifier = {
			factor = 0.5
			is_overseas = yes
		}
		modifier = {
			factor = 0.0
			owner = { religion = ROOT }
		}
		modifier = {
			factor = 0.0
			NOT = { religion = po_tun_pantheon }
		}
		modifier = {
			factor = 0.001
			tolerance_to_this = 5
		}
		modifier = {
			factor = 0.5
			tolerance_to_this = 2
		}
		modifier = {
			factor = 5.0
			owner = { has_country_flag = religious_turmoil }
		}		
		modifier = {
			factor = 2000
			has_missionary = yes
		}
		modifier = {
			factor = 2
			NOT = { tolerance_to_this = 1 }
		}
		modifier = {
			factor = 2
			NOT = { tolerance_to_this = -1 }
		}
		modifier = {
			factor = 2
			NOT = { tolerance_to_this = -2 }
		}
	}
 
 	# This is checked for EACH province in the Area of Operations
	movement_evaluation = {
		factor = 1
		modifier = {
			factor = 0.5
			units_in_province = 1
		}
		modifier = {
			factor = 0.001
			controlled_by = REB
		}
		modifier = {
			factor = 0.0
			religion = po_tun_pantheon
			owner = { religion = po_tun_pantheon }
		}
		modifier = {
			factor = 2.0
			NOT = { religion = po_tun_pantheon }
			any_neighbor_province = {
	 			religion = po_tun_pantheon
	 			NOT = { has_province_modifier = "forced_conversion" }
	 		}
	 	}
		modifier = {
			factor = 1.5
			unrest = 2.5
		}
		modifier = {
			factor = 1.5
			unrest = 5
		}
		modifier = {
			factor = 1.5
			unrest = 7.5
		}
	}
 
 	# Province Scope
 	siege_won_trigger = {
		NOT = {
			AND = {
				owned_by = BLA
				is_capital = yes
			}
		}
 	}
	siege_won_effect = { custom_tooltip = religious_rebels_seige_effect_tooltip owner = { change_estate_land_share = { estate = estate_priests share = 10.0 province = ROOT } }
		if = {
			limit = {
				religion = po_tun_pantheon
			}
			add_permanent_province_modifier = {
				name = "religious_violence"
				duration = 730
			}
		}
		if = {
			limit = {
				NOT = { religion = po_tun_pantheon }
			}
			change_religion = po_tun_pantheon
			add_permanent_province_modifier = {
				name = "forced_conversion"
				duration = 730
			}
		}
	}
	
	# Country scope
	can_negotiate_trigger = {
		OR = {
			religion_group = harmony_group
			dominant_religion = po_tun_pantheon
		}
	}
	
	# Country scope
	can_enforce_trigger = {
		always = yes
	}
	
	# Localisation for their demands
	demands_description = "po_tun_pantheon_rebels_demand"
	
	# Country Scope
	demands_enforced_effect = { hidden_effect = { add_country_modifier = { name = just_lost_to_rebels duration = 10 hidden = yes } change_estate_land_share = { estate = estate_priests share = 10.0 }
		if = {
			limit = {
				NOT = { religion_group = harmony_group }
			}
			add_prestige = -50
			every_owned_province = {
				limit = {
					has_rebel_faction = REB
				}
				add_local_autonomy = 25
			}
		}
		if = {
			limit = {
				tag = BLA
			}
			es_remove_stability_1 = yes
		}
		if = {
			limit = {
				religion = po_tun_pantheon
			}
			add_country_modifier = {
				name = "religious_intolerance"
				duration = 3650
			}
		}
		if = {
			limit = {
				NOT = { religion = po_tun_pantheon }
				dominant_religion = po_tun_pantheon
			}
			change_religion = po_tun_pantheon
			force_converted = yes
		}
		if = {
			limit = {
				NOT = { religion = po_tun_pantheon }
				NOT = { dominant_religion = po_tun_pantheon }
				religion_group = harmony_group
			}
			add_country_modifier = {
				name = "heretic_tolerance"
				duration = 3650
			}
		}
	}
	}
}

unknown_pantheon_rebels = {

	color = { 179 51 51 }
	area = nation 					# Sticks to provinces of their nation
	government = theocracy 			# Desires Theocracy
	religion = unknown_pantheon
	defection = none				# Will not defect
	defect_delay = 120				# Held provinces will auto-defect after 18 months, regardless of accept/enforce demands.
	independence = none				# Does not strive for independence
	unit_transfer = no
	gfx_type = culture_province
	will_relocate = yes
	
	resilient = no
	reinforcing = yes
	general = yes
	smart = yes
	
	artillery = 0.0
	infantry = 0.7
	cavalry = 0.3
	
	morale = 1.1

	# Possible handle actions
	handle_action_negotiate = yes
	handle_action_stability = yes
	handle_action_build_core = yes
	handle_action_send_missionary = yes		
	
	# The rebel type with the highest modifier for this province gets picked
	spawn_chance = {
		factor = 1
		modifier = {
			factor = 0.5
			is_overseas = yes
		}
		modifier = {
			factor = 0.0
			owner = { religion = ROOT }
		}
		modifier = {
			factor = 0.0
			NOT = { religion = unknown_pantheon }
		}
		modifier = {
			factor = 0.001
			tolerance_to_this = 5
		}
		modifier = {
			factor = 0.5
			tolerance_to_this = 2
		}
		modifier = {
			factor = 5.0
			owner = { has_country_flag = religious_turmoil }
		}		
		modifier = {
			factor = 2000
			has_missionary = yes
		}
		modifier = {
			factor = 2
			NOT = { tolerance_to_this = 1 }
		}
		modifier = {
			factor = 2
			NOT = { tolerance_to_this = -1 }
		}
		modifier = {
			factor = 2
			NOT = { tolerance_to_this = -2 }
		}
	}
 
 	# This is checked for EACH province in the Area of Operations
	movement_evaluation = {
		factor = 1
		modifier = {
			factor = 0.5
			units_in_province = 1
		}
		modifier = {
			factor = 0.001
			controlled_by = REB
		}
		modifier = {
			factor = 0.0
			religion = unknown_pantheon
			owner = { religion = unknown_pantheon }
		}
		modifier = {
			factor = 2.0
			NOT = { religion = unknown_pantheon }
			any_neighbor_province = {
	 			religion = unknown_pantheon
	 			NOT = { has_province_modifier = "forced_conversion" }
	 		}
	 	}
		modifier = {
			factor = 1.5
			unrest = 2.5
		}
		modifier = {
			factor = 1.5
			unrest = 5
		}
		modifier = {
			factor = 1.5
			unrest = 7.5
		}
	}
 
 	# Province Scope
 	siege_won_trigger = {
		NOT = {
			AND = {
				owned_by = BLA
				is_capital = yes
			}
		}
 	}
	siege_won_effect = { custom_tooltip = religious_rebels_seige_effect_tooltip owner = { change_estate_land_share = { estate = estate_priests share = 10.0 province = ROOT } }
		if = {
			limit = {
				religion = unknown_pantheon
			}
			add_permanent_province_modifier = {
				name = "religious_violence"
				duration = 730
			}
		}
		if = {
			limit = {
				NOT = { religion = unknown_pantheon }
			}
			change_religion = unknown_pantheon
			add_permanent_province_modifier = {
				name = "forced_conversion"
				duration = 730
			}
		}
	}
	
	# Country scope
	can_negotiate_trigger = {
		OR = {
			religion_group = harmony_group
			dominant_religion = unknown_pantheon
		}
	}
	
	# Country scope
	can_enforce_trigger = {
		always = yes
	}
	
	# Localisation for their demands
	demands_description = "unknown_pantheon_rebels_demand"
	
	# Country Scope
	demands_enforced_effect = { hidden_effect = { add_country_modifier = { name = just_lost_to_rebels duration = 10 hidden = yes } change_estate_land_share = { estate = estate_priests share = 10.0 }
		if = {
			limit = {
				NOT = { religion_group = harmony_group }
			}
			add_prestige = -50
			every_owned_province = {
				limit = {
					has_rebel_faction = REB
				}
				add_local_autonomy = 25
			}
		}
		if = {
			limit = {
				tag = BLA
			}
			es_remove_stability_1 = yes
		}
		if = {
			limit = {
				religion = unknown_pantheon
			}
			add_country_modifier = {
				name = "religious_intolerance"
				duration = 3650
			}
		}
		if = {
			limit = {
				NOT = { religion = unknown_pantheon }
				dominant_religion = unknown_pantheon
			}
			change_religion = unknown_pantheon
			force_converted = yes
		}
		if = {
			limit = {
				NOT = { religion = unknown_pantheon }
				NOT = { dominant_religion = unknown_pantheon }
				religion_group = harmony_group
			}
			add_country_modifier = {
				name = "heretic_tolerance"
				duration = 3650
			}
		}
	}
	}
}

cult_of_lorelia_rebels = {

	color = { 179 51 51 }
	area = nation 					# Sticks to provinces of their nation
	government = theocracy 			# Desires Theocracy
	religion = cult_of_lorelia
	defection = none				# Will not defect
	defect_delay = 120				# Held provinces will auto-defect after 18 months, regardless of accept/enforce demands.
	independence = none				# Does not strive for independence
	unit_transfer = no
	gfx_type = culture_province
	will_relocate = yes
	
	resilient = no
	reinforcing = yes
	general = yes
	smart = yes
	
	artillery = 0.0
	infantry = 0.7
	cavalry = 0.3
	
	morale = 1.1

	# Possible handle actions
	handle_action_negotiate = yes
	handle_action_stability = yes
	handle_action_build_core = yes
	handle_action_send_missionary = yes		
	
	# The rebel type with the highest modifier for this province gets picked
	spawn_chance = {
		factor = 1
		modifier = {
			factor = 0.5
			is_overseas = yes
		}
		modifier = {
			factor = 0.0
			owner = { religion = ROOT }
		}
		modifier = {
			factor = 0.0
			NOT = { religion = cult_of_lorelia }
		}
		modifier = {
			factor = 0.001
			tolerance_to_this = 5
		}
		modifier = {
			factor = 0.5
			tolerance_to_this = 2
		}
		modifier = {
			factor = 5.0
			owner = { has_country_flag = religious_turmoil }
		}		
		modifier = {
			factor = 2000
			has_missionary = yes
		}
		modifier = {
			factor = 2
			NOT = { tolerance_to_this = 1 }
		}
		modifier = {
			factor = 2
			NOT = { tolerance_to_this = -1 }
		}
		modifier = {
			factor = 2
			NOT = { tolerance_to_this = -2 }
		}
	}
 
 	# This is checked for EACH province in the Area of Operations
	movement_evaluation = {
		factor = 1
		modifier = {
			factor = 0.5
			units_in_province = 1
		}
		modifier = {
			factor = 0.001
			controlled_by = REB
		}
		modifier = {
			factor = 0.0
			religion = cult_of_lorelia
			owner = { religion = cult_of_lorelia }
		}
		modifier = {
			factor = 2.0
			NOT = { religion = cult_of_lorelia }
			any_neighbor_province = {
	 			religion = cult_of_lorelia
	 			NOT = { has_province_modifier = "forced_conversion" }
	 		}
	 	}
		modifier = {
			factor = 1.5
			unrest = 2.5
		}
		modifier = {
			factor = 1.5
			unrest = 5
		}
		modifier = {
			factor = 1.5
			unrest = 7.5
		}
	}
 
 	# Province Scope
 	siege_won_trigger = {
		NOT = {
			AND = {
				owned_by = BLA
				is_capital = yes
			}
		}
 	}
	siege_won_effect = { custom_tooltip = religious_rebels_seige_effect_tooltip owner = { change_estate_land_share = { estate = estate_priests share = 10.0 province = ROOT } }
		if = {
			limit = {
				religion = cult_of_lorelia
			}
			add_permanent_province_modifier = {
				name = "religious_violence"
				duration = 730
			}
		}
		if = {
			limit = {
				NOT = { religion = cult_of_lorelia }
			}
			change_religion = cult_of_lorelia
			add_permanent_province_modifier = {
				name = "forced_conversion"
				duration = 730
			}
		}
	}
	
	# Country scope
	can_negotiate_trigger = {
		OR = {
			religion_group = harmony_group
			dominant_religion = cult_of_lorelia
		}
	}
	
	# Country scope
	can_enforce_trigger = {
		always = yes
	}
	
	# Localisation for their demands
	demands_description = "cult_of_lorelia_demand"
	
	# Country Scope
	demands_enforced_effect = { hidden_effect = { add_country_modifier = { name = just_lost_to_rebels duration = 10 hidden = yes } change_estate_land_share = { estate = estate_priests share = 10.0 }
		if = {
			limit = {
				NOT = { religion_group = harmony_group }
			}
			add_prestige = -50
			every_owned_province = {
				limit = {
					has_rebel_faction = REB
				}
				add_local_autonomy = 25
			}
		}
		if = {
			limit = {
				tag = BLA
			}
			es_remove_stability_1 = yes
		}
		if = {
			limit = {
				religion = cult_of_lorelia
			}
			add_country_modifier = {
				name = "religious_intolerance"
				duration = 3650
			}
		}
		if = {
			limit = {
				NOT = { religion = cult_of_lorelia }
				dominant_religion = cult_of_lorelia
			}
			change_religion = cult_of_lorelia
			force_converted = yes
		}
		if = {
			limit = {
				NOT = { religion = cult_of_lorelia }
				NOT = { dominant_religion = cult_of_lorelia }
				religion_group = harmony_group
			}
			add_country_modifier = {
				name = "heretic_tolerance"
				duration = 3650
			}
		}
	}
	}
}

thirty_divines_rebels = {

	color = { 179 51 51 }
	area = nation 					# Sticks to provinces of their nation
	government = theocracy 			# Desires Theocracy
	religion = thirty_divines
	defection = none				# Will not defect
	defect_delay = 120				# Held provinces will auto-defect after 18 months, regardless of accept/enforce demands.
	independence = none				# Does not strive for independence
	unit_transfer = no
	gfx_type = culture_province
	will_relocate = yes
	
	resilient = no
	reinforcing = yes
	general = yes
	smart = yes
	
	artillery = 0.0
	infantry = 0.7
	cavalry = 0.3
	
	morale = 1.1

	# Possible handle actions
	handle_action_negotiate = yes
	handle_action_stability = yes
	handle_action_build_core = yes
	handle_action_send_missionary = yes		
	
	# The rebel type with the highest modifier for this province gets picked
	spawn_chance = {
		factor = 1
		modifier = {
			factor = 0.5
			is_overseas = yes
		}
		modifier = {
			factor = 0.0
			owner = { religion = ROOT }
		}
		modifier = {
			factor = 0.0
			NOT = { religion = thirty_divines }
		}
		modifier = {
			factor = 0.001
			tolerance_to_this = 5
		}
		modifier = {
			factor = 0.5
			tolerance_to_this = 2
		}
		modifier = {
			factor = 5.0
			owner = { has_country_flag = religious_turmoil }
		}		
		modifier = {
			factor = 2000
			has_missionary = yes
		}
		modifier = {
			factor = 2
			NOT = { tolerance_to_this = 1 }
		}
		modifier = {
			factor = 2
			NOT = { tolerance_to_this = -1 }
		}
		modifier = {
			factor = 2
			NOT = { tolerance_to_this = -2 }
		}
	}
 
 	# This is checked for EACH province in the Area of Operations
	movement_evaluation = {
		factor = 1
		modifier = {
			factor = 0.5
			units_in_province = 1
		}
		modifier = {
			factor = 0.001
			controlled_by = REB
		}
		modifier = {
			factor = 0.0
			religion = thirty_divines
			owner = { religion = thirty_divines }
		}
		modifier = {
			factor = 2.0
			NOT = { religion = thirty_divines }
			any_neighbor_province = {
	 			religion = thirty_divines
	 			NOT = { has_province_modifier = "forced_conversion" }
	 		}
	 	}
		modifier = {
			factor = 1.5
			unrest = 2.5
		}
		modifier = {
			factor = 1.5
			unrest = 5
		}
		modifier = {
			factor = 1.5
			unrest = 7.5
		}
	}
 
 	# Province Scope
 	siege_won_trigger = {
		NOT = {
			AND = {
				owned_by = BLA
				is_capital = yes
			}
		}
 	}
	siege_won_effect = { custom_tooltip = religious_rebels_seige_effect_tooltip owner = { change_estate_land_share = { estate = estate_priests share = 10.0 province = ROOT } }
		if = {
			limit = {
				religion = thirty_divines
			}
			add_permanent_province_modifier = {
				name = "religious_violence"
				duration = 730
			}
		}
		if = {
			limit = {
				NOT = { religion = thirty_divines }
			}
			change_religion = thirty_divines
			add_permanent_province_modifier = {
				name = "forced_conversion"
				duration = 730
			}
		}
	}
	
	# Country scope
	can_negotiate_trigger = {
		OR = {
			religion_group = harmony_group
			dominant_religion = thirty_divines
		}
	}
	
	# Country scope
	can_enforce_trigger = {
		always = yes
	}
	
	# Localisation for their demands
	demands_description = "thirty_divines_rebels_demand"
	
	# Country Scope
	demands_enforced_effect = { hidden_effect = { add_country_modifier = { name = just_lost_to_rebels duration = 10 hidden = yes } change_estate_land_share = { estate = estate_priests share = 10.0 }
		if = {
			limit = {
				NOT = { religion_group = harmony_group }
			}
			add_prestige = -50
			every_owned_province = {
				limit = {
					has_rebel_faction = REB
				}
				add_local_autonomy = 25
			}
		}
		if = {
			limit = {
				tag = BLA
			}
			es_remove_stability_1 = yes
		}
		if = {
			limit = {
				religion = thirty_divines
			}
			add_country_modifier = {
				name = "religious_intolerance"
				duration = 3650
			}
		}
		if = {
			limit = {
				NOT = { religion = thirty_divines }
				dominant_religion = thirty_divines
			}
			change_religion = thirty_divines
			force_converted = yes
		}
		if = {
			limit = {
				NOT = { religion = thirty_divines }
				NOT = { dominant_religion = thirty_divines }
				religion_group = harmony_group
			}
			add_country_modifier = {
				name = "heretic_tolerance"
				duration = 3650
			}
		}
	}
	}
}