polytheistic_group = {

	flags_with_emblem_percentage = 0
	flag_emblem_index_range = { 1 18 }
	
	center_of_religion = 1206
	
	ai_will_propagate_through_trade = yes
	
	defender_of_faith = yes
	can_form_personal_unions = yes

	altmeri_pantheon = {
		color = { 236 223 33 }
		icon = 1
		allow_female_defenders_of_the_faith = yes
		country = {
			tolerance_own = 2.5
			tolerance_heretic = 2.5
		}
		country_as_secondary = {
			tolerance_own = 2.5
			tolerance_heretic = 2.5
		}
		province = {
			local_missionary_strength = -0.015
		}
		
		personal_deity = yes
		
		heretic = { ALTMERI_PANTHEON_HERETIC }	
	}

	nedic_pantheon = {
		color = { 241 121 121 }
		icon = 92
		allow_female_defenders_of_the_faith = yes
		country = {
			global_spy_defence = 0.25
			global_unrest = -2.5
		}
		allowed_center_conversion = {
			ayleid_pantheon
			meridia_cult
			mehrunes_dagon_cult
			molag_bal_cult
			hermeus_mora_cult
			hircine_cult
			sheogorath_cult
			nocturnal_cult
			azura_cult
			boethiah_cult
			clavicus_vile_cult
			malacath_cult
			jyggalag_cult
			mephala_cult
			namira_cult
			peryite_cult
			sanguine_cult
			vaermina_cult
			ithelia_cult
		}
		will_get_center = {
            any_owned_province = {
                OR = {
                    religion = ayleid_pantheon
                    religion = meridia_cult
                    religion = mehrunes_dagon_cult
                    religion = molag_bal_cult
					religion = hermeus_mora_cult
					religion = hircine_cult
					religion = sheogorath_cult
					religion = nocturnal_cult
					religion = azura_cult
					religion = boethiah_cult
					religion = clavicus_vile_cult
					religion = malacath_cult
					religion = jyggalag_cult
					religion = mephala_cult
					religion = namira_cult
					religion = peryite_cult
					religion = sanguine_cult
					religion = vaermina_cult
                    religion = eight_divines
                    religion = ithelia_cult
                }
                is_in_capital_area = yes
                is_reformation_center = no
            }
        }
		country_as_secondary = {
			global_spy_defence = 0.25
			global_unrest = -2.5
		}
		province = {
			local_governing_cost = -0.25
		}
		
		personal_deity = yes
		
		heretic = { NEDIC_PANTHEON_HERETIC }	
	}
	
	snow_elves_pantheon = {
		color = { 230 222 100 }
		icon = 2
		allow_female_defenders_of_the_faith = yes
		country = {
			religious_unity = 0.25
			province_warscore_cost = -0.25
		}
		country_as_secondary = {
			religious_unity = 0.25
			province_warscore_cost = -0.25
		}
		province = {
			local_missionary_strength = -0.015
		}
		
		personal_deity = yes
		
		heretic = { SNOW_ELVES_PANTHEON_HERETIC }	
		
		misguided_heretic = yes
	}
	
	nordic_pantheon = {
		color = { 77 145 138 }
		icon = 3
		allow_female_defenders_of_the_faith = yes
		country = {
		    land_forcelimit_modifier  = 0.25
			global_regiment_recruit_speed = -0.25
		}
		country_as_secondary = {
			land_forcelimit_modifier  = 0.25
			global_regiment_recruit_speed = -0.25
		}
		province = {
			local_missionary_strength = -0.015
		}
		
		personal_deity = yes
		
		hre_religion = yes
		
		heretic = { NORDIC_PANTHEON_HERETIC }	
	}
	
	bosmer_pantheon = {
		color = { 75 55 26 }
		icon = 4
		allow_female_defenders_of_the_faith = yes
		country = {
			land_attrition = -0.25
		    garrison_size = 0.25
		}
		country_as_secondary = {
			land_attrition = -0.25
		    garrison_size = 0.25
		}
		province = {
			local_missionary_strength = -0.015
		}
		
		personal_deity = yes
		
		can_have_secondary_religion = yes
		
		heretic = { BOSMER_HERETIC }	
	}
	
	eight_divines = {
		color = { 77 101 198 }
		icon = 5
		allow_female_defenders_of_the_faith = yes
		country = {
			global_tax_modifier = 0.15
		    core_creation = -0.25
		}
		allowed_center_conversion = {
			meridia_cult
			mehrunes_dagon_cult
			molag_bal_cult
			hermeus_mora_cult
			hircine_cult
			sheogorath_cult
			nocturnal_cult
			azura_cult
			boethiah_cult
			clavicus_vile_cult
			malacath_cult
			jyggalag_cult
			mephala_cult
			namira_cult
			peryite_cult
			sanguine_cult
			vaermina_cult
			ithelia_cult
		}
		will_get_center = {
            any_owned_province = {
                OR = {
                    religion = meridia_cult
                    religion = mehrunes_dagon_cult
                    religion = molag_bal_cult
					religion = hermeus_mora_cult
					religion = hircine_cult
					religion = sheogorath_cult
					religion = nocturnal_cult
					religion = azura_cult
					religion = boethiah_cult
					religion = clavicus_vile_cult
					religion = malacath_cult
					religion = jyggalag_cult
					religion = mephala_cult
					religion = namira_cult
					religion = peryite_cult
					religion = sanguine_cult
					religion = vaermina_cult
                    religion = eight_divines
                    religion = ithelia_cult
                }
                is_in_capital_area = yes
                is_reformation_center = no
            }
        }
		country_as_secondary = {
			global_tax_modifier = 0.15
		    core_creation = -0.25
		}
		province = {
			local_missionary_strength = -0.015
		}
		
		personal_deity = yes
		
		hre_heretic_religion = yes
		
		heretic = { EIGHT_DIVINES_HERETIC }	
	}
	
	nine_divines = {
		color = { 23 65 230 }
		icon = 6
		allow_female_defenders_of_the_faith = yes
		country = {
			warscore_from_battles_modifier = 0.25
		    prestige_decay = -0.025
		}
		country_as_secondary = {
			warscore_from_battles_modifier = 0.25
		    prestige_decay = -0.025
		}
		province = {
			local_missionary_strength = -0.015
		}
		
		personal_deity = yes
		
		heretic = { NINE_DIVINES_HERETIC }	
	}
	
	twelve_divines = {
		color = { 9 38 154 }
		icon = 7
		allow_female_defenders_of_the_faith = yes
		country = {
		    global_unrest = -2.5
			num_accepted_cultures = 1
		}
		allowed_center_conversion = {
			altmeri_pantheon
			nordic_pantheon
			eight_divines
		}
		will_get_center = {
            any_owned_province = {
				OR = {
					religion = altmeri_pantheon
					religion = twelve_divines
					religion = nordic_pantheon
					religion = eight_divines
				}
                is_in_capital_area = yes
                is_reformation_center = no
            }
        }
		country_as_secondary = {
			global_unrest = -2.5
			num_accepted_cultures = 1
		}
		province = {
			local_missionary_strength = -0.015
		}
		
		personal_deity = yes
		
		heretic = { TWELVE_DIVINES_HERETIC }	
		
		misguided_heretic = yes
	}
	
	khajiiti_pantheon = {
		color = { 202 230 59 }
		icon = 8
		allow_female_defenders_of_the_faith = yes
		country = {
		    caravan_power = 0.25
			recover_army_morale_speed = 0.10
		}
		country_as_secondary = {
			caravan_power = 0.25
			recover_army_morale_speed = 0.10
		}
		province = {
			local_missionary_strength = -0.015
		}
		
		personal_deity = yes
		
		heretic = { KHAJIITI_HERETIC }	
	}
	
	yokudan_pantheon = {
		color = { 230 167 40 }
		icon = 9
		allow_female_defenders_of_the_faith = yes
		country = {
			trade_efficiency = 0.15
			light_ship_power = 0.15
		}
		country_as_secondary = {
			trade_efficiency = 0.15
			light_ship_power = 0.15
		}
		province = {
			local_missionary_strength = -0.015
		}
		
		personal_deity = yes
		
		heretic = { YOKUDAN_PANTHEON_HERETIC }	
	}
	
	redguard_pantheon = {
		color = { 198 135 11 }
		icon = 10
		allow_female_defenders_of_the_faith = yes
		country = {
		    cavalry_cost = -0.25
			infantry_power = 0.15
		}
		country_as_secondary = {
			cavalry_cost = -0.25
			infantry_power = 0.15
		}
		province = {
			local_missionary_strength = -0.015
		}
		
		personal_deity = yes
		
		heretic = { REDGUARD_PANTHEON_HERETIC }
		
		misguided_heretic = yes
	}
	
	marukhism = {
		color = { 243 212 12 }
		icon = 19
		allow_female_defenders_of_the_faith = yes
		country = {
			culture_conversion_cost = -0.25
			prestige_per_development_from_conversion = 0.10
		}
		allowed_center_conversion = {
			eight_divines
			nine_divines
			snow_elves_pantheon
			meridia_cult
			mehrunes_dagon_cult
			molag_bal_cult
			hermeus_mora_cult
			hircine_cult
			sheogorath_cult
			nocturnal_cult
			azura_cult
			boethiah_cult
			clavicus_vile_cult
			malacath_cult
			jyggalag_cult
			mephala_cult
			namira_cult
			peryite_cult
			sanguine_cult
			vaermina_cult
			ithelia_cult
		}
		will_get_center = {
            any_owned_province = {
                OR = {
                    religion = eight_divines
                    religion = nine_divines
                    religion = snow_elves_pantheon
                    religion = meridia_cult
                    religion = mehrunes_dagon_cult
                    religion = molag_bal_cult
                    religion = hermeus_mora_cult
                    religion = hircine_cult
                    religion = sheogorath_cult
                    religion = nocturnal_cult
                    religion = marukhism
					religion = azura_cult
					religion = boethiah_cult
					religion = clavicus_vile_cult
					religion = malacath_cult
					religion = jyggalag_cult
					religion = mephala_cult
					religion = namira_cult
					religion = peryite_cult
					religion = sanguine_cult
					religion = vaermina_cult
					religion = ithelia_cult
                }
                is_in_capital_area = yes
                is_reformation_center = no
            }
        }
		country_as_secondary = {
			culture_conversion_cost = -0.25
			prestige_per_development_from_conversion = 0.10
		}
		province = {
			local_missionary_strength = -0.015
		}
		
		heretic = { MARUKHISM_HERETIC }	
		
		fervor = yes
	}
	
	reclamations_pantheon = {
		color = { 10 14 146 }
		icon = 15
		allow_female_defenders_of_the_faith = yes
		country = {
			years_of_nationalism = -10
			same_culture_advisor_cost = -0.25
		}
		allowed_center_conversion = {
			tribunal_pantheon
			meridia_cult
			mehrunes_dagon_cult
			molag_bal_cult
			hermeus_mora_cult
			hircine_cult
			sheogorath_cult
			nocturnal_cult
			azura_cult
			boethiah_cult
			clavicus_vile_cult
			malacath_cult
			jyggalag_cult
			mephala_cult
			namira_cult
			peryite_cult
			sanguine_cult
			vaermina_cult
			ithelia_cult
		}
		will_get_center = {
            any_owned_province = {
				OR = {
					religion = tribunal_pantheon
					religion = meridia_cult
					religion = mehrunes_dagon_cult
					religion = molag_bal_cult
					religion = hermeus_mora_cult
					religion = hircine_cult
					religion = sheogorath_cult
					religion = nocturnal_cult
					religion = reclamations_pantheon
					religion = azura_cult
					religion = boethiah_cult
					religion = clavicus_vile_cult
					religion = malacath_cult
					religion = jyggalag_cult
					religion = mephala_cult
					religion = namira_cult
					religion = peryite_cult
					religion = sanguine_cult
					religion = vaermina_cult
					religion = ithelia_cult
				}
                is_in_capital_area = yes
                is_reformation_center = no
            }
        }
		country_as_secondary = {
			years_of_nationalism = -10
			same_culture_advisor_cost = -0.25
		}
		province = {
			local_missionary_strength = -0.015
		}
		
		date = 1466.01.01
		
		personal_deity = yes
		
		heretic = { RECLAMATIONS_HERETIC }	
	}
	
	ayleid_pantheon = {
		color = { 255 206 117 }
		icon = 91
		allow_female_defenders_of_the_faith = yes
		country = {
			global_rebel_suppression_efficiency = 0.25
			global_prosperity_growth = 0.25
		}
		country_as_secondary = {
			global_rebel_suppression_efficiency = 0.25
			global_prosperity_growth = 0.25
		}
		province = {
			local_missionary_strength = -0.015
		}
		
		personal_deity = yes
		
		heretic = { AYLEID_HERETIC }	
		
		misguided_heretic = yes
	}
	
	keptu_pantheon = {
		color = { 170 50 50 }
		icon = 50
		allow_female_defenders_of_the_faith = yes
		country = {
			global_own_trade_power = 0.25
			army_tradition_from_battle = 0.5
		}
		country_as_secondary = {
			global_own_trade_power = 0.25
			army_tradition_from_battle = 0.5
		}
		province = {
			local_missionary_strength = -0.015
		}
		
		personal_deity = yes
		
		heretic = { KEPTU_PANTHEON_HERETIC }
	}
	
	four_parents = {
		color = { 112 159 193 }
		icon = 83
		allow_female_defenders_of_the_faith = yes
		country = {
			morale_damage = 0.15
			build_cost = -0.25
		}
		country_as_secondary = {
			morale_damage = 0.15
			build_cost = -0.25
		}
		province = {
			local_missionary_strength = -0.015
		}
		
		personal_deity = yes
		
		heretic = { FOUR_PARENTS_HERETIC }
	}
	
	crusade_name = CRUSADE
	harmonized_modifier = harmonized_polytheistic_group
}

occult_group = {
    flags_with_emblem_percentage = 0
	flag_emblem_index_range = { 1 18 }
	
	center_of_religion = 382
	
	ai_will_propagate_through_trade = yes
	
	defender_of_faith = yes
	can_form_personal_unions = yes
	
	sithis_cult = {
		color = { 84 28 29 }
		icon = 51
		allow_female_defenders_of_the_faith = yes
		country = {
			shock_damage = 0.15
			mil_tech_cost_modifier = -0.1
		}
		country_as_secondary = {
			shock_damage = 0.15
			mil_tech_cost_modifier = -0.1
		}
		province = {
			local_missionary_strength = -0.025
		}
		
		heretic = { SITHIS_CULT_HERETIC }    
		
		fervor = yes
	}
	
	miraak_cult = {
		color = { 255 208 43 }
		icon = 48
		allow_female_defenders_of_the_faith = yes
		country = {
			discipline = 0.10
			centralize_state_cost = -0.25
		}
		country_as_secondary = {
			discipline = 0.10
			centralize_state_cost = -0.25
		}
		province = {
			local_missionary_strength = -0.025
		}
		
		heretic = { MIRAAK_CULT_HERETIC }    
		
		fervor = yes
	}
	
	druidism = {
		color = { 0 153 0 }
		icon = 49
		allow_female_defenders_of_the_faith = yes
		country = {
			recover_army_morale_speed = 0.10
			war_exhaustion_cost = -0.15
		}
		country_as_secondary = {
			recover_army_morale_speed = 0.10
			war_exhaustion_cost = -0.15
		}
		province = {
			local_missionary_strength = -0.025
		}
		
		heretic = { DRUIDISM_HERETIC }	
		
		uses_piety = yes
	}
	
	chimer_pantheon = {
		color = { 95 95 95 }
		icon = 13
		allow_female_defenders_of_the_faith = yes
		country = {
			prestige_from_land = 0.25
			build_cost = -0.25
		}
		country_as_secondary = {
			prestige_from_land = 0.25
			build_cost = -0.25
		}
		province = {
			local_missionary_strength = -0.025
		}
		
		fetishist_cult = yes
		
		heretic = { CHIMER_HERETIC }	
	}
	
	tribunal_pantheon = {
		color = { 165 115 65 }
		icon = 14
		allow_female_defenders_of_the_faith = yes
		country = {
		    governing_capacity_modifier = 0.25
			discipline = 0.10
		}
		country_as_secondary = {
		    governing_capacity_modifier = 0.25
			discipline = 0.10
		}
		province = {
			local_missionary_strength = -0.025
		}
		
		papacy = {
			papal_tag = TRI
			election_cost = 5
			seat_of_papacy = 1043
			
			#Council of Trent Positions
			harsh = {
				relation_with_heretics = -50
				global_religious_conversion_resistance = 0.25
				global_institution_spread = -0.25
				global_missionary_strength = 0.025
				tolerance_heretic = -5
			}
			neutral = {
				global_religious_conversion_resistance = -0.35
			}
			concilatory = {
				relation_with_heretics = 25
				global_religious_conversion_resistance = -0.15
				global_heretic_missionary_strength = -0.05
				improve_relation_modifier = 0.25
				tolerance_heretic = 3
			}
			
			#Council of Trent Concessions
			concessions = {
				first_concession = {
					harsh = {
						relation_with_heretics = -25
						global_heretic_missionary_strength  = 0.01
						harsh_treatment_cost = -0.10
					}	
					concilatory = {
						relation_with_heretics = 15
						tolerance_heretic = 1
						diplomatic_reputation = 0.5
					}
				}
				second_concession = {
					harsh = {
						relation_with_heretics = -25
						institution_spread_from_true_faith = 0.25
						tolerance_heretic = -1.5
					}	
					concilatory = {
						relation_with_heretics = 15
						global_institution_spread = 0.10
						global_religious_conversion_resistance = -0.15
					}
				}
				third_concession = {
					harsh = {
						relation_with_heretics = -25
						manpower_in_true_faith_provinces = 0.25
						tolerance_own = 1
					}	
					concilatory = {
						relation_with_heretics = 15
						global_manpower_modifier = 0.10
						religious_unity = 0.10
					}
				}
				fourth_concession = {
					harsh = {
						relation_with_heretics = -25
						warscore_cost_vs_other_religion  = -0.10
						diplomatic_annexation_cost = -0.10
					}	
					concilatory = {
						relation_with_heretics = 15
						curia_powers_cost = -0.10
						tolerance_heretic = 1
					}
				}
			}
			
			# Papal Actions below!
			
			levy_church_tax = {
				cost = 50
				potential = {
					NOT = { has_reform = priesthood_rule_reform }
					NOT = { has_reform = tribunal_rule_reform }
				}
				allow = {
					NOT = { war_with = RED }
					NOT = { has_country_modifier = papal_sanction_for_church_taxes_1 }
				}
				effect = {
					add_country_modifier = {
						name = "papal_sanction_for_church_taxes_1"
						duration = 3650
					}
				}
				ai_will_do = {
					factor = 1
				}				
			}			
			bless_monarch = {
				cost = 50
				potential = {
					NOT = { has_reform = priesthood_rule_reform }
					NOT = { has_reform = tribunal_rule_reform }
				}
				allow = {
					NOT = { war_with = RED }
					NOT = { prestige = 100 }
					NOT = { has_country_modifier = papal_blessing_1 }
				}
				effect = {
					add_country_modifier = {
						name = "papal_blessing_1"
						duration = 3650
					}
				}
				ai_will_do = {
					factor = 1
				}
			}
			indulgence_for_sins = {
				cost = 50
				potential = {
					NOT = { has_reform = priesthood_rule_reform }
					NOT = { has_reform = tribunal_rule_reform }
				}
				allow = {
					NOT = { war_with = RED }
					NOT = { legitimacy = 100 }
					NOT = { has_country_modifier = papal_indulgence_1 }
				}
				effect = {
					add_country_modifier = {
						name = "papal_indulgence_1"
						duration = 3650
					}
				}
				ai_will_do = {
					factor = 1
				}
			}	
			local_saint = {
				cost = 100
				potential = {
					NOT = { has_reform = priesthood_rule_reform }
					NOT = { has_reform = tribunal_rule_reform }
				}
				allow = {
					NOT = { war_with = RED }
					NOT = { stability = 3 }
				}
				effect = {
					es_add_stability_1 = yes
				}
				ai_will_do = {
					factor = 1
					modifier = {
						factor = 2
						NOT = { stability = 0 }
					}
				}
			}
			forgiveness_for_usury = {
				cost = 50
				potential = {
					NOT = { has_reform = priesthood_rule_reform }
					NOT = { has_reform = tribunal_rule_reform }
				}
				allow = {
					NOT = { war_with = RED }
					NOT = { has_country_modifier = usury_forgiven_1 }
				}
				effect = {
					add_country_modifier = {
						name = "usury_forgiven_1"
						duration = 3650
					}
				}
				ai_will_do = {
					factor = 1
					modifier = {
						factor = 0
						NOT = { num_of_loans = 1 }
					}
				}
			}			
			proclaim_holy_war = {
				cost = 50
				potential = {
					NOT = { has_reform = priesthood_rule_reform }
					NOT = { has_reform = tribunal_rule_reform }
				}
				allow = {
					is_at_war = yes
					NOT = { war_with = RED }
					NOT = { has_country_modifier = papal_sanction_for_holy_war_1 }
				}
				effect = {
					add_country_modifier = {
						name = "papal_sanction_for_holy_war_1"
						duration = 3650
					}
				}
				ai_will_do = {
					factor = 1
					modifier = {
						factor = 0
						manpower_percentage = 0.5
					}
				}
			}
			send_papal_legate = {
				cost = 50
				potential = {
					NOT = { has_reform = priesthood_rule_reform }
					NOT = { has_reform = tribunal_rule_reform }
				}
				allow = {
					NOT = { war_with = RED }
					NOT = { has_country_modifier = papal_legate_1 }
				}
				effect = {
					add_country_modifier = {
						name = "papal_legate_1"
						duration = 3650
					}
				}
				ai_will_do = {
					factor = 1
				}
			}	
			sanction_commercial_monopoly = {
				cost = 50
				potential = {
					NOT = { has_reform = priesthood_rule_reform }
					NOT = { has_reform = tribunal_rule_reform }
				}
				allow = {
					NOT = { war_with = RED }
					NOT = { mercantilism = 100 }
				}
				effect = {
					add_mercantilism = 1
				}
				ai_will_do = {
					factor = 1
					modifier = {
						factor = 0
						NOT = { has_idea_group = trade_ideas }
					}
				}
			}
            investigate_heresy = {
				curia_treasury_cost = 500
				potential = {
					has_dlc = "Emperor"
					OR = {
					    has_reform = priesthood_rule_reform
						has_reform = tribunal_rule_reform
					}
				}
				allow = {
					is_papal_controller = yes
					reform_desire = 0.05
				}
				effect = {
					add_reform_desire = -0.05
					add_reform_desire_scale = 0.5
				}
				ai_will_do = {
					factor = 0
				}
			}			
		}
		
		heretic = { TRIBUNAL_HERETIC }	
	}
	
	orcish_pantheon = {
		color = { 24 122 14 }
		icon = 11
		allow_female_defenders_of_the_faith = yes
		country = {
			army_tradition_decay = -0.025
	        defensiveness = 0.25
		}
		country_as_secondary = {
			army_tradition_decay = -0.025
	        defensiveness = 0.25
		}
		province = {
			local_missionary_strength = -0.025
		}
		
		personal_deity = yes
		
		heretic = { MALACATH_HERETIC }	
	}
	
	serpant_king = {
		color = { 130 210 96 }
		icon = 17
		allow_female_defenders_of_the_faith = yes
		country = {
			land_morale = 0.15
			harsh_treatment_cost = -0.50
		}
		country_as_secondary = {
			land_morale = 0.15
			harsh_treatment_cost = -0.50
		}
		province = {
			local_missionary_strength = -0.025
		}
		
		doom = yes
		fervor = yes
		declare_war_in_regency = yes
		religious_reforms = yes
		can_have_secondary_religion = yes
		reform_tooltip = NAHUATL_REFORM_TOOLTIP
		
		heretic = { SERPANT_KING_HERETIC }	
	}
	
	dragon_cult = {
		color = { 202 208 43 }
		icon = 18
		allow_female_defenders_of_the_faith = yes
		country = {
			stability_cost_modifier = -0.25
			warscore_cost_vs_other_religion = -0.25
			has_carolean = yes
		}
		allowed_center_conversion = {
			nordic_pantheon
		}
		will_get_center = {
            any_owned_province = {
				OR = {
					religion = nordic_pantheon
					religion = dragon_cult
				}
                is_in_capital_area = yes
                is_reformation_center = no
            }
        }
		country_as_secondary = {
			stability_cost_modifier = -0.25
			warscore_cost_vs_other_religion = -0.25
			has_carolean = yes
		}
		province = {
			local_missionary_strength = -0.025
		}
		
		heretic = { DRAGON_CULT_HERETIC }	
		
		has_patriarchs = yes
		
		orthodox_icons = {

			icon_hevnoraak = {
				recover_navy_morale_speed = 0.10
				naval_attrition = -0.25
				
				allow = {
					always = yes
				}
				visible = {
					has_country_flag = deity_flag_1
				}
				ai_will_do = {
					factor = 1
				}
			}

			icon_krosis = {
				min_autonomy_in_territories = -0.1
				rebel_support_efficiency = 0.5
				allow = {
					always = yes
				}
				visible = {
					has_country_flag = deity_flag_3
				}
				ai_will_do = {
					factor = 1
				}
			}
			
			icon_morokei = {
				mercenary_cost = -0.25
				reduced_liberty_desire = 25
				
				allow = {
					always = yes
				}
				visible = {
					has_country_flag = deity_flag_5
				}
				ai_will_do = {
					factor = 1
				}
			}
			
			icon_nahkriin = {
				monarch_diplomatic_power = 1
				reinforce_cost_modifier = -0.25
				
				allow = {
					always = yes
				}
				visible = {
					has_country_flag = deity_flag_6
				}
				ai_will_do = {
					factor = 1
				}
			}
			
			icon_otar = {
				fort_maintenance_modifier = -0.25
				war_exhaustion_cost = -0.25
				allow = {
					always = yes
				}
				visible = {
					has_country_flag = deity_flag_7
				}
				ai_will_do = {
					factor = 1
				}
			}
			
			icon_rahgot = {
				drill_gain_modifier = 0.25
				drill_decay_modifier = -0.15
				allow = {
					always = yes
				}
				visible = {
					has_country_flag = deity_flag_8
				}
				ai_will_do = {
					factor = 1
				}
			}
			
			icon_vokun = {
				prestige_from_land = 0.25
				global_tax_modifier = 0.15
				allow = {
					always = yes
				}
				visible = {
					has_country_flag = deity_flag_4
				}
				ai_will_do = {
					factor = 1
				}
			}
			
			icon_volsung = {
			    global_own_trade_power = 0.15
				ship_power_propagation = 0.25
				allow = {
					always = yes
				}
				visible = {
					has_country_flag = deity_flag_2
				}
				ai_will_do = {
					factor = 1
				}
			}
			
			icon_wooden_mask = {
			    monarch_military_power = 1
				merc_maintenance_modifier = -0.25
				allow = {
					always = yes
				}
				visible = {
					has_country_flag = deity_flag_14
				}
				ai_will_do = {
					factor = 1
				}
			}
			
			icon_konahrik = {
			    monarch_admin_power = 1
				administrative_efficiency = 0.10
				allow = {
					always = yes
				}
				visible = {
					has_country_flag = deity_flag_13
				}
				ai_will_do = {
					factor = 1
				}
			}
			
			icon_ahzidal = {
			    yearly_corruption = -0.15
				rival_border_fort_maintenance = -0.25
				allow = {
					always = yes
				}
				visible = {
					has_country_flag = deity_flag_11
				}
				ai_will_do = {
					factor = 1
				}
			}
			
			icon_dukaan = {
			    naval_morale = 0.15
				sailor_maintenance_modifer = -0.25
				allow = {
					always = yes
				}
				visible = {
					has_country_flag = deity_flag_9
				}
				ai_will_do = {
					factor = 1
				}
			}
			
			icon_zahkriisos = {
			    land_maintenance_modifier = -0.25
                naval_maintenance_modifier = -0.15	
				allow = {
					always = yes
				}
				visible = {
					has_country_flag = deity_flag_10
				}
				ai_will_do = {
					factor = 1
				}
			}
			
			icon_miraak = {
			    vassal_forcelimit_bonus = 0.15
				diplomatic_annexation_cost = -0.25
				allow = {
					always = yes
				}
				visible = {
					has_country_flag = deity_flag_12
				}
				ai_will_do = {
					factor = 1
				}
			}

		}
	}
	
	kothri_pantheon = {
		color = { 236 201 26 }
		icon = 12
		allow_female_defenders_of_the_faith = yes
		country = {
		    fire_damage_received = -0.15
			global_trade_power = 0.25
		}
		country_as_secondary = {
			fire_damage_received = -0.15
			global_trade_power = 0.25
		}
		province = {
			local_missionary_strength = -0.025
		}
		
		personal_deity = yes
		
		heretic = { KOTHRI_HERETIC }	
	}
	
	reason_and_logic_cult = {
		color = { 183 65 14 }
		icon = 21
		allow_female_defenders_of_the_faith = yes
		country = {
		    siege_ability = 0.25
			improve_relation_modifier = 0.5
		}
		country_as_secondary = {
			siege_ability = 0.25
			improve_relation_modifier = 0.5
		}
		province = {
			local_missionary_strength = -0.025
		}
		
		heretic = { REASON_AND_LOGIC_HERETIC }	
		
		holy_sites = { 1062 3320 4054 2949 7245 }
		
		blessings = {
			observatory_arcanex
			resonator_arcanex
			workshop_arcanex
			repository_arcanex
			oculory_arcanex
		}
	}
	
	dremora_pantheon = {
		color = { 121 40 39 }
		icon = 26
		allow_female_defenders_of_the_faith = yes
		country = {
			global_regiment_cost = -0.25
			movement_speed = 0.25
		}
		country_as_secondary = {
			global_regiment_cost = -0.25
			movement_speed = 0.25
		}
		province = {
			local_missionary_strength = -0.025
		}
		
		can_have_secondary_religion = yes
		
		fervor = yes
		
		heretic = { DREMORA_HERETIC }	
	}
	
	cult_of_black_worm = {
		color = { 200 25 25 }
		icon = 36
		allow_female_defenders_of_the_faith = yes
		country = {
			mil_tech_cost_modifier = -0.1
			leader_land_shock = 1
		}
		country_as_secondary = {
			mil_tech_cost_modifier = -0.1
			leader_land_shock = 1
		}
		province = {
			local_missionary_strength = -0.025
		}
		
		uses_hussite_power = yes
		aspects = {
			forbidden_rituals_aspect
			forgotten_deities_aspect
			ecstasy_of_suffering_aspect
			summon_the_dead_aspect
			curse_the_ghosts_aspect
		}
		aspects_name = PROTESTANT_ASPECTS
		
		heretic = { CULT_OF_BLACK_WORM_HERETIC }	
	}
	
	all_maker_cult = {
		color = { 23 35 192 }
		icon = 32
		allow_female_defenders_of_the_faith = yes
		country = {
			hostile_attrition = 1
			production_efficiency = 0.15
		}
		country_as_secondary = {
			hostile_attrition = 1
			production_efficiency = 0.15
		}
		province = {
			local_missionary_strength = -0.025
		}
		
		heretic = { ALL-MAKER_HERETIC }	
		
		uses_karma = yes
	}
	
	cult_of_ancestors = {
		color = { 229 188 176 }
		icon = 95
		allow_female_defenders_of_the_faith = yes
		country = {
			prestige = 0.25
			army_tradition = 0.5
		}
		country_as_secondary = {
			prestige = 0.25
			army_tradition = 0.5
		}
		province = {
			local_missionary_strength = -0.025
		}
		
		heretic = { CULT_OF_ANCESTORS_HERETIC }	
		
		ancestors = yes
	}
	
	old_way_cult = {
		color = { 101 195 221 }
		icon = 94
		allow_female_defenders_of_the_faith = yes
		country = {
			development_cost = -0.25
			free_leader_pool = 1
		}
		country_as_secondary = {
			development_cost = -0.25
			free_leader_pool = 1
		}
		province = {
			local_missionary_strength = -0.025
		}
		
		heretic = { OLD_WAY_CULT_HERETIC }	
		
		gurus = {
			ritemaster_aranmo = {
				trigger = { OR = { is_year = 175 owns_core_province = 263 } }
				chance = { factor = 2.5 modifier = { factor = 1.5 is_year = 100 } modifier = { factor = 1.5 is_year = 175 } modifier = { factor = 1.5 is_year = 250 } }
				modifier = { monarch_admin_power = 1 }
				teachings = {
					venerate_priests = { type = ADM cost = 500 tolerance_own = 1.5 }
					venerate_vendors = { type = DIP cost = 500 global_prov_trade_power_modifier = 0.05 }
					venerate_strategists = { type = MIL cost = 500 leader_land_shock = 1 }
				}
			}
			ritemaster_iteoril = {
				trigger = { OR = { is_year = 350 owns_core_province = 844 } }
				chance = { factor = 2.5 modifier = { factor = 1.5 is_year = 275 } modifier = { factor = 1.5 is_year = 350 } modifier = { factor = 1.5 is_year = 425 } }
				modifier = { monarch_diplomatic_power = 1 }
				teachings = {
					venerate_managers = { type = ADM cost = 500 core_creation = -0.15 }
					venerate_officers = { type = DIP cost = 500 leader_naval_fire = 1 }
					venerate_logisticians = { type = MIL cost = 500 movement_speed = 0.05 }
				}
			}
			ritemaster_camosin = {
				trigger = { OR = { is_year = 525 owns_core_province = 5506 } }
				chance = { factor = 2.5 modifier = { factor = 1.5 is_year = 450 } modifier = { factor = 1.5 is_year = 525 } modifier = { factor = 1.5 is_year = 600 } }
				modifier = { monarch_military_power = 1 }
				teachings = {
					venerate_theologians = { type = ADM cost = 500 global_missionary_strength = 0.015 }
					venerate_traders = { type = DIP cost = 500 trade_steering = 0.05 }
					venerate_horsemen = { type = MIL cost = 500 cavalry_flanking = 0.10 }
				}
			}
			ritemaster_yaralin = {
				trigger = { OR = { is_year = 700 owns_core_province = 5627 } }
				chance = { factor = 2.5 modifier = { factor = 1.5 is_year = 625 } modifier = { factor = 1.5 is_year = 700 } modifier = { factor = 1.5 is_year = 775 } }
				modifier = { monarch_admin_power = 1 }
				teachings = {
					venerate_judges = { type = ADM cost = 500 administrative_efficiency = 0.05 }
					venerate_shipbuilders = { type = DIP cost = 500 naval_forcelimit_modifier = 0.15 }
					venerate_engineers = { type = MIL cost = 500 land_forcelimit_modifier = 0.10 }
				}
			}
			ritemaster_rumariil = {
				trigger = { OR = { is_year = 875 owns_core_province = 3782 } }
				chance = { factor = 2.5 modifier = { factor = 1.5 is_year = 800 } modifier = { factor = 1.5 is_year = 875 } modifier = { factor = 1.5 is_year = 950 } }
				modifier = { monarch_diplomatic_power = 1 }
				teachings = {
					venerate_chaplains = { type = ADM cost = 500 global_unrest = -1.5 }
					venerate_artisans = { type = DIP cost = 500 production_efficiency = 0.05 }
					venerate_quartermasters = { type = MIL cost = 500 land_maintenance_modifier = -0.10 }
				}
			}
			ritemaster_meanoniril = {
				trigger = { OR = { is_year = 1050 owns_core_province = 3191 } }
				chance = { factor = 2.5 modifier = { factor = 1.5 is_year = 975 } modifier = { factor = 1.5 is_year = 1050 } modifier = { factor = 1.5 is_year = 1125 } }
				modifier = { monarch_military_power = 1 }
				teachings = {
					venerate_bureaucrats = { type = ADM cost = 500 governing_capacity = 150 }
					venerate_merchants = { type = DIP cost = 500 global_trade_power = 0.05 }
					venerate_warlords = { type = MIL cost = 500 army_tradition_decay = -0.01 }
				}
			}
			ritemaster_vingille = {
				trigger = { OR = { is_year = 1225 owns_core_province = 1030 } }
				chance = { factor = 2.5 modifier = { factor = 1.5 is_year = 1150 } modifier = { factor = 1.5 is_year = 1225 } modifier = { factor = 1.5 is_year = 1300 } }
				modifier = { monarch_admin_power = 1 }
				teachings = {
					venerate_enlightener = { type = ADM cost = 500 idea_cost = -0.10 }
					venerate_entrepreneurs = { type = DIP cost = 500 global_trade_goods_size_modifier = 0.05 }
					venerate_supplier = { type = MIL cost = 500 global_regiment_cost = -0.15 }
				}
			}
			ritemaster_norildur = {
				trigger = { OR = { is_year = 1400 owns_core_province = 479 } }
				chance = { factor = 2.5 modifier = { factor = 1.5 is_year = 1325 } modifier = { factor = 1.5 is_year = 1400 } modifier = { factor = 1.5 is_year = 1475 } }
				modifier = { monarch_diplomatic_power = 1 }
				teachings = {
					venerate_philosophers = { type = ADM cost = 500 global_institution_spread = 0.15 }
					venerate_diplomats = { type = DIP cost = 500 diplomatic_reputation = 0.5 }
					venerate_guerrillas = { type = MIL cost = 500 hostile_attrition = 1 }
				}
			}
			ritemaster_earilndil = {
				trigger = { OR = { is_year = 1575 owns_core_province = 511 } }
				chance = { factor = 2.5 modifier = { factor = 1.5 is_year = 1500 } modifier = { factor = 1.5 is_year = 1575 } modifier = { factor = 1.5 is_year = 1650 } }
				modifier = { monarch_military_power = 1 }
				teachings = {
					venerate_clerks = { type = ADM cost = 500 prestige_decay = -0.005 }
					venerate_carpenters = { type = DIP cost = 500 ship_durability = 0.1 }
					venerate_architects = { type = MIL cost = 500 fort_maintenance_modifier = -0.15 }
				}
			}
		}
		
	}

	celestials = {
		color = { 149 0 235 }
		icon = 93
		allow_female_defenders_of_the_faith = yes
		country = {
			technology_cost = -0.15
			envoy_travel_time = -0.25
		}
		country_as_secondary = {
			technology_cost = -0.15
			envoy_travel_time = -0.25
		}
		province = {
			local_missionary_strength = -0.025
		}
		
		personal_deity = yes
		
		heretic = { CELESTIALS_HERETIC }	
	}
	
	students_of_magnus = {
		color = { 40 194 255 }
		icon = 90
		allow_female_defenders_of_the_faith = yes
		country = {
			tolerance_heathen = 2.5
			monthly_favor_modifier = 0.25
		}
		country_as_secondary = {
			tolerance_heathen = 2.5
			monthly_favor_modifier = 0.25
		}
		province = {
			local_missionary_strength = -0.025
		}
		
		uses_judaism_power = yes
		aspects_name = PROTESTANT_ASPECTS
			
		aspects = {
			alteration_aspect
			mysticism_aspect
			enchanting_aspect
			tonal_aspect
			shadow_aspect
			aetherial_aspect
			illusion_aspect
			restoration_aspect
			blood_aspect
			alchemy_aspect
			soul_aspect
			flesh_aspect
			conjuration_aspect
			destruction_aspect
			thaumaturgy_aspect
			necromacy_aspect
			green_aspect
			thuum_aspect
		}

		celebrate = {
			cost = 250
			potential = {
			}
			allow = {
			}
			effect = {
				random_list = {
					10 = { es_add_stability_1 = yes }
					30 = { add_years_of_income = 2.5 }
					20 = { add_adm_power = 150 }
					20 = { add_dip_power = 150 }
					20 = { add_mil_power = 150 }
				}
			}
			ai_will_do = {
				factor = 1
				modifier = {
					factor = 0
					stability = 3
				}
			}
		}
		
		heretic = { STUDENTS_OF_MAGNUS_HERETIC }	
	}

	cult_of_the_insect = {
		color = { 191 255 0 }
		icon = 88
		allow_female_defenders_of_the_faith = yes
		country = {
			movement_speed = 0.25
			shock_damage_received = -0.15
		}
		country_as_secondary = {
			movement_speed = 0.25
			shock_damage_received = -0.15
		}
		province = {
			local_missionary_strength = -0.025
		}
		
		fervor = yes
		
		can_have_secondary_religion = yes
		
		heretic = { CULT_OF_THE_INSECT_HERETIC }
	}

	magne_ge = {
		color = { 230 230 230 }
		icon = 89
		allow_female_defenders_of_the_faith = yes
		country = {
			prestige_per_development_from_conversion = 0.10
			morale_damage_received = -0.15
		}
		country_as_secondary = {
			prestige_per_development_from_conversion = 0.10
			morale_damage_received = -0.15
		}
		province = {
			local_missionary_strength = -0.025
		}

		personal_deity = yes

		heretic = { MAGNE_GE_HERETIC }
	}
	
	egg_mother = {
		color = { 200 200 200 }
		icon = 87
		allow_female_defenders_of_the_faith = yes
		country = {
			war_exhaustion_cost = -0.15
			global_manpower_modifier = 0.25
		}
		country_as_secondary = {
			war_exhaustion_cost = -0.15
			global_manpower_modifier = 0.25
		}
		province = {
			local_missionary_strength = -0.025
		}

		fervor = yes

		heretic = { EGG_MOTHER_HERETIC }
	}
	
	mother_sea = {
		color = { 6 56 71 }
		icon = 86
		allow_female_defenders_of_the_faith = yes
		country = {
			ship_power_propagation = 0.25
			sunk_ship_morale_hit_recieved = -0.25
		}
		country_as_secondary = {
			ship_power_propagation = 0.25
			sunk_ship_morale_hit_recieved = -0.25
		}
		province = {
			local_missionary_strength = -0.025
		}

		uses_karma = yes

		heretic = { MOTHER_SEA_HERETIC }
	}
	
	deep_ones = {
		color = { 100 0 10 }
		icon = 85
		allow_female_defenders_of_the_faith = yes
		country = {
			development_cost_in_primary_culture = -0.25
			stability_cost_modifier = -0.25
		}
		country_as_secondary = {
			development_cost_in_primary_culture = -0.25
			stability_cost_modifier = -0.25
		}
		province = {
			local_missionary_strength = -0.025
		}

		fervor = yes

		heretic = { DEEP_ONES_HERETIC }
	}
	
	herd_mother = {
		color = { 30 61 10 }
		icon = 84
		allow_female_defenders_of_the_faith = yes
		country = {
			cavalry_power = 0.15
			state_maintenance_modifier = -0.25
		}
		country_as_secondary = {
			cavalry_power = 0.15
			state_maintenance_modifier = -0.25
		}
		province = {
			local_missionary_strength = -0.025
		}

		uses_piety = yes

		heretic = { HERD_MOTHER_HERETIC }
	}
	
	lamae_bal_cult = {
		color = { 54 47 64 }
		icon = 54
		allow_female_defenders_of_the_faith = yes
		country = {
			special_unit_forcelimit = 0.25
			reduced_liberty_desire = 25
		}
		country_as_secondary = {
			special_unit_forcelimit = 0.25
			reduced_liberty_desire = 25
		}
		province = {
			local_missionary_strength = -0.025
		}

		fervor = yes

		heretic = { LAMAE_BAL_CULT_HERETIC }
	}
	
	horned_rat_cult = {
		color = { 101 119 75 }
		icon = 53
		allow_female_defenders_of_the_faith = yes
		country = {
			artillery_level_modifier = 0.25
			stability_cost_to_declare_war = -1
		}
		country_as_secondary = {
			artillery_level_modifier = 0.25
			stability_cost_to_declare_war = -1
		}
		province = {
			local_missionary_strength = -0.025
		}

		fervor = yes

		heretic = { HORNED_RAT_CULT_HERETIC }
	}
	
	golden_paw_cult = {
		color = { 210 161 70 }
		icon = 55
		allow_female_defenders_of_the_faith = yes
		country = {
			caravan_power = 0.25
			possible_condottieri = 1.0
		}
		country_as_secondary = {
			caravan_power = 0.25
			possible_condottieri = 1.0
		}
		province = {
			local_missionary_strength = -0.025
		}

		uses_karma = yes

		heretic = { GOLDEN_PAW_CULT_HERETIC }
	}
	
	shagrath_cult = {
		color = { 92 5 5 }
		icon = 56
		allow_female_defenders_of_the_faith = yes
		country = {
			adm_tech_cost_modifier = -0.10
			years_of_nationalism = -10
		}
		country_as_secondary = {
			adm_tech_cost_modifier = -0.10
			years_of_nationalism = -10
		}
		province = {
			local_missionary_strength = -0.025
		}

		fervor = yes

		heretic = { SHAGRATH_CULT_HERETIC }
	}
    
	elder_gods = {
		color = { 45 60 90 }
		icon = 57
		allow_female_defenders_of_the_faith = yes
		country = {
			mercenary_cost = -0.25
			artillery_power = 0.15
		}
		country_as_secondary = {
			mercenary_cost = -0.25
			artillery_power = 0.15
		}
		province = {
			local_missionary_strength = -0.025
		}

		uses_karma = yes

		heretic = { ELDER_GODS_HERETIC }
	}
	
	ghost_snake = {
		color = { 200 230 210 }
		icon = 58
		allow_female_defenders_of_the_faith = yes
		country = {
			cavalry_flanking = 0.25
			manpower_in_own_culture_provinces = 0.25
		}
		country_as_secondary = {
			cavalry_flanking = 0.25
			manpower_in_own_culture_provinces = 0.25
		}
		province = {
			local_missionary_strength = -0.025
		}

		ancestors = yes

		heretic = { GHOST_SNAKE_HERETIC }
	}
    
    god_of_the_wild = {
		color = { 70 170 50 }
		icon = 59
		allow_female_defenders_of_the_faith = yes
		country = {
			all_estate_loyalty_equilibrium = 0.15
			cav_to_inf_ratio = 0.25
		}
		country_as_secondary = {
			all_estate_loyalty_equilibrium = 0.15
			cav_to_inf_ratio = 0.25
		}
		province = {
			local_missionary_strength = -0.025
		}

		uses_karma = yes
		
		can_have_secondary_religion = yes

		heretic = { GOD_OF_THE_WILD_HERETIC }
	}
	
	zeqqi_cult = {
		color = { 135 175 220 }
		icon = 60
		allow_female_defenders_of_the_faith = yes
		country = {
			administrative_efficiency = 0.10
			navy_tradition_decay = -0.025
		}
		country_as_secondary = {
			administrative_efficiency = 0.10
			navy_tradition_decay = -0.025
		}
		province = {
			local_missionary_strength = -0.025
		}

		uses_karma = yes

		heretic = { ZEQQI_CULT_HERETIC }
	}
    
	xrib_cult = {
		color = { 180 180 160 }
		icon = 61
		allow_female_defenders_of_the_faith = yes
		country = {
			assault_fort_ability = 0.25
			manpower_in_true_faith_provinces = 0.25
		}
		country_as_secondary = {
			assault_fort_ability = 0.25
			manpower_in_true_faith_provinces = 0.25
		}
		province = {
			local_missionary_strength = -0.025
		}

		fervor = yes

		heretic = { XRIB_CULT_HERETIC }
	}
	
	volcano_god = {
		color = { 200 50 25 }
		icon = 62
		allow_female_defenders_of_the_faith = yes
		country = {
			navy_tradition = 0.50
			backrow_artillery_damage = 0.25
		}
		country_as_secondary = {
			navy_tradition = 0.50
			backrow_artillery_damage = 0.25
		}
		province = {
			local_missionary_strength = -0.025
		}

		fervor = yes

		heretic = { VOLCANO_GOD_HERETIC }
	}
	
	crusade_name = CRUSADE
	harmonized_modifier = harmonized_occult_group
}

elemental_group = {
    flags_with_emblem_percentage = 0
	flag_emblem_index_range = { 1 18 }
	
	center_of_religion = 1206
	
	ai_will_propagate_through_trade = yes
	
	defender_of_faith = yes
	can_form_personal_unions = yes
	
	religious_schools = {
	
	    alrabeg_school = {
		    potential_invite_scholar = { religion = old_gods_cult knows_of_scholar_country_capital_trigger = yes }
			can_invite_scholar = { adm_power_cost = 50 reverse_has_opinion = { who = FROM value = 150 } NOT = { has_country_modifier = alrabeg_school_modifier } OR = { alliance_with = FROM is_subject_of = FROM overlord_of = FROM } hidden_progressive_opinion_for_scholar_trigger = yes }
			on_invite_scholar = { adm_power_cost = 100 clear_religious_scholar_modifiers_effect = yes custom_tooltip = INVITE_SCHOLAR_COUNTRY_TEXT add_country_modifier = { 
			name = alrabeg_school_modifier duration = 7300 } }
			
			invite_scholar_modifier_display = alrabeg_school_modifier
			
			picture = "GFX_icon_alrabeg_school"
			
			discipline = 0.05
		}
		
		storihbeg_school = {
		    potential_invite_scholar = { religion = old_gods_cult knows_of_scholar_country_capital_trigger = yes }
			can_invite_scholar = { adm_power_cost = 50 reverse_has_opinion = { who = FROM value = 150 } NOT = { has_country_modifier = storihbeg_school_modifier } OR = { alliance_with = FROM is_subject_of = FROM overlord_of = FROM } hidden_progressive_opinion_for_scholar_trigger = yes }
			on_invite_scholar = { adm_power_cost = 100 clear_religious_scholar_modifiers_effect = yes custom_tooltip = INVITE_SCHOLAR_COUNTRY_TEXT add_country_modifier = { 
			name = storihbeg_school_modifier duration = 7300 } }
			
			invite_scholar_modifier_display = storihbeg_school_modifier
			
			picture = "GFX_icon_storihbeg_school"
			
			shock_damage = 0.10
		}
		
		uricanbeg_school = {
		    potential_invite_scholar = { religion = old_gods_cult knows_of_scholar_country_capital_trigger = yes }
			can_invite_scholar = { adm_power_cost = 50 reverse_has_opinion = { who = FROM value = 150 } NOT = { has_country_modifier = uricanbeg_school_modifier } OR = { alliance_with = FROM is_subject_of = FROM overlord_of = FROM } hidden_progressive_opinion_for_scholar_trigger = yes }
			on_invite_scholar = { adm_power_cost = 100 clear_religious_scholar_modifiers_effect = yes custom_tooltip = INVITE_SCHOLAR_COUNTRY_TEXT add_country_modifier = { 
			name = uricanbeg_school_modifier duration = 7300 } }
			
			invite_scholar_modifier_display = uricanbeg_school_modifier
			
			picture = "GFX_icon_uricanbeg_school"
			
			land_forcelimit_modifier = 0.1
		}
		
		gulibeg_school = {
		    potential_invite_scholar = { religion = old_gods_cult knows_of_scholar_country_capital_trigger = yes }
			can_invite_scholar = { adm_power_cost = 50 reverse_has_opinion = { who = FROM value = 150 } NOT = { has_country_modifier = gulibeg_school_modifier } OR = { alliance_with = FROM is_subject_of = FROM overlord_of = FROM } hidden_progressive_opinion_for_scholar_trigger = yes }
			on_invite_scholar = { adm_power_cost = 100 clear_religious_scholar_modifiers_effect = yes custom_tooltip = INVITE_SCHOLAR_COUNTRY_TEXT add_country_modifier = { 
			name = gulibeg_school_modifier duration = 7300 } }
			
			invite_scholar_modifier_display = gulibeg_school_modifier
			
			picture = "GFX_icon_gulibeg_school"
			
			recover_army_morale_speed = 0.10
		}
		
		hrokkibeg_school = {
		    potential_invite_scholar = { religion = old_gods_cult knows_of_scholar_country_capital_trigger = yes }
			can_invite_scholar = { adm_power_cost = 50 reverse_has_opinion = { who = FROM value = 150 } NOT = { has_country_modifier = hrokkibeg_school_modifier } OR = { alliance_with = FROM is_subject_of = FROM overlord_of = FROM } hidden_progressive_opinion_for_scholar_trigger = yes }
			on_invite_scholar = { adm_power_cost = 100 clear_religious_scholar_modifiers_effect = yes custom_tooltip = INVITE_SCHOLAR_COUNTRY_TEXT add_country_modifier = { 
			name = hrokkibeg_school_modifier duration = 7300 } }
			
			invite_scholar_modifier_display = hrokkibeg_school_modifier
			
			picture = "GFX_icon_hrokkibeg_school"
			
			infantry_power = 0.10
		}
		
		hagraven_school = {
		    potential_invite_scholar = { religion = old_gods_cult knows_of_scholar_country_capital_trigger = yes }
			can_invite_scholar = { adm_power_cost = 50 reverse_has_opinion = { who = FROM value = 150 } NOT = { has_country_modifier = hagraven_school_modifier } OR = { alliance_with = FROM is_subject_of = FROM overlord_of = FROM } hidden_progressive_opinion_for_scholar_trigger = yes }
			on_invite_scholar = { adm_power_cost = 100 clear_religious_scholar_modifiers_effect = yes custom_tooltip = INVITE_SCHOLAR_COUNTRY_TEXT add_country_modifier = { 
			name = hagraven_school_modifier duration = 7300 } }
			
			invite_scholar_modifier_display = hagraven_school_modifier
			
			picture = "GFX_icon_hagraven_school"
			
			siege_ability = 0.15
		}
		
		#############################################################################################################################################
		
		dragon_school = {
		    potential_invite_scholar = { NOT = { religion = old_gods_cult } capital_scope = { continent = Akavir } knows_of_scholar_country_capital_trigger = yes }
			can_invite_scholar = { adm_power_cost = 50 reverse_has_opinion = { who = FROM value = 150 } NOT = { has_country_modifier = dragon_school_modifier } OR = { alliance_with = FROM is_subject_of = FROM overlord_of = FROM } hidden_progressive_opinion_for_scholar_trigger = yes }
			on_invite_scholar = { adm_power_cost = 100 clear_religious_scholar_modifiers_effect = yes custom_tooltip = INVITE_SCHOLAR_COUNTRY_TEXT add_country_modifier = { 
			name = dragon_school_modifier duration = 7300 } }
			
			invite_scholar_modifier_display = dragon_school_modifier
			
			picture = "GFX_icon_dragon_school"
			
			fire_damage = 0.1
		}
		
		lizard_school = {
		    potential_invite_scholar = { NOT = { religion = old_gods_cult } capital_scope = { continent = Akavir } knows_of_scholar_country_capital_trigger = yes }
			can_invite_scholar = { adm_power_cost = 50 reverse_has_opinion = { who = FROM value = 150 } NOT = { has_country_modifier = lizard_school_modifier } OR = { alliance_with = FROM is_subject_of = FROM overlord_of = FROM } hidden_progressive_opinion_for_scholar_trigger = yes }
			on_invite_scholar = { adm_power_cost = 100 clear_religious_scholar_modifiers_effect = yes custom_tooltip = INVITE_SCHOLAR_COUNTRY_TEXT add_country_modifier = { 
			name = lizard_school_modifier duration = 7300 } }
			
			invite_scholar_modifier_display = lizard_school_modifier
			
			picture = "GFX_icon_lizard_school"
			
			advisor_cost = -0.15
		}
		
		tortoise_school = {
		    potential_invite_scholar = { NOT = { religion = old_gods_cult } capital_scope = { continent = Akavir } knows_of_scholar_country_capital_trigger = yes }
			can_invite_scholar = { adm_power_cost = 50 reverse_has_opinion = { who = FROM value = 150 } NOT = { has_country_modifier = tortoise_school_modifier } OR = { alliance_with = FROM is_subject_of = FROM overlord_of = FROM } hidden_progressive_opinion_for_scholar_trigger = yes }
			on_invite_scholar = { adm_power_cost = 100 clear_religious_scholar_modifiers_effect = yes custom_tooltip = INVITE_SCHOLAR_COUNTRY_TEXT add_country_modifier = { 
			name = tortoise_school_modifier duration = 7300 } }
			
			invite_scholar_modifier_display = tortoise_school_modifier
			
			picture = "GFX_icon_tortoise_school"
			
			defensiveness = 0.15
		}
		
		crocodile_school = {
		    potential_invite_scholar = { NOT = { religion = old_gods_cult } capital_scope = { continent = Akavir } knows_of_scholar_country_capital_trigger = yes }
			can_invite_scholar = { adm_power_cost = 50 reverse_has_opinion = { who = FROM value = 150 } NOT = { has_country_modifier = crocodile_school_modifier } OR = { alliance_with = FROM is_subject_of = FROM overlord_of = FROM } hidden_progressive_opinion_for_scholar_trigger = yes }
			on_invite_scholar = { adm_power_cost = 100 clear_religious_scholar_modifiers_effect = yes custom_tooltip = INVITE_SCHOLAR_COUNTRY_TEXT add_country_modifier = { 
			name = crocodile_school_modifier duration = 7300 } }
			
			invite_scholar_modifier_display = crocodile_school_modifier
			
			picture = "GFX_icon_crocodile_school"
			
			recover_navy_morale_speed = 0.10
		}
		
		viper_school = {
		    potential_invite_scholar = { NOT = { religion = old_gods_cult } capital_scope = { continent = Akavir } knows_of_scholar_country_capital_trigger = yes }
			can_invite_scholar = { adm_power_cost = 50 reverse_has_opinion = { who = FROM value = 150 } NOT = { has_country_modifier = viper_school_modifier } OR = { alliance_with = FROM is_subject_of = FROM overlord_of = FROM } hidden_progressive_opinion_for_scholar_trigger = yes }
			on_invite_scholar = { adm_power_cost = 100 clear_religious_scholar_modifiers_effect = yes custom_tooltip = INVITE_SCHOLAR_COUNTRY_TEXT add_country_modifier = { 
			name = viper_school_modifier duration = 7300 } }
			
			invite_scholar_modifier_display = viper_school_modifier
			
			picture = "GFX_icon_viper_school"
			
			ae_impact = -0.10
		}
		
		tuatara_school = {
		    potential_invite_scholar = { NOT = { religion = old_gods_cult } capital_scope = { continent = Akavir } knows_of_scholar_country_capital_trigger = yes }
			can_invite_scholar = { adm_power_cost = 50 reverse_has_opinion = { who = FROM value = 150 } NOT = { has_country_modifier = tuatara_school_modifier } OR = { alliance_with = FROM is_subject_of = FROM overlord_of = FROM } hidden_progressive_opinion_for_scholar_trigger = yes }
			on_invite_scholar = { adm_power_cost = 100 clear_religious_scholar_modifiers_effect = yes custom_tooltip = INVITE_SCHOLAR_COUNTRY_TEXT add_country_modifier = { 
			name = tuatara_school_modifier duration = 7300 } }
			
			invite_scholar_modifier_display = tuatara_school_modifier
			
			picture = "GFX_icon_tuatara_school"
			
			merchants = 1
		}
		
		#############################################################################################################################################
		
		lotus_school = {
		    potential_invite_scholar = { NOT = { religion = old_gods_cult } capital_scope = { NOT = { continent = Akavir } } knows_of_scholar_country_capital_trigger = yes }
			can_invite_scholar = { adm_power_cost = 50 reverse_has_opinion = { who = FROM value = 150 } NOT = { has_country_modifier = lotus_school_modifier } OR = { alliance_with = FROM is_subject_of = FROM overlord_of = FROM } hidden_progressive_opinion_for_scholar_trigger = yes }
			on_invite_scholar = { adm_power_cost = 100 clear_religious_scholar_modifiers_effect = yes custom_tooltip = INVITE_SCHOLAR_COUNTRY_TEXT add_country_modifier = { 
			name = lotus_school_modifier duration = 7300 } }
			
			invite_scholar_modifier_display = lotus_school_modifier
			
			picture = "GFX_icon_lotus_school"
			
			land_morale = 0.10
		}
		
		magnolia_school = {
		    potential_invite_scholar = { NOT = { religion = old_gods_cult } capital_scope = { NOT = { continent = Akavir } } knows_of_scholar_country_capital_trigger = yes }
			can_invite_scholar = { adm_power_cost = 50 reverse_has_opinion = { who = FROM value = 150 } NOT = { has_country_modifier = magnolia_school_modifier } OR = { alliance_with = FROM is_subject_of = FROM overlord_of = FROM } hidden_progressive_opinion_for_scholar_trigger = yes }
			on_invite_scholar = { adm_power_cost = 100 clear_religious_scholar_modifiers_effect = yes custom_tooltip = INVITE_SCHOLAR_COUNTRY_TEXT add_country_modifier = { 
			name = magnolia_school_modifier duration = 7300 } }
			
			invite_scholar_modifier_display = magnolia_school_modifier
			
			picture = "GFX_icon_magnolia_school"
			
			trade_efficiency = 0.10
		}
		
		rose_school = {
		    potential_invite_scholar = { NOT = { religion = old_gods_cult } capital_scope = { NOT = { continent = Akavir } } knows_of_scholar_country_capital_trigger = yes }
			can_invite_scholar = { adm_power_cost = 50 reverse_has_opinion = { who = FROM value = 150 } NOT = { has_country_modifier = rose_school_modifier } OR = { alliance_with = FROM is_subject_of = FROM overlord_of = FROM } hidden_progressive_opinion_for_scholar_trigger = yes }
			on_invite_scholar = { adm_power_cost = 100 clear_religious_scholar_modifiers_effect = yes custom_tooltip = INVITE_SCHOLAR_COUNTRY_TEXT add_country_modifier = { 
			name = rose_school_modifier duration = 7300 } }
			
			invite_scholar_modifier_display = rose_school_modifier
			
			picture = "GFX_icon_rose_school"
			
			prestige_decay = -0.01
		}
		
		orchid_school = {
		    potential_invite_scholar = { NOT = { religion = old_gods_cult } capital_scope = { NOT = { continent = Akavir } } knows_of_scholar_country_capital_trigger = yes }
			can_invite_scholar = { adm_power_cost = 50 reverse_has_opinion = { who = FROM value = 150 } NOT = { has_country_modifier = orchid_school_modifier } OR = { alliance_with = FROM is_subject_of = FROM overlord_of = FROM } hidden_progressive_opinion_for_scholar_trigger = yes }
			on_invite_scholar = { adm_power_cost = 100 clear_religious_scholar_modifiers_effect = yes custom_tooltip = INVITE_SCHOLAR_COUNTRY_TEXT add_country_modifier = { 
			name = orchid_school_modifier duration = 7300 } }
			
			invite_scholar_modifier_display = orchid_school_modifier
			
			picture = "GFX_icon_orchid_school"
			
			global_institution_spread = 0.15
		}
		
		tulip_school = {
		    potential_invite_scholar = { NOT = { religion = old_gods_cult } capital_scope = { NOT = { continent = Akavir } } knows_of_scholar_country_capital_trigger = yes }
			can_invite_scholar = { adm_power_cost = 50 reverse_has_opinion = { who = FROM value = 150 } NOT = { has_country_modifier = tulip_school_modifier } OR = { alliance_with = FROM is_subject_of = FROM overlord_of = FROM } hidden_progressive_opinion_for_scholar_trigger = yes }
			on_invite_scholar = { adm_power_cost = 100 clear_religious_scholar_modifiers_effect = yes custom_tooltip = INVITE_SCHOLAR_COUNTRY_TEXT add_country_modifier = { 
			name = tulip_school_modifier duration = 7300 } }
			
			invite_scholar_modifier_display = tulip_school_modifier
			
			picture = "GFX_icon_tulip_school"
			
			reduced_liberty_desire = 10
		}
		
		carnation_school = {
		    potential_invite_scholar = { NOT = { religion = old_gods_cult } capital_scope = { NOT = { continent = Akavir } } knows_of_scholar_country_capital_trigger = yes }
			can_invite_scholar = { adm_power_cost = 50 reverse_has_opinion = { who = FROM value = 150 } NOT = { has_country_modifier = carnation_school_modifier } OR = { alliance_with = FROM is_subject_of = FROM overlord_of = FROM } hidden_progressive_opinion_for_scholar_trigger = yes }
			on_invite_scholar = { adm_power_cost = 100 clear_religious_scholar_modifiers_effect = yes custom_tooltip = INVITE_SCHOLAR_COUNTRY_TEXT add_country_modifier = { 
			name = carnation_school_modifier duration = 7300 } }
			
			invite_scholar_modifier_display = carnation_school_modifier
			
			picture = "GFX_icon_carnation_school"
			
			warscore_cost_vs_other_religion = -0.15
		}
	}
	
	hist = {
		color = { 255 255 255 }
		icon = 20
		allow_female_defenders_of_the_faith = yes
		country = {
			development_cost = -0.25
		    tolerance_heathen = 2.5
		}
		country_as_secondary = {
			development_cost = -0.25
		    tolerance_heathen = 2.5
		}
		province = {
			local_missionary_strength = -0.010
		}
		
		heretic = { HIST_HERETIC }	
		
		personal_deity = yes
		
		can_have_secondary_religion = yes
	}
	
	sload_faith = {
		color = { 42 174 208 }
		icon = 16
		allow_female_defenders_of_the_faith = yes
		country = {
		    advisor_pool = 1
			sunk_ship_morale_hit_recieved = -0.25
		}
		country_as_secondary = {
			advisor_pool = 1
			sunk_ship_morale_hit_recieved = -0.25
		}
		province = {
			local_missionary_strength = -0.010
		}
		
		uses_anglican_power = yes
		aspects = {
			es_marry_first_lady
			es_divorce_first_lady
			es_accept_ritual_donation
			es_grant_exclusive_trade_rights
			es_proclaim_the_age_of_stability
		}
		aspects_name = ANGLICAN_ASPECTS
		
		heretic = { SLOAD_HERETIC }	
	}
	
	old_gods_cult = {
		color = { 239 110 217 }
		icon = 22
		allow_female_defenders_of_the_faith = yes
		country = {
			advisor_cost = -0.25
			army_tradition = 0.5
		}
		country_as_secondary = {
			advisor_cost = -0.25
			army_tradition = 0.5
		}
		province = {
			local_missionary_strength = -0.010
		}
		
		heretic = { OLD_GODS_CULT_HERETIC }	
		
		personal_deity = yes
		
		can_have_secondary_religion = yes
	}
	
	tsaesci_pantheon = {
		color = { 138 44 85 }
		icon = 23
		allow_female_defenders_of_the_faith = yes
		country = {
			naval_forcelimit_modifier = 0.25
			vassal_income = 0.25
		}
		country_as_secondary = {
			naval_forcelimit_modifier = 0.25
			vassal_income = 0.25
		}
		province = {
			local_missionary_strength = -0.010
		}
		
		heretic = { TSAESCI_HERETIC }	
		
		uses_isolationism = yes
	}
	
	tang_mo_pantheon = {
		color = { 22 232 127 }
		icon = 24
		allow_female_defenders_of_the_faith = yes
		country = {
			reinforce_speed = 0.25
			ship_durability = 0.25
		}
		country_as_secondary = {
			reinforce_speed = 0.25
			ship_durability = 0.25
		}
		province = {
			local_missionary_strength = -0.010
		}
		
		fervor = yes
		religious_reforms = yes
		reform_tooltip = MESOAMERICAN_REFORM_TOOLTIP
		
		heretic = { TANG_MO_HERETIC }	
	}
	
	kamal_pantheon = {
		color = { 233 172 30 }
		icon = 25
		allow_female_defenders_of_the_faith = yes
		country = {
			global_autonomy = -0.10
			institution_spread_from_true_faith = 0.25
		}
		country_as_secondary = {
			global_autonomy = -0.10
			institution_spread_from_true_faith = 0.25
		}
		province = {
			local_missionary_strength = -0.010
		}
		
		authority = yes
		uses_karma = yes
		religious_reforms = yes
		reform_tooltip = INTI_REFORM_TOOLTIP
		
		heretic = { KAMAL_HERETIC }	
	}
	
	cult_of_the_moth = {
		color = { 185 250 250 }
		icon = 37
		allow_female_defenders_of_the_faith = yes
		country = {
			idea_cost = -0.25
			build_time = -0.25
		}
		country_as_secondary = {
			idea_cost = -0.25
			build_time = -0.25
		}
		province = {
			local_missionary_strength = -0.010
		}
		
		uses_karma = yes
		
		heretic = { CULT_OF_THE_MOTH_HERETIC }	
	}
	
	crusade_name = CRUSADE
	harmonized_modifier = harmonized_elemental_group
}

daedric_group = {
    flags_with_emblem_percentage = 0
	flag_emblem_index_range = { 1 18 }
	
	center_of_religion = 1206
	
	ai_will_propagate_through_trade = yes
	
	defender_of_faith = yes
	can_form_personal_unions = yes
	
	molag_bal_cult = {
		color = { 0 0 100 }
		icon = 27
		allow_female_defenders_of_the_faith = yes
		country = {
			morale_damage = 0.15
			mercenary_manpower = 0.25
		}
		country_as_secondary = {
			morale_damage = 0.15
			mercenary_manpower = 0.25
		}
		province = {
			local_missionary_strength = -0.015
		}
		
		uses_church_power = yes
		aspects = {
			blood_rituals_aspect
            enslaement_of_mortals_aspect
            eternal_domination_aspect
            harvest_of_souls_aspect
            encouragement_of_strife_aspect
            abetment_to_lust_aspect
		}
		aspects_name = PROTESTANT_ASPECTS
		
		heretic = { molag_bal_HERETIC }	
	}
	
	meridia_cult = {
		color = { 146 248 238 }
		icon = 28
		allow_female_defenders_of_the_faith = yes
		country = {
			global_manpower_modifier = 0.25
			state_maintenance_modifier = -0.25
		}
		country_as_secondary = {
			global_manpower_modifier = 0.25
			state_maintenance_modifier = -0.25
		}
		province = {
			local_missionary_strength = -0.015
		}
		
		uses_church_power = yes
		aspects = {
			infinite_energies_aspect
            purification_of_land_aspect
            purge_of_undead_aspect
            inspiration_of_life_aspect
            light_preservation_aspect
            worship_of_dawn_aspect
		}
		aspects_name = PROTESTANT_ASPECTS
		
		heretic = { MERIDIA_HERETIC }	
	}
	
	mehrunes_dagon_cult = {
		color = { 255 18 0 }
		icon = 29
		allow_female_defenders_of_the_faith = yes
		country = {
			fire_damage = 0.15
			available_province_loot = 0.5
		}
		country_as_secondary = {
			fire_damage = 0.15
			available_province_loot = 0.5
		}
		province = {
			local_missionary_strength = -0.015
		}
		
		uses_church_power = yes
		aspects = {
			spread_destruction_aspect
            inception_of_revolution_aspect
            energy_patronage_aspect
            change_approachment_aspect
            aspiration_to_ambitions_aspect
            deification_of_filth_aspect
		}
		aspects_name = PROTESTANT_ASPECTS
		
		heretic = { MEHRUNES_DAGON_HERETIC }	
	}
	
	hermeus_mora_cult = {
		color = { 238 248 146 }
		icon = 30
		allow_female_defenders_of_the_faith = yes
		country = {
			technology_cost = -0.15
	        global_institution_spread = 0.25
		}
		country_as_secondary = {
			technology_cost = -0.15
	        global_institution_spread = 0.25
		}
		province = {
			local_missionary_strength = -0.015
		}
		
		uses_church_power = yes
		aspects = {
			protection_of_knowledge_aspect
            memory_strengthening_aspect
            gratification_of_fate_aspect
            perpetuation_of_past_aspect
            future_provision_aspect
            vindication_of_stars_aspect
		}
		aspects_name = PROTESTANT_ASPECTS
		
		heretic = { HERMEUS_MORA_HERETIC }
	}
	
	sheogorath_cult = {
		color = { 250 250 0 }
		icon = 33
		allow_female_defenders_of_the_faith = yes
		country = {
			unjustified_demands = -0.25
			shock_damage = 0.15
		}
		country_as_secondary = {
			unjustified_demands = -0.25
			shock_damage = 0.15
		}
		province = {
			local_missionary_strength = -0.015
		}
		
		uses_church_power = yes
		aspects = {
			falling_into_madness_aspect
            adoration_of_horripilation_aspect
            frantic_scrolls_aspect
            submission_to_deliration_aspect
            life_in_lunacy_aspect
            acquiration_of_dementia_aspect
		}
		aspects_name = PROTESTANT_ASPECTS
		
		heretic = { SHEOGORATH_HERETIC }	
	}
	
	hircine_cult = {
		color = { 126 172 193 }
		icon = 34
		allow_female_defenders_of_the_faith = yes
		country = {
			cavalry_power = 0.15
	        manpower_recovery_speed = 0.25
		}
		country_as_secondary = {
			cavalry_power = 0.15
	        manpower_recovery_speed = 0.25
		}
		province = {
			local_missionary_strength = -0.015
		}
		
		uses_church_power = yes
		aspects = {
			eternal_hunt_aspect
            greatest_games_aspect
            the_chase_aspect
            bloodmoon_rituals_aspect
            bless_of_savior_aspect
            merciful_spears_aspect
		}
		aspects_name = PROTESTANT_ASPECTS
		
		heretic = { HIRCINE_HERETIC }	
	}
	
	nocturnal_cult = {
		color = { 193 193 149 }
		icon = 35
		allow_female_defenders_of_the_faith = yes
		allowed_center_conversion = {
			meridia_cult
			mehrunes_dagon_cult
			molag_bal_cult
			hermeus_mora_cult
			hircine_cult
			sheogorath_cult
			nedic_pantheon
			azura_cult
			boethiah_cult
			clavicus_vile_cult
			malacath_cult
			jyggalag_cult
			mephala_cult
			namira_cult
			peryite_cult
			sanguine_cult
			vaermina_cult
			twelve_divines
			celestials
			ithelia_cult
		}
		will_get_center = {
            any_owned_province = {
                OR = {
                    religion = meridia_cult
                    religion = mehrunes_dagon_cult
                    religion = molag_bal_cult
					religion = hermeus_mora_cult
					religion = hircine_cult
					religion = sheogorath_cult
					religion = nedic_pantheon
					religion = azura_cult
					religion = boethiah_cult
					religion = clavicus_vile_cult
					religion = malacath_cult
					religion = jyggalag_cult
					religion = mephala_cult
					religion = namira_cult
					religion = peryite_cult
					religion = sanguine_cult
					religion = vaermina_cult
                    religion = eight_divines
					religion = twelve_divines
					religion = celestials
					religion = ithelia_cult
                }
                is_in_capital_area = yes
                is_reformation_center = no
            }
        }
		country = {
			spy_offence = 0.25
	        shock_damage_received = -0.15
		}
		country_as_secondary = {
			spy_offence = 0.25
	        shock_damage_received = -0.15
		}
		province = {
			local_missionary_strength = -0.015
		}
		
		uses_church_power = yes
		aspects = {
			night_benison_aspect
            custody_of_shadows_aspect
            care_of_night_aspect
            raven_inclination_aspect
            gray_cowls_aspect
            appeal_to_luck_aspect
		}
		aspects_name = PROTESTANT_ASPECTS
		
		heretic = { NOCTURNAL_HERETIC }	
	}
	
	azura_cult = {
		color = { 0 250 250 }
		icon = 38
		allow_female_defenders_of_the_faith = yes
		country = {
			diplomatic_reputation = 1.5
			reinforce_cost_modifier = -0.25
		}
		country_as_secondary = {
			diplomatic_reputation = 1.5
			reinforce_cost_modifier = -0.25
		}
		province = {
			local_missionary_strength = -0.015
		}
		
		uses_church_power = yes
		aspects = {
			turn_night_into_day_aspect 
			bless_the_transformation_aspect
			grow_roses_among_weeds_aspect
			show_mercy_to_fallen_aspect
			seek_benevolence_aspect
			observe_the_night_sky_aspect
		}
		aspects_name = PROTESTANT_ASPECTS
		
		heretic = { AZURA_HERETIC }	
	}
	
	boethiah_cult = {
		color = { 250 100 0 }
		icon = 39
		allow_female_defenders_of_the_faith = yes
		country = {
			rebel_support_efficiency = 0.5
			infantry_power = 0.15
		}
		country_as_secondary = {
			rebel_support_efficiency = 0.5
			infantry_power = 0.15
		}
		province = {
			local_missionary_strength = -0.015
		}
		
		uses_church_power = yes
		aspects = {
			patronize_conspiracy_aspect
			auspice_seduction_aspect
			protect_deceivers_aspect
			use_traitors_aspect
			enjoy_suffering_aspect
			favoring_dark_arts_aspect
		}
		aspects_name = PROTESTANT_ASPECTS
		
		heretic = { BOETHIAH_HERETIC }	
	}
	
	clavicus_vile_cult = {
		color = { 248 248 70 }
		icon = 40
		allow_female_defenders_of_the_faith = yes
		country = {
			trade_steering = 0.25
			diplomatic_upkeep = 1
		}
		country_as_secondary = {
			trade_steering = 0.25
			diplomatic_upkeep = 1
		}
		province = {
			local_missionary_strength = -0.015
		}
		
		uses_church_power = yes
		aspects = {
			seeking_power_aspect
			beutification_of_trickery_aspect
			make_wishes_come_true_aspect
			maintain_serenity_aspect
			support_bargains_aspect
			spread_of_regrets_aspect
		}
		aspects_name = PROTESTANT_ASPECTS
		
		heretic = { CLAVICUS_VILE_HERETIC }	
	}
	
	malacath_cult = {
		color = { 0 100 0 }
		icon = 41
		allow_female_defenders_of_the_faith = yes
		country = {
			infantry_cost = -0.25
			fire_damage_received = -0.15
		}
		country_as_secondary = {
			infantry_cost = -0.25
			fire_damage_received = -0.15
		}
		province = {
			local_missionary_strength = -0.015
		}
		
		uses_church_power = yes
		aspects = {
			protect_spurned_ones_aspect
			perform_bloody_curse_aspect
			keep_sworn_oath_aspect
			feast_in_hero_honour_aspect
			organize_expository_fights_aspect
			curse_negligence_aspect
		}
		aspects_name = PROTESTANT_ASPECTS
		
		heretic = { DAEDRIC_MALACATH_HERETIC }	
	}
	
	jyggalag_cult = {
		color = { 68 192 247 }
		icon = 42
		allow_female_defenders_of_the_faith = yes
		country = {
			merc_leader_army_tradition = 1.0
			idea_cost = -0.25
		}
		country_as_secondary = {
			merc_leader_army_tradition = 1.0
			idea_cost = -0.25
		}
		province = {
			local_missionary_strength = -0.015
		}
		
		uses_church_power = yes
		aspects = {
			proclaim_logical_order_aspect
			develop_deduction_aspect
			accept_certainty_aspect
			seek_determinism_aspect 
			reject_individuality_aspect
			create_illusions_aspect
		}
		aspects_name = PROTESTANT_ASPECTS
		
		heretic = { JYGGALAG_HERETIC }	
	}
	
	mephala_cult = {
		color = { 0 0 0 }
		icon = 43
		allow_female_defenders_of_the_faith = yes
		country = {
			spy_action_cost_modifier = -0.25
			province_warscore_cost = -0.25
		}
		country_as_secondary = {
			spy_action_cost_modifier = -0.25
			province_warscore_cost = -0.25
		}
		province = {
			local_missionary_strength = -0.015
		}
		
		uses_church_power = yes
		aspects = {
			shed_lies_aspect
			embrace_lust_aspect
			forgive_murder_aspect
			preserve_secrets_aspect
			crave_to_desires_aspect
			succumb_to_seduce_aspect
		}
		aspects_name = PROTESTANT_ASPECTS
		
		heretic = { MEPHALA_HERETIC }	
	}
	
	namira_cult = {
		color = { 186 239 163 }
		icon = 44
		allow_female_defenders_of_the_faith = yes
		country = {
			same_religion_advisor_cost = -0.25
			global_spy_defence = 0.25
		}
		country_as_secondary = {
			same_religion_advisor_cost = -0.25
			global_spy_defence = 0.25
		}
		province = {
			local_missionary_strength = -0.015
		}
		
		uses_church_power = yes
		aspects = {
			immortalize_ancient_darkness_aspect
			worship_shadowy_spirits_aspect
			spread_decay_aspect 
			accede_cannibalism_aspect 
			sow_vermin_aspect
			strive_for_rebirth_aspect
		}
		aspects_name = PROTESTANT_ASPECTS
		
		heretic = { NAMIRA_HERETIC }	
	}
	
	peryite_cult = {
		color = { 248 146 177 }
		icon = 45
		allow_female_defenders_of_the_faith = yes
		country = {
			siege_ability = 0.25
			global_missionary_strength = 0.025
		}
		country_as_secondary = {
			siege_ability = 0.25
			global_missionary_strength = 0.025
		}
		province = {
			local_missionary_strength = -0.015
		}
		
		uses_church_power = yes
		aspects = {
			mold_pestilence_aspect
			touch_filth_aspect 
			spread_pandemic_aspect
			breed_skeevers_aspect
			maintain_natural_order_aspect
			support_taskmaster_aspect
		}
		aspects_name = PROTESTANT_ASPECTS
		
		heretic = { PERYITE_HERETIC }	
	}
	
	sanguine_cult = {
		color = { 163 10 62 }
		icon = 46
		allow_female_defenders_of_the_faith = yes
		country = {
			merc_maintenance_modifier = -0.25
			improve_relation_modifier = 0.5
		}
		country_as_secondary = {
			merc_maintenance_modifier = -0.25
			improve_relation_modifier = 0.5
		}
		province = {
			local_missionary_strength = -0.015
		}
		
		uses_church_power = yes
		aspects = {
			devote_to_revelry_aspect
			sanctify_debauchery_aspect 
			embold_greed_aspect
			vindicate_gluttony_aspect 
			luxuriate_lust_aspect 
			graze_sloth_aspect
		}
		aspects_name = PROTESTANT_ASPECTS
		
		heretic = { SANGUINE_HERETIC }	
	}
	
	vaermina_cult = {
		color = { 103 46 160 }
		icon = 47
		allow_female_defenders_of_the_faith = yes
		country = {
			harsh_treatment_cost = -0.50
			vassal_income = 0.25
		}
		country_as_secondary = {
			harsh_treatment_cost = -0.50
			vassal_income = 0.25
		}
		province = {
			local_missionary_strength = -0.015
		}
		
		uses_church_power = yes
		aspects = {
			send_nightmares_aspect
			spread_terror_aspect 
			torment_mortals_aspect 
			erode_dreams_aspect 
			bring_omens_aspect 
			steal_memories_aspect
		}
		aspects_name = PROTESTANT_ASPECTS
		
		heretic = { VAERMINA_HERETIC }	
	}
	
	ithelia_cult = {
		color = { 245 245 245 }
		icon = 52
		allow_female_defenders_of_the_faith = yes
		country = {
			reform_progress_growth = 0.25
			culture_conversion_time = -0.25
		}
		country_as_secondary = {
			reform_progress_growth = 0.25
			culture_conversion_time = -0.25
		}
		province = {
			local_missionary_strength = -0.015
		}
		
		uses_church_power = yes
		aspects = {
			change_fate_aspect
			grasp_infinite_possibilities_aspect
			find_new_paths_aspect
			forsee_tomorrow_aspect
			reshape_destiny_aspect
			unite_the_opposites_aspect
		}
		aspects_name = PROTESTANT_ASPECTS
		
		heretic = { ITHELIA_HERETIC }	
	}
	
	crusade_name = CRUSADE
	harmonized_modifier = harmonized_daedric_group
}

harmony_group = {
    flags_with_emblem_percentage = 0
	flag_emblem_index_range = { 1 18 }
	
	ai_will_propagate_through_trade = yes
	
	defender_of_faith = yes
	can_form_personal_unions = yes
	
	po_tun_pantheon = {
		color = { 236 240 123 }
		icon = 31
		allow_female_defenders_of_the_faith = yes
		country = {
			adm_tech_cost_modifier = -0.10
			mercenary_discipline = 0.10
		}
		country_as_secondary = {
			adm_tech_cost_modifier = -0.10
			mercenary_discipline = 0.10
		}
		province = {
			local_missionary_strength = -0.005
		}
		
		heretic = { PO_TUN_HERETIC }	
		
		uses_harmony = yes
		
		harmonized_modifier = harmonized_po_tun_pantheon
	}
	
	unknown_pantheon = {
		color = { 128 128 128 }
		icon = 98
		allow_female_defenders_of_the_faith = yes
		country = {
		    yearly_harmony = 1.0
			harmonization_speed = 0.1
		}
		country_as_secondary = {
			yearly_harmony = 1.0
			harmonization_speed = 0.1
		}
		province = {
			local_missionary_strength = -0.005
		}
		
		heretic = { UNKNOWN_HERETIC }	
		
		uses_harmony = yes
	}
	
	cult_of_lorelia = {
		color = { 0 255 255 }
		icon = 97
		allow_female_defenders_of_the_faith = yes
		country = {
			ae_impact = -0.25
			diplomatic_upkeep = 1
		}
		country_as_secondary = {
			ae_impact = -0.25
			diplomatic_upkeep = 1
		}
		province = {
			local_missionary_strength = -0.005
		}
		
		uses_harmony = yes
		
		heretic = { CULT_OF_LORELIA_HERETIC }	
		
		harmonized_modifier = harmonized_cult_of_lorelia
	}
	
	thirty_divines = {
		color = { 255 177 89 }
		icon = 96
		allow_female_defenders_of_the_faith = yes
		country = {
			all_estate_loyalty_equilibrium = 0.15
			dip_tech_cost_modifier = -0.10
		}
		country_as_secondary = {
			all_estate_loyalty_equilibrium = 0.15
			dip_tech_cost_modifier = -0.10
		}
		province = {
			local_missionary_strength = -0.005
		}
		
		uses_harmony = yes
		
		heretic = { THIRTY_DIVINES_HERETIC }	
		
		harmonized_modifier = harmonized_thirty_divines
	}
	
	crusade_name = CRUSADE
}