n_coldharbour_tn = { 
	location = 2727
	inland = yes
	color = { 
		188 188 188 
	}
	outgoing = { 
		name = "c_coldharbour_tn"
		path = { 
			2722 2850 
		}
		control = { 
			362.000000 2337.000000 
		}
	}
	members = { 
		2721 2722 2723 2724 2725 2726 2727 2728 2729 2730
		2741 2742 2743 2744 2745 2746 2747 2748 2749 2750
		2771 2772 2773 2774 2775 2776 2777 2778 2779 2780
		2791 2792 2793 2794 2795 2796 2797 2798 2799 2800
		2821 2822 2823 2824 2825 2826 2827 2828 2829 2830
	}
}
e_glacier_tn = { 
	location = 2306
	inland = yes
	color = { 
		0 204 204 
	}
	outgoing = { 
		name = "c_glacier_tn"
		path = { 
			2361 458 
		}
		control = { 
			1790.000000 2682.000000 1751.000000 2700.000000 1706.000000 2658.000000 1652.000000 2676.000000 1578.000000 2659.000000
		}
	}
	outgoing = { 
		name = "e_atmora_tn"
		path = { 
			24 2506 
		}
		control = { 
			1874.000000 2646.000000 1868.000000 2596.000000 2007.000000 2486.000000 
		}
	}
	members = { 
		380 381 382 385 386 1571 1572 2194 2195 2196
		2340 2342 2343 2344 2345 2346 2347 2348 2349 2341
		2300 2301 2308 2307 2309 2306 2303 2302 2304 370
		371 360 389 394 2203 2204 2205 2206 2207 2305
	}
}
c_glacier_tn = { 
	location = 2331
	inland = yes
	color = { 
		89 179 0 
	}
	outgoing = { 
		name = "w_atmora_tn"
		path = { 
			456 357 
		}
		control = { 
			1499.000000 2643.000000 1457.000000 2651.000000 1410.000000 2634.000000 1374.000000 2644.000000 1355.000000 2620.000000
		}
	}
	outgoing = { 
		name = "c_atmora_tn"
		path = { 
			457 384 
		}
		control = { 
			1542.000000 2636.000000 1607.000000 2643.000000 1666.000000 2610.000000 1712.000000 2609.000000 
		}
	}
	members = { 
		446 447 448 449 450 2470 2471 2472 2473 2474
		2280 2281 2282 2283 2284 2285 2286 2287 2288 2289
		2290 2291 2292 2293 2294 2295 2296 2297 2298 2299
		2330 2331 2332 2333 2334 2335 2336 2337 2338 2339
	}
}
e_atmora_tn = { 
	location = 1951
	color = { 
		192 108 63 
	}
	outgoing = { 
		name = "northern_islands_tn"
		path = { 
			2505 4475 
		}
		control = { 
			2038.000000 2464.000000 2076.000000 2449.000000 2098.000000 2432.000000 2134.000000 2419.000000 2187.000000 2420.000000
			2229.000000 2448.000000 2314.000000 2416.000000 2458.000000 2315.000000 2599.000000 2272.000000 2662.000000 2306.000000
			2716.000000 2275.000000 2781.000000 2313.000000 2861.000000 2342.000000 3159.000000 2280.000000 3464.000000 2183.000000
			3527.000000 2153.000000 3552.000000 2102.000000 
		}
	}
	outgoing = { 
		name = "telvania_tn"
		path = { 
			481 4436 
		}
		control = { 
			2012.000000 2440.000000 1997.000000 2412.000000 1997.000000 2381.000000 2029.000000 2362.000000 2015.780029 2323.290039
			2004.119995 2253.030029 1943.000000 2191.000000 1933.000000 2125.000000 2020.000000 2046.000000 2105.000000 2027.000000
			2127.000000 1988.000000 2155.000000 1977.000000 
		}
	}
	outgoing = { 
		name = "c_atmora_tn"
		path = { 
			1960 384 
		}
		control = { 
			1993.000000 2481.000000 1935.000000 2492.000000 1867.000000 2558.000000 1813.000000 2564.000000 1759.000000 2596.000000
		}
	}
	members = { 
		390 391 392 393 395 2215 2216 2217 2218 2219
		476 477 478 479 2500 2501 2502 2504 481 482
		483 484 485 2506 2507 2508 2509 2220 2221 2222
		2223 2224 2225 2226 2227 2228 2229 1951 463 462
		2488 465 464 2487 480 2505 2503 2486 2489 
	}
}
c_atmora_tn = { 
	location = 1938
	color = { 
		143 211 108 
	}
	outgoing = { 
		name = "blacklight_tn"
		path = { 
			1939 4411 
		}
		control = { 
			1781.000000 2571.000000 1838.000000 2529.000000 1901.000000 2502.000000 1941.000000 2463.000000 1943.000000 2439.000000
			1949.000000 2409.000000 1944.000000 2373.000000 1926.000000 2301.000000 1755.000000 2159.000000 1692.000000 2122.000000
			1659.000000 2122.000000 1626.000000 2089.000000 1646.000000 2055.000000 
		}
	}
	outgoing = { 
		name = "w_atmora_tn"
		path = { 
			1938 357 
		}
		control = { 
			1709.000000 2577.000000 1685.000000 2587.000000 1644.000000 2572.000000 1578.000000 2617.000000 1526.000000 2587.000000
			1485.000000 2533.000000 1389.000000 2555.000000 1355.000000 2576.000000 1352.000000 2599.000000 
		}
	}
	outgoing = { 
		name = "nordic_coast_tn"
		path = { 
			1939 1869 
		}
		control = { 
			1798.000000 2545.000000 1913.000000 2461.000000 1930.000000 2389.000000 1933.000000 2341.000000 1900.000000 2308.000000
			1735.000000 2182.000000 1497.000000 2154.000000 1444.000000 2128.000000 
		}
	}
	members = { 
		356 366 367 368 369 1567 1568 2191 2192 2193
		363 364 365 379 387 1569 1570 2188 2189 2190
		372 373 374 375 376 1573 1574 2197 2198 2199
		377 378 383 384 388 1575 1576 2200 2201 2202
		486 487 488 489 490 2510 2511 2512 2513 2514
		2270 2271 2272 2273 2274 2275 2276 2277 2278 2279
		2320 2321 2322 2323 2324 2325 2326 2327 2328 2329
		1938 
	}
}
w_atmora_tn = { 
	location = 4
	color = { 
		16 48 220 
	}
	outgoing = { 
		name = "w_glacier_tn"
		path = { 
			362 2417 
		}
		control = { 
			1338.000000 2609.000000 1325.000000 2605.000000 1290.000000 2615.000000 1276.000000 2635.000000 
		}
	}
	outgoing = { 
		name = "wrothgar_tn"
		path = { 
			4 4390 
		}
		control = { 
			1346.000000 2546.000000 1419.000000 2529.000000 1483.000000 2508.000000 1533.000000 2564.000000 1623.000000 2518.000000
			1735.000000 2531.000000 1777.000000 2551.000000 1813.000000 2523.000000 1904.000000 2461.000000 1919.000000 2403.000000
			1917.000000 2359.000000 1794.000000 2284.000000 1736.000000 2232.000000 1631.000000 2211.000000 1500.000000 2184.000000
			1408.000000 2142.000000 1363.000000 2155.000000 1277.000000 2148.000000 1208.000000 2191.000000 1090.000000 2178.000000
			992.000000 2135.000000 967.000000 2093.000000 934.000000 2076.000000 
		}
	}
	members = { 
		357 358 361 359 362 1565 1566 2185 2186 2187
		431 432 433 434 435 2455 2456 2457 2458 2459
		2230 2231 2232 2233 2234 2235 2236 2237 2238 2239
		2240 2241 2242 2243 2244 2245 2246 2247 2248 2249
		4 
	}
}
w_glacier_tn = { 
	location = 2252
	inland = yes
	color = { 
		255 153 170 
	}
	outgoing = { 
		name = "w_coldharbour_tn"
		path = { 
			2498 3188 
		}
		control = { 
			1243.000000 2657.000000 1237.000000 2690.000000 1257.000000 2704.000000 1266.000000 2727.000000 1242.000000 2748.000000
			1189.000000 2747.000000 1140.000000 2723.000000 1075.000000 2722.000000 1012.000000 2756.000000 965.000000 2766.000000
			941.000000 2756.000000 858.000000 2773.000000 569.000000 2655.000000 468.000000 2597.000000 
		}
	}
	members = { 
		426 427 428 429 430 2450 2451 2452 2454 2453
		2251 2250 2254 2255 2256 2252 2253 2257 2258 2259
	}
}
w_coldharbour_tn = { 
	location = 3188
	inland = yes
	color = { 
		232 22 22 
	}
	outgoing = { 
		name = "s_coldharbour_tn"
		path = { 
			3189 2970 
		}
		control = { 
			147.000000 2282.000000 183.000000 2261.000000 195.000000 2262.000000 213.000000 2245.000000 
		}
	}
	outgoing = { 
		name = "e_deadlands_tn"
		path = { 
			3184 3877 
		}
		control = { 
			12.000000 2420.000000 4040.000000 2385.000000 
		}
	}
	members = { 
		3141 3142 3143 3144 3145 3146 3147 3148 3149 3150
		3151 3152 3153 3154 3155 3156 3157 3158 3159 3160
		3161 3162 3163 3164 3165 3166 3167 3168 3169 3170
		3171 3172 3173 3174 3175 3176 3177 3178 3179 3180
		3181 3182 3183 3184 3185 3186 3187 3188 3189 3190
	}
}
s_coldharbour_tn = { 
	location = 2970
	inland = yes
	color = { 
		0 176 176 
	}
	outgoing = { 
		name = "c_coldharbour_tn"
		path = { 
			2962 2850 
		}
		control = { 
			274.000000 2241.000000 332.000000 2259.000000 345.000000 2261.000000 
		}
	}
	members = { 
		2871 2872 2873 2874 2875 2876 2877 2878 2879 2880
		2881 2882 2883 2884 2885 2886 2887 2888 2889 2890
		2961 2962 2963 2964 2965 2966 2967 2968 2969 2970
		2971 2972 2973 2974 2975 2976 2977 2978 2979 2980
		2981 2982 2983 2984 2985 2986 2987 2988 2989 2990
	}
}
c_coldharbour_tn = { 
	location = 2850
	inland = yes
	color = { 
		255 213 0 
	}
	outgoing = { 
		name = "e_coldharbour_tn"
		path = { 
			2849 2915 
		}
		control = { 
			414.000000 2276.000000 428.000000 2248.000000 
		}
	}
	members = { 
		2701 2702 2703 2704 2705 2706 2707 2708 2709 2710
		2751 2752 2753 2754 2755 2756 2757 2758 2759 2760
		2831 2832 2833 2834 2835 2836 2837 2838 2839 2840
		2841 2842 2843 2844 2845 2846 2847 2848 2849 2850
		2891 2892 2893 2894 2895 2896 2897 2898 2899 2900
	}
}
e_coldharbour_tn = { 
	location = 2915
	inland = yes
	color = { 
		0 168 0 
	}
	outgoing = { 
		name = "c_deadlands_tn"
		path = { 
			2912 4174 
		}
		control = { 
			158.000000 2155.000000 3883.000000 2331.000000 
		}
	}
	members = { 
		2851 2852 2853 2854 2855 2856 2857 2858 2859 2860
		2861 2862 2863 2864 2865 2866 2867 2868 2869 2870
		2901 2902 2903 2904 2905 2906 2907 2908 2909 2910
		2951 2952 2953 2954 2955 2956 2957 2958 2959 2960
		2911 2912 2913 2914 2915 2916 2917 2918 2919 2920
	}
}
e_deadlands_tn = { 
	location = 3877
	inland = yes
	color = { 
		138 51 0 
	}
	outgoing = { 
		name = "c_deadlands_tn"
		path = { 
			3876 4174 
		}
		control = { 
			3888.000000 2444.000000 3853.000000 2436.000000 3832.000000 2435.000000 3814.000000 2404.000000 
		}
	}
	members = { 
		3861 3862 3863 3864 3865 3866 3867 3868 3869 3870
		3871 3872 3873 3874 3875 3876 3877 3878 3879 3880
		3881 3882 3883 3884 3885 3886 3887 3888 3889 3890
		3891 3892 3893 3894 3895 3896 3897 3898 3899 3900
		4151 4152 4153 4154 4155 4156 4157 4158 4159 4160
	}
}
o_deadlands_tn = { 
	location = 4337
	inland = yes
	color = { 
		255 162 0 
	}
	outgoing = { 
		name = "w_deadlands_tn"
		path = { 
			4335 4285 
		}
		control = { 
			3627.000000 2325.000000 3669.000000 2354.000000 3666.000000 2384.000000 
		}
	}
	members = { 
		4311 4312 4313 4314 4315 4316 4317 4318 4319 4320
		4321 4322 4323 4324 4325 4326 4327 4328 4329 4330
		4331 4332 4333 4334 4335 4336 4337 4338 4339 4340
		4341 4342 4343 4344 4345 4346 4347 4348 4349 4350
		4351 4352 4353 4354 4355 4356 4357 4358 4359 4360
	}
}
w_deadlands_tn = { 
	location = 4285
	inland = yes
	color = { 
		176 0 65 
	}
	outgoing = { 
		name = "c_deadlands_tn"
		path = { 
			4096 4174 
		}
		control = { 
			3714.000000 2384.000000 3765.000000 2389.000000 3780.000000 2396.000000 
		}
	}
	members = { 
		4141 4142 4143 4144 4145 4146 4147 4148 4149 4150
		4181 4182 4183 4184 4185 4186 4187 4188 4189 4190
		4191 4192 4193 4194 4195 4196 4197 4198 4199 4200
		4281 4282 4283 4284 4285 4286 4287 4288 4289 4290
		4291 4292 4293 4294 4295 4296 4297 4298 4299 4300
	}
}
c_deadlands_tn = { 
	location = 4174
	inland = yes
	color = { 
		220 66 0 
	}
	outgoing = { 
		name = "northern_islands_tn"
		path = { 
			4176 1843 1857 3301 3309 3303 3306 3305 3351 3343
			3360 3357 3380 3381 3382 3384 
		}
		control = { 
			3765.000000 2354.000000 3666.000000 2160.000000 
		}
	}
	members = { 
		3761 3762 3763 3764 3765 3766 3767 3768 3769 3770
		4061 4062 4063 4064 4065 4066 4067 4068 4069 4070
		4071 4072 4073 4074 4075 4076 4077 4078 4079 4080
		4161 4162 4163 4164 4165 4166 4167 4168 4169 4170
		4171 4172 4173 4174 4175 4176 4177 4178 4179 4180
	}
}
northern_islands_tn = { 
	location = 4475
	color = { 
		220 220 220 
	}
	outgoing = { 
		name = "n_kamal_tn"
		path = { 
			4475 508 
		}
		control = { 
			3618.000000 2041.000000 3513.000000 1859.000000 3478.000000 1775.000000 
		}
	}
	outgoing = { 
		name = "e_tsakara_tn"
		path = { 
			4463 4509 196 
		}
		control = { 
			3539.000000 2065.000000 3456.000000 1949.000000 3264.000000 1873.000000 3094.000000 1668.000000 2880.000000 1459.000000
			2865.000000 1295.000000 
		}
	}
	members = { 
		406 407 408 409 410 1535 2208 2209 2210 2211
		411 412 413 414 415 1536 1537 2212 2213 2214
		793 794 795 796 797 798 1538 1801 1802 1803
		800 801 802 803 804 1549 1804 1805 1806 1807
		806 807 808 1546 1547 1808 1809 1810 1811 1812
		1541 1542 1543 1544 1545 1813 1814 1815 1816 1817
		799 805 1539 1540 1548 1550 1818 1819 1820 1821
		2656 2657 2658 2659 2660 2661 2662 2663 2664 2665
		3471 3472 3473 3474 3475 3476 3477 3478 3479 3480
		4475 
	}
}
w_tsakara_tn = { 
	location = 736
	inland = yes
	color = { 
		0 128 85 
	}
	outgoing = { 
		name = "e_tsakara_tn"
		path = { 
			735 194 
		}
		control = { 
			2781.000000 1159.000000 2847.000000 1187.000000 2881.000000 1187.000000 
		}
	}
	outgoing = { 
		name = "Eastcoast_blackmarsh_tn"
		path = { 
			7597 
		}
		control = { 
			2774.000000 1076.000000 2781.000000 1035.000000 2695.000000 994.000000 2682.000000 1067.000000 2630.000000 1125.000000
			2486.000000 1129.000000 2440.000000 1254.000000 2374.000000 1237.000000 2264.000000 1213.000000 2206.000000 1272.000000
			2121.000000 1294.000000 2099.000000 1395.000000 2061.000000 1407.000000 2030.000000 1425.000000 
		}
	}
	members = { 
		677 678 679 680 681 1605 1606 1607 1608 1609
		682 683 684 685 686 1610 1611 1612 1613 1614
		687 688 689 690 691 1615 1616 1617 1618 1619
		702 703 704 705 706 1625 1626 1627 1628 1629
		717 718 719 720 721 1645 1646 1647 1648 1649
		732 733 734 735 736 1660 1661 1662 1663 1664
		3631 3632 3633 3634 3635 3636 3637 3638 3639 3640
		3641 3642 3643 3644 3645 3646 3647 3648 3649 3650
		3651 3652 3653 3654 3655 3656 3657 3658 3659 3660
	}
}
e_tsakara_tn = { 
	location = 194
	color = { 
		71 245 120 
	}
	outgoing = { 
		name = "transakavir_tn"
		path = { 
			1641 3586 
		}
		control = { 
			2980.000000 1144.000000 3034.000000 1134.000000 3054.000000 1114.000000 
		}
	}
	outgoing = { 
		name = "upper_tn"
		path = { 
			191 196 692 200 1967 751 
		}
		control = { 
			2894.000000 1219.000000 2879.000000 1309.000000 2964.000000 1345.000000 3090.000000 1273.000000 
		}
	}
	members = { 
		692 693 694 695 696 1620 1621 1622 1623 1624
		697 698 699 700 701 1630 1631 1632 1633 1634
		707 708 709 710 711 1635 1636 1637 1638 1639
		712 713 714 715 716 1640 1641 1642 1643 1644
		727 728 729 730 731 1650 1651 1652 1653 1654
		722 723 724 725 726 1655 1656 1657 1658 1659
		194 
	}
}
transakavir_tn = { 
	location = 3586
	inland = yes
	color = { 
		0 0 255 
	}
	outgoing = { 
		name = "shamo_po_tun_tn"
		path = { 
			3588 636 
		}
		control = { 
			3158.000000 1149.000000 3161.000000 1162.000000 3179.000000 1171.000000 3192.000000 1167.000000 3212.000000 1167.000000
			3246.000000 1159.000000 3316.000000 1178.000000 3376.000000 1208.000000 
		}
	}
	outgoing = { 
		name = "upper_tn"
		path = { 
			3590 1773 751 
		}
		control = { 
			3125.000000 1146.000000 3132.000000 1215.000000 3149.000000 1229.000000 3184.000000 1279.000000 3185.000000 1311.000000
			3151.000000 1339.000000 3137.000000 1361.000000 
		}
	}
	members = { 
		3541 3542 3543 3544 3545 3546 3547 3548 3549 3550
		3551 3552 3553 3554 3555 3556 3557 3558 3559 3560
		3561 3562 3563 3564 3565 3566 3567 3568 3569 3570
		3571 3572 3573 3574 3575 3576 3577 3578 3579 3580
		3581 3582 3583 3584 3585 3586 3587 3588 3589 3590
		3591 3592 3593 3594 3595 3596 3597 3598 3599 3600
		3601 3602 3603 3604 3605 3606 3607 3608 3609 3610
	}
}
shamo_po_tun_tn = { 
	location = 636
	inland = yes
	color = { 
		255 217 25 
	}
	outgoing = { 
		name = "thousand_tn"
		path = { 
			636 172 
		}
		control = { 
			3426.000000 1230.000000 3462.000000 1200.000000 3515.000000 1183.000000 3569.000000 1236.000000 3632.000000 1242.000000
			3635.000000 1267.000000 
		}
	}
	outgoing = { 
		name = "yanhai_po_tun_tn"
		path = { 
			1691 4572 
		}
		control = { 
			3387.000000 1261.000000 3371.000000 1389.000000 3358.000000 1428.000000 
		}
	}
	members = { 
		609 610 611 613 1666 1670 1671 1672 1673 1674
		614 615 616 617 618 648 1701 1702 1703 1704
		619 620 621 622 623 1675 1676 1677 1678 1679
		624 625 626 627 628 1680 1681 1682 1683 1684
		629 630 631 632 633 1685 1686 1687 1688 1689
		634 635 636 637 638 1690 1691 1692 1693 1694
		639 640 641 642 643 1695 1696 1697 1698 1699
		644 645 646 647 1700 1710 1711 1712 1713 1714
		654 655 656 657 658 612 1665 1667 1668 1669
		659 660 661 662 663 1715 1716 1717 1718 1719
	}
}
s_kamal_tn = { 
	location = 2573
	inland = yes
	color = { 
		28 71 240 
	}
	outgoing = { 
		name = "yanhai_po_tun_tn"
		path = { 
			4539 4572 
		}
		control = { 
			3257.000000 1434.000000 
		}
	}
	outgoing = { 
		name = "upper_tn"
		path = { 
			2589 751 
		}
		control = { 
			3174.000000 1554.000000 3179.000000 1528.000000 3213.000000 1463.000000 3221.000000 1444.000000 3209.000000 1435.000000
			3201.000000 1428.000000 3175.000000 1411.000000 3120.000000 1415.000000 
		}
	}
	outgoing = { 
		name = "c_kamal_tn"
		path = { 
			2568 508 
		}
		control = { 
			3213.000000 1535.000000 3261.000000 1535.000000 
		}
	}
	members = { 
		2555 2556 2557 2558 2559 2560 2561 2562 2563 2564
		2565 2566 2567 2568 2569 2570 2571 2572 2573 2574
		2575 2576 2577 2578 2579 2580 2581 2582 2583 2584
		2585 2586 2587 2588 2589 2590 2591 2592 2593 2594
	}
}
upper_tn = { 
	location = 751
	inland = yes
	color = { 
		32 164 51 
	}
	outgoing = { 
		name = "yanhai_po_tun_tn"
		path = { 
			749 4572 
		}
		control = { 
			3135.000000 1409.000000 3229.000000 1386.000000 3261.000000 1394.000000 3340.000000 1400.000000 3343.000000 1428.000000
		}
	}
	members = { 
		737 738 739 741 742 1767 1768 1769 1770 1771
		743 744 745 746 747 1772 1773 1774 1775 1776
		740 748 749 750 751 752 1777 1778 1779 1780
		753 754 755 756 757 1781 1782 1783 1784 1785
		758 759 760 761 762 1786 1787 1788 1789 1790
		763 764 765 766 767 1791 1792 1793 1794 1795
		768 769 770 771 772 1796 1797 1798 1799 1800
		3531 3532 3533 3534 3535 3536 3537 3538 3539 3540
	}
}
yanhai_po_tun_tn = { 
	location = 4572
	color = { 
		0 153 153 
	}
	outgoing = { 
		name = "thousand_tn"
		path = { 
			4573 4577 172 
		}
		control = { 
			3371.000000 1435.000000 3386.000000 1419.000000 3421.000000 1405.000000 3430.000000 1377.000000 3460.000000 1366.000000
			3468.000000 1307.000000 3511.000000 1280.000000 3577.000000 1261.000000 3611.000000 1272.000000 3625.000000 1269.000000
		}
	}
	outgoing = { 
		name = "safala_peninsula_tn"
		path = { 
			2648 575 
		}
		control = { 
			3371.000000 1443.000000 3389.000000 1441.000000 3403.000000 1433.000000 3413.000000 1430.000000 3428.000000 1433.000000
			3437.000000 1441.000000 3472.000000 1425.000000 3473.000000 1404.000000 
		}
	}
	outgoing = { 
		name = "c_kamal_tn"
		path = { 
			2650 508 
		}
		control = { 
			3345.000000 1447.000000 3291.000000 1468.000000 
		}
	}
	members = { 
		649 650 651 652 653 1705 1706 1707 1708 1709
		664 665 666 667 668 1720 1721 1722 1723 1724
		2636 2637 2638 2639 2640 2641 2642 2643 2644 2645
		2646 2647 2648 2649 2650 2651 2652 2653 2654 2655
		3621 3622 3623 3624 3625 3626 3627 3628 3629 3630
		4572 
	}
}
n_kamal_tn = { 
	location = 4564
	color = { 
		0 9 26 
	}
	outgoing = { 
		name = "c_kamal_tn"
		path = { 
			3491 508 
		}
		control = { 
			3400.000000 1689.000000 3367.000000 1679.000000 3341.000000 1641.000000 3289.000000 1613.000000 
		}
	}
	members = { 
		491 492 493 494 495 2515 2516 2517 2518 2519
		2666 2667 2668 2669 2670 2671 2672 2673 2674 2675
		3481 3482 3483 3484 3485 3486 3487 3488 3489 3490
		3491 3492 3493 3494 3495 3496 3497 3498 3499 3500
		3501 3502 3503 3504 3505 3506 3507 3508 3509 3510
		3511 3512 3513 3514 3515 3516 3517 3518 3519 3520
		3521 3522 3523 3524 3525 3526 3527 3528 3529 3530
		4564 2635 
	}
}
safala_peninsula_tn = { 
	location = 4584
	color = { 
		57 32 32 
	}
	outgoing = { 
		name = "thousand_tn"
		path = { 
			4583 172 
		}
		control = { 
			3555.000000 1396.000000 3611.000000 1360.000000 
		}
	}
	members = { 
		575 576 577 578 579 1593 1594 1749 1750 1751
		580 581 582 583 584 1595 1596 1752 1753 1754
		585 586 587 588 589 1597 1598 1755 1756 1757
		590 591 592 593 594 1599 1600 1758 1759 1760
		595 596 597 598 599 1601 1602 1761 1762 1763
		4582 4584 
	}
}
thousand_tn = { 
	location = 172
	color = { 
		0 204 0 
	}
	outgoing = { 
		name = "c_kamal_tn"
		path = { 
			4552 4554 4557 2598 508 
		}
		control = { 
			3590.000000 1503.000000 3506.000000 1547.000000 3483.000000 1593.000000 3335.000000 1547.000000 
		}
	}
	outgoing = { 
		name = "yokudan_islands_tn"
		path = { 
			174 78 
		}
		control = { 
			3663.000000 1269.000000 3660.000000 1233.000000 3699.000000 1220.000000 3794.000000 1221.000000 3903.000000 1271.000000
			3986.000000 1353.000000 4095.000000 1364.000000 4288.000000 1429.000000 290.000000 1440.000000 260.000000 1500.000000
		}
	}
	members = { 
		535 536 537 538 539 1577 1578 1725 1726 1727
		540 541 542 543 544 1579 1580 1728 1729 1730
		545 546 547 548 549 1581 1582 1731 1732 1733
		550 551 552 553 554 1583 1584 1734 1735 1736
		555 556 557 558 559 1585 1586 1737 1738 1739
		560 561 562 563 564 1587 1588 1740 1741 1742
		565 566 567 568 569 1589 1590 1743 1744 1745
		570 571 572 573 574 1591 1592 1746 1747 1748
		600 601 602 603 604 1603 1604 1764 1765 1766
		3611 3612 3613 3614 3615 3616 3617 3618 3619 3620
		172 
	}
}
c_kamal_tn = { 
	location = 508
	inland = yes
	color = { 
		236 162 19 
	}
	outgoing = { 
		name = "yokudan_islands_tn"
		path = { 
			508 74 
		}
		control = { 
			3352.000000 1630.000000 3425.000000 1616.000000 3533.000000 1627.000000 3561.000000 1541.000000 3740.000000 1424.000000
			3836.000000 1429.000000 4024.000000 1447.000000 4198.169922 1610.939941 197.000000 1624.000000 242.000000 1574.000000
		}
	}
	members = { 
		496 497 498 499 500 2520 2521 2522 2523 2524
		501 502 503 504 505 2525 2526 2527 2528 2529
		506 507 508 509 510 2530 2531 2532 2533 2534
		511 512 513 514 515 2535 2536 2537 2538 2539
		516 517 518 519 520 2540 2541 2542 2543 2544
		2545 2546 2547 2548 2549 2550 2551 2552 2553 2554
		2595 2596 2597 2598 2599 2600 2601 2602 2603 2604
		2605 2606 2607 2608 2609 2610 2611 2612 2613 2614
		2615 2616 2617 2618 2619 2620 2621 2622 2623 2624
		2625 2626 2627 2628 2629 2630 2631 2632 2633 2634
	}
}
pyandonea_outer_tn = { 
	location = 2031
	inland = yes
	color = { 
		38 143 65 
	}
	outgoing = { 
		name = "pyandonea_inner_tn"
		path = { 
			2028 103 104 
		}
		control = { 
			961.000000 709.000000 899.000000 730.000000 
		}
	}
	members = { 
		231 232 233 1559 1560 2018 2019 234 235 236
		237 238 1561 1562 2020 2021 2022 2068 239 240
		241 244 245 1563 1564 2023 2085 2066 2067 2028
		2029 2030 2031 2032 2033 2034 2035 2083 2084 2036
		2037 2038 2039 2040 2041 2042 2043 2044 2045 2046
		2047 2048 2049 2050 2051 2052 2053 2054 2055 2056
		2057 2058 2059 2060 2061 2062 2063 2064 2065 2078
		2079 2080 2081 2082 2086 
	}
}
pyandonea_inner_tn = { 
	location = 104
	color = { 
		0 153 153 
	}
	outgoing = { 
		name = "s_summerset_tn"
		path = { 
			106 135 157 
		}
		control = { 
			810.000000 770.000000 777.000000 802.000000 722.000000 792.000000 705.000000 844.000000 745.000000 981.000000
			583.000000 1037.000000 
		}
	}
	outgoing = { 
		name = "southern_valenwood_tn"
		path = { 
			101 1894 108 
		}
		control = { 
			810.000000 797.000000 812.000000 824.000000 794.000000 841.000000 771.000000 866.000000 764.000000 907.000000
			790.000000 989.000000 793.000000 1068.000000 935.000000 1126.000000 
		}
	}
	outgoing = { 
		name = "pelletine_tn"
		path = { 
			102 2006 109 111 929 928 926 941 943 
		}
		control = { 
			868.000000 799.000000 872.000000 822.000000 890.000000 849.000000 890.000000 885.000000 843.000000 923.000000
			802.000000 1050.000000 893.000000 1052.000000 1013.000000 1087.000000 1145.640015 1045.810059 1238.000000 1100.000000
			1310.949951 1033.040039 1375.000000 1059.000000 1437.000000 1063.000000 
		}
	}
	members = { 
		229 230 209 210 211 212 213 1551 1552 2005
		2006 2007 214 215 216 217 218 1553 1554 2008
		2009 2010 219 220 221 222 223 1555 1556 2011
		2012 2013 224 225 226 227 228 1557 1558 2014
		2015 2016 2069 2070 2071 2072 2073 2074 2075 2076
		2077 2087 2088 2089 2090 2091 2092 2093 2094 2017
		2095 2096 2097 2098 2099 2100 2101 2102 2103 2104
		2105 2026 2027 2024 2025 104 
	}
}
shadowfen_tn = { 
	location = 1069
	inland = yes
	color = { 
		45 200 245 
	}
	outgoing = { 
		name = "central_blackmarsh_tn"
		path = { 
			1068 6539 6564 6563 6562 6559 6560 6772 6774 6775
			6489 1075 
		}
		control = { 
			1885.000000 1452.000000 1883.000000 1441.000000 1874.000000 1427.000000 1892.000000 1396.000000 1888.000000 1376.000000
			1881.000000 1370.000000 1869.000000 1373.000000 1860.000000 1369.000000 1850.000000 1369.000000 1847.000000 1357.000000
			1844.000000 1340.000000 1857.000000 1333.000000 1883.000000 1337.000000 1914.000000 1329.000000 1927.000000 1304.000000
			1915.000000 1287.000000 1897.000000 1288.000000 
		}
	}
	outgoing = { 
		name = "blackwood_tn"
		path = { 
			1068 6539 6540 6543 6550 6548 1112 1225 5407 5473
			5474 
		}
		control = { 
			1867.000000 1461.000000 1852.000000 1438.000000 1809.000000 1431.000000 1766.000000 1451.000000 1731.000000 1449.000000
			1707.000000 1459.000000 1686.000000 1453.000000 
		}
	}
	outgoing = { 
		name = "deshaan_tn"
		path = { 
			1073 6514 6518 3830 3827 3826 3824 3238 990 
		}
		control = { 
			1893.000000 1449.000000 1906.000000 1451.000000 1912.000000 1473.000000 1909.000000 1485.000000 1913.000000 1499.000000
		}
	}
	outgoing = { 
		name = "east_central_blackmarsh_tn"
		path = { 
			1073 1076 6454 6455 1071 1070 1074 6583 6584 6585
			6626 6627 
		}
		control = { 
			1888.000000 1448.000000 1883.000000 1433.000000 1890.000000 1417.000000 1904.000000 1396.000000 1921.000000 1387.000000
			1940.000000 1360.000000 1954.000000 1332.000000 1981.000000 1341.000000 1991.000000 1326.000000 
		}
	}
	members = { 
		1069 1073 3226 3227 3228 6502 6505 6503 6568 6518
		6512 6513 979 6507 6455 1071 6562 1070 6582 1074
		1078 6504 6501 6573 6581 6497 6498 6600 6509 7002
		6499 6515 6519 6520 6517 6523 6528 6448 6524 6522
		6521 6506 6587 6597 6594 6592 6593 6591 6584 6599
		6598 6583 6508 980 6571 1072 6453 6567 6451 6572
		6570 6452 6566 6633 6514 983 3830 3828 3827 3829
		6449 6450 6565 6527 6530 6529 6532 6531 6533 6534
		6535 6525 6526 1068 6511 
	}
}
central_blackmarsh_tn = { 
	location = 1075
	inland = yes
	color = { 
		231 181 12 
	}
	outgoing = { 
		name = "west_central_blackmarsh_tn"
		path = { 
			6489 6775 6764 6765 6558 6557 6552 6543 6544 
		}
		control = { 
			1874.000000 1280.000000 1868.000000 1277.000000 1859.000000 1284.000000 1833.000000 1285.000000 1813.000000 1286.000000
			1809.000000 1292.000000 1798.000000 1297.000000 1793.000000 1307.000000 1769.000000 1312.000000 1754.000000 1333.000000
		}
	}
	outgoing = { 
		name = "plantegra_tn"
		path = { 
			6489 6486 6763 6765 6766 
		}
		control = { 
			1873.000000 1275.000000 1868.000000 1261.000000 1848.000000 1262.000000 1833.000000 1248.000000 1802.000000 1258.000000
			1774.000000 1244.000000 1753.000000 1260.000000 1732.000000 1261.000000 1713.000000 1251.000000 1696.000000 1252.000000
		}
	}
	outgoing = { 
		name = "marsh_tn"
		path = { 
			1096 1105 6650 6651 1921 
		}
		control = { 
			1893.000000 1271.000000 1913.000000 1263.000000 1927.000000 1230.000000 1939.000000 1216.000000 
		}
	}
	outgoing = { 
		name = "east_central_blackmarsh_tn"
		path = { 
			1096 1102 6640 6637 6633 6631 6630 6627 
		}
		control = { 
			1918.000000 1276.000000 1943.000000 1285.000000 1956.000000 1321.000000 1986.000000 1315.000000 
		}
	}
	members = { 
		1102 6839 6826 1103 6778 6777 6779 6579 6580 6588
		6577 6576 6773 6574 6561 6559 6771 6558 6557 6768
		6560 6772 6780 1075 6662 6647 6661 6641 6645 6646
		6644 6642 6649 6682 6681 6684 6688 6689 6685 6686
		6683 6643 6490 6488 6575 6578 6776 6774 6775 6764
		6765 6763 6687 6487 6486 
	}
}
east_central_blackmarsh_tn = { 
	location = 1106
	inland = yes
	color = { 
		118 99 151 
	}
	outgoing = { 
		name = "marsh_tn"
		path = { 
			6629 6826 6827 6830 6833 6832 1921 
		}
		control = { 
			1987.000000 1293.000000 1965.000000 1279.000000 1956.000000 1261.000000 1960.000000 1240.000000 1956.000000 1223.000000
		}
	}
	outgoing = { 
		name = "Eastcoast_blackmarsh_tn"
		path = { 
			6625 6620 6619 6616 1920 6485 
		}
		control = { 
			2021.000000 1322.000000 2035.000000 1313.000000 2042.000000 1332.000000 2014.000000 1354.000000 2021.000000 1376.000000
			2006.000000 1406.000000 
		}
	}
	members = { 
		6627 6628 6821 6625 6822 6825 6824 6823 1105 6629
		6631 6630 1077 6589 6638 6510 6586 6590 6585 6626
		6623 6624 1106 6620 6618 6617 6616 6619 1104 1107
		1101 1108 6482 6613 6615 6614 6621 6483 6484 6485
	}
}
marsh_tn = { 
	location = 1921
	color = { 
		130 17 17 
	}
	outgoing = { 
		name = "Eastcoast_blackmarsh_tn"
		path = { 
			6810 6808 6807 1108 1106 1920 6485 
		}
		control = { 
			1970.000000 1215.000000 1995.000000 1196.000000 2039.000000 1196.000000 2061.000000 1244.000000 2049.000000 1285.000000
			2069.000000 1337.000000 2036.000000 1361.000000 2033.000000 1414.000000 
		}
	}
	outgoing = { 
		name = "murkmire_tn"
		path = { 
			6660 6664 6665 1924 6742 6741 1926 6731 6465 1087
			1903 
		}
		control = { 
			1931.000000 1201.000000 1907.000000 1178.000000 1888.000000 1174.000000 1871.000000 1183.000000 1872.000000 1204.000000
			1852.000000 1219.000000 1833.000000 1222.000000 1824.000000 1208.000000 1798.000000 1211.000000 1795.000000 1185.000000
			1817.000000 1173.000000 1819.000000 1151.000000 1802.000000 1147.000000 1780.000000 1158.000000 1771.000000 1130.000000
			1754.000000 1103.000000 1759.000000 1068.000000 1731.000000 1041.000000 1689.000000 1049.000000 
		}
	}
	members = { 
		1921 6782 6784 6785 6781 6793 6792 6791 6795 6796
		6794 6798 6797 6800 6803 6802 6801 6804 6805 6809
		6808 6807 6806 6481 6799 6810 6829 6831 6828 6827
		6834 6835 6833 6832 6783 6656 6655 6657 6653 6654
		6652 6651 6648 1096 6650 6659 6660 6658 6664 6749
		6667 6669 6666 6665 6670 6830 6840 6836 6837 6636
		6635 6632 6634 6637 6640 6639 
	}
}
west_central_blackmarsh_tn = { 
	location = 6548
	inland = yes
	color = { 
		143 70 103 
	}
	outgoing = { 
		name = "blackwood_tn"
		path = { 
			6549 6548 1112 1225 5407 5473 5474 
		}
		control = { 
			1720.000000 1378.000000 1721.000000 1406.000000 1741.000000 1429.000000 1731.000000 1442.000000 1712.000000 1426.000000
			1700.000000 1453.000000 
		}
	}
	outgoing = { 
		name = "plantegra_tn"
		path = { 
			6550 6553 6554 6769 6766 
		}
		control = { 
			1715.000000 1334.000000 1702.000000 1309.000000 1672.000000 1307.000000 1662.000000 1276.000000 1648.000000 1262.000000
			1654.000000 1242.000000 1674.000000 1228.000000 1691.000000 1235.000000 
		}
	}
	members = { 
		6549 6547 6548 6718 6546 6545 6489 6541 6536 6552
		6553 6555 6556 6554 6459 6457 6458 6456 6544 1083
		6708 6460 6706 6705 6704 6702 6703 6701 6539 6550
		6543 6551 6563 6569 6564 6540 1080 6538 6537 6542
	}
}
blackwood_tn = { 
	location = 1223
	inland = yes
	color = { 
		193 26 14 
	}
	outgoing = { 
		name = "valus_tn"
		path = { 
			5476 5415 5414 1230 1228 5397 1212 1213 5417 5416
			5432 1251 
		}
		control = { 
			1678.000000 1463.000000 1702.000000 1483.000000 1701.000000 1505.000000 1671.000000 1525.000000 1674.000000 1567.000000
			1635.000000 1594.000000 1637.000000 1643.000000 
		}
	}
	outgoing = { 
		name = "nibenay_tn"
		path = { 
			5475 5477 5479 5504 5509 5510 58 5511 5513 5514
			5516 55 
		}
		control = { 
			1670.000000 1455.000000 1660.000000 1471.000000 1640.000000 1472.000000 1621.000000 1467.000000 1593.000000 1468.000000
			1561.000000 1455.000000 
		}
	}
	outgoing = { 
		name = "topalbay_tn"
		path = { 
			5472 5459 1122 1126 60 
		}
		control = { 
			1664.000000 1445.000000 1654.000000 1460.000000 1638.000000 1445.000000 1605.000000 1449.000000 1594.000000 1430.000000
			1595.000000 1411.000000 1572.000000 1393.000000 1559.000000 1358.000000 1570.000000 1317.000000 1570.000000 1282.000000
		}
	}
	members = { 
		6060 5427 5426 1242 6017 6049 6050 1226 5977 5428
		5429 5430 6056 6058 6057 6059 6055 6054 5928 6052
		1222 6051 1227 5401 1228 1220 1218 5403 5402 5404
		1223 1219 5438 5405 5439 6041 5437 1239 5521 5981
		6043 6042 1225 6023 6030 6029 6028 6027 6021 6024
		6045 6047 6048 6019 6011 6013 6018 1244 6025 6020
	}
}
plantegra_tn = { 
	location = 6720
	color = { 
		125 92 100 
	}
	outgoing = { 
		name = "murkmire_tn"
		path = { 
			1930 1929 1928 1927 6461 1903 
		}
		control = { 
			1702.000000 1233.000000 1701.000000 1221.000000 1688.000000 1194.000000 1671.000000 1159.000000 1648.000000 1141.000000
			1640.000000 1112.000000 1661.000000 1096.000000 
		}
	}
	members = { 
		6766 6767 6769 6770 6760 6759 1082 6757 6756 6758
		6752 6707 6715 6714 6720 6753 6717 6716 6713 6719
		6755 6754 6730 6728 6727 6729 6700 6699 6724 6726
		1112 6725 5446 5447 6723 6722 6721 6838 6751 6712
		6711 6710 1081 6709 6762 6761 6696 6698 6697 6694
		6693 6692 6690 6691 6695 6676 6671 6675 6672 6673
		6674 1097 6677 6679 6680 
	}
}
murkmire_tn = { 
	location = 1903
	color = { 
		47 68 158 
	}
	outgoing = { 
		name = "pelletine_tn"
		path = { 
			1902 123 121 119 
		}
		control = { 
			1619.000000 1075.000000 1552.000000 1035.000000 1508.000000 1069.000000 1463.000000 1069.000000 
		}
	}
	outgoing = { 
		name = "topalbay_tn"
		path = { 
			125 5442 5444 127 5470 5462 60 
		}
		control = { 
			1610.000000 1118.000000 1562.000000 1147.000000 1581.000000 1204.000000 1553.000000 1247.000000 
		}
	}
	members = { 
		1903 6735 6471 1099 6464 6734 1088 6465 6731 6732
		6463 6737 6736 1086 6668 1087 6462 6461 6733 6739
		6738 6467 6740 6469 6741 6743 6742 6744 6745 6747
		6746 1109 6470 1089 1091 1090 6466 6678 6817 6818
		6468 1111 1095 1094 1093 6473 6472 6474 1085 1079
		6475 6748 6750 6811 6813 6663 6816 1092 6819 6814
		6812 1110 1100 1098 6820 1113 6815 6477 6480 6789
		6787 6786 6788 6790 6478 6479 
	}
}
southanequina_tn = { 
	location = 5172
	inland = yes
	color = { 
		101 102 163 
	}
	outgoing = { 
		name = "westanequina_tn"
		path = { 
			5280 5100 915 916 5296 5299 5066 888 
		}
		control = { 
			1333.000000 1253.000000 1310.000000 1246.000000 1287.859985 1254.719971 1277.000000 1275.000000 1276.000000 1298.000000
			1265.000000 1327.000000 1302.000000 1346.000000 
		}
	}
	outgoing = { 
		name = "eastanequina_tn"
		path = { 
			5279 5287 5263 5290 5093 911 5239 5237 5231 5229
			5226 
		}
		control = { 
			1388.000000 1250.000000 1397.000000 1263.000000 1392.000000 1281.000000 1425.000000 1291.000000 1435.000000 1328.000000
			1459.000000 1348.000000 1442.000000 1376.000000 
		}
	}
	outgoing = { 
		name = "central_south_valenwood_tn"
		path = { 
			5276 5254 5256 5258 5203 4871 840 4875 836 834
		}
		control = { 
			1332.000000 1223.000000 1322.000000 1194.000000 1302.000000 1189.000000 1292.000000 1213.000000 1268.000000 1219.000000
			1250.000000 1237.000000 1262.000000 1269.000000 1255.000000 1292.000000 1234.000000 1270.000000 1213.000000 1261.000000
			1217.000000 1234.000000 
		}
	}
	outgoing = { 
		name = "pelletine_tn"
		path = { 
			5275 5272 5171 5172 5177 5104 5180 5151 5152 119
		}
		control = { 
			1372.000000 1216.000000 1365.000000 1186.000000 1400.000000 1157.000000 1407.709961 1121.300049 1425.000000 1102.000000
			1444.000000 1095.000000 
		}
	}
	members = { 
		5274 5276 5275 926 5256 5267 5273 927 921 5173
		5277 5252 5207 920 5182 5272 925 5172 5254 5255
		5257 5285 5139 5070 5082 5218 5137 5106 5108 5080
		5068 5279 5208 5265 5268 5162 5174 5189 5113 5112
		928 5111 5152 5151 5180 923 922 5103 913 5105
		5176 2499 5178 5175 5188 5187 5183 5186 5278 5181
		5154 5155 5157 5156 5158 5150 5280 5160 5159 914
	}
}
upper_yokuda_tn = { 
	location = 2170
	color = { 
		0 191 230 
	}
	outgoing = { 
		name = "glenumbra_tn"
		path = { 
			354 44 
		}
		control = { 
			360.000000 1855.000000 394.000000 1839.000000 468.000000 1812.000000 522.000000 1747.000000 
		}
	}
	outgoing = { 
		name = "lower_yokuda_tn"
		path = { 
			354 2125 
		}
		control = { 
			307.000000 1863.000000 275.000000 1832.000000 272.000000 1809.000000 273.000000 1787.000000 233.000000 1780.000000
		}
	}
	members = { 
		336 354 355 2129 2130 2131 2132 2133 2134 2135
		2146 2147 2148 2149 2150 2151 2152 2153 2154 2155
		2156 2157 2158 2159 2160 2161 2162 2163 2164 2165
		2166 2167 2168 2169 2170 2171 2172 2173 2174 2175
		3451 3452 3453 3454 3455 3456 3457 3458 3459 3460
		3461 3462 3463 3464 3465 3466 3467 3468 3469 3470
	}
}
lower_yokuda_tn = { 
	location = 2125
	inland = yes
	color = { 
		153 76 0 
	}
	outgoing = { 
		name = "yokudan_islands_tn"
		path = { 
			325 78 
		}
		control = { 
			220.000000 1732.000000 199.000000 1698.000000 222.000000 1672.000000 244.000000 1657.000000 
		}
	}
	members = { 
		325 330 331 340 2112 2113 2114 2115 273 285
		332 333 334 2116 2117 2118 2119 2120 326 342
		344 345 346 347 348 2121 2122 2123 329 341
		343 349 350 2124 2125 2126 2127 2128 319 322
		335 2136 2137 2138 2139 2140 
	}
}
yokudan_islands_tn = { 
	location = 78
	color = { 
		254 200 181 
	}
	outgoing = { 
		name = "glenumbra_tn"
		path = { 
			77 3740 44 
		}
		control = { 
			352.000000 1635.000000 486.000000 1662.000000 
		}
	}
	outgoing = { 
		name = "co_hegathe_tn"
		path = { 
			181 3734 
		}
		control = { 
			407.820007 1518.949951 460.000000 1522.000000 490.000000 1514.000000 566.000000 1566.000000 643.000000 1569.000000
		}
	}
	outgoing = { 
		name = "n_summerset_tn"
		path = { 
			531 89 
		}
		control = { 
			325.000000 1513.000000 395.000000 1474.000000 415.000000 1402.000000 
		}
	}
	members = { 
		286 318 337 338 339 351 352 353 2141 2142
		2143 2144 320 321 323 324 2106 2107 2108 2109
		2110 2111 327 328 3441 3442 3443 3444 3445 3446
		3447 3448 3449 3450 2145 2176 2177 2178 2179 2180
		2181 2182 2183 2184 78 181 182 183 184 185
		186 187 188 1888 1887 1884 1882 1890 1889 3741
		3743 3744 79 75 76 74 72 73 77 
	}
}
rift_tn = { 
	location = 1268
	inland = yes
	color = { 
		80 40 180 
	}
	outgoing = { 
		name = "eastmarch_tn"
		path = { 
			7083 61 
		}
		control = { 
			1593.000000 1823.000000 1570.000000 1851.000000 1577.000000 1878.000000 1563.000000 1912.000000 1540.000000 1937.000000
			1537.000000 1956.000000 1530.000000 1967.000000 
		}
	}
	outgoing = { 
		name = "velothi_tn"
		path = { 
			1264 3122 3119 3118 3116 3370 3369 3368 3365 
		}
		control = { 
			1591.000000 1785.000000 1607.000000 1772.000000 1630.000000 1779.000000 1643.000000 1779.000000 1653.000000 1780.000000
			1656.000000 1801.000000 
		}
	}
	members = { 
		3117 3122 3119 3118 5895 5896 5897 3121 1267 7081
		7077 1268 3125 1264 3116 3120 5891 5892 1265 1266
		3126 3129 3127 3128 7076 3124 5877 1271 7079 7080
		7082 7093 3123 7092 7083 1269 1272 1273 7085 1270
		2820 2922 2935 7084 3130 3131 3108 3137 3110 3107
		1287 3109 3112 3113 3139 3135 3133 3136 3134 7078
		7091 1283 2931 3132 7095 2999 3193 2768 3191 1288
		1286 3115 3114 5413 2769 7123 3090 
	}
}
eastmarch_tn = { 
	location = 1275
	color = { 
		255 187 51 
	}
	outgoing = { 
		name = "nordic_coast_tn"
		path = { 
			1275 2764 1863 
		}
		control = { 
			1503.000000 1974.000000 1481.000000 1991.000000 1452.000000 2000.000000 1423.000000 1984.000000 1368.000000 2000.000000
			1359.000000 2029.000000 1376.000000 2056.000000 1398.000000 2067.000000 1405.000000 2079.000000 1399.000000 2096.000000
		}
	}
	outgoing = { 
		name = "blacklight_tn"
		path = { 
			1275 4411 
		}
		control = { 
			1540.000000 1973.500000 1542.000000 1962.000000 1563.000000 1973.000000 1569.000000 1989.000000 1598.000000 2016.000000
			1615.000000 2043.000000 
		}
	}
	outgoing = { 
		name = "whiterun_tn"
		path = { 
			1275 1319 
		}
		control = { 
			1527.000000 1970.000000 1523.000000 1957.000000 1508.000000 1948.000000 1498.000000 1925.000000 1472.000000 1919.000000
			1460.000000 1939.000000 1436.000000 1935.000000 1398.000000 1943.000000 1375.000000 1921.000000 
		}
	}
	members = { 
		1275 1274 7087 1278 2938 2814 2812 2811 2813 2930
		2810 2809 2808 2806 2926 2807 7086 2937 3000 1311
		2943 1312 3005 2950 2942 2924 2923 2817 2921 2818
		2925 2933 2819 2815 2816 7094 1282 2927 1281 1280
		2997 2928 2929 1279 2998 2739 2738 7090 2939 2941
		1314 2944 2945 1122 2763 
	}
}
nordic_coast_tn = { 
	location = 1863
	color = { 
		45 43 59 
	}
	outgoing = { 
		name = "hjaalmarch_tn"
		path = { 
			2732 1336 
		}
		control = { 
			1382.000000 2092.000000 1378.000000 2066.000000 1354.000000 2042.000000 1320.000000 2039.000000 1302.000000 2003.000000
		}
	}
	outgoing = { 
		name = "wrothgar_tn"
		path = { 
			1869 4378 
		}
		control = { 
			1367.000000 2112.000000 1279.000000 2100.000000 1224.000000 2137.000000 1076.000000 2138.000000 977.000000 2073.000000
		}
	}
	members = { 
		1863 1307 2732 2733 2699 2719 2713 2700 2761 2717
		2716 2783 2740 2767 2737 2718 1300 2766 5476 1301
		1299 2932 7112 7111 7114 7113 1303 1309 7115 2785
		2784 2940 2782 2781 2788 2770 2786 2790 2805 2715
		7130 7120 3082 7314 7315 7310 1334 7309 7312 7313
		1304 1306 2735 7308 1276 7088 1277 7089 2789 2787
		2801 2804 2803 2802 2731 7117 7118 1305 7320 7116
		2696 1308 2736 3018 5408 2734 
	}
}
hjaalmarch_tn = { 
	location = 1336
	inland = yes
	color = { 
		33 77 0 
	}
	outgoing = { 
		name = "haafingar_tn"
		path = { 
			1870 
		}
		control = { 
			1265.000000 2000.000000 1240.000000 2001.000000 1232.000000 2016.000000 1218.000000 2030.000000 1223.000000 2044.000000
			1235.000000 2049.000000 
		}
	}
	outgoing = { 
		name = "whiterun_tn"
		path = { 
			7148 1319 
		}
		control = { 
			1279.000000 1994.000000 1299.000000 1973.000000 1303.000000 1944.000000 1335.000000 1940.000000 1346.000000 1931.000000
		}
	}
	members = { 
		1336 7147 7146 7148 7149 7150 7119 7318 7304 7303
		1337 7305 7306 7311 1231 7300 7299 7297 1335 7161
		1363 7296 7187 7298 7301 7307 1350 3040 3041 7138
		3017 7137 1338 3027 7302 7317 7316 7319 2695 2693
		2697 7129 7128 3019 2691 2694 3024 7139 7140 1326
		1327 3026 1325 3025 3021 
	}
}
haafingar_tn = { 
	location = 1870
	color = { 
		153 23 0 
	}
	outgoing = { 
		name = "wrothgar_tn"
		path = { 
			7154 7072 
		}
		control = { 
			1211.000000 2055.000000 1179.000000 2042.000000 1156.000000 2059.000000 1130.000000 2040.000000 1093.000000 2035.000000
			1073.000000 2011.000000 1049.000000 2028.000000 1027.000000 2027.000000 1018.000000 2039.000000 990.000000 2041.000000
			964.000000 2056.000000 950.000000 2050.000000 
		}
	}
	outgoing = { 
		name = "whiterun_tn"
		path = { 
			7153 1336 
		}
		control = { 
			1215.000000 2042.000000 1198.000000 2013.000000 1183.000000 2012.000000 1186.000000 2026.000000 1166.000000 2012.000000
			1163.000000 1991.000000 1161.000000 1972.000000 1197.000000 1950.000000 1208.000000 1919.000000 1245.000000 1921.000000
			1272.000000 1906.000000 1315.000000 1925.000000 1338.000000 1927.000000 
		}
	}
	members = { 
		1870 1342 7192 7193 7153 2996 3081 7195 7185 7194
		1339 7190 7189 7151 7186 1340 7184 7183 7179 7176
		1345 7175 1348 1347 3088 1344 7160 7159 7157 7158
		1346 7154 7155 1343 7152 7191 7181 7180 7182 7188
		7178 7177 1362 7172 7156 7203 7202 1359 7174 7201
		7196 1341 7163 1349 7164 7200 7165 1361 1358 7226
		7171 
	}
}
wrothgar_tn = { 
	location = 4378
	color = { 
		88 23 143 
	}
	outgoing = { 
		name = "rivenspire_tn"
		path = { 
			7045 7019 
		}
		control = { 
			890.000000 2058.000000 861.000000 2036.000000 836.000000 2034.000000 806.000000 2008.000000 809.000000 1988.000000
		}
	}
	outgoing = { 
		name = "bjoulsae_tn"
		path = { 
			4380 1411 1983 
		}
		control = { 
			915.000000 2024.000000 919.000000 1979.000000 946.000000 1949.000000 927.000000 1919.000000 908.000000 1895.000000
		}
	}
	members = { 
		4378 7071 1414 1415 1413 1416 6889 6890 6887 6886
		3059 3064 3066 6888 1418 7070 7075 7069 7074 7058
		7059 7062 7064 7061 6892 7060 6891 7065 7067 7012
		7068 7008 7007 7006 6896 7009 1425 6959 7010 7066
		7011 7072 7057 7056 6894 1411 1422 6893 6900 7073
		6904 6905 6897 1419 6903 1427 6895 1417 1431 1405
		6899 1432 1430 6901 6902 
	}
}
rivenspire_tn = { 
	location = 7019
	inland = yes
	color = { 
		179 59 0 
	}
	outgoing = { 
		name = "iliac_bay_tn"
		path = { 
			7022 7029 6975 
		}
		control = { 
			782.000000 1963.000000 773.000000 1950.000000 751.000000 1953.000000 754.000000 1931.000000 751.000000 1912.000000
			743.000000 1894.000000 
		}
	}
	outgoing = { 
		name = "glenumbra_tn"
		path = { 
			7017 6922 
		}
		control = { 
			768.000000 1974.000000 755.000000 1995.000000 758.000000 2024.000000 740.000000 2035.000000 686.000000 1998.000000
			676.000000 1963.000000 605.000000 1913.000000 527.000000 1861.000000 538.000000 1825.000000 516.000000 1799.000000
			516.000000 1774.000000 537.000000 1760.000000 
		}
	}
	members = { 
		7021 7022 7019 7020 7017 7001 6869 7004 1402 6871
		7018 6872 1400 1401 1399 1398 6874 6873 7024 7037
		7039 7041 6875 7040 7042 7043 7045 7044 6925 7038
		1409 6884 7023 7025 1408 1420 6883 7036 1412 1410
		7035 6885 7034 7031 7032 7030 6966 1375 7028 6968
		6864 6863 6862 6861 1391 1389 1388 6877 6876 6865
		6882 6881 1404 1403 1406 6879 6878 6992 6991 7050
	}
}
glenumbra_tn = { 
	location = 44
	color = { 
		129 214 238 
	}
	outgoing = { 
		name = "iliac_bay_tn"
		path = { 
			3751 1983 
		}
		control = { 
			582.000000 1740.000000 645.719971 1764.420044 664.000000 1814.000000 696.000000 1854.000000 732.000000 1873.000000
		}
	}
	outgoing = { 
		name = "co_hegathe_tn"
		path = { 
			61 1876 1871 
		}
		control = { 
			563.000000 1714.000000 619.000000 1695.000000 626.000000 1637.000000 657.000000 1612.000000 
		}
	}
	members = { 
		44 6909 6911 6923 6922 6921 6908 6907 6906 6910
		6845 6844 1369 1377 6916 6918 6846 6917 6847 6945
		1374 1371 1370 6939 7026 6842 6843 1372 1368 6841
		6930 6931 6934 6858 1383 1376 1373 6943 6852 6944
		6932 6926 6928 6929 6927 1384 6857 6933 6856 6859
		1385 6860 6866 6965 1386 1394 1393 1395 6997 1397
		6870 1379 6998 6996 6999 7016 7000 7003 7005 6935
		6920 6915 6914 6913 6912 
	}
}
iliac_bay_tn = { 
	location = 3756
	color = { 
		255 102 153 
	}
	outgoing = { 
		name = "alikr_tn"
		path = { 
			6346 6334 
		}
		control = { 
			746.000000 1859.000000 776.000000 1824.000000 762.000000 1784.000000 786.000000 1746.000000 
		}
	}
	outgoing = { 
		name = "bjoulsae_tn"
		path = { 
			1981 1983 
		}
		control = { 
			754.000000 1854.000000 818.000000 1835.000000 864.000000 1843.000000 881.000000 1856.000000 902.000000 1861.000000
		}
	}
	members = { 
		3756 6978 1382 6976 6973 7027 6970 6971 7029 6967
		7033 6955 6972 6974 6961 6960 6950 6947 6946 6951
		6969 6953 6964 6868 6962 6948 1396 1387 6867 1380
		1378 6949 6924 1381 6853 6963 6855 6854 6940 6941
		6980 6126 6326 6343 6235 6318 6127 6240 6342 6328
		6321 1485 6348 6128 6367 6400 6233 6354 6355 1510
		6338 6331 6327 6317 1429 6979 6851 6957 6938 6936
		6942 6849 6850 6848 1493 6306 
	}
}
bjoulsae_tn = { 
	location = 1983
	color = { 
		51 34 0 
	}
	outgoing = { 
		name = "dragontail_tn"
		path = { 
			6274 6257 1459 
		}
		control = { 
			929.000000 1862.000000 945.000000 1857.000000 955.000000 1873.000000 967.000000 1862.000000 984.000000 1846.000000
			997.000000 1832.000000 1020.000000 1833.000000 1043.000000 1811.000000 1068.000000 1808.000000 1092.000000 1782.000000
			1115.000000 1790.000000 1126.000000 1769.000000 1111.000000 1750.000000 1124.000000 1735.000000 1150.000000 1726.000000
			1158.000000 1741.000000 1145.000000 1749.000000 
		}
	}
	outgoing = { 
		name = "reach_tn"
		path = { 
			1984 1355 
		}
		control = { 
			933.000000 1875.000000 939.000000 1866.000000 946.000000 1865.000000 950.000000 1875.000000 965.000000 1881.000000
			973.000000 1898.000000 998.000000 1890.000000 1014.000000 1880.000000 1025.000000 1889.000000 1038.000000 1908.000000
			1061.000000 1911.000000 1069.000000 1925.000000 
		}
	}
	members = { 
		1983 1428 7169 6265 1467 6271 6266 6272 1466 6255
		6276 6123 6260 6273 6268 6259 1426 7013 1424 6956
		1421 1423 6898 7052 7054 7048 7053 7055 6958 7051
		1407 7046 6880 7047 7049 6995 6994 6989 6986 7015
		6993 6990 6988 6987 6985 1390 1392 6977 6984 6081
		6252 6275 6279 6281 6283 6218 6286 1494 6341 1487
		6103 6305 6324 6310 6238 6311 6309 6322 6316 6288
		6270 6278 6274 6216 6287 6282 6294 6105 1471 1490
		6298 
	}
}
reach_tn = { 
	location = 1355
	inland = yes
	color = { 
		30 250 43 
	}
	outgoing = { 
		name = "falkreath_tn"
		path = { 
			1356 1291 
		}
		control = { 
			1103.000000 1921.000000 1122.000000 1907.000000 1135.000000 1915.000000 1164.000000 1899.000000 1189.000000 1882.000000
			1231.000000 1864.000000 1247.000000 1828.000000 1270.000000 1826.000000 
		}
	}
	members = { 
		1354 1353 7223 7213 7214 1356 7199 3079 7204 7218
		7217 7216 1352 7219 7229 7233 1357 7232 7246 7227
		7228 3100 7230 1329 1330 7255 7235 7245 7289 7254
		7162 7276 7277 7142 7231 7287 7221 7220 1360 7173
		7286 7222 3104 7225 1332 1351 5506 7294 3039 1333
		7293 1331 3037 7292 7290 7224 7145 7291 7288 7141
		3036 7281 3051 7143 1355 7166 7212 7211 7209 7210
		7206 7207 7205 7198 7197 
	}
}
falkreath_tn = { 
	location = 1291
	inland = yes
	color = { 
		0 17 51 
	}
	outgoing = { 
		name = "whiterun_tn"
		path = { 
			1293 1319 
		}
		control = { 
			1304.000000 1820.000000 1302.000000 1846.000000 1273.000000 1848.000000 1246.000000 1870.000000 1266.000000 1878.000000
			1289.000000 1868.000000 1314.000000 1862.000000 1334.000000 1874.000000 1354.000000 1889.000000 1339.000000 1907.000000
			1337.000000 1922.000000 
		}
	}
	outgoing = { 
		name = "dragontail_tn"
		path = { 
			1292 1459 
		}
		control = { 
			1270.000000 1794.000000 1249.000000 1793.000000 1231.000000 1776.000000 1209.000000 1772.000000 1196.000000 1759.000000
			1177.000000 1760.000000 1157.000000 1771.000000 
		}
	}
	members = { 
		3078 3077 7103 3076 1292 1290 7270 3067 1295 3063
		3075 3068 3070 3086 1291 3071 3074 7097 3072 7100
		3083 3085 3084 5505 3087 3073 7098 3080 7099 3106
		7096 3111 1284 7125 3140 3048 3089 5480 3092 3096
		3097 3098 3062 3047 3049 1294 1297 1296 3061 7280
		3057 7278 7144 3056 3038 7133 1320 3102 3004 3091
		1285 1313 7124 2934 3138 
	}
}
whiterun_tn = { 
	location = 1319
	inland = yes
	color = { 
		240 245 255 
	}
	outgoing = { 
		name = "jeral_tn"
		path = { 
			1319 1286 1194 
		}
		control = { 
			1338.000000 1919.000000 1350.000000 1902.000000 1359.000000 1909.000000 1373.000000 1907.000000 1383.000000 1904.000000
			1380.000000 1889.000000 1363.000000 1874.000000 1363.000000 1833.000000 1378.000000 1804.000000 1370.000000 1786.000000
			1374.869995 1770.530029 1395.000000 1760.000000 1423.000000 1766.000000 
		}
	}
	members = { 
		1319 3015 3013 3012 3014 3008 2764 1302 2692 3020
		3016 1324 3022 3023 1321 7132 7131 1322 3101 3094
		3105 7295 3095 3093 3099 3030 1323 3028 3029 3103
		3046 3033 3031 1328 3032 3035 7136 3042 3043 3044
		3034 3054 3052 3053 3055 2720 2712 7127 2991 1316
		2698 2765 2714 2711 2762 1315 2946 2948 1317 3009
		7126 2994 2993 2947 2949 3006 3011 7134 7135 2992
		5414 3010 7121 7122 3007 2995 3003 1318 3002 2936
		3195 3001 3194 1310 3192 
	}
}
dragontail_tn = { 
	location = 1459
	inland = yes
	color = { 
		33 15 68 
	}
	outgoing = { 
		name = "alikr_tn"
		path = { 
			1457 6334 
		}
		control = { 
			1150.000000 1749.000000 1162.000000 1741.000000 1146.000000 1722.000000 1085.000000 1725.000000 1043.000000 1715.000000
			990.000000 1706.000000 942.000000 1741.000000 887.000000 1743.000000 847.000000 1722.000000 802.000000 1737.000000
		}
	}
	outgoing = { 
		name = "corten_heights_tn"
		path = { 
			6257 6196 3752 
		}
		control = { 
			1166.000000 1741.000000 1154.000000 1719.000000 1095.000000 1711.000000 1052.000000 1656.000000 993.000000 1668.000000
			952.000000 1648.000000 919.000000 1652.000000 917.000000 1617.000000 
		}
	}
	members = { 
		1459 7258 7262 6175 6189 6174 6172 7264 6161 7272
		6178 7283 7260 7106 3058 3060 3050 1298 6163 7102
		3045 6166 7282 7109 7257 7107 7108 6242 6247 5752
		1460 7241 7259 7261 7269 7267 6177 7266 6176 7268
		1458 7105 5754 1293 7273 7271 7104 1289 7101 3069
		7275 7279 7285 6072 6251 7239 7242 1465 6085 7208
		5478 6241 1457 6074 7251 7248 3065 7250 7247 7244
		7234 7252 7263 1468 6075 7253 7238 7249 7256 6073
		6071 7265 6173 6162 6164 6160 6179 7274 6182 5756
		1463 5355 5750 5712 5687 5681 6190 5753 5746 5798
		5758 5744 5797 5751 5759 5732 5800 5755 6243 6269
		6082 7170 6083 1470 6261 6267 6248 6262 6263 6264
		6257 6089 6280 6277 6171 1464 6077 6244 6078 6202
		6080 6245 6206 6205 6079 6204 6203 6090 6234 6231
		6181 1456 6188 6185 6186 6221 6207 6084 6187 6201
		6208 6249 6246 6165 6076 1474 6299 6222 6256 6250
		7110 6982 7168 7167 7237 7215 7240 7236 1469 6253
	}
}
alikr_tn = { 
	location = 6334
	inland = yes
	color = { 
		255 230 102 
	}
	outgoing = { 
		name = "co_hegathe_tn"
		path = { 
			6340 6392 
		}
		control = { 
			770.000000 1721.000000 731.000000 1718.000000 707.000000 1694.000000 686.000000 1688.000000 699.000000 1665.000000
			702.000000 1632.000000 687.000000 1616.000000 687.000000 1606.000000 
		}
	}
	outgoing = { 
		name = "corten_heights_tn"
		path = { 
			6335 3716 
		}
		control = { 
			793.000000 1711.000000 823.000000 1698.000000 827.000000 1671.000000 855.000000 1641.000000 899.000000 1632.000000
			903.000000 1607.000000 
		}
	}
	members = { 
		6334 6109 6344 6371 6337 6372 6347 6335 6323 6349
		6358 6377 6412 6360 6379 6378 6416 6418 6369 6420
		6419 6409 6229 6351 6410 6376 6415 6404 6350 6411
		6380 6363 6370 6365 6366 6417 6359 6356 6319 6364
		1492 6315 6106 6320 6332 6308 6313 6307 6325 6345
		6413 6130 6346 6329 6336 1513 6129 1514 7243 6108
		6430 6375 6385 1478 6384 6374 6382 6339 6340 6239
		6302 6091 6110 6285 6101 6284 6312 6104 6304 6314
	}
}
co_hegathe_tn = { 
	location = 91
	color = { 
		138 58 50 
	}
	outgoing = { 
		name = "corten_heights_tn"
		path = { 
			1871 1478 3752 
		}
		control = { 
			724.000000 1601.000000 780.000000 1615.000000 802.000000 1588.000000 796.289978 1557.770020 843.000000 1539.000000
			898.000000 1553.000000 899.000000 1584.000000 
		}
	}
	outgoing = { 
		name = "n_summerset_tn"
		path = { 
			3732 183 89 
		}
		control = { 
			647.000000 1521.000000 642.000000 1466.000000 584.000000 1456.000000 538.000000 1413.000000 457.000000 1398.000000
		}
	}
	outgoing = { 
		name = "auridon_tn"
		path = { 
			92 4746 
		}
		control = { 
			691.000000 1572.000000 677.000000 1535.000000 708.000000 1480.000000 714.000000 1446.000000 722.000000 1431.000000
			709.000000 1411.000000 713.000000 1391.000000 730.000000 1376.000000 734.000000 1360.000000 
		}
	}
	outgoing = { 
		name = "golden_coast_tn"
		path = { 
			1871 3754 74 
		}
		control = { 
			710.000000 1579.000000 759.000000 1565.000000 791.000000 1528.000000 852.000000 1518.000000 896.000000 1455.000000
			940.000000 1441.000000 977.000000 1456.000000 
		}
	}
	members = { 
		91 1504 1503 1502 1501 1505 6116 6118 6119 6120
		1498 1497 1499 1500 6115 6114 1496 6113 6111 6112
		6117 6333 6352 6392 6368 6433 1506 6393 6394 6391
		6439 6386 6405 6407 6389 6421 6432 6423 6425 6428
		6431 6426 6437 6436 6440 6390 6422 6399 6403 6398
		1507 6401 6373 6383 1476 6397 6395 6125 1480 6388
		1479 6094 6095 6353 6092 6357 6124 6122 6381 1477
		6093 6361 6396 6362 6406 6402 1509 1508 6121 6414
		1512 
	}
}
n_summerset_tn = { 
	location = 89
	color = { 
		79 149 0 
	}
	outgoing = { 
		name = "auridon_tn"
		path = { 
			190 4746 
		}
		control = { 
			478.000000 1380.000000 570.000000 1408.000000 629.000000 1375.000000 685.000000 1335.000000 724.000000 1320.000000
			744.000000 1338.000000 
		}
	}
	outgoing = { 
		name = "c_summerset_tn"
		path = { 
			4788 263 4795 
		}
		control = { 
			441.000000 1335.000000 469.000000 1328.000000 511.000000 1284.000000 549.000000 1301.000000 567.000000 1289.000000
		}
	}
	members = { 
		89 4781 4782 4758 4727 4725 2316 2310 455 250
		4724 4699 4726 4602 2314 4603 4601 248 4604 4605
		249 4697 246 4695 7063 252 255 4609 4608 6919
		258 253 2315 451 251 4788 4610 4787 453 4784
		460 4607 4786 4785 254 4696 4694 4760 4721 247
		2480 2484 4728 4756 4753 4705 458 2318 2311 2475
		2482 459 4722 2483 4729 256 257 4789 4783 4790
		4606 4615 4611 4612 259 4730 7325 
	}
}
central_south_valenwood_tn = { 
	location = 834
	inland = yes
	color = { 
		137 183 104 
	}
	outgoing = { 
		name = "central_west_valenwood_tn"
		path = { 
			4868 4870 4995 4994 4993 4992 4989 4886 857 855
			4888 4929 4931 
		}
		control = { 
			1208.000000 1242.000000 1189.000000 1251.000000 1150.000000 1248.000000 1133.000000 1276.000000 
		}
	}
	outgoing = { 
		name = "southern_valenwood_tn"
		path = { 
			838 4968 4967 4991 4990 4988 4936 3708 
		}
		control = { 
			1180.000000 1224.000000 1149.000000 1201.000000 1106.000000 1211.000000 1052.000000 1197.000000 
		}
	}
	members = { 
		834 837 4970 4867 4860 4885 2418 5043 4873 4878
		4973 4866 843 4876 5260 5101 838 4968 4967 4966
		4870 4999 853 5201 5258 5202 5018 4859 5242 5096
		5241 5247 836 5012 824 5065 5007 4993 4995 828
		4869 5044 5008 2375 5015 2379 5039 2378 4854 421
		2412 2410 852 4882 849 4883 4874 835 839 4879
		848 4880 846 847 5102 840 844 4877 845 4872
		842 919 827 4871 4900 5259 5204 4868 841 
	}
}
central_west_valenwood_tn = { 
	location = 5029
	inland = yes
	color = { 
		30 0 75 
	}
	outgoing = { 
		name = "central_north_valenwood_tn"
		path = { 
			4928 4907 877 5022 5020 5019 5018 5043 4997 4861
			831 829 
		}
		control = { 
			1115.000000 1304.000000 1138.000000 1314.000000 1125.000000 1348.000000 1144.000000 1378.000000 1144.000000 1417.000000
			1157.000000 1427.000000 1173.000000 1414.000000 
		}
	}
	outgoing = { 
		name = "southern_valenwood_tn"
		path = { 
			4929 4888 855 3708 
		}
		control = { 
			1100.000000 1256.000000 1072.000000 1239.000000 1049.000000 1214.000000 
		}
	}
	outgoing = { 
		name = "northern_valenwood_tn"
		path = { 
			4928 4907 4908 4985 4983 4980 4978 4851 820 
		}
		control = { 
			1104.000000 1293.000000 1076.000000 1295.000000 1051.000000 1280.000000 1017.000000 1277.000000 1003.000000 1305.000000
			1016.000000 1322.000000 1006.000000 1354.000000 1030.000000 1368.000000 
		}
	}
	members = { 
		4982 2445 5016 5020 881 4912 5024 5004 4981 5001
		5022 5017 833 877 4985 4908 4933 4926 870 4983
		473 2447 874 474 876 5027 475 4909 5026 5030
		5031 5033 5028 2377 471 5035 5013 5032 2490 2415
		5037 5029 5036 5025 5034 4856 825 5009 826 5006
		4994 5041 5010 5011 4997 4861 4977 5038 4851 5000
		5002 832 5045 5042 4946 
	}
}
southern_valenwood_tn = { 
	location = 3708
	color = { 
		69 157 208 
	}
	outgoing = { 
		name = "s_summerset_tn"
		path = { 
			859 3709 3705 1896 4735 4734 4736 4765 4766 4768
			4639 4637 4636 157 
		}
		control = { 
			968.000000 1186.000000 929.000000 1155.000000 871.000000 1159.000000 849.000000 1141.000000 840.000000 1098.000000
			788.000000 1087.000000 738.000000 1042.000000 646.000000 1035.000000 
		}
	}
	outgoing = { 
		name = "pelletine_tn"
		path = { 
			4936 4937 4960 4959 4973 4975 4974 4885 849 4881
			847 846 116 119 
		}
		control = { 
			1016.000000 1155.000000 1097.000000 1098.000000 1158.000000 1126.000000 1237.000000 1118.000000 1342.000000 1126.000000
			1377.000000 1115.000000 1425.000000 1075.000000 
		}
	}
	members = { 
		3708 4894 4893 4892 4891 4895 862 861 859 863
		4921 4932 4888 4929 4906 858 855 4890 4990 4956
		2417 2372 2370 857 2371 5023 875 878 854 4887
		4886 4989 4992 5014 4935 4922 883 4934 2446 4889
		860 4920 4898 4849 5203 4924 4919 4925 4923 856
		4991 4987 4939 4937 4975 4960 4972 4986 4945 4974
		2376 2374 4962 4959 4964 4965 4963 4961 4938 4940
		4988 4936 4942 4943 4941 4875 4944 2373 850 4881
		4884 472 4957 4958 4971 4969 4858 851 
	}
}
pelletine_tn = { 
	location = 121
	color = { 
		202 150 172 
	}
	outgoing = { 
		name = "topalbay_tn"
		path = { 
			948 929 930 5168 5166 129 130 60 
		}
		control = { 
			1474.000000 1102.000000 1535.000000 1085.000000 1537.000000 1150.000000 1504.000000 1182.000000 1525.000000 1215.000000
			1525.000000 1240.000000 1540.000000 1257.000000 
		}
	}
	members = { 
		119 5170 930 5283 931 5185 5090 5271 932 5119
		5169 5168 5118 5117 5116 933 937 936 934 5120
		5212 929 948 5114 5179 5190 5153 5109 5115 5165
		5164 5166 5167 5163 5124 5200 5161 5261 941 897
		940 942 5227 5195 945 5184 5199 5197 947 5264
		5262 121 
	}
}
westanequina_tn = { 
	location = 899
	inland = yes
	color = { 
		193 26 14 
	}
	outgoing = { 
		name = "eastanequina_tn"
		path = { 
			5067 886 924 5110 892 5080 5149 5148 5147 5225
			5226 
		}
		control = { 
			1324.000000 1391.000000 1326.000000 1411.000000 1337.000000 1413.000000 1353.000000 1416.000000 1389.000000 1397.000000
			1428.000000 1400.000000 
		}
	}
	outgoing = { 
		name = "central_north_valenwood_tn"
		path = { 
			5068 903 900 901 5047 5049 5055 829 
		}
		control = { 
			1281.000000 1370.000000 1263.000000 1336.000000 1249.000000 1341.000000 1245.000000 1353.000000 1228.000000 1340.000000
			1206.000000 1318.000000 1187.000000 1307.000000 1179.000000 1328.000000 1183.000000 1346.000000 1177.000000 1369.000000
			1183.000000 1381.000000 1174.000000 1396.000000 
		}
	}
	outgoing = { 
		name = "westweald_tn"
		path = { 
			884 5215 5214 5220 5579 5576 
		}
		control = { 
			1299.000000 1401.000000 1303.000000 1442.000000 1332.000000 1468.000000 
		}
	}
	members = { 
		888 5215 5220 5214 5210 909 912 5073 889 5071
		891 890 887 5575 5067 5136 5297 902 884 5295
		899 908 924 5244 5083 5075 5074 5110 5078 5131
		5251 5245 5282 5292 903 5107 5269 892 5089 904
		5088 5286 5246 916 5086 893 5284 886 918 917
		900 5097 5206 5299 5293 5291 5243 5051 906 5099
		5087 5081 5098 5177 5084 5134 5300 5287 885 5288
		5066 5296 915 5298 5266 5095 5294 5281 5289 5100
	}
}
central_north_valenwood_tn = { 
	location = 830
	inland = yes
	color = { 
		210 106 47 
	}
	outgoing = { 
		name = "westweald_tn"
		path = { 
			830 833 4848 4849 5140 5137 5135 5219 5217 5212
			5580 5579 5576 
		}
		control = { 
			1177.000000 1428.000000 1181.000000 1439.000000 1198.000000 1439.000000 1217.000000 1455.000000 1228.000000 1461.000000
			1232.000000 1481.000000 1251.000000 1481.000000 1281.000000 1489.000000 1309.000000 1488.000000 
		}
	}
	outgoing = { 
		name = "northern_valenwood_tn"
		path = { 
			4864 4948 4950 4953 819 821 820 
		}
		control = { 
			1165.000000 1427.000000 1144.000000 1455.000000 1126.000000 1457.000000 1109.000000 1456.000000 1097.000000 1450.000000
			1085.000000 1422.000000 1063.000000 1417.000000 1049.000000 1407.000000 1041.000000 1391.000000 
		}
	}
	members = { 
		829 5058 5060 5063 5064 5048 5050 5054 5053 5052
		5047 5171 5062 5056 5248 5250 5205 5249 5057 815
		4847 4902 5049 5055 5019 4862 4848 817 816 5597
		5598 5599 5602 5600 5601 4905 871 4904 814 4846
		830 4901 4863 869 5021 5046 5059 831 4864 4984
		4951 4865 4842 813 873 4899 
	}
}
westweald_tn = { 
	location = 1145
	inland = yes
	color = { 
		180 70 0 
	}
	outgoing = { 
		name = "heartlands_tn"
		path = { 
			5573 5583 5322 5323 5324 51 5390 1206 
		}
		control = { 
			1329.000000 1528.000000 1362.000000 1540.000000 1387.000000 1557.000000 1405.000000 1556.000000 1420.000000 1537.000000
			1458.000000 1534.000000 1461.000000 1557.000000 1474.000000 1577.000000 1459.000000 1582.000000 1449.000000 1594.000000
			1437.000000 1601.000000 
		}
	}
	outgoing = { 
		name = "eastcolovia_tn"
		path = { 
			5577 5588 5587 5618 5628 5627 5629 5650 5656 5657
		}
		control = { 
			1299.410034 1525.260010 1274.000000 1539.000000 1282.000000 1572.000000 1261.000000 1607.000000 1281.000000 1638.000000
		}
	}
	members = { 
		5576 5579 5571 5586 5558 5555 5553 5317 5526 5323
		5585 5578 5577 5587 5588 5132 5580 5574 1127 5567
		5557 5565 5564 5530 5563 5572 5554 5550 5569 5583
		5589 5322 5324 5582 5581 5321 5645 5570 5562 5560
		5593 5590 5620 5591 5619 5133 5211 5573 5216 5594
		5596 5612 5595 5592 5611 1142 5618 1145 1141 5375
		5372 5607 5635 5817 5640 5616 5622 5623 5613 5634
		1144 
	}
}
s_summerset_tn = { 
	location = 157
	color = { 
		242 179 255 
	}
	outgoing = { 
		name = "auridon_tn"
		path = { 
			158 4746 
		}
		control = { 
			617.000000 1050.000000 676.000000 1042.000000 720.000000 1044.000000 763.000000 1071.000000 768.000000 1111.000000
			763.000000 1142.000000 827.000000 1176.000000 811.000000 1286.000000 822.000000 1324.000000 798.000000 1360.000000
			761.000000 1354.000000 
		}
	}
	outgoing = { 
		name = "c_summerset_tn"
		path = { 
			282 4795 
		}
		control = { 
			581.000000 1068.000000 605.000000 1076.000000 618.000000 1094.000000 627.000000 1112.000000 626.000000 1129.000000
			621.000000 1158.000000 600.000000 1173.000000 606.000000 1193.000000 575.000000 1207.000000 562.000000 1235.000000
			565.000000 1265.000000 579.000000 1281.000000 
		}
	}
	members = { 
		157 4637 4636 4818 284 2267 4638 288 287 4761
		4639 4740 4739 4736 4737 4738 4770 4765 4766 4769
		4768 4767 4763 4642 2268 282 283 4820 4773 4817
		4816 4664 4819 2384 2389 4670 4815 4814 4662 4698
		2382 4661 4663 4626 2388 2383 2265 2380 4666 4667
		276 440 2469 6937 275 4628 4665 4627 4668 2468
		4640 4762 4718 4643 4764 4644 4647 4733 4641 4732
		4648 4734 4735 4731 4646 4650 4776 298 297 293
		437 436 2381 439 271 7339 
	}
}
auridon_tn = { 
	location = 4746
	color = { 
		33 98 203 
	}
	outgoing = { 
		name = "c_summerset_tn"
		path = { 
			4750 1900 4795 
		}
		control = { 
			749.000000 1337.000000 729.000000 1313.000000 701.000000 1315.000000 693.000000 1281.000000 677.000000 1274.000000
			666.000000 1262.000000 648.000000 1257.000000 636.000000 1243.000000 610.000000 1254.000000 592.000000 1234.000000
			570.000000 1245.000000 577.000000 1261.000000 585.000000 1279.000000 
		}
	}
	outgoing = { 
		name = "golden_coast_tn"
		path = { 
			83 1881 74 
		}
		control = { 
			744.000000 1373.000000 713.000000 1401.000000 722.000000 1425.000000 731.000000 1439.000000 765.000000 1429.000000
			836.000000 1360.000000 899.000000 1348.000000 923.000000 1397.000000 956.000000 1437.000000 
		}
	}
	members = { 
		4837 308 4835 4836 4654 4655 307 4723 4653 4651
		303 306 302 4803 470 2485 468 469 4823 4824
		4822 4821 4633 4826 2441 4825 4827 4619 4828 4656
		4829 4751 4754 6954 300 4673 4747 4679 2444 2443
		4678 6952 301 4671 4672 4657 299 4659 4660 4759
		4658 467 4674 4676 4677 4675 4680 2442 4741 4749
		4635 305 4742 4748 466 4750 461 4802 456 4806
		4831 4833 4834 4838 4840 4839 4805 4804 2481 4807
		4809 4808 4810 4801 2440 4745 4752 4744 4832 4652
		4743 4746 4830 304 4757 4755 6983 7326 
	}
}
northern_valenwood_tn = { 
	location = 820
	color = { 
		0 125 25 
	}
	outgoing = { 
		name = "golden_coast_tn"
		path = { 
			1874 1875 
		}
		control = { 
			1001.000000 1386.000000 1001.000000 1417.000000 989.000000 1434.000000 
		}
	}
	members = { 
		820 4853 4915 4979 4948 821 4953 4852 4855 4841
		882 5061 818 5040 823 5005 4976 4996 6046 5003
		4978 2413 866 867 4857 4910 4980 4930 2414 5741
		4998 6036 4897 879 865 5085 872 4917 4916 4918
		4911 5306 4896 4914 4913 868 880 2449 4927 2448
		4928 4931 864 4907 819 4954 4843 4845 4844 811
		809 812 4903 810 4955 5487 822 4952 4950 4947
		4949 
	}
}
eastanequina_tn = { 
	location = 5226
	inland = yes
	color = { 
		78 50 187 
	}
	outgoing = { 
		name = "nibenay_tn"
		path = { 
			5223 5520 5521 55 
		}
		control = { 
			1466.000000 1401.000000 1485.000000 1426.000000 1515.000000 1429.000000 
		}
	}
	outgoing = { 
		name = "topalbay_tn"
		path = { 
			5229 5232 5489 5487 5486 5484 5482 60 
		}
		control = { 
			1462.000000 1380.000000 1465.000000 1363.000000 1483.000000 1348.000000 1491.000000 1305.000000 1523.000000 1296.000000
			1537.000000 1286.000000 
		}
	}
	members = { 
		895 5144 5076 5079 5125 5141 5146 5142 5224 894
		5232 5225 5235 5231 5234 5126 5143 5229 5223 5290
		946 938 5127 944 5148 5104 5222 5221 5237 5130
		5238 5226 5239 911 5253 5123 5149 5072 5092 5077
		5233 5228 6975 896 898 5236 5091 5198 5230 907
		939 5069 5147 5263 5240 910 5094 5138 5213 5135
		5093 901 5140 5129 5196 5194 5270 5128 5191 5192
		5193 943 5121 5122 935 5219 5217 905 5145 5209
	}
}
topalbay_tn = { 
	location = 60
	color = { 
		204 119 31 
	}
	outgoing = { 
		name = "nibenay_tn"
		path = { 
			59 58 5511 5513 5514 5516 55 
		}
		control = { 
			1539.000000 1292.000000 1543.000000 1306.000000 1522.000000 1326.000000 1531.000000 1364.000000 1551.000000 1401.000000
			1557.000000 1421.000000 1542.000000 1430.000000 
		}
	}
	members = { 
		60 5445 5444 5442 5443 5441 5463 5468 5462 5461
		1118 1120 6408 5481 5301 5302 1121 5305 5303 1117
		5483 5482 5488 5484 5489 5498 5490 5485 5497 5496
		5486 5495 5499 5500 1123 5460 5308 1124 5309 5508
		5479 5502 5503 5504 5415 5470 5465 5450 5451 5454
		5452 5456 5952 5449 5448 5466 5469 5467 5304 1126
		5464 5453 5472 5473 5474 5407 6022 5406 1221 6053
		1224 5410 5412 5457 5455 5471 5475 5409 5477 5459
		5458 
	}
}
Eastcoast_blackmarsh_tn = { 
	location = 1064
	color = { 
		193 26 14 
	}
	outgoing = { 
		name = "siltreen_tn"
		path = { 
			1920 1534 676 206 
		}
		control = { 
			2020.000000 1447.000000 2011.000000 1465.000000 2025.000000 1478.000000 2043.000000 1473.000000 2054.000000 1453.000000
			2093.000000 1456.000000 
		}
	}
	members = { 
		6611 6612 6622 6609 6608 6607 6610 6601 6605 6606
		6604 1067 6603 6595 1066 6494 6500 6493 6495 6445
		6602 6496 6596 1064 1063 6442 6441 6444 6443 6491
		6492 1065 3842 3843 3841 
	}
}
deshaan_tn = { 
	location = 990
	inland = yes
	color = { 
		90 45 143 
	}
	outgoing = { 
		name = "ebonheart_tn"
		path = { 
			992 4398 
		}
		control = { 
			1885.000000 1509.000000 1871.000000 1523.000000 1888.000000 1540.000000 1885.000000 1563.000000 1887.000000 1592.000000
			1877.000000 1628.000000 1884.000000 1659.000000 1886.000000 1672.000000 1883.000000 1688.000000 1897.000000 1688.000000
			1903.000000 1697.000000 1924.000000 1717.000000 
		}
	}
	outgoing = { 
		name = "velothi_tn"
		path = { 
			990 1868 
		}
		control = { 
			1896.000000 1500.000000 1877.000000 1502.000000 1867.000000 1515.000000 1860.000000 1545.000000 1829.000000 1560.000000
			1808.000000 1587.000000 1779.000000 1595.000000 1757.000000 1626.000000 1775.000000 1651.000000 1783.000000 1674.000000
			1780.000000 1694.000000 1787.000000 1725.000000 1745.000000 1764.000000 1724.000000 1794.000000 1701.000000 1809.000000
		}
	}
	members = { 
		990 3837 3239 3805 989 3825 3824 3238 3817 3822
		3826 6446 3823 6447 6516 3821 3820 3816 3815 3819
		3808 3812 3813 3814 3809 3810 3811 3430 3429 3427
		3801 3424 3426 3428 3423 3422 3421 971 3216 973
		972 3394 969 3818 3236 3237 993 992 991 3798
		3405 3800 3804 3853 3852 3831 3832 3240 3834 3833
		3855 3856 3835 6454 1076 3839 3229 3840 3838 982
		981 3425 3431 3218 3219 3217 3220 3418 970 3411
		3415 3413 3851 3854 3246 3857 3248 3859 3806 3807
		3836 3803 3802 3440 3438 3416 3436 3437 3439 3230
	}
}
siltreen_tn = { 
	location = 206
	color = { 
		238 255 204 
	}
	outgoing = { 
		name = "mournhold_tn"
		path = { 
			204 3248 
		}
		control = { 
			2127.000000 1488.000000 2099.000000 1518.000000 2102.000000 1557.000000 2074.000000 1576.000000 2073.000000 1609.000000
			2054.000000 1641.000000 2021.000000 1634.000000 2000.000000 1650.000000 2004.000000 1668.000000 
		}
	}
	outgoing = { 
		name = "telvania_tn"
		path = { 
			204 4436 
		}
		control = { 
			2158.000000 1465.000000 2113.000000 1556.000000 2140.000000 1629.000000 2135.000000 1694.000000 2154.000000 1726.000000
			2203.000000 1739.000000 2218.000000 1790.000000 2168.000000 1872.000000 2188.000000 1925.000000 2178.000000 1951.000000
		}
	}
	members = { 
		206 3903 3904 3902 3908 3901 997 3909 3907 3910
		3912 3911 3905 3906 996 995 994 3245 3244 998
		3241 3913 3242 3243 3919 3918 3920 3927 3928 3931
		3935 3936 3926 3924 3922 3921 3915 3917 3925 3923
		3916 3914 3929 3930 3940 3941 3943 3942 3944 4005
		3946 3948 3939 3932 3937 3933 3934 3849 3850 3848
		3847 3846 3844 3845 6026 5307 
	}
}
telvania_tn = { 
	location = 4436
	color = { 
		85 128 0 
	}
	outgoing = { 
		name = "blacklight_tn"
		path = { 
			4435 4411 
		}
		control = { 
			2141.000000 1953.000000 2104.000000 1952.000000 2060.000000 1982.000000 1990.000000 2013.000000 1928.000000 2044.000000
			1791.000000 2065.000000 1748.000000 2012.000000 1719.000000 2012.000000 1685.000000 2003.000000 1668.000000 2018.000000
			1653.000000 2033.000000 
		}
	}
	outgoing = { 
		name = "inner_sea_tn"
		path = { 
			4435 4393 
		}
		control = { 
			2138.000000 1943.000000 2117.000000 1905.000000 2091.000000 1900.000000 2085.000000 1877.000000 2059.000000 1876.000000
			2048.000000 1848.000000 2035.000000 1851.000000 
		}
	}
	members = { 
		4436 4107 4108 4110 4109 4105 4106 4103 4104 4102
		4101 3274 3275 1028 1027 1025 1026 3271 3273 3272
		6429 3276 3278 3279 3280 1029 4114 4115 4112 4113
		3277 1024 4111 1030 1031 1033 1032 4088 4090 4089
		4086 4087 4084 4082 4081 1021 1019 1020 1022 1023
		3270 4043 4042 4041 4045 4044 4047 4048 3265 4046
		4049 1015 1018 3261 3264 3262 5501 1016 1014 4050
		4013 4016 4014 4015 4007 1017 3263 4083 4085 4057
		4056 4059 4058 
	}
}
blacklight_tn = { 
	location = 4411
	color = { 
		0 179 179 
	}
	outgoing = { 
		name = "vvardenfell_tn"
		path = { 
			958 1045 
		}
		control = { 
			1663.000000 1993.000000 1665.000000 1974.000000 1674.000000 1965.000000 1698.000000 1962.000000 1717.000000 1942.000000
			1720.000000 1926.000000 1739.000000 1909.000000 1742.000000 1890.000000 1766.000000 1880.000000 1775.000000 1851.000000
			1760.000000 1827.000000 1761.000000 1813.000000 1756.000000 1807.000000 1762.000000 1793.000000 1784.000000 1788.000000
			1801.000000 1772.000000 1823.000000 1776.000000 1833.000000 1793.000000 1847.000000 1797.000000 1848.000000 1809.000000
		}
	}
	outgoing = { 
		name = "ebonheart_tn"
		path = { 
			4404 4398 
		}
		control = { 
			1640.000000 2001.000000 1654.000000 1976.000000 1651.000000 1945.000000 1674.000000 1923.000000 1683.000000 1889.000000
			1700.000000 1863.000000 1697.000000 1835.000000 1728.000000 1817.000000 1738.000000 1794.000000 1773.000000 1761.000000
			1806.000000 1746.000000 1833.000000 1723.000000 1885.000000 1721.000000 1912.000000 1735.000000 
		}
	}
	outgoing = { 
		name = "velothi_tn"
		path = { 
			958 3365 
		}
		control = { 
			1635.000000 2020.000000 1620.000000 1983.000000 1628.000000 1923.000000 1646.000000 1890.000000 1634.000000 1848.000000
			1663.000000 1837.000000 1673.000000 1819.000000 
		}
	}
	outgoing = { 
		name = "inner_sea_tn"
		path = { 
			4404 4393 
		}
		control = { 
			1664.000000 2018.000000 1686.000000 1994.000000 1723.000000 2000.000000 1754.000000 2008.000000 1791.000000 2060.000000
			1904.000000 2043.000000 1949.000000 2012.000000 1962.000000 1981.000000 1964.000000 1960.000000 1982.000000 1937.000000
			1998.000000 1913.000000 1989.000000 1892.000000 2002.000000 1869.000000 2013.000000 1860.000000 2017.000000 1853.000000
		}
	}
	members = { 
		4411 951 952 949 3311 3197 3199 3198 3200 3312
		3313 3315 3320 3314 3316 3317 953 3318 3319 950
		3196 954 4669 955 3201 3206 3208 959 3209 3203
		3202 3205 956 3329 958 3390 3210 961 962 3342
		3341 3326 3330 3204 957 4271 4269 4275 4273 6044
		2424 4280 2358 4279 4274 4278 2354 4277 4276 2434
		4268 2387 4254 4265 4272 960 3327 3324 3322 3328
		3207 3325 3321 3336 3332 3331 
	}
}
vvardenfell_tn = { 
	location = 4241
	inland = yes
	color = { 
		84 152 93 
	}
	outgoing = { 
		name = "inner_sea_tn"
		path = { 
			4245 4244 4222 
		}
		control = { 
			1876.000000 1801.000000 1895.000000 1784.000000 1932.000000 1788.000000 1965.000000 1791.000000 1980.000000 1805.000000
			1987.000000 1823.000000 2009.000000 1830.000000 
		}
	}
	members = { 
		1043 1039 2397 1449 6142 3290 2390 2428 4246 2392
		4241 4242 2364 4239 2394 2391 4236 2393 4238 4219
		4218 4217 3288 1040 1041 3287 1042 3286 4244 2436
		4245 2422 2427 4249 2433 4247 4248 4250 6225 1047
		3295 6226 1046 3294 2360 1044 1048 2438 2439 2396
		1045 2432 2420 3293 3292 3291 4252 4251 2365 2423
		2425 4255 4259 4253 4270 2368 2437 2435 2426 2369
		2491 4256 2421 4240 4260 2367 2363 4243 2408 4211
		4212 4213 2401 2404 4227 2493 4228 4229 4230 420
		4225 4210 4209 4214 2496 4208 2498 4206 422 2409
		4233 2406 2402 4220 2400 2403 4215 3289 4216 2399
		4258 2398 4237 4235 2362 7321 4231 4205 4232 2395
		2407 425 424 7324 1062 4262 7322 4261 4234 4257
		4264 4263 2431 4304 4267 2361 4266 2429 4301 4303
		4302 2350 2353 4305 2352 4310 4309 2355 2430 4307
		4306 4139 2357 423 2359 2416 417 2366 7323 4308
		3308 3306 3307 6065 3305 3304 3301 3303 3309 3310
		3302 1052 1049 1051 1050 3296 1053 6228 3300 3299
		3297 3298 6227 6063 6097 6062 
	}
}
ebonheart_tn = { 
	location = 4395
	color = { 
		153 153 255 
	}
	outgoing = { 
		name = "inner_sea_tn"
		path = { 
			4395 4393 
		}
		control = { 
			1948.000000 1727.000000 1978.000000 1721.000000 1991.000000 1752.000000 2016.000000 1761.000000 2026.000000 1808.000000
			2016.000000 1830.000000 
		}
	}
	outgoing = { 
		name = "mournhold_tn"
		path = { 
			3231 3248 
		}
		control = { 
			1943.000000 1715.000000 1980.000000 1711.000000 1987.000000 1688.000000 
		}
	}
	members = { 
		4398 3776 3774 3777 3778 3780 3779 3775 3773 3772
		3771 3225 3786 3782 3224 3223 975 974 984 985
		986 3987 3980 3981 3982 3983 3984 3232 3231 3959
		3235 3957 3785 3956 3955 3958 3952 3953 3954 3967
		3970 3951 4000 3947 3938 3949 3234 3960 3972 3233
		988 3974 3971 3793 3973 3860 3976 3979 976 977
		3221 978 3408 3398 3407 3412 3406 3410 3409 3783
		3787 3781 3434 3420 3433 3419 3432 3795 3417 3222
		3784 3790 3792 3791 3789 3975 3794 3796 3797 3435
		3788 4395 
	}
}
inner_sea_tn = { 
	location = 4393
	color = { 
		179 119 0 
	}
	outgoing = { 
		name = "mournhold_tn"
		path = { 
			4394 3248 
		}
		control = { 
			2043.000000 1820.000000 2045.000000 1786.000000 2054.000000 1758.000000 2030.000000 1742.000000 2028.000000 1714.000000
			2020.000000 1697.000000 2003.000000 1689.000000 
		}
	}
	members = { 
		4393 4122 6230 4121 4123 2351 6096 4129 4201 2419
		4128 4127 4126 6064 4124 4125 4207 416 4204 2495
		4202 2356 2411 6476 4203 4138 4140 4135 4136 4134
		4133 3281 4131 4132 4137 2497 4130 2405 419 2494
		4223 4226 4224 2492 418 4222 4221 3282 3283 1036
		1035 6224 1034 3285 3284 4119 4118 4120 4116 1038
		1037 4117 4096 4097 4100 4098 4099 4095 4094 4093
		4092 4055 4060 4091 4054 3268 4051 4038 4040 4035
		4034 4039 4033 1009 1011 1010 4030 3259 3256 3257
		3258 3260 4029 4026 4028 4011 4020 4012 4018 4019
		1012 1013 4032 4031 4017 3269 4052 3267 3266 4053
		4037 4036 
	}
}
jeral_tn = { 
	location = 5380
	inland = yes
	color = { 
		98 50 23 
	}
	outgoing = { 
		name = "heartlands_tn"
		path = { 
			5378 5834 5836 1197 52 5388 1206 
		}
		control = { 
			1429.000000 1724.000000 1444.000000 1695.000000 1435.000000 1658.000000 1447.000000 1637.000000 
		}
	}
	outgoing = { 
		name = "valus_tn"
		path = { 
			5379 5853 5857 5856 5383 1199 5384 5962 5964 5991
			5993 5998 6031 6033 6035 5431 1251 
		}
		control = { 
			1477.000000 1752.000000 1516.000000 1710.000000 1562.000000 1696.000000 1592.000000 1653.000000 
		}
	}
	outgoing = { 
		name = "eastcolovia_tn"
		path = { 
			5377 5831 5848 5829 5827 5368 5369 5787 5785 5776
			5653 5657 
		}
		control = { 
			1403.000000 1746.000000 1402.000000 1721.000000 1364.000000 1705.000000 1337.000000 1683.000000 1311.000000 1695.000000
			1282.000000 1689.000000 
		}
	}
	members = { 
		5380 5379 5378 1195 1193 1196 1194 1192 5845 5841
		5814 5844 5843 5376 5377 5833 5831 5832 5848 5636
		5632 5847 5849 5850 5861 5869 5870 5867 5868 5862
		5863 5864 5865 5866 5872 5876 5878 5875 5871 5873
		5874 5879 1213 5881 5827 5638 5846 1184 5660 5777
		5813 5812 5811 5818 5893 5900 5898 5424 5902 5907
		5905 5901 5899 5568 5880 5887 5885 5888 5914 5915
		5889 5919 5890 5886 5842 5366 1187 5629 1181 5362
		5803 5815 5808 5809 5630 5361 5820 5810 1180 5509
		5805 5799 5795 5802 5796 
	}
}
eastcolovia_tn = { 
	location = 5648
	inland = yes
	color = { 
		200 200 102 
	}
	outgoing = { 
		name = "heartlands_tn"
		path = { 
			5654 5782 5784 5789 5790 1186 51 5390 1206 
		}
		control = { 
			1301.000000 1650.000000 1311.000000 1613.000000 1346.000000 1584.000000 1370.000000 1606.000000 1403.000000 1614.000000
		}
	}
	outgoing = { 
		name = "westcolovia_tn"
		path = { 
			5658 5651 5672 5674 5677 5680 5713 5718 
		}
		control = { 
			1238.000000 1674.000000 1204.000000 1652.000000 1197.000000 1616.000000 1155.000000 1603.000000 1124.000000 1558.000000
		}
	}
	outgoing = { 
		name = "golden_coast_tn"
		path = { 
			5658 5651 5631 5661 5665 5668 5670 5360 1148 1150
			5334 5342 1161 1875 
		}
		control = { 
			1266.000000 1652.000000 1250.560059 1592.729980 1207.000000 1556.000000 1198.000000 1510.000000 1156.000000 1489.000000
			1116.000000 1491.000000 1079.000000 1458.000000 1047.000000 1441.000000 1012.000000 1433.000000 
		}
	}
	members = { 
		5657 1189 5648 1179 5658 5654 5656 5642 5826 1178
		5363 5781 5778 5671 5771 5772 5773 5807 5804 5801
		5792 5791 5793 5761 5767 5749 5770 5768 5766 5763
		5765 5762 5764 5743 1183 5786 5822 5823 5782 5783
		5367 5368 5639 5614 5806 5652 1138 5540 6387 5608
		5603 5673 5651 5626 5312 5628 5529 5780 5319 5625
		5661 5665 5320 5627 5546 5311 5633 1139 5373 5641
		5606 5604 1188 1511 5374 5779 5647 5672 5674 5675
		5624 5784 1147 5824 5769 
	}
}
westcolovia_tn = { 
	location = 1172
	inland = yes
	color = { 
		194 140 86 
	}
	outgoing = { 
		name = "golden_coast_tn"
		path = { 
			5717 5356 1172 1175 5335 5341 1157 5345 1875 
		}
		control = { 
			1051.000000 1538.000000 1053.000000 1502.000000 1033.000000 1471.000000 1026.189941 1446.869995 
		}
	}
	outgoing = { 
		name = "corten_heights_tn"
		path = { 
			5719 5724 5723 5722 5700 6145 6148 6149 3718 
		}
		control = { 
			1053.000000 1579.000000 1006.000000 1585.000000 973.000000 1574.000000 965.000000 1591.000000 973.000000 1604.000000
			966.000000 1610.000000 938.000000 1596.000000 
		}
	}
	members = { 
		5718 1119 6035 5748 5676 5742 5679 5663 5680 5714
		5662 5343 5677 5669 5668 5617 5334 5333 5358 5357
		5666 5649 5678 5829 5821 5789 1182 5785 1174 5356
		1151 1166 1150 1149 5330 5704 1170 1172 6134 5694
		5359 5664 5697 5722 5360 5701 5715 1175 1152 1173
		5716 5774 5708 5707 5667 5609 1146 5584 5325 1143
		5605 5327 5329 5328 5335 5331 1165 5332 5340 5339
		5710 5685 5692 5686 5610 5787 5788 5369 5646 1177
		5825 5816 5370 5830 5364 
	}
}
corten_heights_tn = { 
	location = 3716
	color = { 
		60 175 91 
	}
	outgoing = { 
		name = "golden_coast_tn"
		path = { 
			3752 3755 74 
		}
		control = { 
			935.000000 1565.000000 933.000000 1525.000000 952.000000 1498.000000 959.000000 1467.000000 987.000000 1462.000000
		}
	}
	members = { 
		3718 6330 6219 6220 6237 6232 6236 6099 1515 1448
		1482 6192 6150 6191 6157 6149 1484 1483 1481 6061
		6196 6140 6146 1451 6098 6145 6152 6148 6144 1450
		6147 6153 6151 6133 1446 1447 6167 6183 5736 6981
		6168 6138 6135 6143 6139 6159 6194 1455 6066 6155
		1453 6180 5794 5735 5727 6170 5700 6136 6296 1475
		6223 6289 6254 6107 1495 1473 1488 1491 5730 6154
		5728 5726 5717 2266 5703 5723 5757 5725 6068 5670
		5734 5733 5702 5724 5745 5747 5713 5720 6434 5729
		6209 6156 6197 6199 6198 6200 1169 1452 6158 6195
		6070 6184 5740 5738 5737 6169 6137 6067 6193 6069
		6217 5739 1472 6297 6291 6086 1461 1462 1454 5760
		6087 6088 6258 6293 6213 6212 6215 6211 6214 7284
		6210 6300 6290 6303 6301 6295 1489 1486 6102 6292
		3716 6100 
	}
}
valus_tn = { 
	location = 5987
	inland = yes
	color = { 
		102 98 230 
	}
	outgoing = { 
		name = "velothi_tn"
		path = { 
			5435 6009 6010 5983 5982 5975 5971 5933 5932 5931
			5928 5926 5921 1241 5421 968 966 3368 3365 
		}
		control = { 
			1650.000000 1658.000000 1681.000000 1639.000000 1706.000000 1632.000000 1725.000000 1635.000000 1739.000000 1678.000000
			1723.000000 1727.000000 1682.000000 1752.000000 1676.000000 1786.000000 
		}
	}
	outgoing = { 
		name = "heartlands_tn"
		path = { 
			5431 6035 6034 6032 5999 6000 5996 5395 52 5388
			1206 
		}
		control = { 
			1593.000000 1635.000000 1566.000000 1612.000000 1522.000000 1624.000000 1499.000000 1621.000000 1482.000000 1629.000000
			1462.000000 1619.000000 
		}
	}
	outgoing = { 
		name = "nibenay_tn"
		path = { 
			5432 1232 1233 5418 57 55 
		}
		control = { 
			1622.000000 1640.000000 1614.000000 1615.000000 1604.000000 1597.000000 1620.000000 1568.000000 1593.000000 1560.000000
			1585.000000 1532.000000 1568.000000 1513.000000 1545.000000 1478.000000 
		}
	}
	members = { 
		5940 5973 5974 5979 5975 5971 5972 5936 5939 5938
		5935 5937 5925 5924 5934 5923 5926 5922 5921 5946
		5423 1246 5959 5944 5932 5931 5933 5941 1217 5425
		1238 5422 1241 5421 1237 1240 5943 5927 5909 5908
		5929 5913 5904 5906 5916 5903 5961 5492 5493 5947
		5976 1243 5978 6004 6002 6001 6012 6003 6005 6007
		1235 5948 5949 1245 5384 5985 5986 5912 5525 5950
		5910 5930 5911 5955 5958 5987 1254 5954 5945 5494
		5960 5942 5951 5984 5983 5980 6010 5990 1248 5989
		6033 1247 6000 5956 5957 5992 5988 5998 6031 5999
		5996 1252 5994 5991 1256 1253 5953 1255 6015 6006
		1236 5993 6014 6016 5522 5433 5436 5416 1232 5432
		1250 5435 1251 6009 
	}
}
velothi_tn = { 
	location = 3365
	inland = yes
	end = yes
	color = { 
		204 34 0 
	}
	members = { 
		3365 3364 3363 3362 3366 3361 3353 3334 3335 3333
		3357 3356 3355 3354 3351 3346 3347 3345 3343 3344
		3348 3323 3339 3340 3337 3350 3352 3338 3349 3358
		3359 3360 3372 3371 3373 3374 3214 3381 3375 3376
		3377 3380 3379 3402 3401 3403 3404 3384 3383 3378
		967 965 964 3386 3367 3368 3369 966 968 3370
		3211 3212 963 3389 3213 3215 3382 3385 3388 3387
		3397 3391 3414 3799 3399 3400 3395 3396 3393 3392
	}
}
c_summerset_tn = { 
	location = 263
	inland = yes
	end = yes
	color = { 
		126 203 120 
	}
	members = { 
		269 2465 2460 2467 452 2317 4691 4693 4692 4703
		4701 4702 4704 457 4706 4707 443 444 2461 2463
		4708 4710 2464 7014 2313 265 261 4617 263 4616
		264 4797 4687 4796 4794 4795 441 2462 442 4792
		4800 2319 454 4631 4614 4682 4683 4618 4613 4690
		294 4689 295 278 4720 4719 4717 268 4716 4624
		4622 4811 4625 4623 270 4798 4620 445 262 4799
		281 4632 266 4634 277 4709 4793 280 2262 279
		2269 2386 296 2260 2312 2476 2477 2478 2479 4684
		4681 4685 260 4686 4714 4621 4711 4713 4771 4791
		4688 4772 4813 4779 4812 4712 4780 4775 4774 4777
		4778 267 290 289 291 2263 2385 2261 2264 292
		4645 4649 272 4715 2466 274 438 4629 4630 4700
	}
}
mournhold_tn = { 
	location = 3978
	inland = yes
	end = yes
	color = { 
		215 56 56 
	}
	members = { 
		4002 4003 4004 4006 4009 4008 4010 4027 4021 3945
		4001 3996 3998 3994 3995 3993 3992 3991 3999 3997
		1001 3253 3252 3251 1006 1008 1004 1005 1007 3255
		1000 3950 4022 999 3250 1002 3249 3247 4023 4024
		3977 4025 3989 3988 3986 3990 987 3985 3978 1003
		3254 3964 3962 3858 3963 3965 3966 3968 3969 3961
	}
}
nibenay_tn = { 
	location = 55
	color = { 
		219 124 139 
	}
	outgoing = { 
		name = "heartlands_tn"
		path = { 
			54 53 5389 1206 
		}
		control = { 
			1522.000000 1515.000000 1489.000000 1558.000000 1481.000000 1588.000000 
		}
	}
	members = { 
		55 1130 5548 5536 5511 5512 5515 5513 5491 5517
		5518 5520 5516 5519 5539 5420 5419 6008 1249 6037
		5431 6038 1234 1233 5524 5418 5434 5417 5400 5857
		1212 1230 5398 5883 1131 5551 5313 5527 5528 5514
		5531 5315 6427 5532 5314 5399 5397 1214 5396 1216
		5507 5510 1229 5310 5411 5440 
	}
}
golden_coast_tn = { 
	location = 1875
	end = yes
	color = { 
		145 251 108 
	}
	members = { 
		1875 5351 1171 5352 1159 1158 1161 5682 5684 1162
		5350 5683 1163 5347 5349 5709 5691 5348 5341 1156
		5336 1153 5719 5337 4850 1155 1154 1168 5345 5354
		6141 6132 5731 1148 5698 5699 1176 5711 5688 5338
		1157 1160 5344 6438 5342 5689 5706 6435 5693 1164
		5721 5696 5695 5690 1167 6131 5705 5353 5346 
	}
}
heartlands_tn = { 
	location = 1206
	inland = yes
	end = yes
	color = { 
		97 126 37 
	}
	members = { 
		1206 5389 5388 5387 5386 5390 1205 1204 1203 1202
		5395 1209 1208 1207 5997 5394 5995 5970 5969 5965
		5964 5966 5967 5968 5963 1201 5920 5962 5918 5917
		5385 1199 1200 5383 5982 5884 5882 5858 5859 5856
		1198 5382 5381 5855 5852 5853 5851 5854 1215 5860
		5834 1197 5838 5837 5835 5836 5631 5839 5840 5637
		5819 5655 5659 5650 5776 5828 5653 5644 5365 5643
		1186 5775 1191 1137 5621 5790 1185 1129 6424 5615
		1140 1190 5326 5371 5561 5566 1135 5559 5544 5541
		1134 5547 5542 5316 5894 1133 1132 5538 5545 5535
		5523 5391 5392 6039 6032 6040 1210 6034 5393 1211
		1136 5537 5556 5534 1128 5552 5318 5533 5549 5543
		1125 
	}
}
