# If you add advisortypes, and use those tags, do not change them without changing everywhere they are used.
#
# Additional arguments: allow_only_male/allow_only_female
# Contains skill_scaled_modifier for which the effects get multiplied by the advisor's skill level
# Uses all 'modifiers' possible that are exported as a Modifier.

# Note that ai_will_do calculates a priority.
# An advisor may be chosen over another if its random priority exceeds it. RandomPriority(advisor) := rand[1, 2[ * Priority(advisor).

######################################################
# Administrative Advisors
######################################################
#Steward
esu_steward = {
	monarch_power = ADM
	build_cost = -0.15
	skill_scaled_modifier = {
		meritocracy = 0.15
		legitimacy = -0.15
		republican_tradition = -0.15
		devotion = -0.15
		horde_unity = -0.15
		build_time = -0.05
	}
	chance = { 
		factor = 1 
		modifier = {
			factor = 0
			owner = { has_reform = court_of_darkness }
		}
	} 
	ai_will_do = { 
		factor = 1
	} 
}
#Bard
esu_bard = {
	monarch_power = ADM
	prestige_decay = -0.015
	skill_scaled_modifier = {
		meritocracy = 0.15
		legitimacy = -0.15
		republican_tradition = -0.15
		devotion = -0.15
		horde_unity = -0.15
		prestige_from_land = 0.05
	}
	chance = { 
		factor = 1 
		modifier = {
			factor = 0
			owner = { has_reform = court_of_darkness }
		}
	} 
	ai_will_do = { 
		factor = 1
	} 
}
#Mage
esu_mage = {
	monarch_power = ADM
	global_institution_spread = 0.15
	skill_scaled_modifier = {
		meritocracy = 0.15
		legitimacy = -0.15
		republican_tradition = -0.15
		devotion = -0.15
		horde_unity = -0.15
		embracement_cost = -0.05
	}
	chance = { 
		factor = 1 
		modifier = {
			factor = 0
			owner = { has_reform = court_of_darkness }
		}
	} 
	ai_will_do = { 
		factor = 1
	} 
}
#Researcher
esu_researcher = {
	monarch_power = ADM
	idea_cost = -0.15
	skill_scaled_modifier = {
		meritocracy = 0.15
		legitimacy = -0.15
		republican_tradition = -0.15
		devotion = -0.15
		horde_unity = -0.15
		institution_spread_from_true_faith = 0.05
	}
	chance = { 
		factor = 1 
		modifier = {
			factor = 0
			owner = { has_reform = court_of_darkness }
		}
	} 
	ai_will_do = { 
		factor = 1
	} 
}
#Monk
esu_monk = {
	monarch_power = ADM
	global_unrest = -1.5
	skill_scaled_modifier = {
		meritocracy = 0.15
		legitimacy = -0.15
		republican_tradition = -0.15
		devotion = -0.15
		horde_unity = -0.15
		global_heretic_missionary_strength = 0.005
	}
	chance = { 
		factor = 1 
		modifier = {
			factor = 0
			owner = { has_reform = court_of_darkness }
		}
	} 
	ai_will_do = { 
		factor = 1
	} 
}
#Priest
esu_priest = {
	monarch_power = ADM
	global_missionary_strength = 0.015
	skill_scaled_modifier = {
		meritocracy = 0.15
		legitimacy = -0.15
		republican_tradition = -0.15
		devotion = -0.15
		horde_unity = -0.15
		warscore_cost_vs_other_religion = -0.05
	}
	chance = { 
		factor = 1 
		modifier = {
			factor = 0
			owner = { has_reform = court_of_darkness }
		}
	} 
	ai_will_do = { 
		factor = 1
	} 
}
#Inspector
esu_inspector = {
	monarch_power = ADM
	core_creation = -0.15
	skill_scaled_modifier = {
		meritocracy = 0.15
		legitimacy = -0.15
		republican_tradition = -0.15
		devotion = -0.15
		horde_unity = -0.15
		yearly_corruption = -0.05
	}
	chance = { 
		factor = 1 
		modifier = {
			factor = 0
			owner = { has_reform = court_of_darkness }
		}
	} 
	ai_will_do = { 
		factor = 1
	} 
}
#Curator
esu_curator = {
	monarch_power = ADM
	stability_cost_modifier = -0.15
	skill_scaled_modifier = {
		meritocracy = 0.15
		legitimacy = -0.15
		republican_tradition = -0.15
		devotion = -0.15
		horde_unity = -0.15
		inflation_action_cost = -0.05
	}
	chance = { 
		factor = 1 
		modifier = {
			factor = 0
			owner = { has_reform = court_of_darkness }
		}
	} 
	ai_will_do = { 
		factor = 1
	} 
}

######################################################
# Diplomatic Advisors
######################################################
#Merchant
esu_merchant = {
	monarch_power = DIP
	trade_steering = 0.15
	skill_scaled_modifier = {
		meritocracy = 0.15
		legitimacy = -0.15
		republican_tradition = -0.15
		devotion = -0.15
		horde_unity = -0.15
		global_ship_trade_power = 0.05
	}
	chance = { 
		factor = 1 
		modifier = {
			factor = 0
			owner = { has_reform = court_of_darkness }
		}
	} 
	ai_will_do = { 
		factor = 1
	} 
}
#Alchemist
esu_alchemist = {
	monarch_power = DIP
	culture_conversion_cost = -0.15
	skill_scaled_modifier = {
		meritocracy = 0.15
		legitimacy = -0.15
		republican_tradition = -0.15
		devotion = -0.15
		horde_unity = -0.15
		naval_attrition = -0.05
	}
	chance = { 
		factor = 1 
		modifier = {
			factor = 0
			owner = { has_reform = court_of_darkness }
		}
	} 
	ai_will_do = { 
		factor = 1
	} 
}
#Negotiator
esu_negotiator = {
	monarch_power = DIP
	improve_relation_modifier = 0.15
	skill_scaled_modifier = {
		meritocracy = 0.15
		legitimacy = -0.15
		republican_tradition = -0.15
		devotion = -0.15
		horde_unity = -0.15
		unjustified_demands = -0.05
	}
	chance = { 
		factor = 1 
		modifier = {
			factor = 0
			owner = { has_reform = court_of_darkness }
		}
	} 
	ai_will_do = { 
		factor = 1
	} 
}
#Governor
esu_governor = {
	monarch_power = DIP
	diplomatic_annexation_cost = -0.15
	skill_scaled_modifier = {
		meritocracy = 0.15
		legitimacy = -0.15
		republican_tradition = -0.15
		devotion = -0.15
		horde_unity = -0.15
		min_autonomy_in_territories = -0.05
	}
	chance = { 
		factor = 1 
		modifier = {
			factor = 0
			owner = { has_reform = court_of_darkness }
		}
	} 
	ai_will_do = { 
		factor = 1
	} 
}
#Colonial Overseer
esu_colonial_overseer = {
	monarch_power = DIP
	global_tariffs = 0.15
	skill_scaled_modifier = {
		meritocracy = 0.15
		legitimacy = -0.15
		republican_tradition = -0.15
		devotion = -0.15
		horde_unity = -0.15
		global_sailors_modifier = 0.05
	}
	chance = { 
		factor = 1 
		modifier = {
			factor = 0
			owner = { has_reform = court_of_darkness }
		}
	} 
	ai_will_do = { 
		factor = 1
	} 
}
#Navarch
esu_navarch = {
	monarch_power = DIP
	navy_tradition_decay = -0.015
	skill_scaled_modifier = {
		meritocracy = 0.15
		legitimacy = -0.15
		republican_tradition = -0.15
		devotion = -0.15
		horde_unity = -0.15
		global_ship_cost = -0.05
	}
	chance = { 
		factor = 1 
		modifier = {
			factor = 0
			owner = { has_reform = court_of_darkness }
		}
	} 
	ai_will_do = { 
		factor = 1
	} 
}
#Adventurer
esu_adventurer = {
	monarch_power = DIP
	global_colonial_growth = 15
	skill_scaled_modifier = {
		meritocracy = 0.15
		legitimacy = -0.15
		republican_tradition = -0.15
		devotion = -0.15
		horde_unity = -0.15
		native_assimilation = 0.05
	}
	chance = { 
		factor = 1 
		modifier = {
			factor = 0
			owner = { has_reform = court_of_darkness }
		}
	} 
	ai_will_do = { 
		factor = 1
	} 
}
#Spy
esu_spy = {
	monarch_power = DIP
	spy_offence = 0.15
	skill_scaled_modifier = {
		meritocracy = 0.15
		legitimacy = -0.15
		republican_tradition = -0.15
		devotion = -0.15
		horde_unity = -0.15
		global_spy_defence = 0.05
	}
	chance = { 
		factor = 1 
		modifier = {
			factor = 0
			owner = { has_reform = court_of_darkness }
		}
	} 
	ai_will_do = { 
		factor = 1
	} 
}

######################################################
# Military Advisors
######################################################
#Blacksmith
esu_blacksmith = {
	monarch_power = MIL
	global_regiment_cost = -0.15
	skill_scaled_modifier = {
		meritocracy = 0.15
		legitimacy = -0.15
		republican_tradition = -0.15
		devotion = -0.15
		horde_unity = -0.15
		global_regiment_recruit_speed = -0.05
	}
	chance = { 
		factor = 1 
		modifier = {
			factor = 0
			owner = { has_reform = court_of_darkness }
		}
	} 
	ai_will_do = { 
		factor = 1
	} 
}
#Trainer
esu_trainer = {
	monarch_power = MIL
	army_tradition_decay = -0.015
	skill_scaled_modifier = {
		meritocracy = 0.15
		legitimacy = -0.15
		republican_tradition = -0.15
		devotion = -0.15
		horde_unity = -0.15
		drill_decay_modifier = -0.05
	}
	chance = { 
		factor = 1 
		modifier = {
			factor = 0
			owner = { has_reform = court_of_darkness }
		}
	} 
	ai_will_do = { 
		factor = 1
	} 
}
#Hunter
esu_hunter = {
	monarch_power = MIL
	reinforce_speed = 0.15
	skill_scaled_modifier = {
		meritocracy = 0.15
		legitimacy = -0.15
		republican_tradition = -0.15
		devotion = -0.15
		horde_unity = -0.15
		reinforce_cost_modifier = -0.05
	}
	chance = { 
		factor = 1 
		modifier = {
			factor = 0
			owner = { has_reform = court_of_darkness }
		}
	} 
	ai_will_do = { 
		factor = 1
	} 
}
#Scout
esu_scout = {
	monarch_power = MIL
	land_attrition = -0.15
	skill_scaled_modifier = {
		meritocracy = 0.15
		legitimacy = -0.15
		republican_tradition = -0.15
		devotion = -0.15
		horde_unity = -0.15
		cav_to_inf_ratio = 0.05
	}
	chance = { 
		factor = 1 
		modifier = {
			factor = 0
			owner = { has_reform = court_of_darkness }
		}
	} 
	ai_will_do = { 
		factor = 1
	} 
}
#Thane
esu_thane = {
	monarch_power = MIL
	mercenary_cost = -0.15
	skill_scaled_modifier = {
		meritocracy = 0.15
		legitimacy = -0.15
		republican_tradition = -0.15
		devotion = -0.15
		horde_unity = -0.15
		mercenary_manpower = 0.05
	}
	chance = { 
		factor = 1 
		modifier = {
			factor = 0
			owner = { has_reform = court_of_darkness }
		}
	} 
	ai_will_do = { 
		factor = 1
	} 
}
#Officer
esu_officer = {
	monarch_power = MIL
	defensiveness = 0.15
	skill_scaled_modifier = {
		meritocracy = 0.15
		legitimacy = -0.15
		republican_tradition = -0.15
		devotion = -0.15
		horde_unity = -0.15
		garrison_size = 0.05
	}
	chance = { 
		factor = 1 
		modifier = {
			factor = 0
			owner = { has_reform = court_of_darkness }
		}
	} 
	ai_will_do = { 
		factor = 1
	} 
}
#Grand Champion
esu_grand_champion = {
	monarch_power = MIL
	siege_ability = 0.15
	skill_scaled_modifier = {
		meritocracy = 0.15
		legitimacy = -0.15
		republican_tradition = -0.15
		devotion = -0.15
		horde_unity = -0.15
		drill_gain_modifier = 0.05
	}
	chance = { 
		factor = 1 
		modifier = {
			factor = 0
			owner = { has_reform = court_of_darkness }
		}
	} 
	ai_will_do = { 
		factor = 1
	} 
}
#Recruiter
esu_recruiter = {
	monarch_power = MIL
	manpower_recovery_speed = 0.15
	skill_scaled_modifier = {
		meritocracy = 0.15
		legitimacy = -0.15
		republican_tradition = -0.15
		devotion = -0.15
		horde_unity = -0.15
		fort_maintenance_modifier = -0.05
	}
	chance = { 
		factor = 1 
		modifier = {
			factor = 0
			owner = { has_reform = court_of_darkness }
		}
	} 
	ai_will_do = { 
		factor = 1
	} 
}