#######################################################################
# ADM Advisors
#######################################################################
# Psychopathic Artist
esu_psychopathic_artist = { 
	monarch_power = ADM
	governing_capacity_modifier = 0.25
	skill_scaled_modifier = {  
		trigger = {
			always = yes
		}
		modifier = {
			inflation_reduction = -0.05
			tolerance_heathen = 0.5
		}
	}
	skill_scaled_modifier = { trigger = { owner = {	has_government_mechanic = russian_modernization_mechanic	NOT = { culture_group = PREV } } } modifier = {	monthly_russian_modernization = 0.025 } }
	skill_scaled_modifier = { trigger = { owner = {	has_government_mechanic = persian_influence_mechanic } } modifier = { monthly_persian_influence = 0.05 } }
	chance = {
		factor = 1.0
		modifier = {
			factor = 1.5
			owner = {
				has_reform = court_of_darkness
			}
		}
		modifier = {
			factor = 0
			owner = {
				NOT = { has_reform = court_of_darkness }
				adm = 3
			}
		}
	}
	ai_will_do = { 
		factor = 1
	} 
}
# Occultist
esu_occultist = { 
	monarch_power = ADM
	tolerance_own = 2.5
	skill_scaled_modifier = { 
		trigger = {
			always = yes
		}
		modifier = {
			religious_unity = -0.05
			prestige_per_development_from_conversion = 0.05
		}
	}
	skill_scaled_modifier = { trigger = { owner = {	has_government_mechanic = russian_modernization_mechanic	NOT = { culture_group = PREV } } } modifier = {	monthly_russian_modernization = 0.025 } }
	skill_scaled_modifier = { trigger = { owner = {	has_government_mechanic = persian_influence_mechanic } } modifier = { monthly_persian_influence = 0.05 } }
	chance = {
		factor = 1.0
		modifier = {
			factor = 1.5
			owner = {
				has_reform = court_of_darkness
			}
		}
		modifier = {
			factor = 0
			owner = {
				NOT = { has_reform = court_of_darkness }
				adm = 3
			}
		}
	}
	ai_will_do = { 
		factor = 1
	} 
}
# Mad Scholar
esu_mad_scholar = { 
	monarch_power = ADM
	development_cost = -0.25
	skill_scaled_modifier = { 
		trigger = {
			always = yes
		}
		modifier = {
			production_efficiency = -0.05
			global_tax_modifier = 0.05
		}
	}
	skill_scaled_modifier = { trigger = { owner = {	has_government_mechanic = russian_modernization_mechanic	NOT = { culture_group = PREV } } } modifier = {	monthly_russian_modernization = 0.025 } }
	skill_scaled_modifier = { trigger = { owner = {	has_government_mechanic = persian_influence_mechanic } } modifier = { monthly_persian_influence = 0.05 } }
	chance = {
		factor = 1.0
		modifier = {
			factor = 1.5
			owner = {
				has_reform = court_of_darkness
			}
		}
		modifier = {
			factor = 0
			owner = {
				NOT = { has_reform = court_of_darkness }
				adm = 3
			}
		}
	}
	ai_will_do = { 
		factor = 1
	} 
}
# Torturer 
esu_torturer = { 
	monarch_power = ADM
	state_maintenance_modifier = -0.25
	skill_scaled_modifier = { 
		trigger = {
			always = yes
		}
		modifier = {
			years_of_nationalism = 5
			native_uprising_chance = -0.05
		}
	}
	skill_scaled_modifier = { trigger = { owner = {	has_government_mechanic = russian_modernization_mechanic	NOT = { culture_group = PREV } } } modifier = {	monthly_russian_modernization = 0.025 } }
	skill_scaled_modifier = { trigger = { owner = {	has_government_mechanic = persian_influence_mechanic } } modifier = { monthly_persian_influence = 0.05 } }
	chance = {
		factor = 1.0
		modifier = {
			factor = 1.5
			owner = {
				has_reform = court_of_darkness
			}
		}
		modifier = {
			factor = 0
			owner = {
				NOT = { has_reform = court_of_darkness }
				adm = 3
			}
		}
	}
	ai_will_do = { 
		factor = 1
	} 
}
#######################################################################
# DIP Advisors
#######################################################################
#Hedonist
esu_hedonist = { 
	monarch_power = DIP
	reduced_liberty_desire = 25
	skill_scaled_modifier = { 
		trigger = {
			always = yes
		}
		modifier = {
			war_exhaustion = 0.05
			interest = -0.5
		}
	}
	skill_scaled_modifier = { trigger = { owner = {	has_government_mechanic = russian_modernization_mechanic	NOT = { culture_group = PREV } } } modifier = {	monthly_russian_modernization = 0.025 } }
	chance = {
		factor = 1.0
		modifier = {
			factor = 1.5
			owner = {
				has_reform = court_of_darkness
			}
		}
		modifier = {
			factor = 0
			owner = {
				NOT = { has_reform = court_of_darkness }
				dip = 3
			}
		}
	}
	ai_will_do = { 
		factor = 1
	} 
}
#Bandit
esu_bandit = { 
	monarch_power = DIP
	province_warscore_cost = -0.25
	skill_scaled_modifier = { 
		trigger = {
			always = yes
		}
		modifier = {
			ae_impact = 0.05
			embargo_efficiency = 0.05
		}
	}
	skill_scaled_modifier = { trigger = { owner = {	has_government_mechanic = russian_modernization_mechanic	NOT = { culture_group = PREV } } } modifier = {	monthly_russian_modernization = 0.025 } }
	chance = {
		factor = 1.0
		modifier = {
			factor = 1.5
			owner = {
				has_reform = court_of_darkness
			}
		}
		modifier = {
			factor = 0
			owner = {
				NOT = { has_reform = court_of_darkness }
				dip = 3
			}
		}
	}
	ai_will_do = { 
		factor = 1
	} 
}
#Corsair
esu_corsair = { 
	monarch_power = DIP
	capture_ship_chance = 0.25
	skill_scaled_modifier = { 
		trigger = {
			always = yes
		}
		modifier = {
			blockade_efficiency = -0.05
			naval_tradition_from_battle = 0.05
		}
	}
	skill_scaled_modifier = { trigger = { owner = {	has_government_mechanic = russian_modernization_mechanic	NOT = { culture_group = PREV } } } modifier = {	monthly_russian_modernization = 0.025 } }
	chance = {
		factor = 1.0
		modifier = {
			factor = 1.5
			owner = {
				has_reform = court_of_darkness
			}
		}
		modifier = {
			factor = 0
			owner = {
				NOT = { has_reform = court_of_darkness }
				dip = 3
			}
		}
	}
	ai_will_do = { 
		factor = 1
	} 
}
#Conquistador
esu_conquistador = { 
	monarch_power = DIP
	range = 0.25
	skill_scaled_modifier = { 
		trigger = {
			always = yes
		}
		modifier = {
			global_ship_recruit_speed = -0.05
			privateer_efficiency = 0.05
		}
	}
	skill_scaled_modifier = { trigger = { owner = {	has_government_mechanic = russian_modernization_mechanic	NOT = { culture_group = PREV } } } modifier = {	monthly_russian_modernization = 0.025 } }
	chance = {
		factor = 1.0
		modifier = {
			factor = 1.5
			owner = {
				has_reform = court_of_darkness
			}
		}
		modifier = {
			factor = 0
			owner = {
				NOT = { has_reform = court_of_darkness }
				dip = 3
			}
		}
	}
	ai_will_do = { 
		factor = 1
	} 
}
#######################################################################
# MIL Advisors
#######################################################################
#Lich
esu_lich = { 
	monarch_power = MIL
	global_manpower_modifier = 0.25
	skill_scaled_modifier = { 
		trigger = {
			always = yes
		}
		modifier = {
			possible_condottieri = 0.25
			leader_cost = 0.50
		}
	}
	skill_scaled_modifier = { trigger = { owner = {	has_government_mechanic = russian_modernization_mechanic	NOT = { culture_group = PREV } } } modifier = {	monthly_russian_modernization = 0.025 } }
	chance = {
		factor = 1.0
		modifier = {
			factor = 1.5
			owner = {
				has_reform = court_of_darkness
			}
		}
		modifier = {
			factor = 0
			owner = {
				NOT = { has_reform = court_of_darkness }
				mil = 3
			}
		}
	}
	ai_will_do = { 
		factor = 1
	} 
}
#Pillager
esu_pillager = { 
	monarch_power = MIL
	available_province_loot = 0.25
	skill_scaled_modifier = { 
		trigger = {
			always = yes
		}
		modifier = {
			army_tradition_from_battle = 0.05
			rival_border_fort_maintenance = 0.05
		}
	}
	skill_scaled_modifier = { trigger = { owner = {	has_government_mechanic = russian_modernization_mechanic	NOT = { culture_group = PREV } } } modifier = {	monthly_russian_modernization = 0.025 } }
	chance = {
		factor = 1.0
		modifier = {
			factor = 1.5
			owner = {
				has_reform = court_of_darkness
			}
		}
		modifier = {
			factor = 0
			owner = {
				NOT = { has_reform = court_of_darkness }
				mil = 3
			}
		}
	}
	ai_will_do = { 
		factor = 1
	} 
}
#Tyrant
esu_tyrant = { 
	monarch_power = MIL
	reserves_organisation = 0.25
	skill_scaled_modifier = { 
		trigger = {
			always = yes
		}
		modifier = {
			yearly_army_professionalism = -0.005
			movement_speed = 0.05
		}
	}
	skill_scaled_modifier = { trigger = { owner = {	has_government_mechanic = russian_modernization_mechanic	NOT = { culture_group = PREV } } } modifier = {	monthly_russian_modernization = 0.025 } }
	chance = {
		factor = 1.0
		modifier = {
			factor = 1.5
			owner = {
				has_reform = court_of_darkness
			}
		}
		modifier = {
			factor = 0
			owner = {
				NOT = { has_reform = court_of_darkness }
				mil = 3
			}
		}
	}
	ai_will_do = { 
		factor = 1
	} 
}
#Executioner
esu_executioner = { 
	monarch_power = MIL
	harsh_treatment_cost = -0.25
	skill_scaled_modifier = { 
		trigger = {
			always = yes
		}
		modifier = {
			vassal_income = 0.05
			vassal_forcelimit_bonus = -0.05
		}
	}
	skill_scaled_modifier = { trigger = { owner = {	has_government_mechanic = russian_modernization_mechanic	NOT = { culture_group = PREV } } } modifier = {	monthly_russian_modernization = 0.025 } }
	chance = {
		factor = 1.0
		modifier = {
			factor = 1.5
			owner = {
				has_reform = court_of_darkness
			}
		}
		modifier = {
			factor = 0
			owner = {
				NOT = { has_reform = court_of_darkness }
				mil = 3
			}
		}
	}
	ai_will_do = { 
		factor = 1
	} 
}