tropical = { 
	209 210 211 212 213 222 223 224 229 230
	231 232 233 234 235 236 237 238 239 240
	241 244 245 246 878 879 880 881 882 883
	247 248 249 250 251 252 253 254 255 256
	257 258 259 260 261 262 263 264 265 266
	267 268 269 270 271 272 274 275 276 277
	278 279 280 281 282 283 284 287 288 289
	290 291 292 293 294 295 296 297 298 299
	300 301 302 303 304 305 306 307 308 309
	324 323 321 320 928 929 930 931 932 819
	820 821 822 823 814 933 934 936 937 816
	817 818 815 919 921 922 923 824 825 826
	827 828 829 830 831 832 813 833 834 835
	836 837 838 839 840 841 842 843 844 845
	846 847 848 849 850 851 852 853 854 855
	856 857 858 859 860 861 862 863 864 865
	866 867 868 869 870 871 872 873 874 875
	876 877 948 809 810 811 812 938 945 946
	947 940 941 942 943 1556 1557 1559 1560 1561
	1562 1563 1564 1063 1064 1065 1066 1067 1068 1069
	1070 1071 1072 1073 1074 1075 1077 1078 1079 1080
	1081 1082 1083 1085 1086 1087 1088 1089 1090 1091
	1092 6057 1093 1094 1095 1096 1097 1098 1099 1100
	1101 1102 1103 1104 1105 1106 1107 1108 1109 1110
	1111 1112 1113 6058 6059 5169 5170 5116 5117 5118
	5119 5120 2012 2014 2015 2016 2017 2018 2019 2020
	2021 2022 2023 2024 2025 2026 2027 2028 2029 2030
	2031 2032 2033 2034 2035 2036 2037 2038 2039 2040
	2041 2042 2043 2044 2045 2046 2047 2048 2049 2050
	2051 2052 2053 2054 2055 2056 2057 2058 2059 2060
	2061 2062 2063 2064 2065 2066 2067 2068 2069 2070
	2071 2072 2073 2074 2075 2076 2077 2078 2079 2080
	2081 2082 2083 2084 2085 2086 2087 2088 2089 2090
	2091 2092 2093 2094 2095 2096 2097 2098 2099 2100
	2101 2102 2103 2104 2105 2106 2107 2108 2109 2110
	2111 2145 2176 2177 2178 2179 2180 2181 2182 2183
	2184 3450 3447 3448 3449 3441 3442 3443 3444 3445
	3446 4661 4662 4663 4664 4665 4666 4667 4668 4670
	4671 4672 4673 4674 4675 4676 4677 4678 4679 4680
	4681 4682 4683 4684 4685 4686 4687 4688 4689 4690
	4691 4692 4693 4694 4695 4696 4697 4698 4699 4700
	4701 4702 4703 4704 4705 4706 4707 4708 4709 4710
	4711 4712 4713 4714 4715 4716 4717 4718 4719 4720
	4721 4722 4723 4724 4725 4726 4727 4728 4729 4730
	4731 4732 4733 4734 4735 4736 4737 4738 4739 4740
	4741 4742 4743 4744 4745 4746 4747 4748 4749 4750
	4751 4752 4753 4754 4755 4756 4757 4758 4759 4760
	4761 4762 4763 4764 4765 4766 4767 4768 4769 4770
	4771 4772 4773 4774 4775 4776 4777 4778 4779 4780
	4781 4782 4783 4784 4785 4786 4787 4788 4789 4790
	4791 4792 4793 4794 4795 4796 4797 4798 4799 4800
	4801 4802 4803 4804 4805 4806 4807 4808 4809 4810
	4811 4812 4813 4814 4815 4816 4817 4818 4819 4820
	4821 4822 4823 4824 4825 4826 4827 4828 4829 4830
	4831 4832 4833 4834 4835 4836 4837 4838 4839 4840
	4601 4602 4603 4604 4605 4606 4607 4608 4609 4610
	4611 4612 4613 4614 4615 4616 4617 4618 4619 4620
	4621 4622 4623 4624 4625 4626 4627 4628 4629 4630
	4631 4632 4633 4634 4635 4636 4637 4638 4639 4640
	4641 4642 4643 4644 4645 4646 4647 4648 4649 4650
	4651 4652 4653 4654 4655 4656 4657 4658 4659 4660
	4841 4842 4843 4844 4845 4846 4847 4848 4849 4850
	4851 4852 4853 4854 4855 4856 4857 4858 4859 4860
	4861 4862 4863 4864 4865 4866 4867 4868 4869 4870
	4871 4872 4873 4874 4875 4876 4877 4878 4879 4880
	4881 4882 4883 4884 4885 4886 4887 4888 4889 4890
	4891 4892 4893 4894 4895 4896 4897 4898 4899 4900
	4901 4902 4903 4904 4905 4906 4907 4908 4909 4910
	4911 4912 4913 4914 4915 4916 4917 4918 4919 4920
	4921 4922 4923 4924 4925 4926 4927 4928 4929 4930
	4931 4932 4933 4934 4935 4936 4937 4938 4939 4940
	4941 4942 4943 4944 4945 4946 4947 4948 4949 4950
	4951 4952 4953 4954 4955 4956 4957 4958 4959 4960
	4961 4962 4963 4964 4965 4966 4967 4968 4969 4970
	4971 4972 4973 4974 4975 4976 4977 4978 4979 4980
	4981 4982 4983 4984 4985 4986 4987 4988 4989 4990
	4991 4992 4993 4994 4995 4996 4997 4998 4999 5000
	5001 5002 5003 5004 5005 5006 5007 5008 5009 5010
	5011 5012 5013 5014 5015 5016 5017 5018 5019 5020
	5021 5022 5023 5024 5025 5026 5027 5028 5029 5030
	5031 5032 5033 5034 5035 5036 5037 5038 5039 5040
	5041 5042 5043 5044 5045 5046 5047 5048 5049 5050
	5052 5053 5054 5055 5056 5057 5058 5059 5060 5061
	5062 5063 5064 5065 5126 5127 5128 5129 5121 5122
	5124 5241 5242 5247 5248 5249 5250 5201 5202 5203
	5204 5205 5254 5255 5256 5257 5258 5259 5260 5101
	5102 5103 5105 5111 5112 5113 5114 5115 5151 5152
	5153 5154 5155 5156 5157 5158 5159 5160 5171 5172
	5173 5174 5175 5176 5178 5179 5180 5271 5272 5273
	5274 5275 5276 5278 5280 5261 5262 5264 5265 5267
	5268 5270 5181 5183 5184 5185 5186 5187 5188 5189
	5190 5191 5192 5193 5194 5195 5196 5197 5199 5200
	5161 5162 5163 5164 5165 5166 5167 5168 1117 1118
	1120 1121 5301 5302 5303 5304 5305 1123 1124 1126
	5306 5307 5308 5309 5310 1214 1216 5396 5397 1221
	5401 1222 1224 5406 5407 5409 5410 1227 1228 1229
	1230 5411 5412 5415 5441 5442 5443 5444 5445 5446
	5447 5448 5449 5450 5451 5452 5453 5454 5455 5456
	5457 5458 5459 5460 5461 5462 5463 5464 5465 5466
	5467 5468 5469 5470 5471 5472 5473 5474 5475 5477
	5479 5481 5482 5483 5484 5485 5486 5487 5488 5489
	5490 5491 5495 5496 5497 5498 5499 5500 5502 5503
	5504 5507 5508 5510 5511 5512 5513 5515 5516 5517
	5519 6051 6052 6053 6054 6055 6056 6441 6442 6443
	6444 6445 6836 6837 6838 6839 6840 6789 6790 6448
	6449 6450 6831 6832 6833 6834 6835 6787 6788 6451
	6452 6453 6455 6826 6827 6828 6829 6830 6456 6457
	6458 6459 6460 6821 6822 6823 6824 6825 6461 6462
	6463 6464 6465 6816 6817 6818 6819 6820 6466 6467
	6468 6469 6470 6811 6812 6813 6814 6815 6471 6472
	6473 6474 6475 6806 6807 6808 6809 6810 6477 6478
	6479 6480 6801 6802 6803 6804 6805 6481 6482 6483
	6484 6485 6796 6797 6798 6799 6800 6486 6487 6488
	6489 6490 6791 6792 6793 6794 6795 6491 6492 6493
	6494 6495 6496 6497 6498 6499 6500 6501 6502 6503
	6504 6505 6506 6507 6508 6509 6510 6511 6512 6513
	6514 6515 6517 6518 6519 6520 6521 6522 6523 6524
	6525 6526 6527 6528 6529 6530 6531 6532 6533 6534
	6535 6536 6537 6538 6539 6540 6541 6542 6543 6544
	6545 6546 6547 6548 6549 6550 6551 6552 6553 6554
	6555 6556 6557 6558 6559 6560 6561 6562 6563 6564
	6565 6566 6567 6568 6569 6570 6571 6572 6573 6574
	6575 6576 6577 6578 6579 6580 6581 6582 6583 6584
	6585 6586 6587 6588 6589 6590 6591 6592 6593 6594
	6595 6596 6597 6598 6599 6600 6601 6602 6603 6604
	6605 6606 6607 6608 6609 6610 6611 6612 6613 6614
	6615 6616 6617 6618 6619 6620 6621 6622 6623 6624
	6625 6626 6627 6628 6629 6630 6631 6632 6633 6634
	6635 6636 6637 6638 6639 6640 6641 6642 6643 6644
	6645 6646 6647 6648 6649 6650 6651 6652 6653 6654
	6655 6656 6657 6658 6659 6660 6661 6662 6663 6664
	6665 6666 6667 6668 6669 6670 6671 6672 6673 6674
	6675 6676 6677 6678 6679 6680 6681 6682 6683 6684
	6685 6686 6687 6688 6689 6690 6691 6692 6693 6694
	6695 6696 6697 6698 6699 6700 6701 6702 6703 6704
	6705 6706 6707 6708 6709 6710 6711 6712 6713 6714
	6715 6716 6717 6718 6719 6720 6721 6722 6723 6724
	6725 6726 6727 6728 6729 6730 6731 6732 6733 6734
	6735 6736 6737 6738 6739 6740 6741 6742 6743 6744
	6745 6746 6747 6748 6749 6750 6751 6752 6753 6754
	6755 6756 6757 6758 6759 6760 6761 6762 6763 6764
	6765 6766 6767 6768 6769 6770 6771 6772 6773 6774
	6775 6776 6777 6778 6779 6780 6781 6782 6783 6784
	6785 6786 619 620 621 622 623 1675 1676 1677
	1678 1679 535 536 537 538 539 1577 1578 1725
	1726 1727 540 541 542 543 544 1579 1580 1728
	1729 1730 545 546 547 548 549 1581 1582 1731
	1732 1733 550 551 552 553 554 1583 1584 1734
	1735 1736 555 556 557 558 559 1585 1586 1737
	1738 1739 560 561 562 563 564 1587 1588 1740
	1741 1742 565 566 567 568 569 1589 1590 1743
	1744 1745 570 571 572 573 574 1591 1592 1746
	1747 1748 590 591 592 593 594 1599 1600 1758
	1759 1760 595 596 597 598 599 1601 1602 1761
	1762 1763 600 601 602 603 604 1603 1604 1764
	1765 1766 3611 3612 3613 3614 3615 3616 3617 3618
	3619 3620 677 678 679 680 681 1605 1606 1607
	1608 1609 682 683 684 685 686 1610 1611 1612
	1613 1614 687 688 689 690 691 1615 1616 1617
	1618 1619 692 693 694 695 696 1620 1621 1622
	1623 1624 697 698 699 700 701 1630 1631 1632
	1633 1634 702 703 704 705 706 1625 1626 1627
	1628 1629 707 708 709 710 711 1635 1636 1637
	1638 1639 712 713 714 715 716 1640 1641 1642
	1643 1644 717 718 719 720 721 1645 1646 1647
	1648 1649 722 723 724 725 726 1655 1656 1657
	1658 1659 727 728 729 730 731 1650 1651 1652
	1653 1654 732 733 734 735 736 1660 1661 1662
	1663 1664 3631 3632 3633 3634 3635 3636 3637 3638
	3639 3640 3641 3642 3643 3644 3645 3646 3647 3648
	3649 3650 3651 3652 3653 3654 3655 3656 3657 3658
	3659 3660 3601 3602 3603 3604 3605 3606 3607 3608
	3609 3610 3591 3592 3593 3594 3595 3596 3597 3598
	3599 3600 3581 3582 3583 3584 3585 3586 3587 3588
	3589 3590 3571 3572 3573 3574 3575 3576 3577 3578
	3579 3580 3561 3562 3563 3564 3565 3566 3567 3568
	3569 3570 436 437 438 439 440 441 442 443
	444 445 451 452 453 454 455 456 457 458
	459 460 461 466 467 468 469 470 2260 2261
	2262 2263 2264 2265 2267 2268 2269 2310 2311 2312
	2313 2314 2315 2316 2317 2318 2319 2380 2381 2382
	2383 2384 2385 2386 2388 2389 2440 2441 2442 2443
	2444 2460 2461 2462 2463 2464 2465 2466 2467 2468
	2469 2475 2476 2477 2478 2479 2480 2481 2482 2483
	2484 2485 6919 6937 6952 6954 7014 7063
	979 980 983 3226 3227 3228 3230 3827 3828 3829
	3830 7002 421 471 472 473 474 475 894 897
	913 914 925 926 927 2370 2371 2372 2373 2374
	2375 2376 2377 2378 2379 2410 2412 2413 2414 2415
	2417 2418 2445 2446 2447 2448 2449 2490 2499 5085
	5090 5109 5141 5142 5146 5150 5212 5224 5225 5227
	5231 5232 5234 5235 5283 5285 6046 6408 5440 5952
	6022 6983 5096 
}
arid = { 
	319 322 326 329 335 336 337 338 339 341
	342 343 344 345 346 347 348 349 350 351
	352 353 354 355 884 885 886 887 888 889
	890 891 892 893 895 896 898 899 900 901
	902 903 904 905 906 907 908 909 910 911
	912 915 916 917 918 325 318 333 273 285
	332 334 327 328 330 286 331 340 924 935
	1446 1447 1448 1449 1450 1452 1453 1461 1462 1463
	1464 1465 1466 1471 1472 1473 1474 1475 1476 1477
	1478 1479 1480 1481 1482 1483 1484 1485 1487 1489
	1492 1493 1494 1495 1496 1497 1499 1500 1501 1502
	1503 1504 1505 1506 1507 1508 1509 1510 1512 1513
	1514 1515 2116 2117 2118 2119 2120 2121 2122 2123
	2124 2125 2126 2127 2130 2131 2132 2133 2134 2135
	2136 2137 2138 2139 2140 2141 2142 2143 2144 2146
	2147 2148 2149 2150 2151 2152 2153 2129 2154 2155
	2156 2157 2158 2159 2160 2161 2162 2163 2164 2165
	2166 2167 2168 2169 2170 2171 2172 2173 2174 2175
	2128 3451 3452 3453 3454 3455 3456 3457 3458 3459
	3460 3461 3462 3463 3464 3465 3466 3467 3468 3469
	3470 2112 2113 2114 2115 5106 5107 5108 5110 5084
	3761 3762 3763 3764 3765 3766 3767 3768 3769 3770
	4360 3861 3862 3863 3864 3865 3866 3867 3868 3869
	3870 3871 3872 3873 3874 3875 3876 3877 3878 3879
	3880 3881 3882 3883 3884 3885 3886 3887 3888 3889
	3890 3891 3892 3893 3894 3895 3896 3897 3898 3899
	3900 4061 4062 4063 4064 4065 4066 4067 4068 4069
	4070 4071 4072 4073 4074 4075 4076 4077 4078 4079
	4080 4141 4142 4143 4144 4145 4146 4147 4148 4149
	4150 4151 4152 4153 4154 4155 4156 4157 4158 4159
	4160 4161 4162 4163 4164 4165 4166 4167 4168 4169
	4170 4171 4172 4173 4174 4175 4176 4177 4178 4179
	4180 4181 4182 4183 4184 4185 4186 4187 4188 4189
	4190 4191 4192 4193 4194 4195 4196 4197 4198 4199
	4200 4281 4282 4283 4284 4285 4286 4287 4288 4289
	4290 4291 4292 4293 4294 4295 4296 4297 4298 4299
	4300 4311 4312 4313 4314 4315 4316 4317 4318 4319
	4320 4321 4322 4323 4324 4325 4326 4327 4328 4329
	4330 4331 4332 4333 4334 4335 4336 4337 4338 4339
	4340 4341 4342 4343 4344 4345 4346 4347 4348 4349
	4350 4351 4352 4353 4354 4355 4356 4357 4358 4359
	5131 5133 5134 5135 5136 5137 5138 5139 5140 5211
	5213 5214 5215 5216 5217 5218 5219 5220 5071 5072
	5073 5074 5075 5076 5077 5078 5079 5080 5143 5144
	5145 5147 5148 5149 5221 5222 5223 5226 5228 5229
	5230 5233 5236 5237 5238 5239 5240 5091 5092 5093
	5094 5095 5086 5087 5088 5089 5281 5282 5284 5286
	5287 5288 5289 5290 5066 5067 5068 5069 5070 5097
	5098 5099 5100 5291 5292 5293 5294 5295 5296 5297
	5298 5299 5300 5081 5082 5083 6912 6913 6914 6915
	1062 6061 6062 6063 6064 6065 1498 1491 1488 1486
	1490 1455 1454 1451 1456 1458 1457 1459 1460 1467
	1470 6066 6067 6068 6069 6070 6071 6072 6073 6076
	6077 6078 6079 6080 6082 6083 6084 6085 6086 6087
	6088 6089 6090 6091 6092 6093 6094 6095 6096 6097
	6098 6099 6100 6101 6102 6103 6104 6105 6106 6107
	6108 6109 6110 6111 6112 6113 6114 6115 6116 6117
	6118 6119 6120 6121 6122 6123 6124 6125 6126 6127
	6128 6129 6130 6133 6135 6136 6137 6138 6139 6140
	6142 6143 6144 6145 6146 6147 6148 6149 6150 6151
	6152 6153 6154 6155 6156 6157 6158 6159 6160 6161
	6162 6164 6165 6167 6168 6169 6170 6171 6172 6173
	6174 6175 6176 6177 6179 6180 6181 6182 6183 6184
	6185 6186 6187 6188 6189 6190 6191 6192 6193 6194
	6195 6196 6197 6198 6199 6200 6201 6202 6203 6204
	6205 6206 6207 6208 6209 6210 6211 6212 6213 6214
	6215 6216 6217 6218 6219 6220 6221 6222 6223 6224
	6225 6226 6227 6228 6229 6230 6231 6232 6233 6234
	6235 6236 6237 6238 6239 6240 6241 6242 6243 6244
	6245 6246 6247 6248 6249 6250 6251 6252 6254 6255
	6256 6257 6258 6259 6260 6261 6262 6263 6264 6265
	6266 6267 6268 6269 6270 6271 6272 6273 6274 6275
	6276 6277 6278 6279 6280 6281 6282 6283 6284 6285
	6286 6287 6288 6289 6290 6291 6292 6293 6294 6295
	6296 6297 6298 6299 6300 6301 6302 6303 6304 6305
	6306 6307 6308 6309 6310 6311 6312 6313 6314 6315
	6316 6317 6318 6319 6320 6321 6322 6323 6324 6325
	6326 6327 6328 6329 6330 6331 6332 6333 6334 6335
	6336 6337 6338 6339 6340 6341 6342 6343 6344 6345
	6346 6347 6348 6349 6350 6351 6352 6353 6354 6355
	6356 6357 6358 6359 6360 6361 6362 6363 6364 6365
	6366 6367 6368 6369 6370 6371 6372 6373 6374 6375
	6376 6377 6378 6379 6380 6381 6382 6383 6384 6385
	6386 6388 6389 6390 6391 6392 6393 6394 6395 6396
	6397 6398 6399 6400 6401 6402 6403 6404 6405 6406
	6407 6409 6410 6411 6412 6413 6414 6415 6416 6417
	6418 6419 6420 6421 6422 6423 6425 6426 6428 6429
	6430 6431 6432 6433 6434 6436 6437 6439 6440 1009
	1010 1011 1012 1013 3256 3257 3258 3259 3260 1014
	1015 1016 1017 1018 3261 3262 3263 3264 3265 1019
	1020 1021 1022 1023 3266 3267 3268 3269 3270 1024
	1025 1026 1027 1028 3271 3272 3273 3274 3275 1029
	1030 1031 1032 1033 3276 3277 3278 3279 3280 1034
	1035 1036 1037 1038 3281 3282 3283 3284 3285 4001
	4002 4003 4004 4005 4006 4007 4008 4009 4010 4011
	4012 4013 4014 4015 4016 4017 4018 4019 4020 4031
	4032 4033 4034 4035 4036 4037 4038 4039 4040 4041
	4042 4043 4044 4045 4046 4047 4048 4049 4050 4051
	4052 4053 4054 4055 4056 4057 4058 4059 4060 4081
	4082 4083 4084 4085 4086 4087 4088 4089 4090 4091
	4092 4093 4094 4095 4096 4097 4098 4099 4100 4101
	4102 4103 4104 4105 4106 4107 4108 4109 4110 4111
	4112 4113 4114 4115 4116 4117 4118 4119 4120 1044
	1045 1046 1047 1048 3291 3292 3293 3294 3295 1049
	1050 1051 1052 1053 3296 3297 3298 3299 3300 3301
	3302 3303 3304 3305 3306 3307 3308 3309 3310 4121
	4122 4123 4124 4125 4126 4127 4128 4129 4130 4131
	4132 4133 4134 4135 4136 4137 4138 4139 4140 4201
	4202 4203 4204 4205 4206 4207 4208 4209 4210 4211
	4212 4213 4214 4215 4216 4217 4218 4219 4220 4221
	4222 4223 4224 4225 4226 4227 4228 4229 4230 4231
	4232 4233 4234 4235 4236 4237 4238 4239 4240 4241
	4242 4243 4244 4245 4246 4247 4248 4249 4250 4251
	4252 4253 4254 4255 4256 4257 4258 4259 4260 4261
	4262 4263 4264 4265 4266 4267 4268 4269 4270 4271
	4272 4273 4274 4275 4276 4277 4278 4279 4280 4301
	4302 4303 4304 4305 4306 4307 4308 4309 4310 609
	610 611 613 1666 1670 1671 1672 1673 1674 614
	615 616 617 618 648 1701 1702 1703 1704 624
	625 626 627 628 1680 1681 1682 1683 1684 629
	630 631 632 633 1685 1686 1687 1688 1689 634
	635 636 637 638 1690 1691 1692 1693 1694 639
	640 641 642 643 1695 1696 1697 1698 1699 644
	645 646 647 1700 1710 1711 1712 1713 1714 649
	650 651 652 653 1705 1706 1707 1708 1709 654
	655 656 657 658 612 1665 1667 1668 1669 659
	660 661 662 663 1715 1716 1717 1718 1719 664
	665 666 667 668 1720 1721 1722 1723 1724 2636
	2637 2638 2639 2640 2641 2642 2643 2644 2645 3551
	3552 3553 3554 3555 3556 3557 3558 3559 3560 3541
	3542 3543 3544 3545 3546 3547 3548 3549 3550 225
	216 214 215 220 219 228 218 217 226 221
	227 1551 2006 2007 1552 2005 2010 2009 1553 1554
	1558 1555 2008 2013 2011 416 417 418 419 420
	422 423 424 425 920 939 944 2350 2351 2352
	2353 2354 2355 2356 2357 2358 2359 2360 2361 2362
	2363 2364 2365 2366 2367 2368 2369 2387 2390 2391
	2392 2393 2394 2395 2396 2397 2398 2399 2400 2401
	2402 2403 2404 2405 2406 2407 2408 2409 2411 2416
	2419 2420 2421 2422 2423 2424 2425 2426 2427 2428
	2429 2430 2431 2432 2433 2434 2435 2436 2437 2438
	2439 2491 2492 2493 2494 2495 2496 2497 2498 5051
	5104 5123 5125 5130 5177 5182 5198 5206 5207 5208
	5209 5210 5243 5244 5245 5246 5251 5252 5253 5263
	5266 5269 5277 5279 5575 6476 6975 1039 1040 1041
	1042 1043 1169 1293 2266 3286 3287 3288 3289 3290
	3771 5355 5478 5670 5681 5687 5700 5702 5703 5712
	5713 5717 5723 5724 5725 5726 5727 5728 5729 5730
	5732 5733 5734 5735 5736 5737 5738 5739 5740 5744
	5745 5746 5747 5750 5751 5752 5753 5754 5755 5756
	5757 5758 5759 5760 5794 5797 5798 5800 6981 7105
	7107 7108 7109 7208 7239 7241 7242 7243 7256 7257
	7259 7261 7262 7264 7265 7266 7267 7268 7269 7272
	7273 7274 7284 7321 7322 7323 7324 3205 5501 6044
}
arctic = { 
	2666 2667 2668 2669 2670 2671 2672 2673 2674 2675
	3521 3522 3523 3524 3525 3526 3527 3528 3529 3530
	3501 3502 3503 3504 3505 3506 3507 3508 3509 3510
	2635 3511 3512 3513 3514 3515 3516 3517 3518 3519
	3520 3491 3492 3493 3494 3495 3496 3497 3498 3499
	3500 3481 3482 3483 3484 3485 3486 3487 3488 3489
	3490 491 492 493 494 495 2515 2516 2517 2518
	2519 496 497 498 499 500 2520 2521 2522 2523
	2524 501 502 503 504 505 2525 2526 2527 2528
	2529 506 507 508 509 510 2530 2531 2532 2533
	2534 511 512 513 514 515 2535 2536 2537 2538
	2539 516 517 518 519 520 2540 2541 2542 2543
	2544 2545 2546 2547 2548 2549 2550 2551 2552 2553
	2554 2595 2596 2597 2598 2599 2600 2601 2602 2603
	2604 2605 2606 2607 2608 2609 2610 2611 2612 2613
	2614 356 366 367 368 369 1567 1568 2191 2192
	2193 363 364 365 379 387 1569 1570 2188 2189
	2190 372 373 374 375 376 1573 1574 2197 2198
	2199 377 378 383 384 388 1575 1576 2200 2201
	2202 2270 2271 2272 2273 2274 2275 2276 2277 2278
	2279 2280 2281 2282 2283 2284 2285 2286 2287 2288
	2289 2290 2291 2292 2293 2294 2295 2296 2297 2298
	2299 2320 2321 2322 2323 2324 2325 2326 2327 2328
	2329 2330 2331 2332 2333 2334 2335 2336 2337 2338
	2339 446 447 448 449 450 2470 2471 2472 2473
	2474 462 463 464 465 2486 2487 2488 2489 486
	487 488 489 490 2510 2511 2512 2513 2514 380
	381 382 385 386 1571 1572 2194 2195 2196 360
	370 371 389 394 2203 2204 2205 2206 2207 2300
	2301 2302 2303 2304 2305 2306 2307 2308 2309 2340
	2341 2342 2343 2344 2345 2346 2347 2348 2349 357
	358 361 359 362 1565 1566 2185 2186 2187 2230
	2231 2232 2233 2234 2235 2236 2237 2238 2239 2240
	2241 2242 2243 2244 2245 2246 2247 2248 2249 2250
	2251 2252 2253 2254 2255 2256 2257 2258 2259 426
	427 428 429 430 2450 2451 2452 2453 2454 431
	432 433 434 435 2455 2456 2457 2458 2459 
}
mild_winter = { 
	969 970 971 972 973 974 975 976 977 978
	981 982 984 985 986 987 988 989 990 991
	992 993 994 995 996 997 998 999 1000 1001
	1002 1003 1004 1005 1006 1007 1008 1052 1053 1178
	1179 1181 2676 2841 2842 2843 2844 2845 2846 2847
	2848 2849 2850 2851 2852 2853 2854 2855 2856 2857
	2858 2859 2860 2861 2862 2863 2864 2865 2866 2867
	2868 2869 2870 2871 2872 2873 2874 2875 2876 2877
	2878 2879 2880 2881 2882 2883 2884 2885 2886 2887
	2888 2889 2890 2891 2892 2893 2894 2895 2896 2897
	2898 2899 2900 2901 2902 2903 2904 2905 2906 2907
	2908 2909 2910 2911 2912 2913 2914 2915 2916 2917
	2918 2919 2920 2951 2952 2953 2954 2955 2956 2957
	2958 2959 2960 2961 2962 2963 2964 2965 2966 2967
	2968 2969 2970 2971 2972 2973 2974 2975 2976 2977
	2978 2979 2980 2981 2982 2983 2984 2985 2986 2987
	2988 2989 2990 3216 3217 3218 3219 3220 3221 3222
	3223 3224 3225 3229 3231 3232 3233 3234 3235 3236
	3237 3238 3239 3240 3241 3242 3243 3244 3245 3246
	3247 3248 3249 3250 3251 3252 3253 3254 3255 3298
	3299 3300 3301 3304 3305 3306 3421 3422 3423 3424
	3425 3426 3427 3428 3429 3430 3431 3432 3433 3434
	3435 3436 3437 3438 3439 3440 3772 3773 3774 3775
	3776 3777 3778 3779 3780 3781 3782 3783 3784 3785
	3786 3787 3788 3789 3790 3791 3792 3793 3794 3795
	3796 3797 3798 3800 3801 3802 3803 3804 3805 3806
	3807 3808 3809 3810 3811 3812 3813 3814 3815 3816
	3817 3818 3819 3820 3821 3822 3823 3824 3825 3826
	3831 3832 3833 3834 3835 3836 3837 3838 3839 3840
	3841 3842 3843 3844 3845 3846 3847 3848 3849 3850
	3851 3852 3853 3854 3855 3856 3857 3858 3859 3860
	3901 3902 3903 3904 3905 3906 3907 3908 3909 3910
	3911 3912 3913 3914 3915 3916 3917 3918 3919 3920
	3921 3922 3923 3924 3925 3926 3927 3928 3929 3930
	3931 3932 3933 3934 3935 3936 3937 3938 3939 3940
	3941 3942 3943 3944 3945 3946 3947 3948 3949 3950
	3951 3952 3953 3954 3955 3956 3957 3958 3959 3960
	3961 3962 3963 3964 3965 3966 3967 3968 3969 3970
	3971 3972 3973 3974 3975 3976 3977 3978 3979 3980
	3981 3982 3983 3984 3985 3986 3987 3988 3991 3992
	3993 3994 3995 3996 3997 3998 3999 4000 4021 4022
	4023 4024 4025 4026 4027 5362 5363 5365 5378 5379
	5423 5700 5702 5703 5712 5713 5717 5720 5723 5724
	5725 5726 5727 5728 5729 5730 5732 5733 5734 5735
	5736 5737 5738 5739 5740 5742 5743 5744 5745 5746
	5747 5748 5749 5750 5751 5752 5753 5754 5755 5756
	5757 5758 5759 5760 5761 5762 5763 5764 5765 5766
	5767 5768 5769 5770 5771 5772 5773 5776 5778 5791
	5792 5793 5794 5796 5797 5798 5800 5801 5802 5804
	5806 5807 5822 5823 5824 5826 5827 5828 5847 5848
	5849 5851 5852 5853 5854 5858 5859 5860 5861 5869
	5870 5873 5881 5882 5884 5886 5889 5890 5907 5908
	5910 5927 5929 5930 5931 5932 5933 5940 5944 5948
	5949 5950 5971 5972 5973 5974 5975 5976 5978 5979
	6001 6002 6003 6004 6005 6011 6012 6013 6014 6015
	6016 6018 6019 6020 6021 6023 6024 6025 6026 6027
	6028 6029 6030 3394 3395 3400 3406 3407 3408 3409
	3410 3411 3412 3413 3415 3416 3417 3418 3419 3420
	6446 6447 6516 1049 1050 1051 1076 3296 3297 3302
	3303 3307 3308 3309 3310 6062 6063 6097 6227 6228
	6454 1119 1169 1183 1187 1189 1213 1215 1243 1244
	1246 1255 1293 1452 1454 1455 1456 1457 1458 1459
	1460 1461 1462 1463 1464 1465 1466 1467 1470 1471
	1472 1474 1475 1486 1487 1489 1490 1494 2266 5307
	5355 5366 5478 5624 5629 5630 5632 5636 5638 5642
	5643 5644 5648 5650 5653 5654 5656 5657 5658 5660
	5670 5671 5675 5676 5681 5687 5781 5784 5831 5832
	5833 5834 5835 5836 5837 5840 5911 5913 5915 5959
	6035 6045 6048 6067 6068 6069 6070 6071 6072 6073
	6076 6077 6078 6079 6080 6082 6083 6084 6085 6086
	6087 6088 6089 6090 6101 6102 6105 6123 6137 6154
	6156 6158 6160 6161 6162 6164 6165 6169 6171 6172
	6173 6174 6175 6176 6177 6179 6181 6182 6184 6185
	6186 6187 6188 6189 6190 6193 6195 6197 6198 6199
	6200 6201 6202 6203 6204 6205 6206 6207 6208 6209
	6210 6211 6212 6213 6214 6215 6216 6217 6218 6221
	6222 6231 6234 6241 6242 6243 6244 6245 6246 6247
	6248 6249 6250 6251 6252 6255 6256 6257 6258 6259
	6260 6261 6262 6263 6264 6265 6266 6267 6268 6269
	6270 6271 6272 6273 6274 6275 6276 6277 6278 6279
	6280 6281 6282 6283 6286 6287 6290 6291 6292 6293
	6294 6295 6296 6297 6298 6299 6300 6301 6303 6341
	6434 7105 7107 7108 7109 7208 7239 7241 7242 7256
	7257 7259 7261 7262 7264 7265 7266 7267 7268 7269
	7272 7273 7274 7284
	3398 3405 4005 5939 6065 
}
normal_winter = { 
	1264 1265 1266 1267 1268 1269 1270 1271 1272 1273
	1274 1275 1276 1277 1278 1279 1280 1281 1282 1283
	1284 1285 1286 1287 1288 1289 1290 1291 1292 1294
	1295 1296 1297 1298 1299 1300 1301 1302 1303 1304
	1305 1306 1307 1308 1309 1310 1311 1312 1313 1314
	1315 1316 1317 1318 1319 1320 1321 1322 1323 1324
	1325 1326 1327 1328 1329 1330 1331 1332 1333 1334
	1335 1336 1337 1338 1339 1340 1341 1342 1343 1344
	1345 1346 1347 1348 1349 1350 1351 1352 1353 1354
	1355 1356 1357 1358 1359 1360 1361 1362 1363 1368
	1369 1370 1371 1372 1373 1374 1375 1376 1377 1378
	1379 1380 1381 1382 1383 1384 1385 1386 1387 1388
	1389 1390 1391 1392 1393 1394 1395 1396 1397 1398
	1399 1400 1401 1402 1403 1404 1405 1406 1407 1408
	1409 1410 1411 1412 1413 1414 1415 1416 1417 1418
	1419 1420 1421 1422 1423 1424 1425 1426 1427 1428
	1429 1430 1431 1432 2991 3001 3011 3021 3031 3041
	3051 3061 3071 3081 3091 3101 3111 3121 3131 3141
	3142 3143 3144 3145 3146 3147 3148 3149 3150 3151
	3152 3153 3154 3155 3156 3157 3158 3159 3160 3161
	3162 3163 3164 3165 3166 3167 3168 3169 3170 3171
	3172 3173 3174 3175 3176 3177 3178 3179 3180 3181
	3182 3183 3184 3185 3186 3187 3188 3189 3190 2691
	2701 2702 2703 2704 2705 2706 2707 2708 2709 2710
	2711 2721 2722 2723 2724 2725 2726 2727 2728 2729
	2730 2731 2741 2742 2743 2744 2745 2746 2747 2748
	2749 2750 2751 2752 2753 2754 2755 2756 2757 2758
	2759 2760 2761 2771 2772 2773 2774 2775 2776 2777
	2778 2779 2780 2781 2791 2792 2793 2794 2795 2796
	2797 2798 2799 2800 2801 2811 2821 2822 2823 2824
	2825 2826 2827 2828 2829 2830 2831 2832 2833 2834
	2835 2836 2837 2838 2839 2840 6841 6842 6843 6844
	6845 6846 6847 6848 6849 6850 6851 6852 6853 6854
	6855 6856 6857 6858 6859 6860 6861 6862 6863 6864
	6865 6866 6867 6868 6869 6870 6871 6872 6873 6874
	6875 6876 6877 6878 6879 6880 6881 6882 6883 6884
	6885 6886 6887 6888 6889 6890 6891 6892 6893 6894
	6895 6896 6897 6898 6899 6900 6901 6902 6903 6904
	6905 6906 6907 6908 6909 6910 6911 6916 6917 6918
	6920 6921 6922 6923 6924 6925 6926 6927 6928 6929
	6930 6931 6932 6933 6934 6935 6936 6938 6939 6940
	6941 6942 6943 6944 6945 6946 6947 6948 6949 6950
	6951 6953 6955 6956 6957 6958 6959 6960 6961 6962
	6963 6964 6965 6966 6967 6968 6969 6970 6971 6972
	6973 6974 6976 6977 6978 6979 6980 6982 6984 6985
	6986 6987 6988 6989 6990 6991 6992 6993 6994 6995
	6996 6997 6998 6999 7000 7001 7003 7004 7005 7006
	7007 7008 7009 7010 7011 7012 7013 7015 7016 7017
	7018 7019 7020 7021 7022 7023 7024 7025 7026 7027
	7028 7029 7030 7031 7032 7033 7034 7035 7036 7037
	7038 7039 7040 7041 7042 7043 7044 7045 7046 7047
	7048 7049 7050 7051 7052 7053 7054 7055 7056 7057
	7058 7059 7060 7061 7062 7064 7065 7066 7067 7068
	7069 7070 7071 7072 7073 7074 7075 7076 7077 7078
	7079 7080 7081 7082 7083 7084 7085 7086 7087 7088
	7089 7090 7091 7092 7093 7094 7095 7096 7097 7098
	7099 7100 7101 7102 7103 7104 7106 7110 7111 7112
	7113 7114 7115 7116 7117 7118 7119 7120 7121 7122
	7123 7124 7125 7126 7127 7128 7129 7130 7131 7132
	7133 7134 7135 7136 7137 7138 7139 7140 7141 7142
	7143 7144 7145 7146 7147 7148 7149 7150 7151 7152
	7153 7154 7155 7156 7157 7158 7159 7160 7161 7162
	7163 7164 7165 7166 7167 7168 7169 7170 7171 7172
	7173 7174 7175 7176 7177 7178 7179 7180 7181 7182
	7183 7184 7185 7186 7187 7188 7189 7190 7191 7192
	7193 7194 7195 7196 7197 7198 7199 7200 7201 7202
	7203 7204 7205 7206 7207 7209 7210 7211 7212 7213
	7214 7215 7216 7217 7218 7219 7220 7221 7222 7223
	7224 7225 7226 7227 7228 7229 7230 7231 7232 7233
	7234 7235 7236 7237 7238 7240 7244 7245 7246 7247
	7248 7249 7250 7251 7252 7253 7254 7255 7258 7260
	7263 7270 7271 7275 7276 7277 7278 7279 7280 7281
	7282 7283 7285 7286 7287 7288 7289 7290 7291 7292
	7293 7294 7295 7296 7297 7298 7299 7300 7301 7302
	7303 7304 7305 7306 7307 7308 7309 7310 7311 7312
	7313 7314 7315 1009 1010 1011 1012 1013 3256 3257
	3258 3259 3260 1014 1015 1016 1017 1018 3261 3262
	3263 3264 3265 1019 1020 1021 1022 1023 3266 3267
	3268 3269 3270 1024 1025 1026 1027 1028 3271 3272
	3273 3274 3275 1029 1030 1031 1032 1033 3276 3277
	3278 3279 3280 1034 1035 1036 1037 1038 3282 3283
	3284 3285 4001 4002 4003 4004 4006 4007 4008 4009
	4010 4011 4012 4013 4014 4015 4016 4017 4018 4019
	4020 4031 4032 4033 4034 4035 4036 4037 4038 4039
	4040 4041 4042 4043 4044 4045 4046 4047 4048 4049
	4050 4051 4052 4053 4054 4055 4056 4057 4058 4059
	4060 4081 4082 4083 4084 4085 4086 4087 4088 4089
	4090 4091 4092 4093 4094 4095 4096 4097 4098 4099
	4100 4101 4102 4103 4104 4105 4106 4107 4108 4109
	4110 4111 4112 4113 4114 4115 4116 4117 4118 4119
	4120 2555 2556 2557 2558 2559 2560 2561 2562 2563
	2564 2565 2566 2567 2568 2569 2570 2571 2572 2573
	2574 2575 2576 2577 2578 2579 2580 2581 2582 2583
	2584 2585 2586 2587 2588 2589 2590 2591 2592 2593
	2594 481 482 483 484 485 2505 2506 2507 2508
	2509 476 477 478 479 480 2500 2501 2502 2503
	2504 390 391 392 393 395 2215 2216 2217 2218
	2219 2220 2221 2222 2223 2224 2225 2226 2227 2228
	2229 411 412 413 414 415 1536 1537 2212 2213
	2214 406 407 408 409 410 1535 2208 2209 2210
	2211 2656 2657 2658 2659 2660 2661 2662 2663 2664
	2665 793 794 795 796 797 798 1538 1801 1802
	1803 3471 3472 3473 3474 3475 3476 3477 3478 3479
	3480 799 805 1539 1540 1548 1550 1818 1819 1820
	1821 1541 1542 1543 1544 1545 1813 1814 1815 1816
	1817 800 801 802 803 804 1549 1804 1805 1806
	1807 806 807 808 1546 1547 1808 1809 1810 1811
	1812 949 950 951 952 953 3196 3197 3198 3199
	3200 954 955 956 957 958 3201 3202 3203 3204
	959 960 961 962 963 3206 3207 3208 3209 3210
	964 965 966 967 968 3211 3212 3213 3214 3215
	3311 3312 3313 3314 3315 3316 3317 3318 3319 3320
	3321 3322 3323 3324 3325 3326 3327 3328 3329 3330
	3331 3332 3333 3334 3335 3336 3337 3338 3339 3340
	3341 3342 3343 3344 3345 3346 3347 3348 3349 3350
	3351 3352 3353 3354 3355 3356 3357 3358 3359 3360
	3361 3362 3363 3364 3365 3366 3367 3368 3369 3370
	3371 3372 3373 3374 3375 3376 3377 3378 3379 3380
	3381 3382 3383 3384 3385 3386 3387 3388 3389 3390
	3391 3392 3393 3396 3397 3399 3401 3402 3403 3404
	2812 2813 2814 2815 2806 2807 2808 2809 2810 2921
	2922 2923 2924 2925 2816 2817 2818 2819 2820 2931
	2932 2933 2934 2935 2926 2927 2928 2929 2930 3002
	3003 3004 3005 2996 2997 2998 2999 3000 3082 3083
	3084 3085 3076 3077 3078 3079 3080 3092 3093 3094
	3095 3086 3087 3088 3089 3090 3112 3113 3114 3115
	3106 3107 3108 3109 3110 3122 3123 3124 3125 3116
	3117 3118 3119 3120 3132 3133 3134 3135 3126 3127
	3128 3129 3130 3136 3137 3138 3139 3140 3191 3192
	3193 3194 3195 3072 3073 3074 3075 3070 3069 3067
	3066 3064 3063 3065 3060 3062 3058 3057 3059 3039
	3040 3038 3037 3036 3045 3044 3042 3043 3035 3032
	3034 3033 3030 3029 3028 3027 3026 3020 3019 3016
	3018 3017 3015 3014 3013 3012 3008 3009 3010 3006
	3007 2948 2994 2995 2993 2992 2950 2945 2947 2946
	2802 2803 2804 2790 2786 2805 2770 2769 2783 2768
	2766 2716 2767 2718 2717 2719 2720 2732 2733 2734
	2735 3068 3105 3104 3103 3102 3096 3097 3099 3100
	3098 3048 3049 3050 3056 3052 3054 3055 3053 3046
	3047 3025 3024 3023 3022 2949 2936 2943 2944 2942
	2937 2938 2941 2939 2940 2739 2740 2738 2737 2736
	2763 2765 2762 2764 2699 2700 2698 2713 2697 2715
	2712 2714 2696 2694 2695 2693 2692 7320 7317 7316
	7318 7319 2785 2784 2782 2788 2787 2789 3989 3990
	4028 4029 4030 1122 4669 5414 5476 5480 5501 5505
	5506 5509 5877 5891 5892 5895 5896 5897 6224 6429
	1180 1184 1192 1193 1194 1195 1196 1217 1237 1238
	1240 1241 1469 5361 5376 5377 5380 5421 5422 5424
	5425 5568 5777 5795 5799 5803 5805 5808 5809 5810
	5811 5812 5813 5814 5815 5818 5820 5841 5842 5843
	5844 5845 5846 5850 5862 5863 5864 5865 5866 5867
	5868 5871 5872 5874 5875 5876 5878 5879 5880 5885
	5887 5888 5893 5898 5899 5900 5901 5902 5905 5914
	5921 5922 5923 5924 5925 5926 5934 5935 5936 5937
	5938 5941 5943 5946 6074 6075 6163 6166 6178 6253
	1231 1468 5408 5413 6081 462 463 464 465 2486
	2487 2488 2489 3414 3799 
}
severe_winter = { 
	491 492 493 494 495 2515 2516 2517 2518 2519
	496 497 498 499 500 2520 2521 2522 2523 2524
	501 502 503 504 505 2525 2526 2527 2528 2529
	506 507 508 509 510 2530 2531 2532 2533 2534
	511 512 513 514 515 2535 2536 2537 2538 2539
	516 517 518 519 520 2540 2541 2542 2543 2544
	2545 2546 2547 2548 2549 2550 2551 2552 2553 2554
	2595 2596 2597 2598 2599 2600 2601 2602 2603 2604
	2605 2606 2607 2608 2609 2610 2611 2612 2613 2614
	356 366 367 368 369 1567 1568 2191 2192 2193
	363 364 365 379 387 1569 1570 2188 2189 2190
	372 373 374 375 376 1573 1574 2197 2198 2199
	377 378 383 384 388 1575 1576 2200 2201 2202
	2270 2271 2272 2273 2274 2275 2276 2277 2278 2279
	2280 2281 2282 2283 2284 2285 2286 2287 2288 2289
	2290 2291 2292 2293 2294 2295 2296 2297 2298 2299
	2320 2321 2322 2323 2324 2325 2326 2327 2328 2329
	2330 2331 2332 2333 2334 2335 2336 2337 2338 2339
	446 447 448 449 450 2470 2471 2472 2473 2474
	2635 486 487 488 489 490 2510 2511 2512 2513
	2514 380 381 382 385 386 1571 1572 2194 2195
	2196 360 370 371 389 394 2203 2204 2205 2206
	2207 2300 2301 2302 2303 2304 2305 2306 2307 2308
	2309 2340 2341 2342 2343 2344 2345 2346 2347 2348
	2349 357 358 361 359 362 1565 1566 2185 2186
	2187 2230 2231 2232 2233 2234 2235 2236 2237 2238
	2239 2240 2241 2242 2243 2244 2245 2246 2247 2248
	2249 2250 2251 2252 2253 2254 2255 2256 2257 2258
	2259 426 427 428 429 430 2450 2451 2452 2453
	2454 431 432 433 434 435 2455 2456 2457 2458
	2459 2666 2667 2668 2669 2670 2671 2672 2673 2674
	2675 3521 3522 3523 3524 3525 3526 3527 3528 3529
	3530 3501 3502 3503 3504 3505 3506 3507 3508 3509
	3510 3511 3512 3513 3514 3515 3516 3517 3518 3519
	3520 3491 3492 3493 3494 3495 3496 3497 3498 3499
	3500 3481 3482 3483 3484 3485 3486 3487 3488 3489
	3490
}
impassable = { 
	309 310 311 312 313 314 315 316 317 396
	397 398 399 400 401 402 403 404 405 526
	527 528 529 530 532 533 534 773 774 775
	776 777 778 779 780 781 782 783 784 785
	786 787 788 789 1061 1436 1437 1438 1439 1440
	1441 1442 1443 1444 1445 1518 1519 1522 1523 1524
	1526 1527 1528 1529 1530 1531 1532 1533 2003 2004
	1985 2677 2676 2679 7328 7330 7332 7334 7335 7336
	7337 7338 7340 7341 7342 7343 7344 7345 7346 7347
	7348 7349 7350 7351 7352 7353 7354 7355 7356 7357
	7358 7359 7360 7365 7366 7367 7368 7369 7370 7371
	7372 7373 7578 7579 7580 7581 7582 7583 7584 7585
	7586 7587 7588 7589 7395 7396 7397 7398 7399 7400
	7401 7402 7403 7404 7407 7408 7409 7428 7429 7430
	7431 7432 7433 7434 7435 7436 7437 7438 7442 7443
	7444 7445 7446 7448 7449 7450 7451 7452 7453 7454
	7455 7456 7457 7458 7459 7460 7461 7462 7463 7464
	7472 7503 7504 7505 7506 7507 7508 7509 7510 7511
	7512 7513 7514 7515 7516 7517 7518 7519 
}
mild_monsoon = { 
	809 810 811 812 813 814 815 816 817 818
	819 820 821 822 823 320 321 323 324 869
	871 873 830 829 831 832 1063 1064 1065 1066
	1067 1068 1069 1073 1070 1071 1072 1074 1078 3441
	3442 2106 2107 2108 2109 2110 2111 2145 2176 2177
	2178 2179 2180 2181 2182 2183 2184 4851 4852 4853
	4855 4901 4946 4947 4948 4949 4950 4951 4952 4953
	4954 4955 4902 4903 4861 4862 4863 4864 4865 4846
	4847 4848 4850 4904 4905 3443 3444 3445 3446 3447
	3448 3449 3450 4845 4844 4843 4842 4841 5046 5047
	5048 5049 5050 5052 5053 5054 5055 1214 1216 5396
	5397 1221 5401 1227 1228 1229 5411 5412 5415 5491
	5495 5496 5497 5498 5499 5500 5502 5503 5504 5507
	5508 5510 5511 5512 5513 5515 5516 5517 5519 6051
	6052 6053 6054 6055 6056 6057 6058 6059 6441 6442
	6443 6444 6445 6451 6452 6453 6455 6448 6449 6450
	6491 6492 6493 6494 6495 6496 6497 6498 6499 6500
	6501 6502 6503 6504 6505 6506 6507 6508 6509 6511
	6512 6513 6514 6515 6517 6518 6519 6520 6521 6522
	6523 6524 6525 6526 6527 6528 6529 6530 6531 6532
	6533 6534 6535 6536 6537 6538 6540 6591 6592 6593
	6594 6595 6596 6597 6598 6599 6600 6601 6602 6603
	6604 6605 6606 6607 6608 6609 6610 575 576 577
	578 579 1593 1594 1749 1750 1751 580 581 582
	583 584 1595 1596 1752 1753 1754 585 586 587
	588 589 1597 1598 1755 1756 1757 3601 3602 3603
	3604 3605 3606 3607 3608 3609 3610 3591 3592 3593
	3594 3595 3596 3597 3598 3599 3600 3581 3582 3583
	3584 3585 3586 3587 3588 3589 3590 3571 3572 3573
	3574 3575 3576 3577 3578 3579 3580 3561 3562 3563
	3564 3565 3566 3567 3568 3569 3570 979 980 983
	1080 1222 1224 3226 3227 3228 3230 3827 3828 3829
	3830 5406 5407 5410 6489 6541 6542 6543 6545 6546
	6549 6550 6551 6552 6562 6563 6564 6565 6566 6567
	6568 6569 6570 6571 6572 6573 6581 6582 6583 6584
	6587 6611 6612 6614 6615 6622 6633 7002 825 826
	868 880 881 882 894 2413 2445 2448 2449 4856
	4896 4899 4912 4913 4914 4915 4976 4977 4978 4979
	4981 4982 4984 4994 4996 4997 5000 5001 5002 5003
	5004 5005 5006 5009 5010 5011 5016 5019 5020 5021
	5024 5025 5034 5036 5038 5040 5041 5042 5045 5056
	5057 5058 5059 5060 5061 5062 5063 5064 5141 5142
	5146 5171 5205 5224 5225 5231 5232 5235 5248 5249
	5250 5487 6046 5234 5310 5409 5430 5440 5474 5477
	5479 5485 5486 5490 5928 6022 
}
normal_monsoon = { 
	246 247 248 249 250 251 252 253 254 255
	256 257 258 259 260 261 262 263 264 265
	266 267 268 269 270 271 272 274 275 276
	277 278 279 280 281 282 283 284 287 288
	289 290 291 292 293 294 295 296 297 298
	299 300 301 302 303 304 305 306 307 308
	824 827 828 940 834 835 836 837 838 839
	840 841 842 843 844 845 941 942 943 846
	847 848 849 850 851 852 853 854 855 856
	857 858 859 860 861 862 863 864 865 866
	867 874 875 876 877 878 879 883 919 921
	922 923 928 929 930 931 948 932 933 934
	936 937 1081 1082 1083 1112 1085 1086 1087 1088
	1099 1089 5121 1090 1091 1097 1109 1079 1094 1095
	1093 1111 1092 1098 1100 1110 1113 1101 1104 1106
	1107 1108 1075 1096 1103 1105 5122 1102 5124 4661
	4662 4663 4664 4665 4666 4667 4668 4670 4671 4672
	4673 4674 4675 4676 4677 4678 4679 4680 4681 4682
	4683 4684 4685 4686 4687 4688 4689 4690 4691 4692
	4693 4694 4695 4696 4697 4698 4699 4700 4701 4702
	4703 4704 4705 4706 4707 4708 4709 4710 4711 4712
	4713 4714 4715 4716 4717 4718 4719 4720 4721 4722
	4723 4724 4725 4726 4727 4728 4729 4730 4731 4732
	4733 4734 4735 4736 4737 4738 4739 4740 4741 4742
	4743 4744 4745 4746 4747 4748 4749 4750 4751 4752
	4753 4754 4755 4756 4757 4758 4759 4760 4761 4762
	4763 4764 4765 4766 4767 4768 4769 4770 4771 4772
	4773 4774 4775 4776 4777 4778 4779 4780 4781 4782
	4783 4784 4785 4786 4787 4788 4789 4790 4791 4792
	4793 4794 4795 4796 4797 4798 4799 4800 4801 4802
	4803 4804 4805 4806 4807 4808 4809 4810 4811 4812
	4813 4814 4815 4816 4817 4818 4819 4820 4821 4822
	4823 4824 4825 4826 4827 4828 4829 4830 4831 4832
	4833 4834 4835 4836 4837 4838 4839 4840 4601 4602
	4603 4604 4605 4606 4607 4608 4609 4610 4611 4612
	4613 4614 4615 4616 4617 4618 4619 4620 4621 4622
	4623 4624 4625 4626 4627 4628 4629 4630 4631 4632
	4633 4634 4635 4636 4637 4638 4639 4640 4641 4642
	4643 4644 4645 4646 4647 4648 4649 4650 4651 4652
	4653 4654 4655 4656 4657 4658 4659 4660 5043 5044
	4857 4858 4859 4860 4866 4867 4868 4869 4870 4871
	4872 4873 4874 4875 4876 4877 4878 4879 4880 4881
	4882 4883 4884 4885 4886 4887 4888 4889 4890 4891
	4892 4893 4894 4895 4897 4898 4900 4906 4907 4908
	4909 4910 4911 4916 4917 4918 4919 4920 4921 4922
	4923 4924 4925 4926 4927 4928 4929 4930 4931 4932
	4933 4934 4935 4936 4937 4938 4939 4940 4941 4942
	4943 4944 4945 4956 4957 4958 4959 4960 4961 4962
	4963 4964 4965 4966 4967 4968 4969 4970 4971 4972
	4973 4974 4975 4980 4983 4985 4986 4987 4988 4989
	4990 4991 4992 4993 4995 4998 4999 5007 5008 5012
	5013 5014 5015 5017 5018 5022 5023 5026 5027 5028
	5029 5030 5031 5032 5033 5035 5037 5039 5065 5241
	5242 5247 5201 5202 5203 5204 5254 5255 5256 5257
	5258 5259 5260 5101 5102 5103 5105 5111 5112 5113
	5114 5115 5151 5152 5153 5154 5155 5156 5157 5158
	5159 5160 5172 5173 5174 5175 5176 5178 5179 5180
	5271 5272 5273 5274 5275 5276 5278 5280 5261 5262
	5264 5265 5267 5268 5270 5181 5183 5184 5185 5186
	5187 5188 5189 5190 5191 5192 5193 5194 5195 5196
	5197 5199 5200 5161 5162 5163 5164 5165 5166 5167
	5168 5169 5170 5116 5117 5118 5119 5120 1117 1118
	1120 1121 5301 5302 5303 5304 5305 5481 5482 5483
	5484 5488 5489 5441 5442 5443 5444 5445 5446 5447
	5448 5449 5450 5451 5452 5453 5454 5455 5456 5457
	5458 5459 5460 5461 5462 5463 5464 5465 5466 5467
	5468 5469 5470 1123 1124 1126 5306 5308 5309 5471
	5472 5473 5475 6456 6457 6458 6459 6460 6461 6462
	6463 6464 6465 6466 6467 6468 6469 6470 6471 6472
	6473 6474 6475 6477 6478 6479 6480 6481 6482 6483
	6484 6485 6486 6487 6488 6490 6544 6547 6548 6553
	6554 6555 6556 6557 6558 6559 6560 6561 6574 6575
	6576 6577 6578 6579 6580 6585 6586 6588 6589 6590
	6613 6616 6617 6618 6619 6620 6621 6623 6624 6625
	6626 6627 6628 6629 6630 6631 6632 6634 6635 6636
	6637 6638 6639 6640 6641 6642 6643 6644 6645 6646
	6647 6648 6649 6650 6651 6652 6653 6654 6655 6656
	6657 6658 6659 6660 6661 6662 6663 6664 6665 6666
	6667 6668 6669 6670 6671 6672 6673 6674 6675 6676
	6677 6678 6679 6680 6681 6682 6683 6684 6685 6686
	6687 6688 6689 6690 6691 6692 6693 6694 6695 6696
	6697 6698 6699 6700 6701 6702 6703 6704 6705 6706
	6707 6708 6709 6710 6711 6712 6713 6714 6715 6716
	6717 6718 6719 6720 6721 6722 6723 6724 6725 6726
	6727 6728 6729 6730 6731 6732 6733 6734 6735 6736
	6737 6738 6739 6740 6741 6742 6743 6744 6745 6746
	6747 6748 6749 6750 6751 6752 6753 6754 6755 6756
	6757 6758 6759 6760 6761 6762 6763 6764 6765 6766
	6767 6768 6769 6770 6771 6772 6773 6774 6775 6776
	6777 6778 6779 6780 6781 6782 6783 6784 6785 6786
	6787 6788 6789 6790 6791 6792 6793 6794 6795 6796
	6797 6798 6799 6800 6801 6802 6803 6804 6805 6806
	6807 6808 6809 6810 6811 6812 6813 6814 6815 6816
	6817 6818 6819 6820 6821 6822 6823 6824 6825 6826
	6827 6828 6829 6830 6831 6832 6833 6834 6835 6836
	6837 6838 6839 6840 677 678 679 680 681 1605
	1606 1607 1608 1609 682 683 684 685 686 1610
	1611 1612 1613 1614 687 688 689 690 691 1615
	1616 1617 1618 1619 692 693 694 695 696 1620
	1621 1622 1623 1624 697 698 699 700 701 1630
	1631 1632 1633 1634 702 703 704 705 706 1625
	1626 1627 1628 1629 707 708 709 710 711 1635
	1636 1637 1638 1639 712 713 714 715 716 1640
	1641 1642 1643 1644 717 718 719 720 721 1645
	1646 1647 1648 1649 722 723 724 725 726 1655
	1656 1657 1658 1659 727 728 729 730 731 1650
	1651 1652 1653 1654 732 733 734 735 736 1660
	1661 1662 1663 1664 3631 3632 3633 3634 3635 3636
	3637 3638 3639 3640 3641 3642 3643 3644 3645 3646
	3647 3648 3649 3650 3651 3652 3653 3654 3655 3656
	3657 3658 3659 3660 619 620 621 622 623 1675
	1676 1677 1678 1679 436 437 438 439 440 441
	442 443 444 445 451 452 453 454 455 456
	457 458 459 460 461 466 467 468 469 470
	2260 2261 2262 2263 2264 2265 2267 2268 2269 2310
	2311 2312 2313 2314 2315 2316 2317 2318 2319 2380
	2381 2382 2383 2384 2385 2386 2388 2389 2440 2441
	2442 2443 2444 2460 2461 2462 2463 2464 2465 2466
	2467 2468 2469 2475 2476 2477 2478 2479 2480 2481
	2482 2483 2484 2485 6919 6937 6952 6954 7014 7063
	1077 6510 421 471 472 473 474 475 833 870
	872 897 913 914 925 926 927 938 945 946
	947 2370 2371 2372 2373 2374 2375 2376 2377 2378
	2379 2410 2412 2414 2415 2417 2418 2446 2447 2490
	2499 4849 4854 5085 5090 5109 5126 5127 5128 5129
	5150 5212 5227 5283 5285 5741 6408 6539 6983 5952
}
severe_monsoon = { 
	209 210 211 212 213 214 215 216 217 218
	219 220 221 222 223 224 225 226 227 228
	229 230 231 232 233 234 235 236 237 238
	239 240 241 244 245 1551 1552 1553 1554 1555
	1556 1557 1558 1559 1560 1561 1562 1563 1564 2005
	2006 2007 2008 2009 2010 2011 2012 2013 2014 2015
	2016 2017 2018 2019 2020 2021 2022 2023 2024 2025
	2026 2027 2028 2029 2030 2031 2032 2033 2034 2035
	2036 2037 2038 2039 2040 2041 2042 2043 2044 2045
	2046 2047 2048 2049 2050 2051 2052 2053 2054 2055
	2056 2057 2058 2059 2060 2061 2062 2063 2064 2065
	2066 2067 2068 2069 2070 2071 2072 2073 2074 2075
	2076 2077 2078 2079 2080 2081 2082 2083 2084 2085
	2086 2087 2088 2089 2090 2091 2092 2093 2094 2095
	2096 2097 2098 2099 2100 2101 2102 2103 2104 2105
	535 536 537 538 539 1577 1578 1725 1726 1727
	540 541 542 543 544 1579 1580 1728 1729 1730
	545 546 547 548 549 1581 1582 1731 1732 1733
	550 551 552 553 554 1583 1584 1734 1735 1736
	555 556 557 558 559 1585 1586 1737 1738 1739
	560 561 562 563 564 1587 1588 1740 1741 1742
	565 566 567 568 569 1589 1590 1743 1744 1745
	570 571 572 573 574 1591 1592 1746 1747 1748
	590 591 592 593 594 1599 1600 1758 1759 1760
	595 596 597 598 599 1601 1602 1761 1762 1763
	600 601 602 603 604 1603 1604 1764 1765 1766
	3611 3612 3613 3614 3615 3616 3617 3618 3619 3620
}
equator_y_on_province_image = 224
