discovery_pyandonea_extras = {
	242 243
}

discovery_summerset_islands_extras = {
	309 310 311 312 313 314	315	316	317	522 523 524 525
    7325 7326 7327 7328 7329 7330 7331 7332 7333 7334 7335 7336 7337 7338 7339 7340 7341 7342 7343 7344
}

discovery_valenwood_extras = {
	774 775 777 780 781 899 1439 5241 5247 5248 5250
    7473 7474 7475 7476 7477 7478 7495 7496 7497 7498 7499 7500 7501 7502 7503 7504 7505 7506 7507 7508 7509 7510 7511 7512 7513 7514 7515
}

discovery_elsweyr_extras = {
	60 399 1438 1530
    7407 7408 7409 7479 7480 7481 7482 7483 7484 7485 7486 7487 7488 7489 7490 7491 7492 7493 7494 7516 7517 7518 7519 7520 7521 7522
}

discovery_morrowind_extras = {
	1054 1055 1056 1057 1058 1059 1060 1061 1528 1532 1533 2787 2788 2789 6491 6492 6496 6497 6501 
    7365 7366 7367 7368 7369 7370 7371 7372 7373 7374 7571 7572 7573 7574 7575 7576 7577 7578 7579 7580 7581 7582 7583 7584 7585 7586 7587 7588 7589
}

discovery_black_marsh_extras = {
	60 1114 1115 1116 1533 3835 3838 3839 3840 3841 3849 3919 3920 3928 3931 3932 3933 5471 5473 5476
    7524 7525 7526 7527 7528 7529 7530 7531 7532 7533 7534 7535 7536 7537 7538 7539 7540 7541 7542 7543 7544 7545 7546 7547 7548 7549 7550 7551 7552 7553 7554 7555 7556 7557 7558 7559 7560 7561 7562 7563 7564 7565 7566 7567 7568 7569 7570
}

discovery_cyrodiil_extras = {
	399 788 1258 1259 1260 1261 1262 1263 1528 1529 1531 1532 1533 6711 6712 6713 6716
    7375 7376 7377 7378 7379 7380 7381 7382 7383 7384 7385 7386 7387 7388 7389 7390 7391 7392 7393 7394 7395 7396 7397 7398 7399 7400 7401 7402 7403 7404 7405 7406 7407 7408 7409 7512 7523
}

discovery_hammerfell_extras = {
	311 312 313 1441 1445 1516 1517 1518 1519 1520 1521 1522 1523 1529 4742 4743 4744 4747 4748
    7386 7410 7411 7412 7413 7414 7415 7416 7417 7418 7419 7420 7421 7422 7423 7424 7425 7426 7427 7428 7429 7430 7431 7432 7433 7434 7435 7436 7437 7438 7439 7440 7441 7442 7443 7444 7445 7446 7447
}

discovery_high_rock_extras = {
	531 1433 1435 1436 1437 1440 1442 1443
    7448 7449 7450 7451 7452 7453 7454 7455 7456 7457 7458 7459 7460 7461 7462 7463 7464 7465 7466 7467 7468 7469 7470 7471 7472
}

discovery_skyrim_extras = {
	1257 1364 1365 1366 1367 1444 1519 1523 1524 1526 1527 1528 1529 1531 1532 7056 7057 7058 7059
    7345 7346 7347 7348 7349 7350 7351 7352 7353 7354 7355 7356 7357 7358 7359 7360 7361 7362 7363 7364 7365 7366 7367
}

discovery_yokuda_extras = {
	
}

discovery_atmora_extras = {
	396 397 398 400 401 402 403 404 405
}

discovery_kamal_extras = {
	784 785 789 2649 2653 2655
}

discovery_thousand_extras = {
}

discovery_po_tun_extras = {
	671 672 673 782 783
}

discovery_tsakara_extras = {
	773 774 775 776 777 779
}

discovery_upper_akavir_extras = {
	776 778 779 783 787
}

discovery_northern_islands_extras = {
}

discovery_akavir_extras = {
	786
}

discovery_daedric_planes_extras = {
	533 1985 1986 2003 2677 2676 2678 2679 2680 2681 2682 2683
}

collapse_area_MF2 = {
	1000 1002 3249 3250 3950 4021 4022 4023 4024 4025 4026 4027 999
}

collapse_area_MH7 = {
	1001 1003 3247 3251 3252 3253 3254 3255 3858 3962
}

collapse_area_MB2 = {
	1004 1005 1006 1007 1008 3991 3992 3993
}

collapse_area_MB3 = {
	1009 1010 3256 3257 3258 3259 3989 3990 4030 4034
}

collapse_area_MA7 = {
	1011 1012 1013 3260 4017 4018 4019 4020 4028 4029 4031 4032 4033 4035 4036 4052
}

collapse_area_MB4 = {
	1014 1015 1016 1017 1018 3261 3264 3265 4046 4047 4048 4049
}

collapse_area_MB5 = {
	1019 1020 1021 1022 4083 4085
}

collapse_area_MB9 = {
	1023 3269 3270 4041 4042 4043 4044 4045
}

collapse_area_MB6 = {
	1024 1026 1027 1028 3271 3272 3273 3274 3275 4109 4110
}

collapse_area_MG1 = {
	1025 4081 4082 4084 4086 4087 4088 4089 4090
}

collapse_area_MG2 = {
	1029 3279 3280 4100 4112 4113 4115 4116 4118
}

collapse_area_MB7 = {
	1030 1031 3276 3277 3278 4111 6429
}

collapse_area_MI3 = {
	1032 1033
}

collapse_area_MB8 = {
	1034 1036 3282 3283 3284 3285 4120 6224
}

collapse_area_SED = {
	1035 3300
}

collapse_area_MG4 = {
	1037 1038 4096 4097 4114 4117 4119
}

collapse_area_MK0 = {
	1039 1040 1041 1042 3286 3287 3771
}

collapse_area_SOT = {
	1043 1449 2364 2390 2397 2428 3290 4244 4246 6142
}

collapse_area_MI7 = {
	1044 1048 2360 2365 2438
}

collapse_area_MD5 = {
	1045 2363 2396 2420 2422 2432 2436 2439 4243 4245
}

collapse_area_MD2 = {
	1046 1047 3294 3295
}

collapse_area_MJ1 = {
	1049 1051 3310
}

collapse_area_MH4 = {
	1050 3296 6227
}

collapse_area_MG5 = {
	1052 1053 3301 3302 3303 6228
}

collapse_area_TON = {
	1062 2359 2366 2395 4205 423 4231 4232 4234 4235 424 425 4261 4262 7321 7322 7323 7324
}

collapse_area_AA1 = {
	1063 1064 6441 6442 6493 6496 6596 6601 6602
}

collapse_area_AE3 = {
	1065 3841 3842 3843 6497 6498
}

collapse_area_AC7 = {
	1066 1067 6494 6500 6595 6603 6604 6605
}

collapse_area_AE8 = {
	1068 6450 6511 6565
}

collapse_area_AA2 = {
	1069 1073 3226 3227
}

collapse_area_AC6 = {
	1070 1071 1074 1078 6455 6507 6508
}

collapse_area_AB9 = {
	1072 6451 6453 6562 6567 6582
}

collapse_area_AB0 = {
	1075 1102 6575 6576 6577 6578 6579 6580 6588 6636 6637 6639 6640 6773 6777 6778 6779 6836 6837 6839 6840
}

collapse_area_ME3 = {
	1076 3229 3230 3835 3838 3839 6454 981 982
}

collapse_area_AD5 = {
	1077 6510 6585 6586 6589 6590 6629 6630 6631 6632 6634 6638
}

collapse_area_AC1 = {
	1079 1093 1094 1095 1111 6472 6473 6474 6475
}

collapse_area_AA7 = {
	1080 6533 6534 6535 6536 6537 6538 6540 6541 6542
}

collapse_area_AA4 = {
	1081 5446 5447 6702 6703 6704 6709 6710 6711 6713 6716 6725
}

collapse_area_AB7 = {
	1082 1083 6457 6458 6459 6539 6701 6705 6706 6708 6751 6759
}

collapse_area_AF4 = {
	1085
}

collapse_area_AA5 = {
	1086 1087 1088 1099 6461 6462 6463 6464 6465 6471 6668 6721 6722 6731 6732 6733 6734 6735 6736 6737 6838
}

collapse_area_AB1 = {
	1089 1091 1109 6470 6746
}

collapse_area_AA6 = {
	1090 6466 6467 6468 6469 6738 6739 6740 6741
}

collapse_area_AD8 = {
	1092
}

collapse_area_AC9 = {
	1096 1103 6648 6650 6651 6652 6826
}

collapse_area_AB2 = {
	1097 6660 6664 6665 6666 6667 6669 6670 6671 6672 6673 6674 6675 6749
}

collapse_area_AA8 = {
	1098 1100 1110 1113 6477 6480 6815 6820
}

collapse_area_AB5 = {
	1101 1104 1107 1108 6481 6482 6621 6804 6805 6806 6807 6808 6809 6822 6823
}

collapse_area_AB4 = {
	1105 6628 6635 6810 6821 6824 6825 6827 6828 6829 6830 6831 6832 6833 6834 6835
}

collapse_area_AA9 = {
	1106 6606 6607 6608 6609 6610 6611 6612 6613 6614 6615 6616 6617 6618 6619 6620 6622 6623 6624 6625 6626 6627
}

collapse_area_AF5 = {
	1112
}

collapse_area_CA1 = {
	1117 1118 1120 1121 5302 5303 5304 5305 5482 5483 6408
}

collapse_area_CC6 = {
	1119 1152 1174 1175 5343 5662 5677 5680 5701 5707 5714 5715 5718
}

collapse_area_NB1 = {
	1122 1314 2714 2944
}

collapse_area_CG9 = {
	1123 1126 5308 5448 5449 5450 5451 5452 5453 5454 5455 5456 5457 5460 5461 5462 5463 5464 5465 5466 5467 5468 5469 5470 5471 5472 5952
}

collapse_area_CA2 = {
	1124 5309 5459 5477 5479 5502 5503 5504 5508
}

collapse_area_CB8 = {
	1125 1202 1203 1204 1205 1206 5386 5387 5388 5389 5390
}

collapse_area_EA2 = {
	1127 5071 5072 5073 5220 5317 5526 5553 5555 5558 5571 5576 5586 888 889 890 891
}

collapse_area_CD8 = {
	1128 5314 5318 5535 5545 5552 5554
}

collapse_area_CD2 = {
	1129 1138 5368 5614 5615 5639 5651 5652 6387
}

collapse_area_CA3 = {
	1130 1131 5313 5514 5518 5520 5527 5528 5548 5551
}

collapse_area_CG7 = {
	1132 1133 1136 5533 5538 5543 5549 5556 5894
}

collapse_area_CD9 = {
	1134 5316 5541 5542 5544 5547 5550
}

collapse_area_CA4 = {
	1135 5322 5530 5559 5563 5569 5570 5572 5583 5589
}

collapse_area_CB5 = {
	1137 1185 1186 1191 5367 5621 5775 5790 6424
}

collapse_area_CC0 = {
	1139 1141 1511 5372 5374 5641
}

collapse_area_CA8 = {
	1140 1190 5326 5371 5561 5566 5645
}

collapse_area_CB2 = {
	1142 5321 5324 5581 5582 5618
}

collapse_area_CC7 = {
	1143 5325 5327 5333 5334 5584 5605 5610 5617 5667 5668 5669
}

collapse_area_CA6 = {
	1144 1177 1182 5369 5613 5616 5622 5623 5625 5628 5634 5640 5646 5661 5665 5780 5788 5825
}

collapse_area_CB1 = {
	1145 5375 5635 5817
}

collapse_area_ED3 = {
	1146 5364 5370 5609 5816 5830
}

collapse_area_CJ0 = {
	1147 5627 5647 5671 5767 5779 5784 5785 5824
}

collapse_area_CC5 = {
	1148 1176 5360 5698 5699 5711 5722 5731
}

collapse_area_CA7 = {
	1149 1150 1151 1165 1166 5328 5329 5331 5332 5335 5339 5340 5356 5710
}

collapse_area_CA9 = {
	1153 1154 1155 1156 1157 1158 1159 1160 1161 1162 1163 4850 5336 5337 5338 5341 5344 5347 5349 5350 5682 5683 5684 5688 5719
}

collapse_area_CF5 = {
	1164 5695 5696 5705 5721
}

collapse_area_CC2 = {
	1167 5342 5689 5690 5693 6131 6435 6438
}

collapse_area_CC1 = {
	1168 5345 5346 5348 5353 5354 5691 5709 6132 6141
}

collapse_area_HA2 = {
	1169 1452 1463 5355 5681 5687 6160 6190 6198 6199 6200
}

collapse_area_CC4 = {
	1170 1172 1173 5330 5359 5664 5694 5697 5704 5708 5716 5774 6134
}

collapse_area_ABE = {
	1171 5351 5352
}

collapse_area_CE8 = {
	1178 5363 5608 5626 5673
}

collapse_area_CF0 = {
	1179 1181 1189 5362 5642 5648 5654 5656 5657 5658 5761 5762 5763 5764 5765 5766 5771 5772 5773 5778 5791 5792 5793 5801 5804 5807
}

collapse_area_CE0 = {
	1180 5509 5795 5796 5799 5802 5803 5805 5808 5809 5810
}

collapse_area_CD1 = {
	1183 5781 5826
}

collapse_area_CB4 = {
	1184 5638 5660 5812 5813 5846
}

collapse_area_CD7 = {
	1187 5366 5629 5630 5644 5653
}

collapse_area_CB0 = {
	1188 5312 5373 5604 5606 5633
}

collapse_area_CB6 = {
	1192 1194 1195 5377 5378 5379 5380 5862 5863 5864 5865 5868
}

collapse_area_CJ2 = {
	1193 1196 5376
}

collapse_area_CG8 = {
	1197 5833 5834 5835 5836 5837 5838
}

collapse_area_CE5 = {
	1198 1200 5381 5382 5855 5856
}

collapse_area_CE7 = {
	1199 1201 5383 5385 5918 5920 5960 5962 5963 5964 5965 5966 5967 5968 5969 5970 5982 5995
}

collapse_area_CI8 = {
	1207 1208 1209 1210 1211 5391 5392 5393 5394 5395 5523 5997 6032 6034 6039
}

collapse_area_CG3 = {
	1212 1218 1220 1230 1239 5398 5399 5417 5437 5521 5883
}

collapse_area_CF1 = {
	1213 5866 5871 5872 5873 5874 5875 5876 5878 5879 5880 5881 5885 5887 5888 5901 5905 5914 5915
}

collapse_area_CG6 = {
	1214 1216 1229 5310 5396 5397 5409 5410 5411 5412 5415 5440 5510
}

collapse_area_CE4 = {
	1215 5858 5859 5860 5861 5869 5870
}

collapse_area_CF2 = {
	1217 5425 5902 5907 5908 5941
}

collapse_area_CG5 = {
	1219 1223 1226 1242 1253 1255 1256 5402 5403 5404 5405 5426 5427 5428 5438 5439 5953 5977 5981 6017 6041 6060
}

collapse_area_CG4 = {
	1221 1222 1224 1227 1228 5401 5406 5407 5473 5474 5475 6022 6051 6052 6053
}

collapse_area_CG0 = {
	1225 1244 5429 6011 6013 6018 6019 6020 6021 6023 6024 6025 6027 6028 6029 6030 6042 6043 6045 6047 6048 6049 6050
}

collapse_area_NE7 = {
	1231 1334 7119 7150 7303 7304 7305 7306 7309 7310 7311 7314 7315 7316 7318
}

collapse_area_CF8 = {
	1232 1234 1247 1248 1250 1251 5416 5431 5432 5433 5436 5989 5990 6000 6010 6033 6038
}

collapse_area_CG1 = {
	1233 1249 5400 5418 5419 5420 5434 5524 5857 6008 6037
}

collapse_area_CF9 = {
	1235 1236 5435 5522 5993 6003 6005 6006 6007 6009 6012 6014 6015 6016
}

collapse_area_CI3 = {
	1237 1238 1240 5421 5422 5424 5568 5893 5898 5899 5900
}

collapse_area_CF3 = {
	1241 1246 5423 5921 5922 5926 5927 5943 5944 5946 5959
}

collapse_area_CF7 = {
	1243 5923 5924 5925 5931 5933 5934 5935 5936 5937 5938 5939 5940 5972 5973 5976 5978 6001 6002 6004
}

collapse_area_CJ3 = {
	1245 5384 5525 5910 5912 5932 5948 5949 5950 5971 5974 5975 5979 5980 5983 5984 5985 5986
}

collapse_area_CF6 = {
	1252 5957 5988 5991 5992 5994 5998 5999
}

collapse_area_CF4 = {
	1254 5494 5942 5951 5954 5955 5956 5958
}

collapse_area_NA1 = {
	1264 1265 1266 1267 1268 2769 3116 3117 3118 3120 3122 3124 3125 5891 5892 7076 7077
}

collapse_area_NA2 = {
	1269 1270 1272 2820 2922 7081 7085
}

collapse_area_NE1 = {
	1271 1273 1283 2931 3123 3134 5877 7078 7079 7080 7082 7083 7091 7092 7093
}

collapse_area_NA3 = {
	1274 1275 1276 1277 1278 2739 2787 2789 2790 2801 2802 2803 2804 2937 2938 2939 3000 7086 7087 7088 7089 7090
}

collapse_area_NF4 = {
	1279 1280 1281 2928 2929 2997 2998
}

collapse_area_NE3 = {
	1282 2818 2921 2925 2927 2933 2935 7084 7094
}

collapse_area_NF3 = {
	1284 1285 1313 2934 3073 3080 3085 3087 3092 3106 3111 3138 3140 7096 7098 7099 7100 7124 7125 7133
}

collapse_area_NA5 = {
	1286 1288 1310 2768 2999 3001 3112 3113 3114 3115 3132 3136 3137 3139 3191 3192 3193 3194 3195 5413 7095
}

collapse_area_NF7 = {
	1287 3107 3108 3109 3110 3130 3131
}

collapse_area_HH4 = {
	1289 3069 6178 7101 7104 7260 7271 7275 7283
}

collapse_area_NA6 = {
	1290 1291 1292 3068 3070 3071 3072 3074 3075 3076 3077 3078 3083 3084 3086 3096 3097 5505 7097 7103 7270
}

collapse_area_HF7 = {
	1293 7259 7267 7269 7273
}

collapse_area_NB4 = {
	1294 1295 1296 1297 3056 3057 3061 3063 3067 3098 7280
}

collapse_area_HF6 = {
	1298 6163
}

collapse_area_NA8 = {
	1299 1300 1301 2766 2770 2781 2782 2783 2784 2785 2786 2788 2805 2940 5476
}

collapse_area_NB2 = {
	1302 1319 1321 1322 3006 3010 3011 3012 3013 3014 3015 3016 3022 3093 3094 3095 3099 3101 3105 5414 7131 7132 7295
}

collapse_area_STA = {
	1303 1309 7113 7114 7115
}

collapse_area_NA9 = {
	1304 1305 1306 1307 1308 2696 2699 2700 2712 2713 2715 2720 2731 2732 2733 2734 2735 2736 2761 3018 5408 7116 7117 7118 7120 7130
}

collapse_area_NF8 = {
	1311 1312 2943 3005
}

collapse_area_NE6 = {
	1315 1316 2698 2764 2765 2946 3008 7127
}

collapse_area_NF2 = {
	1317 2947 2948 2993 2994 3009 7126
}

collapse_area_NE8 = {
	1318 2936 2995 3002 3003 3007 7121 7122
}

collapse_area_NF6 = {
	1320 2992 3004 3048 3089 3091 3102 5480 7134 7135
}

collapse_area_NG3 = {
	1323 1328 3028 3030 3031 3032
}

collapse_area_NG2 = {
	1324 3023 3024
}

collapse_area_NB3 = {
	1325 1326 1327 2694 3017 3021 3025 3026 7137 7138 7139 7140
}

collapse_area_ND0 = {
	1329 7227 7228 7230 7231 7235 7255
}

collapse_area_NC7 = {
	1330 3038 7142 7144 7277 7278
}

collapse_area_NF1 = {
	1331 3037 3040 3041 3042 3044
}

collapse_area_NC4 = {
	1332 3104 7145 7222 7224 7225 7286 7290 7291
}

collapse_area_ND2 = {
	1333 3039 7292 7293 7294
}

collapse_area_NE9 = {
	1335 1337 1363 7161 7187 7296 7297 7298 7299 7300 7301
}

collapse_area_NB5 = {
	1336 1338 3027 7146 7147 7148 7149 7302 7307
}

collapse_area_NB6 = {
	1339 1340 1342 2996 3081 3082 7151 7153 7185 7186 7189 7190 7192 7193 7194 7195
}

collapse_area_NA7 = {
	1341 1349 1350 1351 5506 7163 7164 7165 7200
}

collapse_area_NC1 = {
	1343 7152 7154 7155 7180 7181 7182
}

collapse_area_VOL = {
	1344 1345 3088 7157 7158 7159 7160 7176 7179 7183 7184
}

collapse_area_NE4 = {
	1346 1347 1348 7175
}

collapse_area_ND7 = {
	1352 1353 7223 7287
}

collapse_area_ND1 = {
	1354 1357 3100 7232 7233
}

collapse_area_NB9 = {
	1355 7213 7229
}

collapse_area_NE5 = {
	1356 7199 7214 7219
}

collapse_area_NC5 = {
	1358 1361 7171 7226
}

collapse_area_NG1 = {
	1359 7174 7196 7201 7202
}

collapse_area_NC2 = {
	1360 7220 7221
}

collapse_area_NC0 = {
	1362 7156 7172 7177 7178 7188 7191
}

collapse_area_BF2 = {
	1368 1370 1372 6843 6939 7026
}

collapse_area_BA1 = {
	1369 1377 6844 6845 6916 6918 6921 6922
}

collapse_area_BD2 = {
	1371 1374 6906 6907 6908 6909 6910 6911 6920 6923
}

collapse_area_BD1 = {
	1373 1376 6852 6938 6943 6944
}

collapse_area_BC6 = {
	1375 6966 6967 7028 7029 7030 7031
}

collapse_area_BB8 = {
	1378 6924 6947 6949 6960
}

collapse_area_BA6 = {
	1379 1386 1393 1394 1395 1397 6866 6870 6965 6996 6997 6998
}

collapse_area_BD3 = {
	1380 1387 6855 6867
}

collapse_area_BE5 = {
	1381 6853
}

collapse_area_BA3 = {
	1382 1392 1429 6081 6977 6978 6984 6985 6987
}

collapse_area_BA8 = {
	1383 6841 6842 6858 6926 6928 6930 6931 6932 6934
}

collapse_area_BA4 = {
	1384 1385 6854 6856 6857 6859 6860 6935 6940 6941
}

collapse_area_BB6 = {
	1388 1389 1390 1406 6876 6877 6879 6991 6992
}

collapse_area_BE9 = {
	1391 6862 6863 6864 6865
}

collapse_area_BB4 = {
	1396 6868 6948 6962 6964
}

collapse_area_BE1 = {
	1398 1399 1400
}

collapse_area_BE7 = {
	1401 1402 6871 6872 7004
}

collapse_area_BB1 = {
	1403 1404 1408 1412 1420 6881 6882 6883 7036
}

collapse_area_BD5 = {
	1405 1417 1432 6899
}

collapse_area_BD4 = {
	1407 1430 6901
}

collapse_area_BD9 = {
	1409 6874 6875 7038 7039 7040 7041
}

collapse_area_BE2 = {
	1410 6884 7023 7024 7025 7037
}

collapse_area_BE0 = {
	1411 1419 1422
}

collapse_area_BD6 = {
	1413 6888 6889 6890
}

collapse_area_BD0 = {
	1414 1415 1416
}

collapse_area_HD8 = {
	1418 7058 7067 7074
}

collapse_area_BD7 = {
	1421 1423 1424 6897 6898 6956
}

collapse_area_BF3 = {
	1425 6959 7009 7066
}

collapse_area_BE8 = {
	1426 1428 7013
}

collapse_area_BB0 = {
	1427 6893 6894 6895 6900 6903 6904 7073
}

collapse_area_BA9 = {
	1431 6902
}

collapse_area_HG5 = {
	1446 1453 5730 5735 5736 5794 6155 6167 6170 6180 6183
}

collapse_area_HB4 = {
	1447 1450 6133 6144 6147 6151 6153
}

collapse_area_HE4 = {
	1448 1515 6099 6219 6220 6232 6236 6237
}

collapse_area_HG8 = {
	1451 1481 1482 1483 1484 6061 6098 6100 6140 6145 6146 6148 6149 6150 6152 6157 6191 6192 6196 6981
}

collapse_area_HE7 = {
	1454 1461 1462 1472 5737 5738 5739 5740 5760 6067 6069 6086 6087 6137 6169 6193 6217 6291 6297
}

collapse_area_HC1 = {
	1455 5700 5727 5728 5729 6066 6135 6136 6138 6139 6143 6154 6159 6168 6194 6197 6434
}

collapse_area_HC4 = {
	1456 1464 6076 6077 6078 6079 6080 6084 6090 6165 6181 6185 6186 6188 6202 6203 6204 6205 6206 6207 6231 6234 6244 6245
}

collapse_area_HH5 = {
	1457 1468 6241 7263
}

collapse_area_HF5 = {
	1458 5754 6172 6174 6175 6176 6177 6182 6189 7105 7266 7268
}

collapse_area_HH3 = {
	1459 6072 6161 7107 7108 7109 7256 7257 7258 7261 7262 7264 7272
}

collapse_area_HC9 = {
	1460 5752 7234 7241 7244 7247 7250 7251
}

collapse_area_HB2 = {
	1465 3058 3065 6085 7106 7248
}

collapse_area_HA7 = {
	1466 1467 6123 6252 6260 6265 6266 6268 6271 6272 6273
}

collapse_area_HC3 = {
	1469 6253 7236
}

collapse_area_HH6 = {
	1470 5478 6082 6083 6243 6269 7170 7208
}

collapse_area_HA9 = {
	1471 1486 1490 6101 6102 6105 6292 6294 6298
}

collapse_area_HB6 = {
	1473 1475 1491 1495 6107 6223 6254 6289 6296 6303
}

collapse_area_HA6 = {
	1474 6210 6214 6221 6222 6250 6256 6299 6300
}

collapse_area_HE6 = {
	1476 1477 1478 6339 6340 6345 6374 6375 6381 6382 6383 6384 6385 6430
}

collapse_area_HD4 = {
	1479 1480 1507 6125 6373 6388 6395 6398 6399 6401 6403
}

collapse_area_HB3 = {
	1485 1510 6128 6317 6319 6321 6327 6328 6331 6338 6348 6349 6355 6356 6359 6364 6365 6367
}

collapse_area_HF3 = {
	1487 6216 6218 6270 6274 6275 6278 6279 6281 6282 6283 6286 6287
}

collapse_area_HD6 = {
	1488 6091 6106 6109 6126 6239 6346 6347
}

collapse_area_GRH = {
	1489 6295 6301 7071
}

collapse_area_HG1 = {
	1492 6315 6320
}

collapse_area_HB0 = {
	1493 1494 6103 6238 6240 6288 6305 6306 6309 6310 6311 6316 6322 6324 6326 6341 6342 6343
}

collapse_area_HH0 = {
	1496 1497 1498 1499 1500 6111 6112 6113 6114 6115
}

collapse_area_HF9 = {
	1501 6116
}

collapse_area_HG0 = {
	1502 1503
}

collapse_area_RES = {
	1504
}

collapse_area_HF0 = {
	1505
}

collapse_area_HE5 = {
	1506 6386 6389 6390 6391 6393 6394 6405 6407 6421 6422 6423 6425 6426 6428 6431 6432 6436 6437 6439 6440
}

collapse_area_HE3 = {
	1508 1512 6121 6122 6414
}

collapse_area_HH1 = {
	1509 6117 6118 6119 6120 6361 6362 6396 6402 6406
}

collapse_area_HE9 = {
	1513 1514 6108 6129 6130 6329 6330 6332 6336 6413 7243
}

collapse_area_IB4 = {
	1535 2208 2209 2210 2211 406 407 408 409 410
}

collapse_area_IB5 = {
	1536 1537 2212 2213 2214 411 412 413 414 415
}

collapse_area_IA7 = {
	1538 1801 1802 1803 793 794 795 796 797 798
}

collapse_area_IB1 = {
	1539 1540 1548 1550 1818 1819 1820 1821 799 805
}

collapse_area_IB0 = {
	1541 1542 1543 1544 1545 1813 1814 1815 1816 1817
}

collapse_area_IA9 = {
	1546 1547 1808 1809 1810 1811 1812 806 807 808
}

collapse_area_IA8 = {
	1549 1804 1805 1806 1807 800 801 802 803 804
}

collapse_area_PB8 = {
	1552
}

collapse_area_PA2 = {
	1553 2009 218
}

collapse_area_PA4 = {
	1556 1563 1564 2012 2033 222 224 225 237 238 239 245
}

collapse_area_PC1 = {
	1557 2014 2015 2016 2069 2070 2071 223
}

collapse_area_PA6 = {
	1559 1560 1561 1562 2020 2021 2022 2035 235 236 240 241
}

collapse_area_DA1 = {
	1565 1566 2185 2186 2187 357 358 359 361 362
}

collapse_area_DA2 = {
	1567 1568 2191 2192 2193 356 366 367 368 369
}

collapse_area_DA3 = {
	1569 1570 2188 2189 2190 363 364 365 379 387
}

collapse_area_DA4 = {
	1571 1572 2194 380 381 382 385 386
}

collapse_area_DA5 = {
	1574 372 373 374 375
}

collapse_area_DA6 = {
	1575 1576 2200 2201 2202 377 378 383 384 388
}

collapse_area_JA1 = {
	1577 1578 1725 1726 1727 535 536 537 538 539
}

collapse_area_JA2 = {
	1579 1580 1728 1729 1730 540 541 542 543 544
}

collapse_area_JA3 = {
	1581 1582 1731 1732 1733 545 546 547 548 549
}

collapse_area_JA4 = {
	1583 1584 1734 1735 1736 550 551 552 553 554
}

collapse_area_JA6 = {
	1587 1588 1740 1741 1742 560 561 562 563 564
}

collapse_area_JA7 = {
	1589 1590 1743 1744 1745 565 566 567 568 569
}

collapse_area_JA8 = {
	1591 1592 1746 1747 1748 1765 1766 570 571 572 573 574
}

collapse_area_JA9 = {
	1593 1594 1749 1750 1751 575 576
}

collapse_area_JB4 = {
	1603 1604 1764 602 603 604
}

collapse_area_TA1 = {
	1605 1606 1607 1608 1609 677 678 679 680 681
}

collapse_area_TA2 = {
	1610 1611 1612 1613 1614 682 683 684 685 686
}

collapse_area_TA3 = {
	1615 1616 1617 1618 1619 687 688 689 690 691
}

collapse_area_TA4 = {
	1620 1621 1622 1623 1624 692 693 694 695 696
}

collapse_area_TA6 = {
	1625 1626 1627 1628 702 703 704 705 706
}

collapse_area_ELZ = {
	1629
}

collapse_area_TA5 = {
	1630 1631 1632 1633 1634 697 698 699 700 701
}

collapse_area_TA7 = {
	1635 1636 1637 1638 1639 707 708 709 710 711
}

collapse_area_TA8 = {
	1640 1641 1642 1643 1644 712 713 714 715 716
}

collapse_area_TA9 = {
	1645 1646 1647 1648 1649 717 718 719 720 721
}

collapse_area_TB1 = {
	1650 1651 1652 1653 1654 727 728 729 730 731
}

collapse_area_TB0 = {
	1655 1656 1657 1658 1659 722 723 724 725 726
}

collapse_area_TB2 = {
	1660 1661 1662 1663 1664 732 733 734 735 736
}

collapse_area_OA1 = {
	1666 1670 1671 1672 1673 1674 609 610 611 613
}

collapse_area_OA3 = {
	1675 1676 1677 1678 1679 619 620 621 622 623
}

collapse_area_OA4 = {
	1680 1681 1682 1683 1684 624 625 626 627 628
}

collapse_area_OA5 = {
	1685 1686 1689 629 630 631 632 633
}

collapse_area_OA6 = {
	1692 1693 1694 636 637 638
}

collapse_area_OA7 = {
	1696 639 640 642 643
}

collapse_area_OA2 = {
	1701 1702 1703 1704 614 615 616 617 618 648
}

collapse_area_OA9 = {
	1705 1706 1707 1708 1709 649 650 651 652 653
}

collapse_area_OA8 = {
	1710 644 645 646 647
}

collapse_area_OB1 = {
	1715 659 660 661 662 663
}

collapse_area_OB2 = {
	1720 1721 1722 1723 1724 664 665 666 667 668
}

collapse_area_JA5 = {
	1737 1738 1739 555 556 557 558 559
}

collapse_area_JB3 = {
	1761 595 597 599
}

collapse_area_UA1 = {
	1767 1768 1769 1770 1771 737 738 739 741 742
}

collapse_area_UA2 = {
	1772 1773 1774 1775 1776 743 744 745 746 747
}

collapse_area_UA3 = {
	1777 1778 1779 1780 740 748 749 750 751 752
}

collapse_area_UA4 = {
	1781 1782 1783 1784 1785 753 754 755 756 757
}

collapse_area_UA5 = {
	1786 1787 1788 1789 1790 758 759 760 761 762
}

collapse_area_UA6 = {
	1791 1792 1793 1794 1795 763 764 765 766 767
}

collapse_area_UA7 = {
	1796 1797 768 769 770 771 772
}

collapse_area_KHE = {
	1798 1799 1800
}

collapse_area_PA5 = {
	2017 2018 2019 231 232 233
}

collapse_area_PC0 = {
	2023 234 244
}

collapse_area_PC2 = {
	2032 2038 2039 2040 2041 2048 2049
}

collapse_area_PA9 = {
	2034 2042 2043 2044 2045
}

collapse_area_PA8 = {
	2036 2037 2046
}

collapse_area_PB0 = {
	2047 2050 2052 2053 2054
}

collapse_area_PB1 = {
	2051 2055 2063 2064 2065 2066 2067 2068
}

collapse_area_PB2 = {
	2072 2073 2074 2075 2077 2088
}

collapse_area_PC3 = {
	2076 2078 2080 2084 2085 2086
}

collapse_area_PB3 = {
	2079 2081 2082 2083
}

collapse_area_PB4 = {
	2087 2089 2090 2091 2092 2093 2094
}

collapse_area_PA1 = {
	209 210 2102 2103 211 212 213
}

collapse_area_PA7 = {
	2095
}

collapse_area_PB5 = {
	2096 2097 2098 2099
}

collapse_area_PB7 = {
	2100 2101
}

collapse_area_PB6 = {
	2104 2105
}

collapse_area_THR = {
	2106 2107 2108 2109 2110 2111 320 321 323 324
}

collapse_area_YA2 = {
	2112 2113 2114 325 327 328 330 331 340
}

collapse_area_YA3 = {
	2116 2117 2118 2119 2120 333 334
}

collapse_area_YA8 = {
	2129 2130 2131 2133 2134 2135 336 355
}

collapse_area_YA7 = {
	2136 2137 2138 2139 286 318 319 322 335
}

collapse_area_YA6 = {
	2141 2142 2143 2144 337 338 339 351 352 353
}

collapse_area_YB0 = {
	2146 2147 2148 2149 2151 2152 2153 2154
}

collapse_area_YB1 = {
	2156 2157 2158 2159 2161 2163 2165
}

collapse_area_YB2 = {
	2166 2167 2168 2169 2170 2171 2173 2175
}

collapse_area_SIN = {
	2179 2180 2181 2182 2183 2184
}

collapse_area_PA3 = {
	219 220
}

collapse_area_DA7 = {
	2203 2204 2205 2206 2207 370 389
}

collapse_area_DB0 = {
	2215 2216 2217 2218 2219 2488 390 391 393 395
}

collapse_area_DE3 = {
	2220 2223 2500 2505 392 462 463 478 480 481 482 483 484 485
}

collapse_area_DB1 = {
	2228
}

collapse_area_DB2 = {
	2230 2231 2232 2233 2234 2235 2236 2237 2238 2239
}

collapse_area_DB3 = {
	2240 2241 2242 2243 2244 2245 2246 2248 2249
}

collapse_area_DB4 = {
	2252
}

collapse_area_SB0 = {
	2260 2261 2269 2386 278 293 294 295 296 297 298 4645 4649 4689 4690 4776
}

collapse_area_SA9 = {
	2262 2263 2264 2385 279 289 290 291 292
}

collapse_area_SA6 = {
	2265 2380 2381 2382 2383 2388 2389 2465 271 436 437 438 439 4661 4666 4667 4698
}

collapse_area_HC5 = {
	2266 5670 5702 5703 5713 5717 5720 5723 5724 5725 5726 5732 5733 5734 5744 5745 5747 5751 5755 5757 5759 5797 5800 6068
}

collapse_area_SA8 = {
	2267 282 283 284 287 288 4636 4637 4638 4773 4774 4818 4819 4820
}

collapse_area_SB6 = {
	2268 4639 4641 4642 4643 4644 4647 4718 4733 4761 4762 4763 4764 4767 4768
}

collapse_area_DB6 = {
	2270 2271 2272 2273 2278 2279
}

collapse_area_DB7 = {
	2285
}

collapse_area_PB9 = {
	229
}

collapse_area_DB8 = {
	2292 2293 2294 2297 2298 2299
}

collapse_area_DB9 = {
	2303 2304 2305 2306 2307 2308 2309
}

collapse_area_SE4 = {
	2310 2314 2316 248 250 455 4601 4602 4603 4604 4605 4699 4724 4726 4730
}

collapse_area_SB7 = {
	2311 2313 2318 2475 2482 457 458 4704 4705 4706 4707
}

collapse_area_SB5 = {
	2312 2476 2477 2478 2479 4612 4681 4684 4685
}

collapse_area_SB8 = {
	2315 251 256 257 259 451 4789
}

collapse_area_SB9 = {
	2317 452 4691 4692 4693 4701 4702 4703
}

collapse_area_SD3 = {
	2319 260 454 4611 4613 4614 4618 4631 4682 4683 4686 4792 4796 4800
}

collapse_area_DC1 = {
	2320 2321 2322 2323 2324 2325 2326 2327 2328 2329
}

collapse_area_DC2 = {
	2330 2331 2332 2333 2334 2335
}

collapse_area_DC3 = {
	2343 2344 2345 2346 2347 2348 2349
}

collapse_area_MJ7 = {
	2350 3304 3305 3306 3307 3308 3309 4302 4308 6065
}

collapse_area_MOA = {
	2351 2405 4121 4122 419 6230
}

collapse_area_MH5 = {
	2352 2353 4305 4309 4310
}

collapse_area_MI9 = {
	2354 2358 2434 4254 4268 4274 4276 4277 4278 4279 4280
}

collapse_area_MH2 = {
	2355 2430 4301 4303 4304 4307
}

collapse_area_MF9 = {
	2356 2495 4203 4204
}

collapse_area_MI4 = {
	2357 3281 3297 3298 3299 4133 4134 4135 4136 4139 4140 4306 6062 6063 6097
}

collapse_area_MJ6 = {
	2361 2429 4267
}

collapse_area_MJ3 = {
	2362 2391 2393 2394 2398 4236 4237 4239 4258
}

collapse_area_MI8 = {
	2367 2369 2387 2399 2421 2426 2435 2491 4240 4256 4260
}

collapse_area_MF8 = {
	2368 2423 2437 4253 4255 4259 4270
}

collapse_area_VB1 = {
	2370 2371 2372 2417 4921 4932 857 863
}

collapse_area_VB8 = {
	2373 2374 2376 4875 4941 4942 4943 4944 4945 4959 4962 4964 4965 4974
}

collapse_area_VC3 = {
	2375 2378 2379 2410 2412 2490 421 4854 5007 5008 5015 5039
}

collapse_area_VC7 = {
	2377 2415 471 4886 4887 4989 4992 5013 5014 5025 5028 5029 5031 5032 5033 5034 5035 5036 5037
}

collapse_area_SD5 = {
	2384 4662 4664 4670 4779 4812 4813 4814 4815 4816 4817
}

collapse_area_MI2 = {
	2392 4218 4219 4238 4241 4242
}

collapse_area_MG8 = {
	2400 2403 3289 4215 4216 4220
}

collapse_area_MC1 = {
	2401 2404 2408 3288 4211 4212 4213 4217
}

collapse_area_MD7 = {
	2402 2406 2407 2409 2416 417 422 4233
}

collapse_area_MI6 = {
	2411 2419 4137 4201 4202 6476
}

collapse_area_VC8 = {
	2413 4843 4845 4949 4950 4952 4954 4955 4976 4978 5005 5487 822
}

collapse_area_VC2 = {
	2414 4857 4907 4910 4930 4980 4998 5741 864 866 867
}

collapse_area_VE1 = {
	2418 4866 4878 4885 4973 5043 843
}

collapse_area_MJ5 = {
	2424 3205 4269 4273 6044
}

collapse_area_MF4 = {
	2425 4252
}

collapse_area_MC3 = {
	2427 2433 4247 4248 4249 4250 6225
}

collapse_area_ME4 = {
	2431 4257 4263 4264 4266
}

collapse_area_SC3 = {
	2440 4801
}

collapse_area_SD9 = {
	2441 4619 4825 4827
}

collapse_area_SB4 = {
	2442 467 4674 4675 4676 4677 4680 4741
}

collapse_area_SB2 = {
	2443 299 301 4657 4671 4672 4678 6952
}

collapse_area_SE1 = {
	2444 300 4658 4659 4660 4673 4679 4747 4759
}

collapse_area_VD8 = {
	2445 4981
}

collapse_area_VC1 = {
	2446 4849 4889 4898 4920 4922 4934 4935 860 883
}

collapse_area_VA3 = {
	2447 473 474 4848 4853 4867 4970 5046 820 874 876
}

collapse_area_VA5 = {
	2448 2449 4896 4912 4915 4982 881
}

collapse_area_DD3 = {
	2450
}

collapse_area_DD4 = {
	2455 2456 2457 2458 431 432 433 434 435
}

collapse_area_SA1 = {
	246 249 4694 4695 4696 4697 4721 4760
}

collapse_area_SC8 = {
	2460 2466 2467 269 272 274 4629 4630 4700 4715
}

collapse_area_SD2 = {
	2461 2463 2464 443 444 445 4620 4708 4710 4798
}

collapse_area_SA4 = {
	2462 261 263 264 265 441 442 4606 4615 4616 4617 4687 4783 4790 4794 4795 4797
}

collapse_area_SB3 = {
	2468 2469 275 276 440 4626 4627 4628 4663 4665 4668 6937
}

collapse_area_SC2 = {
	247 2480 2484 4728 4753 4756
}

collapse_area_DD7 = {
	2470 2471 2472 2473 446 447 449 450
}

collapse_area_SE0 = {
	2481 4804 4805 4806 4807 4808 4809 4831 4839 4840 6983
}

collapse_area_SD4 = {
	2483 459 4722 4725 4727 4729
}

collapse_area_SC9 = {
	2485 4633 468 469 4821 4822 4823 4824 4826
}

collapse_area_MJ4 = {
	2492 2493 2494 418 4221 4222 4223 4224 4226 4227
}

collapse_area_MJ8 = {
	2496 2498 416 4206 4208
}

collapse_area_MG9 = {
	2497 4123 4124 4125 4207
}

collapse_area_EB5 = {
	2499 5109 5111 5112 5113 5114 5115 5163 5164 5165 5178 5189 5190 913 928
}

collapse_area_DE4 = {
	2504
}

collapse_area_DE0 = {
	2506
}

collapse_area_DE5 = {
	2510 2511 2512 2513 2514 486 487 488 489 490
}

collapse_area_KB6 = {
	2515 2516 2517 2518 2519 491 492 493 494 495
}

collapse_area_SC7 = {
	252 4758 4781 4782
}

collapse_area_KB7 = {
	2520 2521 2522 2523 2524 496 497 498 499 500
}

collapse_area_KB8 = {
	2525 2526 2527 2528 2529 501 502 503 504 505
}

collapse_area_SA2 = {
	253 255 4609
}

collapse_area_KB9 = {
	2530 2531 2532 2533 2534 506 507 508 509 510
}

collapse_area_KC0 = {
	2535 2536 2537 2538 2539 511 512 513 514 515
}

collapse_area_SC6 = {
	254 453 460 4607 4784 4785 4786 4787 7063
}

collapse_area_KC1 = {
	2540 2541 2542 2543 2544 516 517 518 519 520
}

collapse_area_KC2 = {
	2545 2546 2547 2548 2549 2550 2551 2552 2553 2554
}

collapse_area_KC3 = {
	2555 2556 2557 2558 2559 2560 2561 2562 2563 2564
}

collapse_area_KC4 = {
	2573
}

collapse_area_SE5 = {
	258 4608 4610 4788 6919
}

collapse_area_KC5 = {
	2582
}

collapse_area_KC6 = {
	2591
}

collapse_area_KC7 = {
	2595 2596 2597 2598 2599 2600 2601 2602 2603 2604
}

collapse_area_KC8 = {
	2605 2606 2607 2608 2609 2610 2611 2612 2613 2614
}

collapse_area_SD7 = {
	262 270 4793 4799
}

collapse_area_BLA = {
	2635
}

collapse_area_OB3 = {
	2636 2637 2638 2639 2640 2641 2642 2643 2644 2645
}

collapse_area_OB4 = {
	2646 2647 2648 2650 2651 2652 2654
}

collapse_area_IB2 = {
	2656 2657 2658 2659 2660 2661 2662 2663 2664 2665
}

collapse_area_SA7 = {
	266 267 277 281 4632 4634 4688 4709 4772
}

collapse_area_IB3 = {
	2666 2669 2672 2674 2675
}

collapse_area_SA3 = {
	268 4622 4623 4624 4625 4716 4717 4719 4720 4811 7014
}

collapse_area_NE0 = {
	2691 2693 2695 3019 7128
}

collapse_area_NB0 = {
	2692 2697 2991 3020 7129
}

collapse_area_CQ1 = {
	2701 2702 2703 2704 2705 2706 2707 2708 2709 2710
}

collapse_area_ND8 = {
	2711 2716 2717 2718 2719 2737 2738 2740 2762 2763 2767
}

collapse_area_CQ3 = {
	2721 2722 2723 2724 2725 2726 2727 2728 2729 2730
}

collapse_area_CQ6 = {
	2741 2742 2743 2744 2745 2746 2747 2748 2749 2750
}

collapse_area_CQ7 = {
	2751 2752 2753 2754 2755 2756 2757 2758 2759 2760
}

collapse_area_CQ9 = {
	2771 2772 2773 2774 2775 2776 2777 2778 2779 2780
}

collapse_area_CR1 = {
	2791 2792 2793 2794 2795 2796 2797 2798 2799 2800
}

collapse_area_SD1 = {
	280
}

collapse_area_ND9 = {
	2806 2807 2808 2809 2810 2811 2812 2813 2814 2815 2819 2926 2930
}

collapse_area_ND3 = {
	2816
}

collapse_area_NE2 = {
	2817 2923 2924
}

collapse_area_CR4 = {
	2821 2822 2823 2824 2825 2826 2827 2828 2829 2830
}

collapse_area_CR5 = {
	2831 2832 2833 2834 2835 2836 2837 2838 2839 2840
}

collapse_area_CS1 = {
	2841 2842 2843 2844 2845 2846 2847 2848 2849 2850
}

collapse_area_CS2 = {
	2858
}

collapse_area_CS3 = {
	2866
}

collapse_area_CS4 = {
	2871 2872 2873 2874 2875 2876 2877 2878 2879 2880
}

collapse_area_CS5 = {
	2881 2882 2883 2884 2885 2886 2887 2888 2889 2890
}

collapse_area_CS6 = {
	2891 2892 2893 2894 2895 2896 2897 2898 2899 2900
}

collapse_area_CS7 = {
	2903
}

collapse_area_CS8 = {
	2915
}

collapse_area_WIT = {
	2932 7111 7112
}

collapse_area_NA4 = {
	2941 2942 2945 2949 2950
}

collapse_area_CT2 = {
	2953
}

collapse_area_CT3 = {
	2961 2962 2963 2964 2965 2966 2967 2968 2969 2970
}

collapse_area_CT4 = {
	2971 2972 2973 2974 2975 2976 2977 2978 2979 2980
}

collapse_area_CT5 = {
	2981 2982 2983 2984 2985 2986 2987 2988 2989 2990
}

collapse_area_SE2 = {
	302 306 470 4803
}

collapse_area_NF0 = {
	3029 3033 3035 3043 3046 3054 3055 3103 7136
}

collapse_area_SB1 = {
	303 307 4651 4653 4723
}

collapse_area_NB8 = {
	3034 3047 3049 3052 3053 3062
}

collapse_area_NC6 = {
	3036 3051 7141 7143 7281 7288
}

collapse_area_SD8 = {
	304 4656 4751 4754 4755 4757 4828 4829 6954
}

collapse_area_HH2 = {
	3045 3050 3060 6074 6166 7102 7282
}

collapse_area_SD0 = {
	305 456 461 4635 466 4742 4748 4750 4802
}

collapse_area_BC9 = {
	3059 3064 3066 6886 6887 7069 7070 7075
}

collapse_area_NC3 = {
	3079 7173 7204 7216 7217 7218
}

collapse_area_SA5 = {
	308 4652 4654 4655 4832 4833 4834 4835 4836 4837 4838
}

collapse_area_NF5 = {
	3090 7123
}

collapse_area_FRS = {
	3119 5895 5896 5897
}

collapse_area_NG0 = {
	3121
}

collapse_area_NC9 = {
	3126
}

collapse_area_NF9 = {
	3127 3128 3129 3133 3135
}

collapse_area_CU1 = {
	3141 3142 3143 3144 3145 3146 3147 3148 3149 3150
}

collapse_area_CU2 = {
	3151 3152 3153 3154 3155 3156 3157 3158 3159 3160
}

collapse_area_CU3 = {
	3161 3162 3163 3164 3165 3166 3167 3168 3169 3170
}

collapse_area_CU4 = {
	3171 3172 3173 3174 3175 3176 3177 3178 3179 3180
}

collapse_area_CU5 = {
	3181 3182 3183 3184 3185 3186 3187 3188 3189 3190
}

collapse_area_MA1 = {
	3196 3319 950 951 952 953
}

collapse_area_RIE = {
	3199
}

collapse_area_MA2 = {
	3201 3206 3207 3208 955
}

collapse_area_MH8 = {
	3202 3203 3209
}

collapse_area_MC5 = {
	3204 3326 3330 3341 959 960 961 962
}

collapse_area_MH3 = {
	3210 3329 3390 4669 954 956 957 958
}

collapse_area_MA3 = {
	3211 3212 3213 3388 3389 3391 963 965 968
}

collapse_area_MC9 = {
	3214 3359 3360 3371 3372 3373 3374 3375 3376 3377 3380 3381
}

collapse_area_MA6 = {
	3215 3382 3385 3387 3397
}

collapse_area_MA5 = {
	3216 3217 3218 3219 3220 3392 3393 3394 3395 3411 3415 3418 3424 3425 3431 3439 3440 969 970 971 972 973
}

collapse_area_MI1 = {
	3221 3396 3398 3399 3400 3406 3407 3408 3412 3413 3414 3799 977 978
}

collapse_area_MD3 = {
	3222 3416 3417 3419 3420 3432 3433 3434 3435 3436 3437 3438 3795
}

collapse_area_ME1 = {
	3223 3781 3782 3783 3787 3788 3789 3790
}

collapse_area_MF0 = {
	3224 3225 3235 3784 3785 3786 3952 3956 3957
}

collapse_area_AC5 = {
	3228 6501 6509 6573 6581
}

collapse_area_RAA = {
	3231 3232 3774 3776 3959 984 985 986
}

collapse_area_ME2 = {
	3233 3960 988
}

collapse_area_MF1 = {
	3234 3954 3955 3958 3965 3966 3967 3968
}

collapse_area_MD9 = {
	3236 3801 3802 3803 3804 3806 3807 3808 3809 3810 3836
}

collapse_area_MA9 = {
	3237 3238 3239 3805 3824 3825 3837 3840 3853 989 990 991 992 993
}

collapse_area_ME8 = {
	3240 3831 3832 3833 3834 3851 3852 3855
}

collapse_area_MB0 = {
	3241 3242 3243 3244 3245 3844 3845 3846 3847 3848 994 995 996 998
}

collapse_area_MC0 = {
	3246 3854 3856 3953
}

collapse_area_MB1 = {
	3248 3857 3859
}

collapse_area_MF5 = {
	3262 3999 4006 4007 4008 4009 4010 4011 4012 4014 4015 4016 5501
}

collapse_area_MF7 = {
	3263 3945 3994 3995 3996 3997 3998 4001 4002 4003 4004
}

collapse_area_MG0 = {
	3266 3267 4037 4038 4039 4040 4051 4053 4054 4056 4091
}

collapse_area_MI0 = {
	3268
}

collapse_area_MJ9 = {
	3291 3292 3293 4251 6226
}

collapse_area_SKA = {
	3315
}

collapse_area_MJ0 = {
	3316 3317 3318 3320 949
}

collapse_area_MC4 = {
	3321 3322 3323 3324 3331 3332 3333 3335 3336 3337 3339 3340
}

collapse_area_MH1 = {
	3325 3327 3328
}

collapse_area_MC8 = {
	3334 3361 3362 3363 3364 3365 3366 3367 3368 3369 3370 3386 964 966
}

collapse_area_MC7 = {
	3338 3351 3352 3353 3354 3355 3356 3357 3358
}

collapse_area_MC6 = {
	3342 3343 3344 3345 3346 3347 3348 3349 3350
}

collapse_area_MD0 = {
	3378 3379 3383 3384 3401 3402 3403 3404
}

collapse_area_MD8 = {
	3405 3791 3792 3794 3796 3797 3798 3800 3975
}

collapse_area_MD1 = {
	3409 3410
}

collapse_area_MD4 = {
	3421 3422 3423 3426 3427 3428 3429 3430
}

collapse_area_YB3 = {
	3443
}

collapse_area_YA4 = {
	345
}

collapse_area_YB4 = {
	3451 3452 3453 3454 3455 3456 3457 3458 3459 3460
}

collapse_area_YB5 = {
	3461 3462 3466 3467 3468 3469 3470
}

collapse_area_IA1 = {
	3471 3472 3473 3474 3475 3476 3477 3478 3479 3480
}

collapse_area_IA2 = {
	3481 3482 3484 3485 3487 3488
}

collapse_area_IA3 = {
	3491 3492 3494 3496 3499
}

collapse_area_KAA = {
	3495
}

collapse_area_YA5 = {
	350
}

collapse_area_IA4 = {
	3501 3502 3503 3505 3507 3509
}

collapse_area_IA5 = {
	3511 3512 3514
}

collapse_area_IA6 = {
	3521 3524 3529 3530
}

collapse_area_UA8 = {
	3531 3532 3533 3534 3535 3536 3537 3538 3539 3540
}

collapse_area_UA9 = {
	3541 3543 3544
}

collapse_area_UB0 = {
	3555 3556 3557 3558 3559 3560
}

collapse_area_UB1 = {
	3565
}

collapse_area_UB2 = {
	3571 3572 3576 3578
}

collapse_area_UB3 = {
	3586
}

collapse_area_UB4 = {
	3595
}

collapse_area_UB5 = {
	3601 3602 3603 3604 3606 3609 3610
}

collapse_area_OB5 = {
	3625 3626 3627
}

collapse_area_TB3 = {
	3631 3632 3633 3634 3635 3636 3637 3638 3639 3640
}

collapse_area_TB4 = {
	3641 3642 3643 3644 3645 3646 3647 3648 3649 3650
}

collapse_area_TB5 = {
	3651 3652 3653 3654 3655 3656 3657 3658 3659 3660
}

collapse_area_DS1 = {
	3763
}

collapse_area_DZ5 = {
	3768 3769 3770 4351 4352 4353 4354 4355 4356 4357 4358 4359 4360
}

collapse_area_MD6 = {
	3772 3773 3775 3777 3778 3779 3780 974 975 976
}

collapse_area_MF3 = {
	3793 3971 3972 3974 3979 3980 3981 3982 3983 3984
}

collapse_area_ME0 = {
	3811 3812 3813 3814 3815 3816 3817 3818 3819 3820 3821 3822 3823 3826 6446 6447 6516
}

collapse_area_AE2 = {
	3827 3828 3829 3830 6449 6513 6514 6633 979 983
}

collapse_area_ME7 = {
	3849 3850 3928 3929 3930 3931 3932 3933 3934 3935 3936 3937
}

collapse_area_MA4 = {
	3860 3964 3973 3976 3977 3978 3985 3986 3988 987
}

collapse_area_DT1 = {
	3861 3862 3863 3864 3865 3866 3867 3868 3869 3870
}

collapse_area_DT2 = {
	3871 3872 3873 3874 3875 3876 3877 3878 3879 3880
}

collapse_area_DT3 = {
	3881 3882 3883 3884 3885 3886 3887 3888 3889 3890
}

collapse_area_DT4 = {
	3891
}

collapse_area_ME5 = {
	3901 3902 3903 3904 3905 3906 3907 3908 3909 3910 3911 3912 3913 5307 6026 997
}

collapse_area_ME6 = {
	3914 3915 3916 3917 3918 3919 3920 3921 3922 3923 3924 3925 3926 3927
}

collapse_area_MH6 = {
	3938 3947 3949 3951 4000
}

collapse_area_ME9 = {
	3939 3940 3941 3942 3943 3944 3946 3948 3961 3963 3969 3970 4005
}

collapse_area_MH9 = {
	3987
}

collapse_area_MF6 = {
	4013 4050
}

collapse_area_MK1 = {
	4055 4057 4058 4059 4060
}

collapse_area_DW1 = {
	4061 4062 4063 4064 4065 4066 4067 4068 4069 4070
}

collapse_area_DW2 = {
	4071 4072 4073 4074 4075 4076 4077 4078 4079 4080
}

collapse_area_MA8 = {
	4092 4093 4094 4095 4098 4099
}

collapse_area_MG3 = {
	4101 4102 4103 4104 4105 4106 4107 4108
}

collapse_area_MG7 = {
	4126 4127 4128 4129 6064 6096
}

collapse_area_MJ2 = {
	4130 4131 4132
}

collapse_area_MG6 = {
	4138
}

collapse_area_DW9 = {
	4143
}

collapse_area_DX0 = {
	4151 4152 4153 4154 4155 4156 4157 4158 4159 4160
}

collapse_area_DX1 = {
	4162
}

collapse_area_DX2 = {
	4171
}

collapse_area_DX3 = {
	4189
}

collapse_area_DX4 = {
	4194
}

collapse_area_MI5 = {
	420 4209 4210 4214 4225
}

collapse_area_MC2 = {
	4228 4229 4230
}

collapse_area_SAL = {
	4265 4271 4272 4275
}

collapse_area_DX5 = {
	4287
}

collapse_area_DY9 = {
	4298
}

collapse_area_DZ1 = {
	4311 4312 4313 4314 4315 4316 4317 4318 4319 4320
}

collapse_area_DZ2 = {
	4321 4322 4323 4324 4325 4326 4327 4328 4329 4330
}

collapse_area_DZ3 = {
	4331 4332 4333 4334 4335 4336 4337 4338 4339 4340
}

collapse_area_DZ4 = {
	4344
}

collapse_area_SC5 = {
	4621 4711 4713 4714 4771 4791
}

collapse_area_SC0 = {
	4640 4738 4739 4740 4765 4766 4769 4770
}

collapse_area_SD6 = {
	4646 4648 4650 4731 4732 4734 4735 4736 4737
}

collapse_area_SC4 = {
	4712 4775 4777 4778 4780
}

collapse_area_VB7 = {
	472 4858 4881 4884 4957 4958 4969 4971 850 851
}

collapse_area_SC1 = {
	4743 4744 4746 4830
}

collapse_area_SE3 = {
	4745 4749 4752
}

collapse_area_VB4 = {
	475 4909 5023 5026 5027 5030 855 875 878
}

collapse_area_SE6 = {
	4810
}

collapse_area_VD9 = {
	4841 4914
}

collapse_area_VA1 = {
	4842 4844 4864 4865 4899 4903 4951 809 810 811 812 813 873
}

collapse_area_VA4 = {
	4846 4904 4905 814 816 871
}

collapse_area_ED2 = {
	4847 4902 5048 5049 5050 5052 5053 5054
}

collapse_area_VA2 = {
	4851 4856 4861 4946 4947 4977 4984 4994 4997 5000 5002 5006 5009 5010 5011 5038 5041 5042 5045 5059 825 826 831 832
}

collapse_area_VB5 = {
	4852 4855 4913 4953 5061 6036 818 868 880 882
}

collapse_area_VB0 = {
	4859 4868 4870 4871 4900 4966 4999 5018 5201 5202 5204 5258 5259 827 841 853 919
}

collapse_area_VA6 = {
	4860 4869 828 834 837
}

collapse_area_VC9 = {
	4862 4863 4901 5019 5021 5055 817 830 869
}

collapse_area_VA8 = {
	4872 4877 5102 840 844 845 846 847 848
}

collapse_area_EB9 = {
	4873 4874 4879 4880 4882 4883 835 839 849 852
}

collapse_area_VB2 = {
	4876 4967 4968 5101 5260 838 842
}

collapse_area_VE0 = {
	4888 4890 4956 4990 854 859
}

collapse_area_VC0 = {
	4891 4892 4893 4894 4895 861 862
}

collapse_area_VA7 = {
	4897 4911 4917 5085 5306 865 872 879
}

collapse_area_VD3 = {
	4906 4929 858
}

collapse_area_VD1 = {
	4908 4926 4927 4928 4931 4933 4983 4985 5017 5022 833 870 877
}

collapse_area_VB6 = {
	4916 4918 4919 4923 4924 4925 5203
}

collapse_area_VB3 = {
	4936 4937 4938 4939 4940 4960 4961 4963 4972 4975 4986 4987 4988 4991 856
}

collapse_area_VC6 = {
	4948 4979 821
}

collapse_area_VD4 = {
	4993 4995 5044 824
}

collapse_area_VC5 = {
	4996 5003
}

collapse_area_VC4 = {
	5001
}

collapse_area_VB9 = {
	5004 5024 5040 819 823
}

collapse_area_VA9 = {
	5012 5065 5096 5241 5242 5247 836
}

collapse_area_VD7 = {
	5016 5020 6046
}

collapse_area_ED1 = {
	5047 5051 5206 5243 5291 815 906
}

collapse_area_VD5 = {
	5056 5057 5058 5060 5062 5063 5064 5171 829
}

collapse_area_EC1 = {
	5066 5131 5245 5251 5282 5292 5296 903
}

collapse_area_EB4 = {
	5067 5089 5133 5136 5211 5214 5297 5575 887
}

collapse_area_ED0 = {
	5068 5080 5108 5279 901 935
}

collapse_area_EC8 = {
	5069 5091 5198 5230 5236 6975 896 898 907 939
}

collapse_area_EA3 = {
	5070 5082 5139 5218 5277
}

collapse_area_EA6 = {
	5074 5078 5107 5110 5123 5130 5140 5145 5149 5209 5210 5237 5239 5253 5269 892 909 911 912
}

collapse_area_EB3 = {
	5075 5083 5084 5087 5099 5134 5215 5244 5295 5300 884 899 902 908 924
}

collapse_area_EC3 = {
	5076 5077 5079 5092 5125 5141 5142 5144 5146 5148 5221 5222 5224 5225 5226 5231 5232 5233 5235 5238 894 895
}

collapse_area_EB2 = {
	5081 5095 5098 5100 5177 5266 5281 5287 5288 5289 5294 5298 885 915
}

collapse_area_EC2 = {
	5086 5216 5284 886 918
}

collapse_area_EA4 = {
	5088 5097 900 904 917
}

collapse_area_EA7 = {
	5090 5168 5169 5170 5185 5271 5283 930 931 932
}

collapse_area_EC6 = {
	5093 5106 5135 5137 5138 5213
}

collapse_area_TEN = {
	5094 5240 5263 910
}

collapse_area_EA8 = {
	5103 5105 5151 5176 5180 5275 5276 922 923
}

collapse_area_EC4 = {
	5104 5143 5147 5223 5228 5229 5290 944
}

collapse_area_EB1 = {
	5116 5117 5118 5119 5120 5166 5167 5212 933 934 936 937
}

collapse_area_EB8 = {
	5121 5122 5126 5127 5128 5129 5191 5192 5193 5194 5195 5196 5234 5270 938 943 946
}

collapse_area_EA9 = {
	5124 5161 5162 5174 5187 5200 5227 5261 897 940 941 942
}

collapse_area_EA1 = {
	5132 5323 5560 5562 5573 5574 5577 5578 5579 5580 5585 5587 5588 5590 5591 5593 5619 5620
}

collapse_area_EB6 = {
	5150 5152 5153 5154 5155 5156 5157 5158 5159 5160 5179 5280 914 929 948
}

collapse_area_EB0 = {
	5172 5173 5182 5207 5208 5254 5272 5274 920 925
}

collapse_area_EC0 = {
	5175 5181 5183 5186 5188 5256 5267 5273 921 926 927
}

collapse_area_EB7 = {
	5184 5197 5199 5262 5264 945 947
}

collapse_area_EC7 = {
	5205 5248 5249 5250
}

collapse_area_EA5 = {
	5217 5219 905
}

collapse_area_EC5 = {
	5246 5286 5293 5299 893 916
}

collapse_area_HOW = {
	5252
}

collapse_area_EC9 = {
	5255 5257 5265 5268 5278 5285
}

collapse_area_CA5 = {
	5301 5481 5488
}

collapse_area_CE6 = {
	5311 5529 5540 5546
}

collapse_area_CB3 = {
	5315 5531 5532 5557 5564 5565 5567 6427
}

collapse_area_CK0 = {
	5319
}

collapse_area_CD0 = {
	5320 5603
}

collapse_area_CC8 = {
	5357 5358 5678 5829
}

collapse_area_CG2 = {
	5361 5777 5811 5815 5818 5820
}

collapse_area_CD5 = {
	5365 5643 5782 5786 5806 5822 5823
}

collapse_area_CD4 = {
	5430 5928 6054 6055 6056 6057 6058 6059
}

collapse_area_TPL = {
	5441 5442 5443 5444 5445
}

collapse_area_AF2 = {
	5458
}

collapse_area_CD3 = {
	5484 5485 5489 5490 5496 5497 5498
}

collapse_area_CB9 = {
	5486 5491 5495 5499 5500 5511 5512 5513 5515 5516 5517 5519
}

collapse_area_CH9 = {
	5492 5493 5904 5906 5909 5911 5913 5929 5930 5945 5947 5987
}

collapse_area_HG2 = {
	5507 6242
}

collapse_area_CB7 = {
	5534 5536 5537 5539
}

collapse_area_VD0 = {
	5592 5594 5595 5596 5611 5612
}

collapse_area_VD6 = {
	5597 5598 5599 5600 5601 5602
}

collapse_area_CJ7 = {
	5607
}

collapse_area_CC9 = {
	5624 5663 5672 5674 5675 5676 5679 5742 5743 5748 5749 5768 5769 5770 6035
}

collapse_area_CE2 = {
	5631 5637 5839 5840
}

collapse_area_CE1 = {
	5632 5636 5827 5828 5831 5832 5847 5848 5849
}

collapse_area_CJ4 = {
	5649 5666 5787 5789 5821
}

collapse_area_CD6 = {
	5650 5655 5659 5776 5783 5819
}

collapse_area_CC3 = {
	5685 5686 5692 5706
}

collapse_area_HE8 = {
	5712 5746 5750 5753 5758 5798
}

collapse_area_HA4 = {
	5756 6071 6073 6171 6179 7265 7274
}

collapse_area_JB0 = {
	580 582 583
}

collapse_area_CE3 = {
	5814 5843 5844
}

collapse_area_CI9 = {
	5841 5842 5845 5850
}

collapse_area_CH0 = {
	5851 5852 5853 5854
}

collapse_area_CJ9 = {
	5867
}

collapse_area_JB1 = {
	587
}

collapse_area_CJ1 = {
	5882 5884 5886 5889 5890
}

collapse_area_CE9 = {
	5903 5916 5917 5919 5961
}

collapse_area_JB2 = {
	593
}

collapse_area_CJ5 = {
	5996
}

collapse_area_CJ8 = {
	6031
}

collapse_area_CJ6 = {
	6040
}

collapse_area_HC0 = {
	6070 6156 6158 6184 6195 6209
}

collapse_area_HE0 = {
	6075 6982 7110 7167 7168 7169 7215 7237 7240 7253
}

collapse_area_HF8 = {
	6088 6187 6201 6208 6211 6212 6213 6215 6258 6290 6293 7284
}

collapse_area_HC7 = {
	6089 6246 6249 6255 6257 6259 6263 6264 6276 6277 6280
}

collapse_area_HE1 = {
	6092 6093 6094 6095 6124 6333 6352 6353 6357 6368 6392 6397 6433
}

collapse_area_HB7 = {
	6104 6302 6304 6307 6308 6312 6313 6314 6325
}

collapse_area_HB8 = {
	6110 6284 6285
}

collapse_area_HF2 = {
	6127 6235 6318 6323 6335
}

collapse_area_HC6 = {
	6162 6164 6173
}

collapse_area_HD9 = {
	6229 6350 6351 6376 6380 6404 6409 6410 6415 6417 6419
}

collapse_area_HD0 = {
	6233 6354 6369 6370 6400
}

collapse_area_HG9 = {
	6247
}

collapse_area_HB5 = {
	6248 6261 6262 6267
}

collapse_area_HG6 = {
	6251
}

collapse_area_HD5 = {
	6334 6337 6344 6358 6360 6371 6372 6377 6412
}

collapse_area_HF1 = {
	6363 6366 6378 6379 6411 6416 6418 6420
}

collapse_area_AE6 = {
	6443 6444 6445 6491 6492 6495
}

collapse_area_AD4 = {
	6448 6525 6526 6527 6528 6529 6530 6531 6532
}

collapse_area_AB8 = {
	6452 6566 6570 6572
}

collapse_area_AE5 = {
	6456 6489 6543 6544 6545 6546 6547 6548 6549 6550 6553 6718
}

collapse_area_AF3 = {
	6460
}

collapse_area_AD0 = {
	6478 6479 6781 6782 6783 6784 6785 6786 6787 6788 6789 6790
}

collapse_area_KME = {
	6483 6484 6485
}

collapse_area_AD3 = {
	6486 6487 6488 6490 6643 6683 6686 6687 6762 6763 6764 6765 6774 6775 6776 6780
}

collapse_area_AC0 = {
	6499 6506 6587 6598 6600 7002
}

collapse_area_AA3 = {
	6502 6503 6504 6505 6512 6518 6568
}

collapse_area_AE0 = {
	6515 6517 6519 6520 6521 6522 6523 6524
}

collapse_area_OB0 = {
	654
}

collapse_area_AC4 = {
	6551 6552 6555 6557 6559 6560 6561 6563 6564 6569 6574 6772
}

collapse_area_AD1 = {
	6554 6556 6558 6760 6766 6767 6768 6769 6770 6771
}

collapse_area_AE7 = {
	6571 980
}

collapse_area_AC8 = {
	6583 6584 6591 6592 6593 6594 6597 6599
}

collapse_area_AC3 = {
	6641 6642 6644 6645 6646 6647 6649 6661 6662 6681 6682 6684
}

collapse_area_AC2 = {
	6653 6654 6655 6656 6657 6658 6659 6816
}

collapse_area_AD9 = {
	6663 6748 6811 6813
}

collapse_area_AD2 = {
	6676 6677 6679 6680 6685 6688 6689 6690 6691 6692 6693 6694 6695 6696 6697 6698 6699 6700 6761
}

collapse_area_AD7 = {
	6678 6817 6818
}

collapse_area_AB6 = {
	6707 6714 6715 6717 6719 6720 6723 6724 6726 6727 6728 6729 6730 6752 6753 6754 6755 6756 6757 6758
}

collapse_area_AF6 = {
	6712
}

collapse_area_AD6 = {
	6742 6743 6744 6745 6747
}

collapse_area_AF1 = {
	6750
}

collapse_area_AE1 = {
	6791 6792 6793 6794 6795 6796 6798 6799 6800 6801 6802 6803
}

collapse_area_AE4 = {
	6797
}

collapse_area_AE9 = {
	6812 6819
}

collapse_area_AB3 = {
	6814
}

collapse_area_BB7 = {
	6846 6847 6848 6849 6850 6851 6917 6936 6942 6945 6957 6979
}

collapse_area_BF0 = {
	6861
}

collapse_area_BC5 = {
	6869 7001 7017 7018 7019 7020 7021 7022
}

collapse_area_BB2 = {
	6873
}

collapse_area_BF1 = {
	6878
}

collapse_area_BC1 = {
	6880 6958 7047 7048 7051
}

collapse_area_BE6 = {
	6885 6968 7032 7034 7035
}

collapse_area_BA5 = {
	6891 6892 7057 7059 7060 7061 7062 7064 7065 7072
}

collapse_area_BA7 = {
	6896 7006 7007 7008 7011 7012 7068
}

collapse_area_BD8 = {
	6905 7052 7053 7054 7055
}

collapse_area_BA2 = {
	6912 6913 6914 6915
}

collapse_area_BC7 = {
	6925 7042 7043 7044 7045
}

collapse_area_BB5 = {
	6927 6933
}

collapse_area_BE4 = {
	6929
}

collapse_area_BB9 = {
	6946 6963
}

collapse_area_BC0 = {
	6950 6951 6953 6961 6969
}

collapse_area_BB3 = {
	6955 6970 6971 6972 6973 6974 6976 6980 7027 7033
}

collapse_area_BC8 = {
	6986 6988 6989 6990 6993 6994 6995 7015 7046 7049 7050
}

collapse_area_BC2 = {
	6999 7000 7003 7005 7016
}

collapse_area_BC4 = {
	7010
}

collapse_area_BC3 = {
	7056
}

collapse_area_NC8 = {
	7162 7245 7254 7276 7289
}

collapse_area_NB7 = {
	7166 7197 7198 7205 7206 7207 7209 7210 7211 7212
}

collapse_area_ND6 = {
	7203
}

collapse_area_HF4 = {
	7238 7249 7252
}

collapse_area_HC8 = {
	7239 7242
}

collapse_area_ND4 = {
	7246
}

collapse_area_HC2 = {
	7279 7285
}

collapse_area_ND5 = {
	7308 7312 7313 7317 7319 7320
}

collapse_area_MH0 = {
	967
}

collapse_area_57_MB2 = {
	1004
}

collapse_area_57_MB3 = {
	1009 1010 3256 3257 3258 3259 3989 3990 4030 4034
}

collapse_area_57_MA7 = {
	1011 1012 1013 3260 4017 4018 4019 4020 4028 4029 4031 4032 4033 4035 4036 4052
}

collapse_area_57_MB4 = {
	1017
}

collapse_area_57_MB5 = {
	1019
}

collapse_area_57_MB9 = {
	1023
}

collapse_area_57_MG1 = {
	1025 1032 1033 4087 4088 4090
}

collapse_area_57_MB6 = {
	1028
}

collapse_area_57_SED = {
	1035
}

collapse_area_57_MB8 = {
	1036
}

collapse_area_57_MG4 = {
	1037 4114 4115 4117
}

collapse_area_57_MK0 = {
	1039 1040 1041 1042 3771
}

collapse_area_57_SOT = {
	1043
}

collapse_area_57_MD5 = {
	1045
}

collapse_area_57_MD2 = {
	1046
}

collapse_area_57_MI7 = {
	1048
}

collapse_area_57_MJ1 = {
	1049 1050 1051 1052 3296 3310 6227 6228
}

collapse_area_57_TON = {
	1062 2359 2366 2367 2395 2399 2421 2491 4205 423 4231 4232 4234 4235 424 4240 425 4256 4261 4262 7321 7322 7323 7324
}

collapse_area_57_AA1 = {
	1064
}

collapse_area_57_AA2 = {
	1069
}

collapse_area_57_AC6 = {
	1071 1078 6507
}

collapse_area_57_AB0 = {
	1075
}

collapse_area_57_AA7 = {
	1080
}

collapse_area_57_AA4 = {
	1081
}

collapse_area_57_AB7 = {
	1082
}

collapse_area_57_AF4 = {
	1085
}

collapse_area_57_AA5 = {
	1087
}

collapse_area_57_AD8 = {
	1092
}

collapse_area_57_AC9 = {
	1096
}

collapse_area_57_AA8 = {
	1098
}

collapse_area_57_AB5 = {
	1101
}

collapse_area_57_AA9 = {
	1106
}

collapse_area_57_AF5 = {
	1112
}

collapse_area_57_CA1 = {
	1117 1118 1120 1121 5302 5303 5304 5305 5482 5483 6408
}

collapse_area_57_PER = {
	1119 5656 5663 5676 5679 5680 5742 5743 5748 5749 5761 5762 5763 5764 5765 5766 5767 5768 5770 5771 5772 5773 5778 5791 5792 5793 5796 5801 5802 5804 5807 6035
}

collapse_area_57_NB1 = {
	1122 1314 2714 2765 2944 2946
}

collapse_area_57_CG9 = {
	1123 1124 5308 5309 5455 5457 5459 5460 5477 5479 5502 5508
}

collapse_area_57_CH1 = {
	1125 1201 1202 1203 1204 1205 1206 1207 1208 1209 5386 5387 5388 5389 5390 5393 5394 5395 5918 5960 5962 5963 5964 5965 5966 5967 5968 5969 5970 5995 5997 6034
}

collapse_area_57_ALG = {
	1126 5448 5449 5450 5451 5452 5453 5454 5456 5461 5462 5463 5464 5465 5466 5467 5468 5469 5470 5471 5472 5952
}

collapse_area_57_CG7 = {
	1128 1132 1133 1136 5533 5534 5537 5538 5543 5545 5549 5552 5556 5894
}

collapse_area_57_CD2 = {
	1129 1138 5368 5614 5615 5639 5651 5652 6387
}

collapse_area_57_CH2 = {
	1130 1131 5313 5514 5518 5520 5527 5528 5536 5539 5548 5551
}

collapse_area_57_CH5 = {
	1134 5316 5535 5541 5542 5544 5547 5550
}

collapse_area_57_CA4 = {
	1135 5322 5530 5559 5563 5569 5570 5572 5583 5589
}

collapse_area_57_CH6 = {
	1137 1185 1186 1191 5367 5621 5775 5790 6424
}

collapse_area_57_CB0 = {
	1139 1188 1511 5311 5312 5372 5373 5374 5529 5540 5546 5604 5606 5633 5641
}

collapse_area_57_CA8 = {
	1140 1190 5321 5326 5371 5561 5566 5581 5645
}

collapse_area_57_CB1 = {
	1141 1142 1145 5324 5375 5582 5618 5635 5817
}

collapse_area_57_CC7 = {
	1143 1146 5325 5327 5333 5334 5364 5584 5605 5609 5610 5617 5666 5667 5668 5669 5787 5830
}

collapse_area_57_CA6 = {
	1144 1177 1182 5369 5370 5613 5616 5622 5623 5625 5628 5634 5640 5646 5661 5665 5780 5788 5816 5825
}

collapse_area_57_CD1 = {
	1147 1178 1183 5363 5608 5626 5671 5673 5781 5826
}

collapse_area_57_CC5 = {
	1148 1176 5360 5698 5699 5711 5722 5731
}

collapse_area_57_CH3 = {
	1149 1150 1151 1165 1166 5328 5329 5331 5332 5335 5339 5340 5342 5356 5685 5686 5689 5692 5706 5710 6435
}

collapse_area_57_CC6 = {
	1152 1174 1175 5343 5662 5677 5701 5707 5714 5715 5718
}

collapse_area_57_CH4 = {
	1153 1154 1155 1156 1157 1158 1159 1160 1161 1162 1163 4850 5336 5337 5338 5341 5344 5347 5349 5350 5682 5683 5684 5688 5719
}

collapse_area_57_CF5 = {
	1164 1167 5690 5693 5695 5696 5705 5721 6131 6438
}

collapse_area_57_CC1 = {
	1168 5345 5346 5348 5353 5354 5691 5709 6132 6141
}

collapse_area_57_CC4 = {
	1170 1172 1173 5330 5359 5664 5694 5697 5704 5708 5716 5774 6134
}

collapse_area_57_ABE = {
	1171 5351 5352
}

collapse_area_57_CF0 = {
	1179 1181 1189 5362 5642 5648 5654 5657 5658 5786 5806 5822
}

collapse_area_57_CE0 = {
	1180 5361 5509 5795 5799 5803 5805 5808 5809 5810 5820
}

collapse_area_57_CB4 = {
	1184 5638 5660 5777 5811 5812 5813 5815 5818 5846
}

collapse_area_57_CD7 = {
	1187 5365 5366 5629 5630 5643 5644 5653
}

collapse_area_57_CH7 = {
	1192 1193 1194 1195 1196 5376 5377 5378 5379 5380 5862 5863 5864 5865 5868
}

collapse_area_57_CE2 = {
	1197 5631 5637 5833 5834 5835 5836 5837 5838 5839 5840
}

collapse_area_57_CE5 = {
	1198 1199 1200 5381 5382 5383 5855 5856 5882 5884 5982
}

collapse_area_57_CF6 = {
	1210 1211 1252 5391 5392 5523 5957 5988 5991 5992 5994 5998 5999 6032 6039
}

collapse_area_57_CG3 = {
	1212 1218 1220 1230 1239 5398 5399 5417 5437 5521 5883
}

collapse_area_57_TSS = {
	1213 5866 5870 5871 5872 5873 5874 5875 5876 5878 5879 5881
}

collapse_area_57_CG6 = {
	1214 1216 1229 5310 5396 5397 5409 5410 5411 5412 5415 5440 5503 5504 5510
}

collapse_area_57_CE4 = {
	1215 5851 5852 5853 5854 5858 5859 5860 5861 5869
}

collapse_area_57_CF2 = {
	1217 1237 1238 1240 5421 5422 5424 5425 5902 5907 5908 5941
}

collapse_area_57_CG5 = {
	1219 1223 1226 1253 1255 1256 5402 5403 5404 5405 5438 5439 5953 6041
}

collapse_area_57_CG4 = {
	1221 1222 1224 1227 1228 5401 5406 5407 5473 5474 5475 6022 6051 6052 6053
}

collapse_area_57_CG0 = {
	1225 1244 5429 6011 6013 6018 6019 6020 6021 6023 6024 6025 6027 6028 6029 6030 6042 6043 6045 6047 6048 6049 6050
}

collapse_area_57_NB5 = {
	1231 1334 1336 1338 3027 7119 7146 7147 7148 7149 7150 7303 7304 7305 7306 7309 7310 7311 7316 7318
}

collapse_area_57_CF8 = {
	1232 1234 1247 1248 1250 1251 5416 5431 5432 5433 5436 5989 6000 6033 6038
}

collapse_area_57_CG1 = {
	1233 1249 5400 5418 5419 5420 5434 5524 5857 6008 6037
}

collapse_area_57_MOK = {
	1235 5384 5435 5522 5979 5980 5983 5984 5990 6009 6010
}

collapse_area_57_CF9 = {
	1236 5993 6003 6005 6006 6007 6012 6014 6015 6016
}

collapse_area_57_MIT = {
	1241 5921 5922 5923 5924 5925 5926 5934 5935 5936 5937 5938 5939
}

collapse_area_57_MOG = {
	1242 5426 5427 5428 5977 5981 6017 6060
}

collapse_area_57_CF7 = {
	1243 5940 5973 5976 5978 6001 6002 6004
}

collapse_area_57_ALH = {
	1245 5910 5911 5930 5931 5932 5933 5948 5949 5950 5971 5972 5974 5975
}

collapse_area_57_CF3 = {
	1246 5423 5927 5943 5944 5946 5959
}

collapse_area_57_CF4 = {
	1254 5494 5942 5951 5954 5955 5956 5958
}

collapse_area_57_NG7 = {
	1264 1265 1266 1267 1268 2769 3116 3117 3118 3120 3122 3124 3125 5877 5891 5892 7076 7077 7078 7080
}

collapse_area_57_NA2 = {
	1269 1270 1272 2820 2922 7081 7085
}

collapse_area_57_NE1 = {
	1271 1273 7083
}

collapse_area_57_NA3 = {
	1274 1275 1276 1277 1278 1283 2739 2787 2789 2790 2801 2802 2803 2804 2806 2809 2812 2814 2937 2938 2939 3000 3123 7079 7082 7086 7087 7088 7089 7090 7092 7093
}

collapse_area_57_NG5 = {
	1284 1285 1313 2934 3073 3080 3085 3087 3092 3106 3111 3138 3140 7096 7098 7099 7100 7124 7125 7133
}

collapse_area_57_NG6 = {
	1286 1288 1310 2768 2931 2999 3001 3112 3113 3114 3115 3132 3134 3136 3137 3139 3191 3192 3193 3194 3195 5413 7091 7095
}

collapse_area_57_NF7 = {
	1287 3107 3108 3109 3110 3130 3131
}

collapse_area_57_HH4 = {
	1289 3069 6178 7101 7104 7260 7271 7275 7283
}

collapse_area_57_NG4 = {
	1290 1291 1292 3068 3070 3071 3072 3074 3075 3076 3077 3078 3083 3084 3086 3096 3097 5505 7097 7103 7270
}

collapse_area_57_HF7 = {
	1293 7259 7267 7269 7273
}

collapse_area_57_NB4 = {
	1294 1295 1296 1297 3047 3049 3056 3057 3061 3062 3063 3067 3098 7280
}

collapse_area_57_HF6 = {
	1298 6163 7106
}

collapse_area_57_NA8 = {
	1299 1300 1301 2766 2770 2781 2782 2783 2784 2785 2786 2788 2805 2932 2940 5476 7111 7112
}

collapse_area_57_NB2 = {
	1302 1319 1321 1322 3006 3010 3011 3012 3013 3014 3015 3016 3022 3093 3094 3095 3099 3101 3105 5414 7131 7132 7295
}

collapse_area_57_STA = {
	1303 1309 7113 7114 7115
}

collapse_area_57_NA9 = {
	1304 1305 1306 1307 1308 2696 2699 2700 2712 2713 2715 2720 2731 2732 2733 2734 2735 2736 2761 3018 5408 7116 7117 7118 7120 7130
}

collapse_area_57_NF8 = {
	1312
}

collapse_area_57_NE6 = {
	1315 2764 3008
}

collapse_area_57_NGH = {
	1316 1329 1330 1335 1350 2692 2697 2698 2991 3020 7127 7129 7161 7255 7297 7299 7302 7307
}

collapse_area_57_NF2 = {
	1317 2947 2948 2993 2994 3009 7126
}

collapse_area_57_NF6 = {
	1320 2992 3004 3048 3089 3091 3102 5480 7134 7135
}

collapse_area_57_NG3 = {
	1323
}

collapse_area_57_NB3 = {
	1325 3025
}

collapse_area_57_NF1 = {
	1331 3034 3037 3040 3041 3042 3044
}

collapse_area_57_NC4 = {
	1332 3104 7145 7222 7224 7225 7286 7290 7291
}

collapse_area_57_ND2 = {
	1333 3039 7292 7293 7294
}

collapse_area_57_NE9 = {
	1337 7298 7300 7301
}

collapse_area_57_NB6 = {
	1339 1340 1342 1363 2996 3081 3082 7151 7153 7154 7180 7182 7185 7186 7187 7189 7190 7192 7193 7194 7195 7296 7314 7315
}

collapse_area_57_NA7 = {
	1341 1349 1351 5506 7163 7164 7165 7200
}

collapse_area_57_NC1 = {
	1343 7155 7181
}

collapse_area_57_VOL = {
	1344 1345 3088 7157 7158 7159 7160 7176 7179 7183 7184
}

collapse_area_57_NE4 = {
	1347
}

collapse_area_57_ND7 = {
	1352 1353 1360 7220 7221 7223 7287
}

collapse_area_57_ND1 = {
	1354 1355 1357 3100 7213 7229 7232 7233
}

collapse_area_57_NE5 = {
	1356 7199 7214 7219
}

collapse_area_57_NC5 = {
	1358 1361 7152 7171 7226
}

collapse_area_57_NG1 = {
	1359 7174 7196 7201 7202
}

collapse_area_57_NC0 = {
	1362 7156 7172 7177 7178 7188 7191
}

collapse_area_57_BF2 = {
	1368 1369 1370 1372 1377 6841 6842 6843 6844 6845 6858 6916 6918 6921 6922 6930 6931 6934 6939 7026
}

collapse_area_57_BA3 = {
	1371 1374 1382 1392 1429 6081 6265 6846 6847 6848 6849 6850 6851 6917 6920 6936 6942 6945 6957 6967 6970 6971 6973 6976 6977 6978 6979 6980 6984 6985 6987 6988 6990 6993 7027 7029
}

collapse_area_57_BD1 = {
	1373 1376 6852 6938 6943 6944
}

collapse_area_57_BE6 = {
	1375 6885 6966 6968 7028 7030 7031 7032 7034 7035
}

collapse_area_57_BE5 = {
	1378 1381 6853 6924 6946 6947 6949 6960 6962 6963
}

collapse_area_57_BA6 = {
	1379 1386 1393 1394 1395 1397 6866 6870 6965 6996 6997 6998
}

collapse_area_57_BD3 = {
	1380 1387 6855 6867 6948
}

collapse_area_57_BE4 = {
	1383 1384 1385 6854 6856 6857 6859 6860 6926 6927 6928 6929 6932 6933 6935 6940 6941
}

collapse_area_57_BB6 = {
	1388 1389 1390 1406 6876 6877 6879 6991 6992
}

collapse_area_57_BE9 = {
	1391 6862 6863 6864 6865
}

collapse_area_57_BC0 = {
	1396 6868 6950 6951 6953 6955 6961 6964 6969 6972 6974 7033
}

collapse_area_57_BB2 = {
	1398 1400 6873 6874 6925 7039 7042 7043 7044 7045
}

collapse_area_57_BE7 = {
	1399 1401 1402 6871 6872 6875 7004 7040 7041
}

collapse_area_57_BB1 = {
	1403 1404 1408 1412 1420 6881 6882 6883 7036
}

collapse_area_57_BD5 = {
	1405 1417 1430 1431 1432 6899 6901 6902
}

collapse_area_57_BC1 = {
	1407 6880 6958 6986 6989 6994 6995 7015 7046 7047 7048 7049 7050 7051 7052 7053 7054 7055
}

collapse_area_57_BE2 = {
	1409 1410 6884 7023 7024 7025 7037 7038
}

collapse_area_57_BB0 = {
	1411 1419 1422 1427 6893 6894 6895 6900 6903 6904 7073
}

collapse_area_57_BD6 = {
	1413 6888 6889 6890
}

collapse_area_57_BD0 = {
	1414 1415 1416
}

collapse_area_57_HD8 = {
	1418 7058 7067 7074
}

collapse_area_57_BD7 = {
	1421 1423 1424 1466 1467 6123 6252 6260 6266 6268 6271 6272 6273 6897 6898 6905 6956
}

collapse_area_57_BF3 = {
	1425 6959 7009 7066
}

collapse_area_57_BE8 = {
	1426 1428 7013
}

collapse_area_57_HG5 = {
	1446 1453 5730 5735 5736 5794 6155 6167 6170 6180 6183
}

collapse_area_57_HH5 = {
	1457 1468 6241 7263
}

collapse_area_57_HF5 = {
	1458 5754 6172 6174 6175 6176 6177 6182 6189 7105 7266 7268
}

collapse_area_57_HH3 = {
	1459 6072 6161 7107 7108 7109 7256 7257 7258 7261 7262 7264 7272
}

collapse_area_57_HC9 = {
	1460 5752 7234 7241 7244 7247 7248 7250 7251
}

collapse_area_57_HC4 = {
	1464 6077 6078 6079 6244
}

collapse_area_57_HG9 = {
	1465 6085 6247
}

collapse_area_57_HC3 = {
	1469 6253 7236
}

collapse_area_57_HH6 = {
	1470 5478 6082 6083 6243 6248 6261 6262 6267 6269 7170 7208
}

collapse_area_57_HA9 = {
	1471 1486 1490 6101 6102 6105 6292 6294 6298
}

collapse_area_57_HA6 = {
	1474 6187 6201 6208 6210 6211 6212 6213 6214 6221 6222 6250 6256 6299 6300 7284
}

collapse_area_57_HG8 = {
	1482 6100 6150 6192
}

collapse_area_57_GRH = {
	1489 6290 6295 6301 7071
}

collapse_area_57_HH0 = {
	1496 1497 1498 1499 1500 6111 6112 6113 6114 6115
}

collapse_area_57_HG0 = {
	1501 1502 1503 1504 1505 6116
}

collapse_area_57_HH1 = {
	1509 6117 6118 6119 6120 6361 6362 6396 6402 6406
}

collapse_area_57_IB4 = {
	1535 2208 2209 2210 2211 406 407 408 409 410
}

collapse_area_57_IB5 = {
	1536 1537 2212 2213 2214 411 412 413 414 415
}

collapse_area_57_IB1 = {
	1538 1539 1540 1548 1803 1818 1820 1821 3471 3472 3473 3474 3475 3476 3477 3478 3479 3480 799 805
}

collapse_area_57_IB0 = {
	1541 1542 1543 1544 1817
}

collapse_area_57_IA8 = {
	1545 1546 1547 1549 1550 1804 1805 1806 1807 1808 1813 1814 1815 1816 1819 800 801 802 803 804
}

collapse_area_57_PB8 = {
	1552
}

collapse_area_57_PA2 = {
	1553 2009 218
}

collapse_area_57_PA4 = {
	1556 1563 1564 2012 2033 222 224 225 237 238 239 245
}

collapse_area_57_PC1 = {
	1557 2014 2015 2016 2069 2070 2071 223
}

collapse_area_57_PA6 = {
	1559 1560 1561 1562 2020 2021 2022 2035 235 236 240 241
}

collapse_area_57_DA1 = {
	1565 1566 2185 2186 2187 2230 2232 2233 2234 2240 2241 2242 2243 2244 2245 2246 2248 2249 357 358 359 361 362 431 432 433 434 435
}

collapse_area_57_DC2 = {
	1567 1568 2191 2192 2193 2324 2325 2326 2327 2329 2330 2331 2332 2333 2334 2335 2470 2471 2472 2473
}

collapse_area_57_DA3 = {
	1569 1570 2188 2190 2455 2456 2457 2458 363 364 365 379 387 446 447 449 450
}

collapse_area_57_DA4 = {
	1571 1572 2194 2292 2293 2294 2297 2298 2299 380 381 382 385 386
}

collapse_area_57_DA5 = {
	1574 2278 2320 2321 2322 2328 372 373 374 375
}

collapse_area_57_DA6 = {
	1575 1576 2200 2201 2202 2270 2271 2272 2273 2279 377 378 383 384 388
}

collapse_area_57_JA1 = {
	1577 1578 1725 1726 1727 535 536 537 538 539
}

collapse_area_57_JA2 = {
	1579 1580 1581 1582 1728 1729 1731 1732 1733 542
}

collapse_area_57_JA4 = {
	1583 1584 1587 1588 1734 1735 1736 1737 1738 550 551 552 553 554 555 560 561 562 563 564
}

collapse_area_57_JA7 = {
	1589 1590 1743 1744 1745 565 566 567 568 569
}

collapse_area_57_JA8 = {
	1591 1592 1740 1741 1742 1746 1747 1748 1765 1766 570 571 572 573 574
}

collapse_area_57_JA9 = {
	1593 1749 1751 575 576
}

collapse_area_57_JB0 = {
	1594 1750 580 582 583
}

collapse_area_57_JB4 = {
	1603 1604 1764 602 603
}

collapse_area_57_TB5 = {
	1605 1606 1612 1613 1614 3654 3655 3656 3657 3658 681 697 698 701
}

collapse_area_57_TA1 = {
	1607 1608 1609 677 678 679 680
}

collapse_area_57_TA2 = {
	1610 1611 682 683 684 685 686
}

collapse_area_57_TA3 = {
	1615 1616 1617 3648 3650 688 691
}

collapse_area_57_TA6 = {
	1618 1619 1625 1626 1627 1628 1660 1661 687 689 690 702 703 704 705 706 732 733 734 736
}

collapse_area_57_TA4 = {
	1620 1621 1622 1623 693 694 695
}

collapse_area_57_TA5 = {
	1624 1630 1631 692 696 699 700
}

collapse_area_57_ELZ = {
	1629
}

collapse_area_57_TB4 = {
	1632 1633 1634 1657 1658 1659 1662 1663 1664 3641 3642 3643 3644 3645 3646 3647 3649 3651 3652 3653 3659 3660 735
}

collapse_area_57_TB1 = {
	1635 1642 1643 1644 1651 1652 1653 1654 714 727 728 729 730 731
}

collapse_area_57_TA7 = {
	1636 1637 1638 1639 709 710 711
}

collapse_area_57_TA8 = {
	1640 1641 1650 712 713 715 716
}

collapse_area_57_TA9 = {
	1645 707 708 718 719 720 721
}

collapse_area_57_TB3 = {
	1646 1647 1648 1649 3631 3632 3633 3634 3635 3636 3637 3638 3639 3640 717
}

collapse_area_57_TB0 = {
	1655 1656 722 723 724 725 726
}

collapse_area_57_OA8 = {
	1666 1674 1681 1682 1683 1684 1685 1686 1689 1692 1693 1694 1701 1702 1703 1704 1706 1707 1708 1709 1710 1715 1720 1721 1722 1723 1724 2636 2637 2638 2639 2640 2641 2642 2643 2644 2645 616 617 624 629 630 631 632 633 636 637 638 644 645 646 647 648 650 659 660 661 662 663 664 665 666 667 668
}

collapse_area_57_RAL = {
	1670 1671
}

collapse_area_57_OA1 = {
	1672 1673 611
}

collapse_area_57_OA3 = {
	1675 1676 1677 1678 1679 1680 619 620 621 622 623 625 626 627 628
}

collapse_area_57_OA7 = {
	1696 609 610 613 614 615 618 639 640 642 643
}

collapse_area_57_OA9 = {
	1705 2646 2647 2648 2650 2651 2652 2654 3625 3626 3627 649 651 652 653
}

collapse_area_57_JA3 = {
	1730 1739 540 541 543 544 545 546 547 548 549 556 557 558 559
}

collapse_area_57_JB3 = {
	1761 595 597 599 604
}

collapse_area_57_UA1 = {
	1767 737 738 739 741 742
}

collapse_area_57_UA2 = {
	1768 1769 1770 1771 1772 1773 1774 1775 1776 3541 3543 3544 743 744 747
}

collapse_area_57_UA3 = {
	1777 1778 1779 1780 1786 1787 1788 1789 1790 1791 1792 1793 1794 1795 740 745 746 748 749 750 751 752 753 766 767
}

collapse_area_57_UA4 = {
	1781 1782 1783 1784 1785 754 755 756 757
}

collapse_area_57_UA7 = {
	1796 1797 770 771 772
}

collapse_area_57_KHE = {
	1798 1799 1800
}

collapse_area_57_IA7 = {
	1801 1802 2664 2665 793 794 795 796 797 798
}

collapse_area_57_IA9 = {
	1809 1810 1811 1812 806 807 808
}

collapse_area_57_PA5 = {
	2017 2018 2019 231 232 233
}

collapse_area_57_PC0 = {
	2023 234 244
}

collapse_area_57_PC2 = {
	2032 2038 2039 2040 2041 2048 2049
}

collapse_area_57_PA9 = {
	2034 2042 2043 2044 2045
}

collapse_area_57_PA8 = {
	2036 2037 2046
}

collapse_area_57_PB0 = {
	2047 2050 2052 2053 2054
}

collapse_area_57_PB1 = {
	2051 2055 2063 2064 2065 2066 2067 2068
}

collapse_area_57_PB2 = {
	2072 2073 2074 2075 2077 2088
}

collapse_area_57_PC3 = {
	2076 2078 2080 2084 2085 2086
}

collapse_area_57_PB3 = {
	2079 2081 2082 2083
}

collapse_area_57_PB4 = {
	2087 2089 2090 2091 2092 2093 2094
}

collapse_area_57_PA1 = {
	209 210 2102 2103 211 212 213
}

collapse_area_57_PA7 = {
	2095
}

collapse_area_57_PB5 = {
	2096 2097 2098 2099
}

collapse_area_57_PB7 = {
	2100 2101
}

collapse_area_57_PB6 = {
	2104 2105
}

collapse_area_57_THR = {
	2106 2107 2108 2109 2110 2111 320 321 323 324
}

collapse_area_57_YA2 = {
	2112 2113 2114 325 330 331 340
}

collapse_area_57_YA3 = {
	2116 2117 2118 2119 2120 333 334
}

collapse_area_57_YA8 = {
	2129 2130 2131 336 355
}

collapse_area_57_YB2 = {
	2133 2134 2135 2158 2159 2161 2163 2165 2166 2167 2168 2169 2170 2171 2173 2175 3451 3452 3453
}

collapse_area_57_YA7 = {
	2136 2137 2138 2139 2144 318 319 322 335
}

collapse_area_57_YA6 = {
	2141 2142 2143 286 327 328 337 338 339 351 352 353
}

collapse_area_57_YB0 = {
	2146 2147 2148 2149 2151 2152 2153 2154 2156 2157
}

collapse_area_57_SIN = {
	2179 2180 2181 2182 2183 2184 3443
}

collapse_area_57_DA2 = {
	2189 2323 2510 2511 2512 2513 2514 356 366 367 368 369 486 487 488 489 490
}

collapse_area_57_PA3 = {
	219 220
}

collapse_area_57_DA7 = {
	2203 2204 2205 2206 2207 370 389
}

collapse_area_57_DB0 = {
	2215 2216 2217 2218 2219 2488 390 391 393 395
}

collapse_area_57_DE3 = {
	2220 2223 2500 2505 392 462 463 478 480 481 482 483 484 485
}

collapse_area_57_DB1 = {
	2228
}

collapse_area_57_DB2 = {
	2231 2235 2236 2237 2238 2239
}

collapse_area_57_DB4 = {
	2252
}

collapse_area_57_SB0 = {
	2260 2261 2269 2386 278 293 294 295 296 297 298 4645 4649 4689 4690 4776
}

collapse_area_57_SA9 = {
	2262 2263 2264 2385 279 289 290 291 292
}

collapse_area_57_SA6 = {
	2265 2380 2381 2382 2383 2388 2389 2460 2465 2466 2467 269 271 274 436 437 438 439 4629 4630 4661 4666 4667 4698 4700 4715
}

collapse_area_57_SA8 = {
	2267 282 283 284 287 288 4636 4637 4638 4773 4774 4818 4819 4820
}

collapse_area_57_SB6 = {
	2268 4639 4641 4642 4643 4644 4647 4718 4733 4761 4762 4763 4764 4767 4768
}

collapse_area_57_DB7 = {
	2285
}

collapse_area_57_PB9 = {
	229
}

collapse_area_57_DB9 = {
	2303 2304 2305 2306 2307 2308 2309
}

collapse_area_57_SC6 = {
	2310 2316 250 254 453 455 460 4607 4699 4724 4730 4784 4785 4786 4787 7063
}

collapse_area_57_SB7 = {
	2311 2313 2318 2475 2482 2483 457 458 459 4704 4705 4706 4707 4722
}

collapse_area_57_SB5 = {
	2312 2476 2477 2478 2479 4612 4681 4684 4685
}

collapse_area_57_SA1 = {
	2314 246 248 249 4601 4602 4603 4604 4605 4694 4695 4696 4697 4721 4726 4760
}

collapse_area_57_SB8 = {
	2315 251 256 257 259 451 4789
}

collapse_area_57_SB9 = {
	2317 452 4691 4692 4693 4701 4702 4703
}

collapse_area_57_SD3 = {
	2319 260 454 4611 4613 4614 4618 4631 4682 4683 4686 4792 4796 4800
}

collapse_area_57_DC3 = {
	2343 2344 2345 2346 2347 2348 2349
}

collapse_area_57_MH2 = {
	2355 2430 4301 4303 4304 4307
}

collapse_area_57_MJ3 = {
	2362 2391 2394 2398 4236 4237 4239 4258
}

collapse_area_57_VB8 = {
	2373 2374 4875 4941 4942 4943 4944 4962 4964 4965
}

collapse_area_57_VC3 = {
	2375 2378 2379 2410 2412 2490 421 4854 5007 5008 5015 5039
}

collapse_area_57_VC7 = {
	2377 2415 471 4886 4887 4989 4992 5013 5014 5025 5028 5029 5031 5032 5033 5034 5035 5036 5037
}

collapse_area_57_SD5 = {
	2384 4662 4664 4670 4779 4812 4813 4814 4815 4816 4817
}

collapse_area_57_MG8 = {
	2400 2403 3289 4215 4216 4220
}

collapse_area_57_MD7 = {
	2402 2406 2407 2409 2416 417 422 4233
}

collapse_area_57_VC8 = {
	2413 4843 4845 4949 4950 4952 4954 4955 4976 4978 5005 5487 822
}

collapse_area_57_VB1 = {
	2417 4921 4932 857 863
}

collapse_area_57_VE1 = {
	2418 4885 5043
}

collapse_area_57_MJ5 = {
	2424 3205 4269 4273 6044
}

collapse_area_57_SC3 = {
	2440 461 4745 4749 4750 4752 4801
}

collapse_area_57_SD9 = {
	2441 4619 4825 4827
}

collapse_area_57_SB4 = {
	2442 467 4674 4675 4676 4677 4680 4741
}

collapse_area_57_SB2 = {
	2443 2444 299 300 301 4657 4658 4659 4660 4671 4672 4673 4678 4679 4747 4759 6952
}

collapse_area_57_VD8 = {
	2445 4981
}

collapse_area_57_VC1 = {
	2446 4849 4898 4920 4922 4934 4935 860 883
}

collapse_area_57_VA5 = {
	2448 2449 4896 4912 4915 4982 881
}

collapse_area_57_DD3 = {
	2450
}

collapse_area_57_SD2 = {
	2461 2463 2464 262 270 443 444 445 4620 4708 4710 4798
}

collapse_area_57_SA4 = {
	2462 261 263 264 265 441 442 4606 4615 4616 4617 4687 4783 4790 4794 4795 4797
}

collapse_area_57_SB3 = {
	2468 2469 275 276 440 4626 4627 4628 4663 4665 4668 6937
}

collapse_area_57_SC2 = {
	247 2480 2484 4728 4753 4756
}

collapse_area_57_SE0 = {
	2481 456 466 4802 4804 4805 4806 4807 4808 4809 4831 4839 4840 6983
}

collapse_area_57_SC9 = {
	2485 4633 468 469 470 4821 4822 4823 4824 4826
}

collapse_area_57_MJ4 = {
	2492 2493 2494 418 4221 4222 4223 4224 4226 4227
}

collapse_area_57_MJ8 = {
	2496 2498 4206
}

collapse_area_57_DE4 = {
	2504
}

collapse_area_57_DE0 = {
	2506
}

collapse_area_57_KB7 = {
	2515 2516 2517 2518 2519 2520 491 492 496 497 498 499 500 501 502 504 505
}

collapse_area_57_SC7 = {
	252 4725 4727 4729 4758 4781 4782
}

collapse_area_57_KB9 = {
	2521 2522 2523 2524 2530 2531 2532 2533 2534 2535 2536 2538 2539 506 507 508 509 510 514 515
}

collapse_area_57_KC1 = {
	2525 2526 2527 2540 2541 2542 2543 2544 2608 516 517 518 519 520
}

collapse_area_57_KB8 = {
	2528 2529 503
}

collapse_area_57_SA2 = {
	253 255 4609
}

collapse_area_57_KC0 = {
	2537 511 512
}

collapse_area_57_KC2 = {
	2545 2546 2547 2548 2549 2550 2551 2552 2553 2554 2555 2556 2557 513
}

collapse_area_57_KC3 = {
	2558 2559 2560 2561 2562 2563 2564
}

collapse_area_57_KC4 = {
	2573
}

collapse_area_57_SE5 = {
	258 4608 4610 4788 6919
}

collapse_area_57_KC5 = {
	2582
}

collapse_area_57_KC6 = {
	2591
}

collapse_area_57_KC7 = {
	2595 2596 2597 2598 2599 2600 2601 2602 2603 2604 2605 2606 2607 2614
}

collapse_area_57_KC8 = {
	2609 2610 2611 2612 2613
}

collapse_area_57_BLA = {
	2635
}

collapse_area_57_IB2 = {
	2656 2657 2658 2659 2660 2661 2662 2663
}

collapse_area_57_SA7 = {
	266 267 277 280 281 4632 4634 4688 4709 4772 4793 4799
}

collapse_area_57_IB3 = {
	2666 2669 2672 2674 2675 3529 3530
}

collapse_area_57_SA3 = {
	268 272 4622 4623 4624 4625 4716 4717 4719 4720 4811 7014
}

collapse_area_57_NE0 = {
	2691 2693 2695 3019 7128
}

collapse_area_57_CQ3 = {
	2701 2703 2721 2722 2723 2724 2725 2726 2727 2728 2729 2730 2771 2772 2773
}

collapse_area_57_CQ7 = {
	2702 2747 2748 2751 2752 2753 2754 2755 2756 2757 2758 2759 2760 2831 2832 2833 2835 2836 2837 2838 2839
}

collapse_area_57_CS1 = {
	2704 2706 2791 2792 2793 2794 2840 2841 2842 2843 2844 2845 2846 2847 2848 2849 2850
}

collapse_area_57_CQ1 = {
	2705 2707 2708 2709 2710
}

collapse_area_57_ND8 = {
	2711 2716 2717 2718 2719 2737 2738 2740 2762 2763 2767
}

collapse_area_57_CQ6 = {
	2741 2742 2743 2744 2745 2746 2749 2750 2821 2822 2823 2824 2825 2827
}

collapse_area_57_CR1 = {
	2774 2776 2777 2778 2779 2780 2795 2796 2797 2798 2799 2800
}

collapse_area_57_CQ9 = {
	2775
}

collapse_area_57_ND9 = {
	2808 2810 2811 2813 2815 2819 2926 2930
}

collapse_area_57_ND3 = {
	2816
}

collapse_area_57_NE2 = {
	2817 2923 2924
}

collapse_area_57_NE3 = {
	2818
}

collapse_area_57_CR4 = {
	2826 2828 2829 2830
}

collapse_area_57_CR5 = {
	2834
}

collapse_area_57_CS2 = {
	2858
}

collapse_area_57_CS3 = {
	2866
}

collapse_area_57_CS4 = {
	2871 2872 2873 2874 2875 2876 2877 2971 2972 2973
}

collapse_area_57_CS5 = {
	2878 2879 2880 2881 2882 2883 2884 2885 2886 2887 2888 2889 2890 2891 2892 2894 2896 2900
}

collapse_area_57_CS6 = {
	2893 2895 2897 2898 2899
}

collapse_area_57_CS7 = {
	2903
}

collapse_area_57_CS8 = {
	2915
}

collapse_area_57_NA4 = {
	2941 2942 2945 2949 2950
}

collapse_area_57_CT2 = {
	2953
}

collapse_area_57_CT3 = {
	2961 2962 2963 2966 2968 2969 2970 2981 2983 2989
}

collapse_area_57_CT5 = {
	2964 2965 2967 2982 2984 2985 2986 2987 2988 3141
}

collapse_area_57_CT4 = {
	2974 2975 2976 2977 2978 2979 2980
}

collapse_area_57_CU1 = {
	2990 3142 3143 3144 3145 3146 3147 3148 3149 3150 3151 3155
}

collapse_area_57_NE8 = {
	2995
}

collapse_area_57_NF4 = {
	2998
}

collapse_area_57_SB1 = {
	302 303 306 307 4651 4653 4723
}

collapse_area_57_NG2 = {
	3023
}

collapse_area_57_NC6 = {
	3036 3051 7141 7143 7281 7288
}

collapse_area_57_NC7 = {
	3038 7142 7144 7162 7276 7277 7278
}

collapse_area_57_SD8 = {
	304 4656 4751 4754 4755 4757 4828 4829 6954
}

collapse_area_57_HH2 = {
	3045 3050 3058 3060 3065 6074 6166 7102 7282
}

collapse_area_57_SC1 = {
	305 4635 4742 4743 4744 4746 4748 4830
}

collapse_area_57_NB8 = {
	3052
}

collapse_area_57_NF0 = {
	3054
}

collapse_area_57_BC9 = {
	3059 3064 3066 6886 6887 7069 7070 7075
}

collapse_area_57_NC3 = {
	3079 7173 7204 7216 7217 7218
}

collapse_area_57_SA5 = {
	308 4652 4654 4655 4803 4832 4833 4834 4835 4836 4837 4838
}

collapse_area_57_FRS = {
	3119 3121 5895 5896 5897
}

collapse_area_57_NC9 = {
	3126
}

collapse_area_57_NF9 = {
	3127 3128 3129 3133 3135
}

collapse_area_57_CU5 = {
	3152 3153 3154 3156 3159 3160 3161 3162 3163 3164 3166 3171 3172 3174 3175 3177 3179 3180 3181 3182 3183 3184 3185 3186 3187 3188 3189 3190
}

collapse_area_57_CU2 = {
	3157 3158
}

collapse_area_57_CU3 = {
	3165 3167 3168 3169 3170
}

collapse_area_57_CU4 = {
	3173 3176 3178
}

collapse_area_57_MA1 = {
	3196 3319 950 951 952 953
}

collapse_area_57_RIE = {
	3199
}

collapse_area_57_MA2 = {
	3201 3206 3207 3208
}

collapse_area_57_MH8 = {
	3202 3203 3209
}

collapse_area_57_MC5 = {
	3204 3326 3330 3341 959 962
}

collapse_area_57_MA3 = {
	3211 3212 3213 3215 3382 3385 3387 3388 3389 3391 3397 963 965 968
}

collapse_area_57_MA5 = {
	3216 3217 3218 3219 3220 3392 3393 3394 3395 3411 3415 3418 3424 3425 3426 3431 3439 3440 969 970 971 972 973
}

collapse_area_57_MI1 = {
	3221 3396 3398 3399 3400 3406 3407 3408 3409 3410 3412 3413 3414 3799 977 978
}

collapse_area_57_MD3 = {
	3222 3416 3417 3419 3420 3432 3433 3434 3435 3436 3437 3438 3795
}

collapse_area_57_ME1 = {
	3223 3781 3782 3783 3787 3788 3789 3790
}

collapse_area_57_AC5 = {
	3228
}

collapse_area_57_MC0 = {
	3246 3953
}

collapse_area_57_MB1 = {
	3248
}

collapse_area_57_MH7 = {
	3254
}

collapse_area_57_MF5 = {
	3262 3999 4006 4007 4008 4009 4010 4011 4012 4013 4014 4015 4016 5501
}

collapse_area_57_MG0 = {
	3266 3267 3268 4037 4038 4039 4040 4051 4053 4054 4056 4091
}

collapse_area_57_MB7 = {
	3276
}

collapse_area_57_MJ9 = {
	3291 3292 3293 4251 4252 6226
}

collapse_area_57_SKA = {
	3315
}

collapse_area_57_MJ0 = {
	3318 3320 949
}

collapse_area_57_MC4 = {
	3321 3322 3323 3324 3331 3332 3333 3335 3336 3337 3339 3340
}

collapse_area_57_MH1 = {
	3325 3327 3328
}

collapse_area_57_MC8 = {
	3334 3361 3362 3363 3364 3365 3366 3367 3368 3369 3370 3386 964 966
}

collapse_area_57_MC7 = {
	3338 3351 3352 3353 3354 3355 3356 3357 3358
}

collapse_area_57_MC6 = {
	3342 3343 3344 3345 3346 3347 3348 3349 3350
}

collapse_area_57_MC9 = {
	3373
}

collapse_area_57_MD0 = {
	3379 3383 3384 3402 3404
}

collapse_area_57_YA4 = {
	345
}

collapse_area_57_YB4 = {
	3454 3455 3456 3457 3458 3459 3460
}

collapse_area_57_YB5 = {
	3461 3462 3466 3467 3468 3469 3470
}

collapse_area_57_IA2 = {
	3481 3482 3484 3485 3487 3488
}

collapse_area_57_IA3 = {
	3491 3492 3494 3496 3499 3511 3512 3514
}

collapse_area_57_KAA = {
	3495
}

collapse_area_57_YA5 = {
	350
}

collapse_area_57_IA4 = {
	3501 3502 3503 3505 3507 3509 3521 3524
}

collapse_area_57_UA8 = {
	3531 3532 3533 3534 3536
}

collapse_area_57_UA6 = {
	3535 3537 3538 3539 3540 763 764 765 768 769
}

collapse_area_57_UB0 = {
	3555 3556 3557 3558 3559 3560 3571 3572 3576 3578
}

collapse_area_57_UB1 = {
	3565
}

collapse_area_57_UB3 = {
	3586
}

collapse_area_57_UB4 = {
	3595
}

collapse_area_57_UB5 = {
	3601 3602 3603 3604 3606 3609 3610
}

collapse_area_57_DS1 = {
	3763
}

collapse_area_57_DZ5 = {
	3768 3769 3770 4351 4352 4353 4354 4355
}

collapse_area_57_MD6 = {
	3779
}

collapse_area_57_MF0 = {
	3785
}

collapse_area_57_MD8 = {
	3796
}

collapse_area_57_MD9 = {
	3807
}

collapse_area_57_ME0 = {
	3818
}

collapse_area_57_ME8 = {
	3832
}

collapse_area_57_ME3 = {
	3838
}

collapse_area_57_AE3 = {
	3843
}

collapse_area_57_DT1 = {
	3861 3862 3863 3864 3865
}

collapse_area_57_DT2 = {
	3866 3867 3868 3869 3870 3871 3872 3873 3874 3875 3876 3877 3878 3879 3880 3881 3882 3885
}

collapse_area_57_DT3 = {
	3883 3884 3886 3887 3888 3889 3890
}

collapse_area_57_DT4 = {
	3891
}

collapse_area_57_ME5 = {
	3904
}

collapse_area_57_ME6 = {
	3916
}

collapse_area_57_ME7 = {
	3936
}

collapse_area_57_ME9 = {
	3946
}

collapse_area_57_MF1 = {
	3955
}

collapse_area_57_MA4 = {
	3978
}

collapse_area_57_MF3 = {
	3979 3980 3981 3982 3983 3984 3987
}

collapse_area_57_MH6 = {
	4000
}

collapse_area_57_MF7 = {
	4002
}

collapse_area_57_MA8 = {
	4055 4093 4094 4098 4099
}

collapse_area_57_DW1 = {
	4061 4062 4063 4065 4066 4067
}

collapse_area_57_DW2 = {
	4064 4068 4069 4070 4071 4072 4073 4074 4075 4076 4077 4078 4079 4080
}

collapse_area_57_MG3 = {
	4103
}

collapse_area_57_MOA = {
	4121
}

collapse_area_57_MG9 = {
	4125
}

collapse_area_57_MG7 = {
	4126
}

collapse_area_57_MJ2 = {
	4132
}

collapse_area_57_MI4 = {
	4134
}

collapse_area_57_MG6 = {
	4138
}

collapse_area_57_DW9 = {
	4143
}

collapse_area_57_DX0 = {
	4151 4152 4153 4154 4155 4156 4157 4158 4159 4160
}

collapse_area_57_DX1 = {
	4162
}

collapse_area_57_DX2 = {
	4171
}

collapse_area_57_DX3 = {
	4189
}

collapse_area_57_DX4 = {
	4194
}

collapse_area_57_MI6 = {
	4201
}

collapse_area_57_MF9 = {
	4203
}

collapse_area_57_MI5 = {
	4209
}

collapse_area_57_MC1 = {
	4213
}

collapse_area_57_MC2 = {
	4230
}

collapse_area_57_MI2 = {
	4241
}

collapse_area_57_MC3 = {
	4248
}

collapse_area_57_MF8 = {
	4253
}

collapse_area_57_ME4 = {
	4263
}

collapse_area_57_MJ6 = {
	4267
}

collapse_area_57_SAL = {
	4275
}

collapse_area_57_MI9 = {
	4279
}

collapse_area_57_DX5 = {
	4287
}

collapse_area_57_DY9 = {
	4298
}

collapse_area_57_MJ7 = {
	4308
}

collapse_area_57_MH5 = {
	4310
}

collapse_area_57_DZ1 = {
	4311 4312 4313 4314 4315 4316 4317 4319 4320
}

collapse_area_57_DZ2 = {
	4318 4321 4322 4323 4324 4325 4326 4328 4329
}

collapse_area_57_DZ3 = {
	4327 4330 4331 4332 4333 4334 4335 4336 4337 4338 4339 4340 4356 4357 4358 4359 4360
}

collapse_area_57_DZ4 = {
	4344
}

collapse_area_57_SC5 = {
	4621 4711 4713 4714 4771 4791
}

collapse_area_57_SC0 = {
	4640 4738 4739 4740 4765 4766 4769 4770
}

collapse_area_57_SD6 = {
	4646 4648 4650 4731 4732 4734 4735 4736 4737
}

collapse_area_57_SC4 = {
	4712 4775 4777 4778 4780
}

collapse_area_57_VB7 = {
	472 4884 4958 4971 851
}

collapse_area_57_VA3 = {
	474 4848 4853 4970 5046 820 874
}

collapse_area_57_SE6 = {
	4810
}

collapse_area_57_VD9 = {
	4841 4914
}

collapse_area_57_VA1 = {
	4842 4844 4864 4865 4899 4903 4951 809 810 811 812 813 873
}

collapse_area_57_VA4 = {
	4846 4904 4905 814 816 871
}

collapse_area_57_VA2 = {
	4851 4856 4946 4947 4977 4984 5000 5038 5042 5045
}

collapse_area_57_VB5 = {
	4852 4855 4913 4953 5061 6036 818 868 880 882
}

collapse_area_57_VC2 = {
	4857 4910 4930 4980 4998 5741 866 867
}

collapse_area_57_VB0 = {
	4859 4868 4870 4871 4900 4966 4999 5018 5202 5204 5258 5259 827 841 853 919
}

collapse_area_57_VA6 = {
	4860 4869 828 834 837
}

collapse_area_57_VC9 = {
	4863 4901 5055 830 869
}

collapse_area_57_VA8 = {
	4872 4877 5102 840 844 845 847
}

collapse_area_57_EB9 = {
	4873 4879 4883 839 849
}

collapse_area_57_VE0 = {
	4888 4890 854 858 859
}

collapse_area_57_VC0 = {
	4891 4892 4893 4894 4895 861 862
}

collapse_area_57_VA7 = {
	4897 4911 4917 5085 5306 865 872 879
}

collapse_area_57_ED2 = {
	4902 5048 5049 5050 5052 5053 5054
}

collapse_area_57_IMG = {
	4908 4960 4972 4997 5010 5011 5041
}

collapse_area_57_VB4 = {
	4909 5030 875
}

collapse_area_57_VB6 = {
	4916 4918 4919 4923 4924 4925 5203
}

collapse_area_57_KB6 = {
	493 494 495
}

collapse_area_57_VB3 = {
	4936 4940 4961 4963 4988
}

collapse_area_57_VC6 = {
	4948 4979 4996 5003 821
}

collapse_area_57_VC4 = {
	5001
}

collapse_area_57_VB9 = {
	5004 5024 5040 819 823
}

collapse_area_57_VA9 = {
	5012 5096 5241 5242 5247 836
}

collapse_area_57_VD7 = {
	5016 5020 6046
}

collapse_area_57_ED1 = {
	5047 5051 5291 815 906
}

collapse_area_57_VD5 = {
	5056 5057 5058 5060 5062 5171 829
}

collapse_area_57_EB4 = {
	5067 5089 5136 5214 5297 5575 887
}

collapse_area_57_ED0 = {
	5068 5080 5108 5279
}

collapse_area_57_EC8 = {
	5069 5230 896 907 939
}

collapse_area_57_EA3 = {
	5070 5082 5218 5277
}

collapse_area_57_EA2 = {
	5071 5072 5073 5220 5553 5558 888 889 890 891
}

collapse_area_57_EA6 = {
	5074 5078 5107 5110 5123 5130 5140 5145 5149 5209 5210 5237 5239 5253 5269 892 909 911 912
}

collapse_area_57_EC3 = {
	5076 5077 5079 5092 5146 5148 5221 5222 5225 5226 5233 5238 894 895
}

collapse_area_57_EB3 = {
	5084 5087 5099 5215 899
}

collapse_area_57_EC2 = {
	5086 5216 5284 886 918
}

collapse_area_57_EA4 = {
	5088 5097 900 917
}

collapse_area_57_EC6 = {
	5093 5106 5135 5137 5138 5213
}

collapse_area_57_EB2 = {
	5100 5294 915
}

collapse_area_57_VB2 = {
	5101 5260
}

collapse_area_57_EA8 = {
	5105 5275 5276 922 923
}

collapse_area_57_EB5 = {
	5109 5112 5113 5114 5164 5178 5189 5190 928
}

collapse_area_57_EB1 = {
	5116 5117 5118 5212 933 934 937
}

collapse_area_57_EB8 = {
	5121 5122 5129 5192 5193 5195 943
}

collapse_area_57_EA9 = {
	5124 5162 5187 5227 5261 897 940 941 942
}

collapse_area_57_EC1 = {
	5131 5245 5251 5282 5292 903
}

collapse_area_57_EB6 = {
	5150 5152 5153 5154 5155 5156 5157 5158 5159 5160 5179 5280 914 929 948
}

collapse_area_57_EA7 = {
	5170 5185 5283 930 931 932
}

collapse_area_57_EB0 = {
	5172 5182 5272 5274 920 925
}

collapse_area_57_EC0 = {
	5175 5186 5188 5256 5267 5273 921 926 927
}

collapse_area_57_EB7 = {
	5184 5197 5199 5262 5264 945 947
}

collapse_area_57_EC7 = {
	5205 5248 5249 5250
}

collapse_area_57_EA5 = {
	5217 5219 905
}

collapse_area_57_EC4 = {
	5223 5229 944
}

collapse_area_57_TEN = {
	5240 5263 910
}

collapse_area_57_EC5 = {
	5246 5293 893 916
}

collapse_area_57_HOW = {
	5252
}

collapse_area_57_EC9 = {
	5255 5257 5265 5268 5278 5285
}

collapse_area_57_CA5 = {
	5301 5481 5488
}

collapse_area_57_CB3 = {
	5314 5315 5318 5531 5532 5554 5557 5564 5565 5567 6427
}

collapse_area_57_CK0 = {
	5319
}

collapse_area_57_CD0 = {
	5320 5603 5627 5647 5779
}

collapse_area_57_EA1 = {
	5323 5560 5562 5573 5578 5585 5587 5590 5591 5593 5619 5620
}

collapse_area_57_CC8 = {
	5357 5358 5649 5678 5785 5789 5821 5829
}

collapse_area_57_CE9 = {
	5385 5890 5903 5916 5917 5919 5920 5961
}

collapse_area_57_CD4 = {
	5430 5928 6054 6055 6056 6057 6058 6059
}

collapse_area_57_TPL = {
	5441 5442 5443 5444 5445
}

collapse_area_57_AF2 = {
	5458
}

collapse_area_57_CD3 = {
	5484 5485 5489 5490 5496 5497 5498
}

collapse_area_57_CB9 = {
	5486 5491 5495 5499 5500 5511 5512 5513 5515 5516 5517 5519
}

collapse_area_57_CH9 = {
	5492 5493 5904 5906 5909 5913 5929 5945 5947 5987
}

collapse_area_57_HG2 = {
	5507 6242
}

collapse_area_57_CJ3 = {
	5525 5912 5985 5986
}

collapse_area_57_CF1 = {
	5568 5880 5885 5886 5887 5888 5889 5893 5899 5900 5901 5905 5914 5915
}

collapse_area_57_VD0 = {
	5592 5594 5595 5596 5611 5612
}

collapse_area_57_CJ7 = {
	5607
}

collapse_area_57_CC9 = {
	5624 5672 5674 5675 5769 5784 5824
}

collapse_area_57_CE1 = {
	5632 5636 5827 5828 5831 5832 5847 5848 5849
}

collapse_area_57_CD6 = {
	5650 5655 5659 5776 5782 5783 5819 5823
}

collapse_area_57_HC5 = {
	5732 5744 5751 5755 5797 5800
}

collapse_area_57_CE3 = {
	5814 5841 5842 5843 5844 5845 5850
}

collapse_area_57_CJ9 = {
	5867
}

collapse_area_57_JB1 = {
	587
}

collapse_area_57_CI3 = {
	5898
}

collapse_area_57_JB2 = {
	593
}

collapse_area_57_CJ5 = {
	5996
}

collapse_area_57_CJ8 = {
	6031
}

collapse_area_57_CJ6 = {
	6040
}

collapse_area_57_HE0 = {
	6075 6982 7110 7167 7168 7169 7215 7237 7240 7253
}

collapse_area_57_HC7 = {
	6089 6246 6249 6255 6257 6259 6263 6264 6276 6277 6280
}

collapse_area_57_HF3 = {
	6216 6274 6275 6278 6279 6281 6282 6287
}

collapse_area_57_HG6 = {
	6251
}

collapse_area_57_HG1 = {
	6315
}

collapse_area_57_HF1 = {
	6363 6366 6411 6418
}

collapse_area_57_AF3 = {
	6460
}

collapse_area_57_AA6 = {
	6467
}

collapse_area_57_AB1 = {
	6470
}

collapse_area_57_AC1 = {
	6472
}

collapse_area_57_KME = {
	6483 6484 6485
}

collapse_area_57_AD3 = {
	6486
}

collapse_area_57_AE6 = {
	6492
}

collapse_area_57_AE0 = {
	6522
}

collapse_area_57_AD4 = {
	6527
}

collapse_area_57_OB0 = {
	654
}

collapse_area_57_AE5 = {
	6548
}

collapse_area_57_AB8 = {
	6566
}

collapse_area_57_AB9 = {
	6567
}

collapse_area_57_AA3 = {
	6568
}

collapse_area_57_AC4 = {
	6569
}

collapse_area_57_AC0 = {
	6587
}

collapse_area_57_AC8 = {
	6592
}

collapse_area_57_AC7 = {
	6595
}

collapse_area_57_AD5 = {
	6632
}

collapse_area_57_AB2 = {
	6660 6664 6749
}

collapse_area_57_AC3 = {
	6661
}

collapse_area_57_AD2 = {
	6694
}

collapse_area_57_AF6 = {
	6712
}

collapse_area_57_AB6 = {
	6720
}

collapse_area_57_AD6 = {
	6745
}

collapse_area_57_AF1 = {
	6750
}

collapse_area_57_AD1 = {
	6766
}

collapse_area_57_AD0 = {
	6787
}

collapse_area_57_AE1 = {
	6794
}

collapse_area_57_AE4 = {
	6797
}

collapse_area_57_AD9 = {
	6813
}

collapse_area_57_AB3 = {
	6814
}

collapse_area_57_AC2 = {
	6816
}

collapse_area_57_AD7 = {
	6817
}

collapse_area_57_AE9 = {
	6819
}

collapse_area_57_AB4 = {
	6828
}

collapse_area_57_BF0 = {
	6861
}

collapse_area_57_BC5 = {
	6869 7001 7017 7018 7019 7020 7021 7022
}

collapse_area_57_BF1 = {
	6878
}

collapse_area_57_BA5 = {
	6891 6892 7057 7059 7060 7061 7062 7064 7065 7072
}

collapse_area_57_BA7 = {
	6896 7006 7007 7008 7011 7012 7068
}

collapse_area_57_BE3 = {
	6906 6907 6908 6909 6910 6911 6912 6913 6914 6915 6923
}

collapse_area_57_BC2 = {
	6999 7000 7003 7005 7016
}

collapse_area_57_BC4 = {
	7010
}

collapse_area_57_BC3 = {
	7056
}

collapse_area_57_NB7 = {
	7166 7197 7198 7205 7206 7207 7209 7210 7211 7212
}

collapse_area_57_ND6 = {
	7203
}

collapse_area_57_ND0 = {
	7227 7228 7230 7231 7235 7245 7254 7289
}

collapse_area_57_HF4 = {
	7238 7249 7252
}

collapse_area_57_HC8 = {
	7239 7242
}

collapse_area_57_ND4 = {
	7246
}

collapse_area_57_HC2 = {
	7279 7285
}

collapse_area_57_ND5 = {
	7308 7312 7313 7317 7319 7320
}

collapse_area_57_UA5 = {
	758 759 760 761 762
}

collapse_area_57_MH3 = {
	957
}

collapse_area_57_MH0 = {
	967
}

collapse_area_57_AE2 = {
	983
}

collapse_area_57_RAA = {
	984
}

collapse_area_57_ME2 = {
	988
}

collapse_area_57_MA9 = {
	990
}

collapse_area_57_MB0 = {
	995
}

collapse_area_57_MF2 = {
	999
}