owner = CA1
controller = CA1
add_core = CA1
religion = mehrunes_dagon_cult
culture = ayleid
hre = yes
base_tax = 4
base_production = 4
trade_goods = unknown
base_manpower = 4
capital = "Fentusta"
is_city = yes



57.1.1 = {
}

272.1.1 = {
   religion = nedic_pantheon
}

535.1.1 = {
}

862.1.1 = {
}

1177.1.1 = {
}

1466.1.1 = {
}
