owner = CB0
controller = CB0
add_core = CB0
religion = molag_bal_cult
culture = ayleid
hre = yes
base_tax = 2
base_production = 2
trade_goods = unknown
base_manpower = 2
capital = "Larilatia"
is_city = yes



57.1.1 = {
   owner = CA9
   controller = CA9
   add_core = CA9
}

272.1.1 = {
}

535.1.1 = {
}

862.1.1 = {
}

1177.1.1 = {
}

1466.1.1 = {
}
