owner = ABE
controller = ABE
add_core = ABE
religion = molag_bal_cult
culture = ayleid
hre = yes
base_tax = 9
base_production = 9
trade_goods = unknown
base_manpower = 9
capital = "Stirk"
is_city = yes



57.1.1 = {
}

272.1.1 = {
}

535.1.1 = {
}

862.1.1 = {
}

1177.1.1 = {
}

1466.1.1 = {
}
