owner = CB6
controller = CB6
add_core = CB6
religion = cult_of_the_moth
culture = ayleid
hre = yes
base_tax = 2
base_production = 2
trade_goods = unknown
base_manpower = 2
capital = "Nethar"
is_city = yes



57.1.1 = {
}

272.1.1 = {
   religion = snow_elves_pantheon
}

535.1.1 = {
}

862.1.1 = {
}

1177.1.1 = {
}

1466.1.1 = {
}
