owner = CC1
controller = CC1
add_core = CC1
religion = mehrunes_dagon_cult
culture = ayleid
hre = yes
base_tax = 1
base_production = 1
trade_goods = unknown
base_manpower = 1
capital = "Ellehar"
is_city = yes



57.1.1 = {
}

272.1.1 = {
}

535.1.1 = {
}

862.1.1 = {
}

1177.1.1 = {
}

1466.1.1 = {
}
