owner = NA6
controller = NA6
add_core = NA6
culture = reachmen
religion = old_gods_cult
hre = no
base_tax = 2
base_production = 2
trade_goods = unknown
base_manpower = 2
capital = "Falkreath"
is_city = yes


57.1.1 = {
   owner = ND0
   controller = ND0
   add_core = ND0
}

272.1.1 = {
}

535.1.1 = {
}

862.1.1 = {
}

1177.1.1 = {
}

1466.1.1 = {
}
