owner = NB5
controller = NB5
add_core = NB5
religion = nordic_pantheon
culture = nord
hre = no
base_tax = 3
base_production = 3
trade_goods = unknown
base_manpower = 3
capital = "Folgunthur"
is_city = yes



57.1.1 = {
}

272.1.1 = {
}

535.1.1 = {
}

862.1.1 = {
}

1177.1.1 = {
}

1466.1.1 = {
}
