owner = NB9
controller = NB9
add_core = NB9
religion = reason_and_logic_cult
culture = rourkenid
hre = no
base_tax = 3
base_production = 3
trade_goods = unknown
base_manpower = 3
capital = "Ragnvald"
is_city = yes



57.1.1 = {
   owner = NCH
   controller = NCH
   add_core = NCH
}

272.1.1 = {
   owner = REA
   controller = REA
   add_core = REA
}

535.1.1 = {
}

862.1.1 = {
}

1177.1.1 = {
}

1466.1.1 = {
}
