owner = BA4
controller = BA4
add_core = BA4
religion = altmeri_pantheon
culture = altmer
hre = yes
base_tax = 2
base_production = 2
trade_goods = unknown
base_manpower = 2
capital = "Adilene"
is_city = yes


57.1.1 = {
   owner = BB6
   controller = BB6
   add_core = BB6
}

272.1.1 = {
}

535.1.1 = {
}

862.1.1 = {
}

1177.1.1 = {
}

1466.1.1 = {
}
