owner = PB8
controller = PB8
add_core = PB8
religion = serpant_king
culture = maormer
hre = no
base_tax = 2
base_production = 2
trade_goods = unknown
base_manpower = 2
capital = "Mantu"
is_city = yes
fort_15th = yes
57.1.1 = {
	
}

272.1.1 = {
	
}

535.1.1 = {
	
}

862.1.1 = {
	
}

1177.1.1 = {
	
}

1466.1.1 = {
	
}

