owner = PA5
controller = PA5
add_core = PA5
religion = mother_sea
culture = maormer
hre = no
base_tax = 2
base_production = 2
trade_goods = unknown
base_manpower = 2
capital = "Syllana"
is_city = yes
57.1.1 = { owner = PA5 controller = PA5 add_core = PA5 } 
272.1.1 = { } 
535.1.1 = { } 
862.1.1 = { } 
1177.1.1 = { } 
1466.1.1 = { } 