owner = YA3
controller = YA3
add_core = YA3
religion = herd_mother
culture = yokudan
hre = no
base_tax = 1
base_production = 1
trade_goods = unknown
base_manpower = 1
capital = "Irantha"
is_city = yes
57.1.1 = { owner = YA3 controller = YA3 add_core = YA3 } 
272.1.1 = { } 
535.1.1 = { } 
862.1.1 = { } 
1177.1.1 = { } 
1466.1.1 = { } 