owner = PA1
controller = PA1
add_core = PA1
religion = serpant_king
culture = maormer
hre = no
base_tax = 3
base_production = 3
trade_goods = unknown
base_manpower = 3
capital = "Athedinvel"
is_city = yes



57.1.1 = {
    owner = PA1
    controller = PA1
    add_core = PA1
}

272.1.1 = {
}

535.1.1 = {
}

862.1.1 = {
}

1177.1.1 = {
}

1466.1.1 = {
}
