owner = PA2
controller = PA2
add_core = PA2
religion = serpant_king
culture = maormer
hre = no
base_tax = 6
base_production = 6
trade_goods = unknown
base_manpower = 6
capital = "Banta"
is_city = yes
fort_15th = yes
57.1.1 = {
	owner = PA2
	controller = PA2
	add_core = PA2
}

272.1.1 = {
	
}

535.1.1 = {
	
}

862.1.1 = {
	
}

1177.1.1 = {
	
}

1466.1.1 = {
	
}

