owner = SIN
controller = SIN
add_core = SIN
religion = altmeri_pantheon
culture = sinistral
hre = no
base_tax = 8
base_production = 8
trade_goods = unknown
base_manpower = 8
capital = "Lyrea"
is_city = yes
fort_15th = yes
57.1.1 = {
	owner = SIN
	controller = SIN
	add_core = SIN
}

272.1.1 = {
	
}

535.1.1 = {
	
}

862.1.1 = {
	
}

1177.1.1 = {
	
}

1466.1.1 = {
	
}

