owner = DA3
controller = DA3
add_core = DA3
religion = nordic_pantheon
culture = atmoran
hre = no
base_tax = 3
base_production = 3
trade_goods = fish
base_manpower = 3
capital = "Holmfrid"
is_city = yes
57.1.1 = { owner = DA3 controller = DA3 add_core = DA3 } 
272.1.1 = { } 
535.1.1 = { } 
862.1.1 = { } 
1177.1.1 = { } 
1466.1.1 = { } 