owner = DB0
controller = DB0
add_core = DB0
religion = dragon_cult
culture = atmoran
hre = yes
base_tax = 3
base_production = 1
trade_goods = unknown
base_manpower = 5
capital = "The Sisters"
is_city = yes
fort_15th = yes
57.1.1 = { owner = DB0 controller = DB0 add_core = DB0 } 
272.1.1 = { } 
535.1.1 = { } 
862.1.1 = { } 
1177.1.1 = { } 
1466.1.1 = { } 