owner = DB2
controller = DB2
add_core = DB2
religion = nordic_pantheon
culture = atmoran
hre = no
base_tax = 2
base_production = 2
trade_goods = algae
base_manpower = 2
capital = "Ok'tavax"
is_city = yes
57.1.1 = { owner = DA1 controller = DA1 add_core = DA1 } 
272.1.1 = { } 
535.1.1 = { owner = --- controller = --- is_city = no } 
862.1.1 = { } 
1177.1.1 = { } 
1466.1.1 = { } 