religion = altmeri_pantheon
culture = altmer
hre = no
base_tax = 1
base_production = 1
trade_goods = unknown
base_manpower = 1
capital = "Kariorne"
is_city = yes
owner = SA6
controller = SA6
add_core = SA6
57.1.1 = { } 
272.1.1 = { } 
535.1.1 = { } 
862.1.1 = { } 
1177.1.1 = { } 
1466.1.1 = { } 