religion = altmeri_pantheon
culture = altmer
hre = no
base_tax = 5
base_production = 5
trade_goods = unknown
base_manpower = 5
capital = "Arysara"
is_city = yes
owner = SB6
controller = SB6
add_core = SB6
57.1.1 = { } 
272.1.1 = { } 
535.1.1 = { } 
862.1.1 = { } 
1177.1.1 = { } 
1466.1.1 = { } 