religion = old_way_cult
culture = altmer
base_tax = 2
base_production = 2
trade_goods = unknown
base_manpower = 2
capital = "Keep of the Elven Forces"
is_city = yes
owner = SB0
controller = SB0
add_core = SB0
hre = no
57.1.1 = { } 
272.1.1 = { } 
535.1.1 = { } 
862.1.1 = { } 
1177.1.1 = { } 
1466.1.1 = { } 