owner = DB6
controller = DB6
add_core = DB6
religion = nordic_pantheon
culture = atmoran
hre = no
base_tax = 1
base_production = 1
trade_goods = unknown
base_manpower = 1
capital = "Dilqa"
is_city = yes
fort_15th = yes
57.1.1 = {
	owner = DA6
	controller = DA6
	add_core = DA6
}

272.1.1 = {
	owner = DRA
	religion = dragon_cult
	controller = DRA
	add_core = DRA
}

535.1.1 = {
	owner = ---
	controller = ---
	is_city = no
}

862.1.1 = {
	
}

1177.1.1 = {
	
}

1466.1.1 = {
	
}

