owner = DB8
controller = DB8
add_core = DB8
religion = dragon_cult
culture = atmoran
hre = no
base_tax = 2
base_production = 2
trade_goods = unknown
base_manpower = 2
capital = "Yama"
is_city = yes



57.1.1 = {
    owner = DA4
    controller = DA4
    add_core = DA4
}

272.1.1 = {
    owner = DRA religion = dragon_cult
    controller = DRA
    add_core = DRA
}

535.1.1 = {
    owner = ---
    controller = ---
    is_city = no
}

862.1.1 = {
}

1177.1.1 = {
}

1466.1.1 = {
}
