owner = DB9
controller = DB9
add_core = DB9
religion = cult_of_ancestors
culture = sea_giant
hre = no
base_tax = 2
base_production = 2
trade_goods = crabs
base_manpower = 2
capital = "Skoedir"
is_city = yes
57.1.1 = { } 
272.1.1 = { 
    owner = DRA
    religion = dragon_cult
    controller = DRA
    add_core = DRA
}

535.1.1 = { owner = --- controller = --- is_city = no } 
862.1.1 = { } 
1177.1.1 = { } 
1466.1.1 = { } 