religion = altmeri_pantheon
culture = altmer
hre = no
base_tax = 7
base_production = 7
trade_goods = unknown
base_manpower = 7
capital = "Virafire"
is_city = yes
owner = SE4
controller = SE4
add_core = SE4
57.1.1 = { owner = SA1 controller = SA1 add_core = SA1 } 
272.1.1 = { } 
535.1.1 = { } 
862.1.1 = { } 
1177.1.1 = { } 
1466.1.1 = { } 