owner = DC1
controller = DC1
add_core = DC1
religion = nordic_pantheon
culture = atmoran
hre = no
base_tax = 2
base_production = 2
trade_goods = fish
base_manpower = 2
capital = "Thorvard"
is_city = yes
fort_15th = yes
57.1.1 = { owner = DA5 controller = DA5 add_core = DA5 } 
272.1.1 = { owner = DRA controller = DRA add_core = DRA } 
535.1.1 = { owner = --- controller = --- is_city = no } 
862.1.1 = { } 
1177.1.1 = { } 
1466.1.1 = { } 