owner = DC2
controller = DC2
add_core = DC2
religion = nordic_pantheon
culture = atmoran
hre = yes
base_tax = 4
base_production = 4
trade_goods = unknown
base_manpower = 4
capital = "Arnor"
is_city = yes
fort_15th = yes
57.1.1 = {
	owner = DC2
	controller = DC2
	add_core = DC2
}

272.1.1 = {
	
}

535.1.1 = {
	
}

862.1.1 = {
	
}

1177.1.1 = {
	
}

1466.1.1 = {
	
}

