owner = DC3
controller = DC3
add_core = DC3
religion = cult_of_ancestors
culture = frost_giant
hre = no
base_tax = 1
base_production = 1
trade_goods = unknown
base_manpower = 1
capital = "Asmund"
is_city = yes
57.1.1 = { owner = DC3 controller = DC3 add_core = DC3 } 
272.1.1 = { } 
535.1.1 = { } 
862.1.1 = { } 
1177.1.1 = { } 
1466.1.1 = { } 