owner = MG8
controller = MG8
religion = reason_and_logic_cult
culture = dwemer
base_tax = 3
base_production = 3
trade_goods = unknown
base_manpower = 3
capital = "Mount Kand"
is_city = yes
add_core = MG8
fort_15th = yes
57.1.1 = { } 
272.1.1 = { } 
535.1.1 = { } 
862.1.1 = { } 
1177.1.1 = { } 
1466.1.1 = { } 