owner = DD7
controller = DD7
add_core = DD7
religion = dragon_cult
culture = glacial
hre = no
base_tax = 1
base_production = 1
trade_goods = unknown
base_manpower = 1
capital = "Baize"
is_city = yes



57.1.1 = {
    owner = DC2
    controller = DC2
    add_core = DC2
}

272.1.1 = {
    owner = DRA religion = dragon_cult
    controller = DRA
    add_core = DRA
}

535.1.1 = {
    owner = ---
    controller = ---
    is_city = no
}

862.1.1 = {
}

1177.1.1 = {
}

1466.1.1 = {
}
