religion = cult_of_ancestors
culture = sea_giant
hre = no
base_tax = 5
base_production = 4
trade_goods = naval_supplies
base_manpower = 6
capital = "The Cold Divines"


57.1.1 = {
}

272.1.1 = {
}

535.1.1 = {
}

862.1.1 = {
}

1177.1.1 = {
}

1466.1.1 = {
}


