owner = KC7
controller = KC7
add_core = KC7
religion = dremora_pantheon
culture = al_dremoran
hre = no
base_tax = 4
base_production = 4
trade_goods = unknown
base_manpower = 4
capital = "Agnush"
is_city = yes
fort_15th = yes
57.1.1 = {
	owner = KC7
	controller = KC7
	add_core = KC7
}

272.1.1 = {
	
}

535.1.1 = {
	
}

862.1.1 = {
	
}

1177.1.1 = {
	
}

1466.1.1 = {
	
}

