owner = IB3
controller = IB3
add_core = IB3
religion = kamal_pantheon
culture = kamal
hre = no
base_tax = 7
base_production = 7
trade_goods = unknown
base_manpower = 7
capital = "Atiliana"
is_city = yes
fort_15th = yes
57.1.1 = {
	
}

272.1.1 = {
	
}

535.1.1 = {
	
}

862.1.1 = {
	
}

1177.1.1 = {
	
}

1466.1.1 = {
	
}

