owner = ND7
controller = ND7
add_core = ND7
religion = hircine_cult
culture = riekling
hre = no
base_tax = 1
base_production = 1
trade_goods = unknown
base_manpower = 1
capital = "Evetsta"
is_city = yes


57.1.1 = {
   owner = NA9
   controller = NA9
   add_core = NA9
}

272.1.1 = {
}

535.1.1 = {
}

862.1.1 = {
}

1177.1.1 = {
}

1466.1.1 = {
}
