owner = ND9
controller = ND9
add_core = ND9
religion = nordic_pantheon
culture = nord
hre = no
base_tax = 3
base_production = 3
trade_goods = unknown
base_manpower = 3
capital = "Orieteir"
is_city = yes



57.1.1 = {
}

272.1.1 = {
    owner = NA8
    controller = NA8
    add_core = NA8
}

535.1.1 = {
}

862.1.1 = {
}

1177.1.1 = {
}

1466.1.1 = {
}
