owner = NE0
controller = NE0
add_core = NE0
religion = nordic_pantheon
culture = nord
hre = no
base_tax = 1
base_production = 1
trade_goods = unknown
base_manpower = 1
capital = "Fjoltla"
is_city = yes


57.1.1 = {
   owner = NA8
   controller = NA8
   add_core = NA8
}

272.1.1 = {
}

535.1.1 = {
}

862.1.1 = {
}

1177.1.1 = {
}

1466.1.1 = {
}
