owner = CS1
controller = CS1
add_core = CS1
religion = molag_bal_cult
culture = vampire
hre = no
base_tax = 6
base_production = 6
trade_goods = unknown
base_manpower = 6
capital = "Holima"
is_city = yes
fort_15th = yes
57.1.1 = {
	owner = CS1
	controller = CS1
	add_core = CS1
}

272.1.1 = {
	
}

535.1.1 = {
	
}

862.1.1 = {
	
}

1177.1.1 = {
	
}

1466.1.1 = {
	
}

