owner = CT5
controller = CT5
add_core = CT5
religion = molag_bal_cult
culture = scamp
hre = no
base_tax = 2
base_production = 2
trade_goods = unknown
base_manpower = 2
capital = "Lenar"
is_city = yes



57.1.1 = {
    owner = CT3
    controller = CT3
    add_core = CT3
}

272.1.1 = {
}

535.1.1 = {
}

862.1.1 = {
}

1177.1.1 = {
}

1466.1.1 = {
}
