owner = CT5
controller = CT5
add_core = CT5
religion = molag_bal_cult
culture = scamp
hre = no
base_tax = 4
base_production = 4
trade_goods = unknown
base_manpower = 4
capital = "Ollivael"
is_city = yes
fort_15th = yes
57.1.1 = {
	owner = CT5
	controller = CT5
	add_core = CT5
}

272.1.1 = {
	
}

535.1.1 = {
	
}

862.1.1 = {
	
}

1177.1.1 = {
	
}

1466.1.1 = {
	
}

