owner = NE6
controller = NE6
add_core = NE6
religion = nordic_pantheon
culture = nord
hre = no
base_tax = 3
base_production = 3
trade_goods = unknown
base_manpower = 3
capital = "Orlel"
is_city = yes



57.1.1 = {
}

272.1.1 = {
    owner = SKY
    controller = SKY
    add_core = SKY
    religion = nordic_pantheon
    culture = nord
}

535.1.1 = {
}

862.1.1 = {
}

1177.1.1 = {
}

1466.1.1 = {
}
