owner = NF1
controller = NF1
add_core = NF1
religion = nordic_pantheon
culture = nord
hre = no
base_tax = 1
base_production = 1
trade_goods = unknown
base_manpower = 1
capital = "igrra"
is_city = yes



57.1.1 = {
}

272.1.1 = {
    owner = NB2
    controller = NB2
    add_core = NB2
}

535.1.1 = {
}

862.1.1 = {
}

1177.1.1 = {
}

1466.1.1 = {
}
