owner = NF1
controller = NF1
add_core = NF1
religion = nordic_pantheon
culture = nord
hre = no
base_tax = 7
base_production = 7
trade_goods = unknown
base_manpower = 7
capital = "Ilinalta's Deep"
is_city = yes



57.1.1 = {
}

272.1.1 = {
}

535.1.1 = {
}

862.1.1 = {
}

1177.1.1 = {
}

1466.1.1 = {
}
