owner = YA6
controller = YA6
add_core = YA6
religion = yokudan_pantheon
culture = yokudan
hre = no
base_tax = 6
base_production = 6
trade_goods = unknown
base_manpower = 6
capital = "Kiada"
is_city = yes
fort_15th = yes
57.1.1 = {
	owner = YA6
	controller = YA6
	add_core = YA6
}

272.1.1 = {
	
}

535.1.1 = {
	
}

862.1.1 = {
	
}

1177.1.1 = {
	
}

1466.1.1 = {
	
}

