owner = YA2
controller = YA2
add_core = YA2
religion = yokudan_pantheon
culture = yokudan
hre = no
base_tax = 5
base_production = 5
trade_goods = unknown
base_manpower = 5
capital = "Ravan"
is_city = yes
fort_15th = yes
57.1.1 = {
	owner = YA2
	controller = YA2
	add_core = YA2
}

272.1.1 = {
	
}

535.1.1 = {
	
}

862.1.1 = {
	
}

1177.1.1 = {
	
}

1466.1.1 = {
	
}

