owner = IA4
controller = IA4
add_core = IA4
religion = kamal_pantheon
culture = kamal
hre = no
base_tax = 3
base_production = 3
trade_goods = unknown
base_manpower = 3
capital = "Mirion"
is_city = yes



57.1.1 = {
}

272.1.1 = {
}

535.1.1 = {
}

862.1.1 = {
}

1177.1.1 = {
}

1466.1.1 = {
}
