owner = UB0
controller = UB0
add_core = UB0
religion = po_tun_pantheon
culture = po_tun
hre = no
base_tax = 6
base_production = 6
trade_goods = unknown
base_manpower = 6
capital = "Tialant"
is_city = yes
fort_15th = yes
57.1.1 = {
	owner = UB0
	controller = UB0
	add_core = UB0
}

272.1.1 = {
	
}

535.1.1 = {
	
}

862.1.1 = {
	
}

1177.1.1 = {
	
}

1466.1.1 = {
	
}

