owner = DA1
controller = DA1
add_core = DA1
religion = nordic_pantheon
culture = atmoran
hre = yes
base_tax = 5
base_production = 5
trade_goods = unknown
base_manpower = 5
capital = "Broadwall"
is_city = yes
fort_15th = yes
57.1.1 = { owner = DA1 controller = DA1 add_core = DA1 } 
272.1.1 = { } 
535.1.1 = { owner = --- controller = --- is_city = no } 
862.1.1 = { } 
1177.1.1 = { } 
1466.1.1 = { } 