owner = UB5
controller = UB5
add_core = UB5
religion = tsaesci_pantheon
culture = tsaesci
hre = no
base_tax = 6
base_production = 6
trade_goods = unknown
base_manpower = 6
capital = "Tuselle"
is_city = yes
fort_15th = yes
57.1.1 = {
	owner = UB5
	controller = UB5
	add_core = UB5
}

272.1.1 = {
	
}

535.1.1 = {
	
}

862.1.1 = {
	
}

1177.1.1 = {
	
}

1466.1.1 = {
	
}

