owner = DA1
controller = DA1
add_core = DA1
religion = nordic_pantheon
culture = atmoran
hre = no
base_tax = 1
base_production = 1
trade_goods = unknown
base_manpower = 1
capital = "Skangruldr"
is_city = yes
57.1.1 = { owner = DA1 controller = DA1 add_core = DA1 } 
272.1.1 = { owner = DRA controller = DRA add_core = DRA } 
535.1.1 = { owner = --- controller = --- is_city = no } 
862.1.1 = { } 
1177.1.1 = { } 
1466.1.1 = { } 