owner = DA3
controller = DA3
add_core = DA3
religion = nordic_pantheon
culture = atmoran
hre = yes
base_tax = 6
base_production = 6
trade_goods = unknown
base_manpower = 6
capital = "Naugrheim"
is_city = yes
fort_15th = yes
57.1.1 = { owner = DA3 controller = DA3 add_core = DA3 } 
272.1.1 = { } 
535.1.1 = { } 
862.1.1 = { } 
1177.1.1 = { } 
1466.1.1 = { } 