owner = DA3
controller = DA3
add_core = DA3
religion = nordic_pantheon
culture = atmoran
hre = no
base_tax = 3
base_production = 3
trade_goods = unknown
base_manpower = 3
capital = "Haldis"
is_city = yes
57.1.1 = { owner = DA3 controller = DA3 add_core = DA3 } 
272.1.1 = { owner = DRA controller = DRA add_core = DRA } 
535.1.1 = { owner = --- controller = --- is_city = no } 
862.1.1 = { } 
1177.1.1 = { } 
1466.1.1 = { } 