owner = TB4
controller = TB4
add_core = TB4
religion = tsaesci_pantheon
culture = tsaesci
hre = no
base_tax = 7
base_production = 7
trade_goods = unknown
base_manpower = 7
capital = "Xehxenic"
is_city = yes
fort_15th = yes
57.1.1 = {
	owner = TB4
	controller = TB4
	add_core = TB4
}

272.1.1 = {
	
}

535.1.1 = {
	
}

862.1.1 = {
	
}

1177.1.1 = {
	
}

1466.1.1 = {
	
}

