owner = DA5
controller = DA5
add_core = DA5
religion = nordic_pantheon
culture = atmoran
hre = no
base_tax = 1
base_production = 1
trade_goods = fish
base_manpower = 1
capital = "Thugibaf"
is_city = yes
57.1.1 = { owner = DA5 controller = DA5 add_core = DA5 } 
272.1.1 = { owner = DRA controller = DRA add_core = DRA } 
535.1.1 = { owner = --- controller = --- is_city = no } 
862.1.1 = { } 
1177.1.1 = { } 
1466.1.1 = { } 