owner = DA3
controller = DA3
add_core = DA3
religion = nordic_pantheon
culture = atmoran
hre = no
base_tax = 2
base_production = 2
trade_goods = unknown
base_manpower = 2
capital = "Throgdriof"
is_city = yes
57.1.1 = { owner = DA3 controller = DA3 add_core = DA3 } 
272.1.1 = { } 
535.1.1 = { } 
862.1.1 = { } 
1177.1.1 = { } 
1466.1.1 = { } 