owner = DD4
controller = DD4
add_core = DD4
religion = nordic_pantheon
culture = atmoran
hre = no
base_tax = 2
base_production = 2
trade_goods = unknown
base_manpower = 2
capital = "Steeira"
is_city = yes



57.1.1 = {
    owner = DA1
    controller = DA1
    add_core = DA1
}

272.1.1 = {
    owner = DRA religion = dragon_cult
    controller = DRA
    add_core = DRA
}

535.1.1 = {
    owner = ---
    controller = ---
    is_city = no
}

862.1.1 = {
}

1177.1.1 = {
}

1466.1.1 = {
}
