owner = SA3
controller = SA3
add_core = SA3
religion = altmeri_pantheon
culture = altmer
hre = yes
base_tax = 1
base_production = 1
trade_goods = unknown
base_manpower = 1
capital = "Silalaure"
is_city = yes


57.1.1 = {
    owner = SA3
    controller = SA3
    add_core = SA3
}

272.1.1 = {
}

535.1.1 = {
}

862.1.1 = {
}

1177.1.1 = {
}

1466.1.1 = {
}
