owner = SA4
controller = SA4
add_core = SA4
religion = altmeri_pantheon
culture = altmer
hre = yes
base_tax = 1
base_production = 1
trade_goods = unknown
base_manpower = 1
capital = "Elearume"
is_city = yes


57.1.1 = {
    owner = SA4
    controller = SA4
    add_core = SA4
}

272.1.1 = {
}

535.1.1 = {
}

862.1.1 = {
}

1177.1.1 = {
}

1466.1.1 = {
}
