owner = SA5
controller = SA5
add_core = SA5
religion = altmeri_pantheon
culture = altmer
hre = yes
base_tax = 1
base_production = 1
trade_goods = unknown
base_manpower = 1
capital = "Sondsara"
is_city = yes


57.1.1 = {
    owner = SA6
    controller = SA6
    add_core = SA6
}

272.1.1 = {
}

535.1.1 = {
}

862.1.1 = {
}

1177.1.1 = {
}

1466.1.1 = {
}
