religion = cult_of_ancestors
culture = sea_giant
hre = no
base_tax = 6
base_production = 6
trade_goods = unknown
base_manpower = 6
capital = "The Green Coast"

57.1.1 = { } 
272.1.1 = { } 
535.1.1 = { } 
862.1.1 = { } 
1177.1.1 = { } 
1466.1.1 = { } 