owner = SB1
controller = SB1
add_core = SB1
religion = altmeri_pantheon
culture = altmer
hre = yes
base_tax = 3
base_production = 3
trade_goods = unknown
base_manpower = 3
capital = "Caminalda"
is_city = yes


57.1.1 = {
    owner = SB1
    controller = SB1
    add_core = SB1
}

272.1.1 = {
}

535.1.1 = {
}

862.1.1 = {
}

1177.1.1 = {
}

1466.1.1 = {
}
