owner = SB4
controller = SB4
add_core = SB4
religion = altmeri_pantheon
culture = altmer
hre = yes
base_tax = 1
base_production = 1
trade_goods = unknown
base_manpower = 1
capital = "Celae"
is_city = yes


57.1.1 = {
    owner = SB2
    controller = SB2
    add_core = SB2
}

272.1.1 = {
}

535.1.1 = {
}

862.1.1 = {
}

1177.1.1 = {
}

1466.1.1 = {
}
