owner = SB4
controller = SB4
add_core = SB4
religion = altmeri_pantheon
culture = altmer
hre = yes
base_tax = 3
base_production = 3
trade_goods = unknown
base_manpower = 3
capital = "Granaen"
is_city = yes


57.1.1 = {
    owner = SC1
    controller = SC1
    add_core = SC1
}

272.1.1 = {
}

535.1.1 = {
}

862.1.1 = {
}

1177.1.1 = {
}

1466.1.1 = {
}
