religion = altmeri_pantheon
culture = altmer
hre = no
base_tax = 8
base_production = 8
trade_goods = unknown
base_manpower = 8
capital = "Siltnande"
is_city = yes
owner = SC9
controller = SC9
add_core = SC9
57.1.1 = { } 
272.1.1 = { } 
535.1.1 = { } 
862.1.1 = { } 
1177.1.1 = { } 
1466.1.1 = { } 