owner = SB5
controller = SB5
add_core = SB5
religion = altmeri_pantheon
culture = altmer
hre = yes
base_tax = 1
base_production = 1
trade_goods = unknown
base_manpower = 1
capital = "Shayeminwe"
is_city = yes


57.1.1 = {
    owner = SC1
    controller = SC1
    add_core = SC1
}

272.1.1 = {
}

535.1.1 = {
}

862.1.1 = {
}

1177.1.1 = {
}

1466.1.1 = {
}
