owner = SB9
controller = SB9
add_core = SB9
religion = altmeri_pantheon
culture = altmer
hre = yes
base_tax = 2
base_production = 2
trade_goods = unknown
base_manpower = 2
capital = "Arivarie"
is_city = yes


57.1.1 = {
    owner = SA1
    controller = SA1
    add_core = SA1
}

272.1.1 = {
}

535.1.1 = {
}

862.1.1 = {
}

1177.1.1 = {
}

1466.1.1 = {
}
