owner = SC2
controller = SC2
add_core = SC2
religion = altmeri_pantheon
culture = altmer
hre = yes
base_tax = 3
base_production = 3
trade_goods = unknown
base_manpower = 3
capital = "Aediane"
is_city = yes


57.1.1 = {
    owner = SA2
    controller = SA2
    add_core = SA2
}

272.1.1 = {
}

535.1.1 = {
}

862.1.1 = {
}

1177.1.1 = {
}

1466.1.1 = {
}
