owner = SC4
controller = SC4
add_core = SC4
religion = old_way_cult
culture = altmer
hre = yes
base_tax = 3
base_production = 3
trade_goods = unknown
base_manpower = 3
capital = "Larenhal"
is_city = yes


57.1.1 = {
    owner = SA7
    controller = SA7
    add_core = SA7
}

272.1.1 = {
}

535.1.1 = {
}

862.1.1 = {
}

1177.1.1 = {
}

1466.1.1 = {
}
