owner = SC5
controller = SC5
add_core = SC5
religion = old_way_cult
culture = altmer
hre = yes
base_tax = 1
base_production = 1
trade_goods = unknown
base_manpower = 1
capital = "Larethius"
is_city = yes


57.1.1 = {
    owner = SA2
    controller = SA2
    add_core = SA2
}

272.1.1 = {
}

535.1.1 = {
}

862.1.1 = {
}

1177.1.1 = {
}

1466.1.1 = {
}
