owner = SC6
controller = SC6
add_core = SC6
religion = altmeri_pantheon
culture = altmer
hre = yes
base_tax = 1
base_production = 1
trade_goods = unknown
base_manpower = 1
capital = "Valieya"
is_city = yes


57.1.1 = {
    owner = SC6
    controller = SC6
    add_core = SC6
}

272.1.1 = {
}

535.1.1 = {
}

862.1.1 = {
}

1177.1.1 = {
}

1466.1.1 = {
}
