owner = SC9
controller = SC9
add_core = SC9
religion = altmeri_pantheon
culture = altmer
hre = yes
base_tax = 3
base_production = 3
trade_goods = unknown
base_manpower = 3
capital = "Jorour"
is_city = yes


57.1.1 = {
    owner = SC9
    controller = SC9
    add_core = SC9
}

272.1.1 = {
}

535.1.1 = {
}

862.1.1 = {
}

1177.1.1 = {
}

1466.1.1 = {
}
