owner = DE3
controller = DE3
add_core = DE3
religion = nordic_pantheon
culture = atmoran
hre = yes
base_tax = 1
base_production = 1
trade_goods = copper
base_manpower = 1
capital = "Phiehmavus"
is_city = yes
57.1.1 = { owner = DE3 controller = DE3 add_core = DE3 } 
272.1.1 = { } 
535.1.1 = { } 
862.1.1 = { } 
1177.1.1 = { } 
1466.1.1 = { } 