owner = DE5
controller = DE5
add_core = DE5
religion = nordic_pantheon
culture = atmoran
hre = no
base_tax = 1
base_production = 1
trade_goods = fish
base_manpower = 1
capital = "Kmauxioth"
is_city = yes
57.1.1 = { owner = DA2 controller = DA2 add_core = DA2 } 
272.1.1 = { } 
535.1.1 = { } 
862.1.1 = { } 
1177.1.1 = { } 
1466.1.1 = { } 