owner = DE5
controller = DE5
add_core = DE5
religion = nordic_pantheon
culture = atmoran
hre = no
base_tax = 1
base_production = 1
trade_goods = unknown
base_manpower = 1
capital = "Wakmcius"
is_city = yes
fort_15th = yes
57.1.1 = {
	owner = DA2
	controller = DA2
	add_core = DA2
}

272.1.1 = {
	owner = DRA
	controller = DRA
	add_core = DRA
}

535.1.1 = {
	owner = ---
	controller = ---
	is_city = no
}

862.1.1 = {
	
}

1177.1.1 = {
	
}

1466.1.1 = {
	
}

