owner = KB8
controller = KB8
add_core = KB8
religion = kamal_pantheon
culture = kamal
hre = no
base_tax = 4
base_production = 4
trade_goods = unknown
base_manpower = 4
capital = "Heogloicus"
is_city = yes
fort_15th = yes
57.1.1 = {
	owner = KB8
	controller = KB8
	add_core = KB8
}

272.1.1 = {
	
}

535.1.1 = {
	
}

862.1.1 = {
	
}

1177.1.1 = {
	
}

1466.1.1 = {
	
}

