owner = KB9
controller = KB9
add_core = KB9
religion = dremora_pantheon
culture = al_dremoran
hre = no
base_tax = 7
base_production = 7
trade_goods = unknown
base_manpower = 7
capital = "Al-Kamal"
is_city = yes
fort_15th = yes
57.1.1 = {
	owner = KB9
	controller = KB9
	add_core = KB9
}

272.1.1 = {
	
}

535.1.1 = {
	
}

862.1.1 = {
	
}

1177.1.1 = {
	
}

1466.1.1 = {
	
}

