owner = KC0
controller = KC0
add_core = KC0
religion = kamal_pantheon
culture = kamal
hre = no
base_tax = 5
base_production = 5
trade_goods = unknown
base_manpower = 5
capital = "Laggard"
is_city = yes
fort_15th = yes
57.1.1 = {
	owner = KC0
	controller = KC0
	add_core = KC0
}

272.1.1 = {
	
}

535.1.1 = {
	
}

862.1.1 = {
	
}

1177.1.1 = {
	
}

1466.1.1 = {
	
}

