owner = CA3
controller = CA3
add_core = CA3
religion = meridia_cult
culture = ayleid
hre = yes
base_tax = 2
base_production = 2
trade_goods = unknown
base_manpower = 2
capital = "Renne"
is_city = yes



57.1.1 = {
}

272.1.1 = {
   religion = nedic_pantheon
}

535.1.1 = {
}

862.1.1 = {
}

1177.1.1 = {
}

1466.1.1 = {
}
