owner = CB0
controller = CB0
add_core = CB0
religion = molag_bal_cult
culture = ayleid
hre = yes
base_tax = 1
base_production = 1
trade_goods = unknown
base_manpower = 1
capital = "Sylolvia"
is_city = yes



57.1.1 = {
   owner = CF4
   controller = CF4
   add_core = CF4
}

272.1.1 = {
   religion = nedic_pantheon
}

535.1.1 = {
}

862.1.1 = {
}

1177.1.1 = {
}

1466.1.1 = {
}
