owner = CB1
controller = CB1
add_core = CB1
religion = molag_bal_cult
culture = ayleid
hre = yes
base_tax = 3
base_production = 3
trade_goods = unknown
base_manpower = 3
capital = "Oressinia"
is_city = yes



57.1.1 = {
   owner = CA9
   controller = CA9
   add_core = CA9
}

272.1.1 = {
   religion = nedic_pantheon
}

535.1.1 = {
}

862.1.1 = {
}

1177.1.1 = {
}

1466.1.1 = {
}
