owner = CB2
controller = CB2
add_core = CB2
religion = molag_bal_cult
culture = ayleid
hre = yes
base_tax = 4
base_production = 4
trade_goods = unknown
base_manpower = 4
capital = "Blanena"
is_city = yes



57.1.1 = {
   owner = CF6
   controller = CF6
   add_core = CF6
}

272.1.1 = {
}

535.1.1 = {
}

862.1.1 = {
}

1177.1.1 = {
}

1466.1.1 = {
}
