owner = JA1
controller = JA1
add_core = JA1
religion = tang_mo_pantheon
culture = tangmo
hre = no
base_tax = 4
base_production = 4
trade_goods = unknown
base_manpower = 4
capital = Mefissaj
is_city = yes
fort_15th = yes
57.1.1 = {
	owner = JA1
	controller = JA1
	add_core = JA1
}

272.1.1 = {
	
}

535.1.1 = {
	
}

862.1.1 = {
	
}

1177.1.1 = {
	
}

1466.1.1 = {
	
}

