owner = CD1
controller = CD1
add_core = CD1
religion = mehrunes_dagon_cult
culture = ayleid
hre = yes
base_tax = 3
base_production = 3
trade_goods = unknown
base_manpower = 3
capital = "Cappina"
is_city = yes



57.1.1 = {
   owner = CA1
   controller = CA1
   add_core = CA1
}

272.1.1 = {
}

535.1.1 = {
}

862.1.1 = {
}

1177.1.1 = {
}

1466.1.1 = {
}
