owner = CD6
controller = CD6
add_core = CD6
religion = meridia_cult
culture = ayleid
hre = yes
base_tax = 5
base_production = 5
trade_goods = unknown
base_manpower = 5
capital = "Gavunia"
is_city = yes



57.1.1 = {
}

272.1.1 = {
}

535.1.1 = {
}

862.1.1 = {
}

1177.1.1 = {
}

1466.1.1 = {
}
