owner = CF0
controller = CF0
add_core = CF0
religion = nedic_pantheon
culture = nedic
hre = no
base_tax = 1
base_production = 1
trade_goods = unknown
base_manpower = 1
capital = "Posucia"
is_city = yes



57.1.1 = {
}

272.1.1 = {
}

535.1.1 = {
}

862.1.1 = {
}

1177.1.1 = {
}

1466.1.1 = {
}
