owner = CF8
controller = CF8
add_core = CF8
religion = hircine_cult
culture = minotaur
hre = no
base_tax = 1
base_production = 1
trade_goods = unknown
base_manpower = 1
capital = "Cedureius"
is_city = yes



57.1.1 = {
   owner = CG0
   controller = CG0
   add_core = CG0
}

272.1.1 = {
}

535.1.1 = {
}

862.1.1 = {
}

1177.1.1 = {
}

1466.1.1 = {
}
