owner = JA9
controller = JA9
add_core = JA9
religion = tang_mo_pantheon
culture = tangmo
hre = no
base_tax = 7
base_production = 7
trade_goods = unknown
base_manpower = 7
capital = Erseh
is_city = yes
fort_15th = yes
57.1.1 = {
	owner = JA9
	controller = JA9
	add_core = JA9
}

272.1.1 = {
	
}

535.1.1 = {
	
}

862.1.1 = {
	
}

1177.1.1 = {
	
}

1466.1.1 = {
	
}

