owner = CG2
controller = CG2
add_core = CG2
religion = hircine_cult
culture = minotaur
hre = no
base_tax = 2
base_production = 2
trade_goods = unknown
base_manpower = 2
capital = "Lachium"
is_city = yes


57.1.1 = {
   owner = CB3
   controller = CB3
   add_core = CB3
}

272.1.1 = {
}

535.1.1 = {
}

862.1.1 = {
}

1177.1.1 = {
}

1466.1.1 = {
}
