owner = CG5
controller = CG5
add_core = CG5
religion = hircine_cult
culture = minotaur
hre = no
base_tax = 1
base_production = 1
trade_goods = unknown
base_manpower = 1
capital = "Milfre"
is_city = yes


57.1.1 = {
   owner = CG4
   controller = CG4
   add_core = CG4
}

272.1.1 = {
}

535.1.1 = {
}

862.1.1 = {
}

1177.1.1 = {
}

1466.1.1 = {
}
