owner = CG7
controller = CG7
add_core = CG7
religion = meridia_cult
culture = ayleid
hre = yes
base_tax = 3
base_production = 3
trade_goods = unknown
base_manpower = 3
capital = "Sibynitia"
is_city = yes


57.1.1 = {
   owner = CB4
   controller = CB4
   add_core = CB4
}

272.1.1 = {
}

535.1.1 = {
}

862.1.1 = {
}

1177.1.1 = {
}

1466.1.1 = {
}
