owner = CG8
controller = CG8
add_core = CG8
religion = meridia_cult
culture = ayleid
hre = yes
base_tax = 2
base_production = 2
trade_goods = unknown
base_manpower = 2
capital = "Wavridius"
is_city = yes


57.1.1 = {
   owner = CH0
   controller = CH0
   add_core = CH0
}

272.1.1 = {
   owner = CB6
   controller = CB6
   add_core = CB6
   religion = snow_elves_pantheon
}

535.1.1 = {
}

862.1.1 = {
}

1177.1.1 = {
}

1466.1.1 = {
}
