owner = CH0
controller = CH0
add_core = CH0
religion = meridia_cult
culture = ayleid
hre = yes
base_tax = 4
base_production = 4
trade_goods = unknown
base_manpower = 4
capital = "Medades"
is_city = yes



57.1.1 = {
}

272.1.1 = {
   owner = AYL
   controller = AYL
   add_core = AYL
   religion = nedic_pantheon
}

535.1.1 = {
}

862.1.1 = {
}

1177.1.1 = {
}

1466.1.1 = {
}
