owner = CI1
controller = CI1
add_core = CI1
religion = meridia_cult
culture = ayleid
hre = yes
base_tax = 3
base_production = 3
trade_goods = unknown
base_manpower = 3
capital = "Patidus"
is_city = yes



57.1.1 = {
   owner = CB8
   controller = CB8
   add_core = CB8
}

272.1.1 = {
   owner = AYL
   controller = AYL
   add_core = AYL
   religion = nedic_pantheon
}

535.1.1 = {
}

862.1.1 = {
}

1177.1.1 = {
}

1466.1.1 = {
}
