owner = CI8
controller = CI8
add_core = CI8
religion = meridia_cult
culture = ayleid
hre = yes
base_tax = 1
base_production = 1
trade_goods = unknown
base_manpower = 1
capital = "Ratinius"
is_city = yes



57.1.1 = {
}

272.1.1 = {
   owner = AYL
   controller = AYL
   add_core = AYL
}

535.1.1 = {
}

862.1.1 = {
}

1177.1.1 = {
}

1466.1.1 = {
}
