owner = OA1
controller = OA1
add_core = OA1
religion = po_tun_pantheon
culture = po_tun
hre = no
base_tax = 4
base_production = 4
trade_goods = unknown
base_manpower = 4
capital = "Singalam"
is_city = yes
fort_15th = yes
57.1.1 = {
	owner = OA1
	controller = OA1
	add_core = OA1
}

272.1.1 = {
	
}

535.1.1 = {
	
}

862.1.1 = {
	
}

1177.1.1 = {
	
}

1466.1.1 = {
	
}

