owner = HB3
controller = HB3
add_core = HB3
religion = hermeus_mora_cult
culture = corelanyan
hre = yes
base_tax = 2
base_production = 2
trade_goods = unknown
base_manpower = 2
capital = "Sioah"
is_city = yes


57.1.1 = {
}

272.1.1 = {
}

535.1.1 = {
}

862.1.1 = {
}

1177.1.1 = {
}

1466.1.1 = {
}
