owner = HB4
controller = HB4
add_core = HB4
religion = sheogorath_cult
culture = corelanyan
hre = yes
base_tax = 3
base_production = 3
trade_goods = unknown
base_manpower = 3
capital = "Falelone"
is_city = yes


57.1.1 = {
   owner = HA8
   controller = HA8
   add_core = HA8
}

272.1.1 = {
}

535.1.1 = {
}

862.1.1 = {
}

1177.1.1 = {
}

1466.1.1 = {
}
