owner = HB8
controller = HB8
add_core = HB8
religion = celestials
culture = keptu
hre = no
base_tax = 2
base_production = 2
trade_goods = unknown
base_manpower = 2
capital = "Dahti"
is_city = yes


57.1.1 = {
   owner = HB9
   controller = HB9
   add_core = HB9
}

272.1.1 = {
}

535.1.1 = {
}

862.1.1 = {
}

1177.1.1 = {
}

1466.1.1 = {
}
