owner = HB9
controller = HB9
add_core = HB9
religion = reason_and_logic_cult
culture = rourkenid
hre = no
base_tax = 1
base_production = 1
trade_goods = unknown
base_manpower = 1
capital = "Jeanola"
is_city = yes


57.1.1 = {
}

272.1.1 = {
}

535.1.1 = {
}

862.1.1 = {
}

1177.1.1 = {
}

1466.1.1 = {
}
