owner = HC1
controller = HC1
add_core = HC1
religion = sheogorath_cult
culture = ayleid
hre = yes
base_tax = 3
base_production = 3
trade_goods = unknown
base_manpower = 3
capital = "Nostten"
is_city = yes


57.1.1 = {
   owner = HA1
   controller = HA1
   add_core = HA1
}

272.1.1 = {
}

535.1.1 = {
}

862.1.1 = {
}

1177.1.1 = {
}

1466.1.1 = {
}
