owner = HC2
controller = HC2
add_core = HC2
religion = jyggalag_cult
culture = corelanyan
hre = yes
base_tax = 3
base_production = 3
trade_goods = unknown
base_manpower = 3
capital = "Anweey"
is_city = yes


57.1.1 = {
   owner = HC1
   controller = HC1
   add_core = HC1
}

272.1.1 = {
}

535.1.1 = {
}

862.1.1 = {
}

1177.1.1 = {
}

1466.1.1 = {
}
