owner = HC8
controller = HC8
add_core = HC8
religion = cult_of_lorelia
culture = breton
hre = no
base_tax = 2
base_production = 2
trade_goods = unknown
base_manpower = 2
capital = "T'irhtun"
is_city = yes


57.1.1 = {
}

272.1.1 = {
}

535.1.1 = {
}

862.1.1 = {
}

1177.1.1 = {
}

1466.1.1 = {
}
