owner = HD1
controller = HD1
add_core = HD1
religion = celestials
culture = keptu
hre = no
base_tax = 1
base_production = 1
trade_goods = unknown
base_manpower = 1
capital = "Rlurgan"
is_city = yes


57.1.1 = {
   owner = HA6
   controller = HA6
   add_core = HA6
}

272.1.1 = {
}

535.1.1 = {
}

862.1.1 = {
}

1177.1.1 = {
}

1466.1.1 = {
}
