religion = celestials
culture = keptu
hre = no
base_tax = 2
base_production = 2
trade_goods = unknown
base_manpower = 2
capital = "Karet"
is_city = no


57.1.1 = {
}

272.1.1 = {
}

535.1.1 = {
}

862.1.1 = {
}

1177.1.1 = {
}

1466.1.1 = {
}
