owner = HD6
controller = HD6
add_core = HD6
religion = hermeus_mora_cult
culture = corelanyan
hre = yes
base_tax = 3
base_production = 3
trade_goods = unknown
base_manpower = 3
capital = "Sayml"
is_city = yes


57.1.1 = {
   owner = HB0
   controller = HB0
   add_core = HB0
}

272.1.1 = {
}

535.1.1 = {
}

862.1.1 = {
}

1177.1.1 = {
}

1466.1.1 = {
}
