religion = hist
culture = naga
hre = no
base_tax = 1
base_production = 1
trade_goods = unknown
base_manpower = 1
capital = "Ample Domicile"
owner = ME0
controller = ME0
is_city = yes
add_core = ME0
57.1.1 = { owner = --- controller = --- }
190.1.1 = { owner = ME0 controller = ME0 add_core = ME0 }