owner = OB2
controller = OB2
add_core = OB2
religion = po_tun_pantheon
culture = po_tun
hre = no
base_tax = 2
base_production = 2
trade_goods = unknown
base_manpower = 2
capital = "Ka' Puu"
is_city = yes
fort_15th = yes
57.1.1 = {
	owner = OA8
	controller = OA8
	add_core = OA8
}

272.1.1 = {
	
}

535.1.1 = {
	
}

862.1.1 = {
	
}

1177.1.1 = {
	
}

1466.1.1 = {
	
}

