owner = TA1
controller = TA1
add_core = TA1
religion = tsaesci_pantheon
culture = tsaesci
hre = no
base_tax = 5
base_production = 5
trade_goods = unknown
base_manpower = 5
capital = "Egelah"
is_city = yes
fort_15th = yes
57.1.1 = {
	owner = TA1
	controller = TA1
	add_core = TA1
}

272.1.1 = {
	
}

535.1.1 = {
	
}

862.1.1 = {
	
}

1177.1.1 = {
	
}

1466.1.1 = {
	
}

