owner = TA4
controller = TA4
add_core = TA4
religion = tsaesci_pantheon
culture = tsaesci
hre = no
base_tax = 4
base_production = 4
trade_goods = unknown
base_manpower = 4
capital = "Meralang"
is_city = yes
fort_15th = yes
57.1.1 = {
	owner = TA4
	controller = TA4
	add_core = TA4
}

272.1.1 = {
	
}

535.1.1 = {
	
}

862.1.1 = {
	
}

1177.1.1 = {
	
}

1466.1.1 = {
	
}

