owner = TA7
controller = TA7
add_core = TA7
religion = tsaesci_pantheon
culture = tsaesci
hre = no
base_tax = 8
base_production = 8
trade_goods = unknown
base_manpower = 8
capital = "Ylnu"
is_city = yes
fort_15th = yes
57.1.1 = {
	owner = TA7
	controller = TA7
	add_core = TA7
}

272.1.1 = {
	
}

535.1.1 = {
	
}

862.1.1 = {
	
}

1177.1.1 = {
	
}

1466.1.1 = {
	
}

