owner = NB8
controller = NB8
add_core = NB8
religion = nordic_pantheon
culture = nord
hre = no
base_tax = 1
base_production = 1
trade_goods = unknown
base_manpower = 1
capital = "Ondjaarn"
is_city = yes


57.1.1 = {
   owner = NB5
   controller = NB5
   add_core = NB5
}

272.1.1 = {
}

535.1.1 = {
}

862.1.1 = {
}

1177.1.1 = {
}

1466.1.1 = {
}
