owner = NC1
controller = NC1
add_core = NC1
religion = molag_bal_cult
culture = vampire
hre = no
base_tax = 2
base_production = 2
trade_goods = unknown
base_manpower = 2
capital = "Ignritte"
is_city = yes



57.1.1 = {
   owner = VOL
   controller = VOL
   add_core = VOL
}

272.1.1 = {
}

535.1.1 = {
}

862.1.1 = {
}

1177.1.1 = {
}

1466.1.1 = {
}
