owner = NC4
controller = NC4
add_core = NC4
culture = reachmen
religion = old_gods_cult
hre = no
base_tax = 2
base_production = 2
trade_goods = unknown
base_manpower = 2
capital = "Erdlaith"
is_city = yes



57.1.1 = {
   owner = NC3
   controller = NC3
   add_core = NC3
}

272.1.1 = {
}

535.1.1 = {
}

862.1.1 = {
}

1177.1.1 = {
}

1466.1.1 = {
}
