owner = NC6
controller = NC6
add_core = NC6
culture = reachmen
religion = old_gods_cult
hre = no
base_tax = 1
base_production = 1
trade_goods = unknown
base_manpower = 1
capital = "Riknhild"
is_city = yes



57.1.1 = {
   owner = NC5
   controller = NC5
   add_core = NC5
}

272.1.1 = {
   owner = REA
   controller = REA
   add_core = REA
}

535.1.1 = {
}

862.1.1 = {
}

1177.1.1 = {
}

1466.1.1 = {
}
