owner = NC7
controller = NC7
add_core = NC7
culture = reachmen
religion = old_gods_cult
hre = no
base_tax = 2
base_production = 2
trade_goods = unknown
base_manpower = 2
capital = "Eydhvir"
is_city = yes



57.1.1 = {
   owner = NC8
   controller = NC8
   add_core = NC8
}

272.1.1 = {
   owner = NC7
   controller = NC7
   add_core = NC7
}

535.1.1 = {
}

862.1.1 = {
}

1177.1.1 = {
}

1466.1.1 = {
}
