owner = NC8
controller = NC8
add_core = NC8
religion = reason_and_logic_cult
culture = rourkenid
hre = no
base_tax = 2
base_production = 2
trade_goods = unknown
base_manpower = 2
capital = "Rangika"
is_city = yes



57.1.1 = {
   owner = NC8
   controller = NC8
   add_core = NC8
}

272.1.1 = {
   owner = NA7
   controller = NA7
   add_core = NA7
}

535.1.1 = {
}

862.1.1 = {
}

1177.1.1 = {
}

1466.1.1 = {
}
