owner = NC9
controller = NC9
add_core = NC9
religion = reason_and_logic_cult
culture = rourkenid
hre = no
base_tax = 1
base_production = 1
trade_goods = unknown
base_manpower = 1
capital = "Temida"
is_city = yes



57.1.1 = {
   owner = NA7
   controller = NA7
   add_core = NA7
}

272.1.1 = {
}

535.1.1 = {
}

862.1.1 = {
}

1177.1.1 = {
}

1466.1.1 = {
}
