owner = ND1
controller = ND1
add_core = ND1
culture = reachmen
religion = old_gods_cult
hre = no
base_tax = 4
base_production = 4
trade_goods = unknown
base_manpower = 4
capital = "Fort Sungard"
is_city = yes



57.1.1 = {
}

272.1.1 = {
}

535.1.1 = {
}

862.1.1 = {
}

1177.1.1 = {
}

1466.1.1 = {
}
