owner = TB1
controller = TB1
add_core = TB1
religion = tsaesci_pantheon
culture = tsaesci
hre = no
base_tax = 6
base_production = 6
trade_goods = unknown
base_manpower = 6
capital = "Ysun"
is_city = yes
fort_15th = yes
57.1.1 = {
	owner = TB1
	controller = TB1
	add_core = TB1
}

272.1.1 = {
	
}

535.1.1 = {
	
}

862.1.1 = {
	
}

1177.1.1 = {
	
}

1466.1.1 = {
	
}

