owner = TB2
controller = TB2
add_core = TB2
religion = tsaesci_pantheon
culture = tsaesci
hre = no
base_tax = 1
base_production = 1
trade_goods = unknown
base_manpower = 1
capital = "Nalridaxhu"
is_city = yes
fort_15th = yes
57.1.1 = {
	owner = TA6
	controller = TA6
	add_core = TA6
}

272.1.1 = {
	
}

535.1.1 = {
	
}

862.1.1 = {
	
}

1177.1.1 = {
	
}

1466.1.1 = {
	
}

