owner = UA3
controller = UA3
add_core = UA3
religion = dragon_cult
culture = akaviri
hre = no
base_tax = 2
base_production = 2
trade_goods = unknown
base_manpower = 2
capital = "Sarcal"
is_city = yes
fort_15th = yes
57.1.1 = {
	owner = UA3
	controller = UA3
	add_core = UA3
}

272.1.1 = {
	
}

535.1.1 = {
	
}

862.1.1 = {
	
}

1177.1.1 = {
	
}

1466.1.1 = {
	
}

