owner = UA5
controller = UA5
add_core = UA5
religion = dragon_cult
culture = akaviri
hre = no
base_tax = 7
base_production = 7
trade_goods = unknown
base_manpower = 7
capital = "Belere"
is_city = yes
fort_15th = yes
57.1.1 = {
	owner = UA5
	controller = UA5
	add_core = UA5
}

272.1.1 = {
	
}

535.1.1 = {
	
}

862.1.1 = {
	
}

1177.1.1 = {
	
}

1466.1.1 = {
	
}

