generic_missions_1 = {
	slot = 1
	generic = yes
	ai = yes
	potential = {
		always = yes
	}
	guarantee_stability_mission = {
		icon = improve_stability_mission
		required_missions = {
		}
		trigger = {
			stability = 3
			employed_advisor = { type = esu_steward }
		}
		effect = {
			add_country_modifier = {
				name = "es_guaranteed_stability"
				duration = -1
			}
		}
	}
	achieve_stable_income_mission = {
		icon = build_treasuries_offices
		required_missions = {
			guarantee_stability_mission
		}
		trigger = {
			share_of_starting_income = 2.5
			num_of_owned_provinces_with = {
				value = 1
				has_building = mint
			}
		}
		effect = {
			add_country_modifier = {
				name = "es_achieved_stable_income"
				duration = -1
			}
		}
	}
	placate_clergy_mission = {
		icon = build_more_churches_mission
		required_missions = {
			achieve_stable_income_mission
		}
		trigger = {
			estate_loyalty = {
				estate = estate_priests
				loyalty = 75
			}
			NOT = {
				estate_influence = {
					estate = estate_priests
					influence = 50
				}
			}
		}
		effect = {
			add_country_modifier = {
				name = "es_placated_clergy"
				duration = -1
			}
		}
	}
	fill_decentralised_treasuries_mission = {
		icon = fill_treasury_mission
		required_missions = {
			placate_clergy_mission
		}
		trigger = {
			years_of_income = 10.0
			NOT = { inflation = 0.1 }
			NOT = { num_of_loans = 1 }
			NOT = { is_bankrupt = yes }
			num_of_owned_provinces_with = {
				value = 10
				has_building = treasury_office
			}
		}
		effect = {
			add_country_modifier = {
				name = "es_filled_decentralised_treasuries"
				duration = -1
			}
		}
	}
	secure_national_order_mission = {
		icon = increase_3_development_mission
		required_missions = {
			establish_holy_orders_mission
		}
		provinces_to_highlight = {
			unrest = 1.0
			owned_by = ROOT
		}
		trigger = {
			NOT = { average_unrest = 1.0 }
			all_subject_country = {
				NOT = { liberty_desire = 1.0 }
			}
		}
		effect = {
			add_country_modifier = {
				name = "es_secured_national_order"
				duration = -1
			}
		}
	}
	beacon_of_prosperity_mission = {
		icon = increase_1_income_mission
		required_missions = {
			secure_national_order_mission
		}
		provinces_to_highlight = {
			NOT = { is_prosperous = yes }
			owned_by = ROOT
		}
		trigger = {
			all_owned_province = {
				is_prosperous = yes
			}
			employed_advisor = { type = esu_curator }
		}
		effect = {
			add_country_modifier = {
				name = "es_beacon_of_prosperity"
				duration = -1
			}
		}
	}
	maintain_cultural_diversity_mission = {
		icon = build_multicultural_nation_mission
		required_missions = {
			build_trusted_alliences_mission
		}
		trigger = {
			num_accepted_cultures = 3
			num_of_different_cultures_in_court = 5
		}
		effect = {
			add_country_modifier = {
				name = "es_maintained_cultural_diversity"
				duration = -1
			}
		}
	}
	expand_coastal_wharfs_mission = {
		icon = expand_coastal_wharfs_mission
		required_missions = {
			control_strong_trade_companies_mission
		}
		trigger = {
			num_of_owned_provinces_with = {
				value = 5
				has_building = wharf
			}
			OR = {
				production_leader = {
					trade_goods = naval_supplies
				}
				production_leader = {
					trade_goods = fish
				}
				production_leader = {
					trade_goods = salt
				}
				production_leader = {
					trade_goods = algae
				}
				production_leader = {
					trade_goods = crabs
				}
			}
		}
		effect = {
			add_country_modifier = {
				name = "es_expanded_coastal_wharfs"
				duration = -1
			}
		}
	}
	implement_innovations_mission = {
		icon = increase_innocatives_mission
		required_missions = {
		}
		trigger = {
			if = {
				limit = {
					has_dlc = "Rule Britannia"
				}
				innovativeness = 15
			}
			else = {
				num_of_owned_and_controlled_institutions = 1
			}
			NOT = { is_lacking_institutions = yes }
		}
		effect = {
			add_country_modifier = {
				name = "es_implemented_innovations"
				duration = -1
			}
		}
	}
	create_universities_mission = {
		icon = build_more_universities_mission
		required_missions = {
			implement_innovations_mission
		}
		trigger = {
			num_of_owned_provinces_with = {
				value = 25
				OR = {
					has_building = college
					has_building = university
				}
			}
			adm = 5
		}
		effect = {
			add_country_modifier = {
				name = "es_universities_founded"
				duration = -1
			}
		}
	}
	support_alchemical_studies_mission = {
		icon = increase_1_innocatives_mission
		required_missions = {
			create_universities_mission
		}
		trigger = {
			check_variable = {
				which = num_of_potions_brewed
				value = 25
			}
			employed_advisor = { type = esu_alchemist } 
		}
		effect = {
			add_country_modifier = {
				name = "es_supported_alchemy_studies"
				duration = -1
			}
		}
	}
	enlarge_road_network_mission = {
		icon = build_more_roads_mission
		required_missions = {
			expand_local_marketplaces_mission
		}
		provinces_to_highlight = {
			has_building = road_network
			NOT = { base_manpower = 5 }
			owned_by = ROOT
		}
		trigger = {
			num_of_owned_provinces_with = {
				value = 25
				has_building = road_network
				base_manpower = 5
			}
		}
		effect = {
			add_country_modifier = {
				name = "es_enlarged_road_network"
				duration = -1
			}
		}
	}
	support_textile_industry_mission = {
		icon = es_build_textile
		required_missions = {
			expand_workshop_capacities_mission
		}
		trigger = {
			num_of_owned_provinces_with = {
				value = 5
				has_building = textile
			}
			OR = {
				production_leader = {
					trade_goods = wool
				}
				production_leader = {
					trade_goods = cloth
				}
				production_leader = {
					trade_goods = silk
				}
				production_leader = {
					trade_goods = leather
				}
				production_leader = {
					trade_goods = daedra_silk
				}
			}
		}
		effect = {
			add_country_modifier = {
				name = "es_supported_textile_industry"
				duration = -1
			}
		}
	}
	construct_furnaces_mission = {
		icon = construct_furnaces_mission
		required_missions = {
			support_textile_industry_mission
		}
		trigger = {
			num_of_owned_provinces_with = {
				value = 5
				has_building = furnace
			}
			OR = {
				production_leader = {
					trade_goods = coal
				}
				production_leader = {
					trade_goods = wood
				}
				production_leader = {
					trade_goods = nirncrux
				}
				production_leader = {
					trade_goods = fire_salts
				}
				production_leader = {
					trade_goods = aetherium
				}
			}
		}
		effect = {
			add_country_modifier = {
				name = "es_constructed_furnaces"
				duration = -1
			}
		}
	}
	rulers_of_eltheric_oecean_mission = {
		icon = rulers_of_eltheric_oecean_mission
		required_missions = { }
		trigger = {
			OR = {
				AND = {
					224 = { country_or_subject_holds = ROOT }
					1562 = { country_or_subject_holds = ROOT }
					2050 = { country_or_subject_holds = ROOT }
					2092 = { country_or_subject_holds = ROOT }
					213 = { country_or_subject_holds = ROOT }
				}
				AND = {
					271	= { country_or_subject_holds = ROOT }
					4740 = { country_or_subject_holds = ROOT }
					281 = { country_or_subject_holds = ROOT }
					249 = { country_or_subject_holds = ROOT }
					299 = { country_or_subject_holds = ROOT }
				}
			}
		}
		provinces_to_highlight = {
			OR = {
				province_id = 224		
				province_id = 1562
				province_id = 2050
				province_id = 2092
				province_id = 213
				province_id = 271		
				province_id = 4740
				province_id = 281
				province_id = 249
				province_id = 299
			}
			NOT = { country_or_subject_holds = ROOT }
		}
		effect = {
			if = {
				limit = {
					capital_scope = { continent = Pyandonea }
				}
				custom_tooltip = es_conquest_of_pyandonea_lr_tooltip
				add_prestige = 10
				hidden_effect = {
					Pyandonea = {
						limit = {
							is_city = yes
						}
						add_permanent_claim = ROOT
					}
				}
				4740 = { add_core = ROOT }
				if = { limit = { ai = yes NOT = { is_subject = yes } 4740 = { owner = { ROOT = { NOT = { truce_with = PREV } NOT = { alliance_with = PREV } NOT = { is_subject_of = PREV }  } } } }
				4740 = { owner = { ROOT = { declare_war_with_cb = { who = PREV casus_belli = cb_es_scenario war_goal_province = 4740 } } } } }
			}
			else = {
				custom_tooltip = es_conquest_of_summerset_lr_tooltip
				add_prestige = 10
				hidden_effect = {
					summerset_islands_superregion = {
						limit = {
							is_city = yes
						}
						add_permanent_claim = ROOT
					}
				}
				
				213 = { add_core = ROOT }
				if = { limit = { ai = yes NOT = { is_subject = yes } 213 = { owner = { ROOT = { NOT = { truce_with = PREV } NOT = { alliance_with = PREV } NOT = { is_subject_of = PREV }  } } } }
				213 = { owner = { ROOT = { declare_war_with_cb = { who = PREV casus_belli = cb_es_scenario war_goal_province = 213 } } } } }
			}
		}
	}
}

generic_missions_2 = {
	slot = 2
	generic = yes
	ai = yes
	potential = {
		always = yes
	}
	attain_religious_peace_mission = {
		icon = increase_religious_unity_mission
		position = 2
		required_missions = {
			guarantee_stability_mission
		}
		provinces_to_highlight = {
			NOT = { religion = ROOT }
			owned_by = ROOT
		}
		trigger = {
			religious_unity = 1
			num_of_owned_provinces_with = {
				value = 25
				OR = {
					has_building = temple
					has_building = cathedral
				}
			}
		}
		effect = {
			add_country_modifier = {
				name = "es_attained_religious_peace"
				duration = -1
			}
		}
	}
	protect_the_fellow_believers_mission = {
		icon = become_defender_of_faith_mission
		required_missions = {
			attain_religious_peace_mission
		}
		provinces_to_highlight = {
			NOT = { religion = ROOT }
			owned_by = ROOT
		}
		trigger = {
			is_defender_of_faith = yes
			check_variable = {
				which = religions_converted
				value = 100
			}
		}
		effect = {
			add_country_modifier = {
				name = "es_protected_the_fellow_believers"
				duration = -1
			}
		}
	}
	establish_holy_orders_mission = {
		icon = establish_holy_orders_mission
		required_missions = {
			protect_the_fellow_believers_mission
		}
		trigger = {
			any_subject_country = {
				is_subject_of_type = holy_order_1
			}
			num_of_owned_provinces_with = {
				value = 25
				OR = {
					has_building = soldier_households
					has_building = farm_estate
				}
			}
		}
		effect = {
			add_country_modifier = {
				name = "es_established_holy_orders"
				duration = -1
			}
		}
	}
	construct_private_estates_mission = {
		icon = build_palaces_mission
		required_missions = {
			proclaim_kingdom_mission
		}
		provinces_to_highlight = {
			has_building = state_house
			NOT = { base_tax = 5 }
			owned_by = ROOT
		}
		trigger = {
			num_of_owned_provinces_with = {
				value = 25
				has_building = state_house
				base_tax = 5
			}
		}
		effect = {
			add_country_modifier = {
				name = "es_constructed_private_estates"
				duration = -1
			}
		}
	}
	build_trusted_alliences_mission = {
		icon = build_trusted_alliences_mission
		required_missions = {
		}
		trigger = {
			num_of_trusted_allies = 3
			employed_advisor = { type = esu_negotiator }
		}
		effect = {
			add_country_modifier = {
				name = "es_trusted_alliences"
				duration = -1
			}
		}
	}
	control_strong_trade_companies_mission = {
		icon = build_more_mints_mission
		required_missions = {
			obtain_sea_exit_mission
		}
		trigger = {
			num_of_strong_trade_companies = 3
			num_of_continents = 2
		}
		effect = {
			add_country_modifier = {
				name = "es_strong_trade_companies"
				duration = -1
			}
		}
	}
	set_up_colonies_mission = {
		icon = set_up_colony_mission
		required_missions = {
			control_strong_trade_companies_mission
		}
		trigger = {
			employed_advisor = { type = esu_colonial_overseer }
			OR = { num_of_colonies = 1 num_of_continents = 2 }
		}
		effect = {
			add_country_modifier = {
				name = "es_set_up_colonies"
				duration = -1
			}
		}
	}
	settle_new_continents_mission = {
		icon = settle_new_continents
		required_missions = {
			set_up_colonies_mission
		}
		trigger = {
			calc_true_if = {
				all_subject_country = {
					OR = {
						is_subject_of_type = colony
						is_subject_of_type = crown_colony
						is_subject_of_type = private_enterprise
						is_subject_of_type = self_governing_colony
					}
					NOT = { liberty_desire = 1.0 }
                }
                amount = 1
			}
		}
		effect = {
			add_country_modifier = {
				name = "es_settled_new_continents"
				duration = -1
			}
		}
	}
	develop_capital_mission = {
		icon = develop_capital_mission
		required_missions = {
			implement_innovations_mission
		}
		trigger = {
			capital_scope = {
				development = 35
			}
			employed_advisor = { type = esu_inspector }
		}
		effect = {
			add_country_modifier = {
				name = "es_capital_developed"
				duration = -1
			}
		}
	}
	support_magical_studies_mission = {
		icon = increase_2_innocatives_mission
		required_missions = {
			create_universities_mission
		}
		trigger = {
			check_variable = {
				which = num_of_spells_cast
				value = 25
			}
			employed_advisor = { type = esu_mage } 
		}
		effect = {
			add_country_modifier = {
				name = "es_supported_magical_studies"
				duration = -1
			}
		}
	}
	expand_workshop_capacities_mission = {
		icon = build_more_workshops
		required_missions = {
			expand_local_marketplaces_mission
		}
		trigger = {
			num_of_owned_provinces_with = {
				value = 25
				OR = {
					has_building = workshop
					has_building = counting_house
					has_building = customs_house
				}
			}
			production_income_percentage = 0.25
		}
		effect = {
			add_country_modifier = {
				name = "es_expanded_workshop_capacities"
				duration = -1
			}
		}
	}
	placate_merchants_mission = {
		icon = find_more_merchants_continents
		required_missions = {
			acheive_high_mercantilism_mission
		}
		trigger = {
			estate_loyalty = {
				estate = estate_merchants
				loyalty = 75
			}
			NOT = {
				estate_influence = {
					estate = estate_merchants
					influence = 50
				}
			}
		}
		effect = {
			add_country_modifier = {
				name = "es_placated_merchants"
				duration = -1
			}
		}
	}
	expand_areas_of_plantations_mission = {
		icon = build_plantations
		required_missions = {
			placate_merchants_mission
		}
		trigger = {
			num_of_owned_provinces_with = {
				value = 5
				has_building = plantations
			}
			OR = {
				production_leader = {
					trade_goods = moon_sugar
				}
				production_leader = {
					trade_goods = tobacco
				}
				production_leader = {
					trade_goods = wine
				}
				production_leader = {
					trade_goods = herbs
				}
				production_leader = {
					trade_goods = incense
				}
			}
		}
		effect = {
			add_country_modifier = {
				name = "es_expanded_areas_of_plantations"
				duration = -1
			}
		}
	}
	rulers_of_abecean_sea_mission = {
		icon = rulers_of_abecean_sea_mission
		required_missions = { }
		trigger = {
			OR = {
				AND = {
					1482 = { country_or_subject_holds = ROOT }
					1446 = { country_or_subject_holds = ROOT }
					6402 = { country_or_subject_holds = ROOT }
					6257 = { country_or_subject_holds = ROOT }
					6178 = { country_or_subject_holds = ROOT }
				}
				AND = {
					335	= { country_or_subject_holds = ROOT }
					2184 = { country_or_subject_holds = ROOT }
					355 = { country_or_subject_holds = ROOT }
					333 = { country_or_subject_holds = ROOT }
					3467 = { country_or_subject_holds = ROOT }
				}
			}
		}
		provinces_to_highlight = {
			OR = {
				province_id = 1482		
				province_id = 1446
				province_id = 6402
				province_id = 6257
				province_id = 6178
				province_id = 335		
				province_id = 2184
				province_id = 355
				province_id = 333
				province_id = 3467
			}
			NOT = { country_or_subject_holds = ROOT }
		}
		effect = {
			if = {
				limit = {
					capital_scope = { continent = Yokuda }
				}
				custom_tooltip = es_conquest_of_yokuda_lr_tooltip
				add_prestige = 10
				hidden_effect = {
					Yokuda = {
						limit = {
							is_city = yes
						}
						add_permanent_claim = ROOT
					}
				}
				
				1504 = { add_core = ROOT }
				if = { limit = { ai = yes NOT = { is_subject = yes } 1504 = { owner = { ROOT = { NOT = { truce_with = PREV } NOT = { alliance_with = PREV } NOT = { is_subject_of = PREV }  } } } }
				1504 = { owner = { ROOT = { declare_war_with_cb = { who = PREV casus_belli = cb_es_scenario war_goal_province = 1504 } } } } }
			}
			else = {
				custom_tooltip = es_conquest_of_hammerfell_lr_tooltip
				add_prestige = 10
				hidden_effect = {
					hammerfell_superregion = {
						limit = {
							is_city = yes
						}
						add_permanent_claim = ROOT
					}
				}
				
				337 = { add_core = ROOT }
				if = { limit = { ai = yes NOT = { is_subject = yes } 337 = { owner = { ROOT = { NOT = { truce_with = PREV } NOT = { alliance_with = PREV } NOT = { is_subject_of = PREV }  } } } }
				337 = { owner = { ROOT = { declare_war_with_cb = { who = PREV casus_belli = cb_es_scenario war_goal_province = 337 } } } } }
			}
		}
	}
}

generic_missions_3 = {
	slot = 3
	generic = yes
	ai = yes
	potential = {
		always = yes
	}
	enter_golden_age_mission = {
		icon = increase_income_mission
		required_missions = {
		}
		trigger = {
			if = {
				limit = {
					has_dlc = "Mandate of Heaven"
				}
				OR = {
					has_had_golden_age = yes
					in_golden_age = yes
				}
			}
			else = {
				prestige = 25
				total_development = 500
			}
			government_rank = 4
		}
		effect = {
			add_country_modifier = {
				name = "es_perpetual_golden_age"
				duration = -1
			}
		}
	}
	monuments_of_nation_mission = {
		icon = build_more_monuments_mission
		required_missions = {
			enter_golden_age_mission
		}
		trigger = {
			prestige = 50
			num_of_owned_provinces_with = {
				value = 10
				has_building = glorious_monument
			}
		}
		effect = {
			add_country_modifier = {
				name = "es_national_monuments"
				duration = -1
			}
		}
	}
	become_a_great_power_mission = {
		icon = increase_government_rank_mission
		required_missions = {
			monuments_of_nation_mission
		}
		trigger = {
			NOT = { great_power_rank = 7 }
			total_development = 1000
		}
		effect = {
			add_country_modifier = {
				name = "es_great_power"
				duration = -1
			}
		}
	}
	proclaim_kingdom_mission = {
		icon = increase_2_government_rank_mission
		required_missions = {
			become_a_great_power_mission
		}
		trigger = {
			government_rank = 7
			mil = 5
		}
		effect = {
			add_country_modifier = {
				name = "es_proclaimed_kingdom"
				duration = -1
			}
		}
	}
	proclaim_empire_mission = {
		icon = proclaim_empire_mission
		required_missions = {
			proclaim_kingdom_mission
		}
		trigger = {
			government_rank = 10
			num_of_subjects = 5
		}
		effect = {
			add_country_modifier = {
				name = "es_proclaimed_empire"
				duration = -1
			}
		}
	}
	obtain_sea_exit_mission = {
		icon = exit_to_sea_mission
		required_missions = {
		}
		position = 2
		trigger = {
			num_of_total_ports = 1
			num_of_transport = 10
		}
		effect = {
			add_country_modifier = {
				name = "es_obtained_sea_exit"
				duration = -1
			}
		}
	}
	expand_shipyards_mission = {
		icon = build_more_shipyards_mission
		required_missions = {
			obtain_sea_exit_mission
		}
		trigger = {
			num_of_owned_provinces_with = {
				value = 25
				OR = {
					has_building = shipyard
					has_building = grand_shipyard
				}
			}
			num_of_light_ship = 25
		}
		effect = {
			add_country_modifier = {
				name = "es_expanded_shipyards"
				duration = -1
			}
		}
	}
	organise_coastal_defences_mission = {
		icon = build_more_naval_arsenals
		required_missions = {
			expand_shipyards_mission
		}
		trigger = {
			num_of_owned_provinces_with = {
				value = 25
				OR = {
					has_building = coastal_defence
					has_building = naval_battery
				}
			}
			num_of_galley = 25
		}
		effect = {
			add_country_modifier = {
				name = "es_organised_coastal_defences"
				duration = -1
			}
		}
	}
	construct_additional_docks_mission = {
		icon = build_more_docks
		required_missions = {
			organise_coastal_defences_mission
		}
		provinces_to_highlight = {
			OR = {
				has_building = dock
				has_building = drydock
			}
			NOT = { base_production = 5 }
			owned_by = ROOT
		}
		trigger = {
			num_of_owned_provinces_with = {
				value = 25
				OR = {
					has_building = dock
					has_building = drydock
				}
				base_production = 5
			}
		}
		effect = {
			add_country_modifier = {
				name = "es_constructed_additional_docks"
				duration = -1
			}
		}
	}
	dominate_the_seas_mission = {
		icon = dominate_home_trade_node
		required_missions = {
			construct_additional_docks_mission
			support_privateering_mission
			settle_new_continents_mission
		}
		trigger = {
			num_of_heavy_ship = 35
			naval_forcelimit = 50
		}
		effect = {
			add_country_modifier = {
				name = "es_dominate_the_seas"
				duration = -1
			}
		}
	}
	expand_local_marketplaces_mission = {
		icon = build_more_marketplaces
		required_missions = {
		}
		provinces_to_highlight = {
			province_has_center_of_trade_of_level = 1
			NOT = { owned_by = ROOT }
		}
		trigger = {
			num_of_owned_provinces_with = {
				value = 25
				OR = {
					has_building = marketplace
					has_building = trade_depot
					has_building = stock_exchange
				}
			}
			num_of_centers_of_trade = 3
		}
		effect = {
			add_country_modifier = {
				name = "es_expanded_local_marketplaces"
				duration = -1
			}
		}
	}
	acheive_high_mercantilism_mission = {
		icon = high_mercantilism_mission
		required_missions = {
			expand_local_marketplaces_mission
		}
		trigger = {
			mercantilism = 25
			employed_advisor = { type = esu_merchant }
		}
		effect = {
			add_country_modifier = {
				name = "es_high_mercantilism"
				duration = -1
			}
		}
	}
	create_post_service_mission = {
		icon = create_post_service_mission
		required_missions = {
			acheive_high_mercantilism_mission
		}
		provinces_to_highlight = {
			has_building = post_office
			NOT = { development = 15 }
			owned_by = ROOT
		}
		trigger = {
			num_of_owned_provinces_with = {
				value = 10
				has_building = post_office
				development = 15
			}
		}
		effect = {
			add_country_modifier = {
				name = "es_postal_service"
				duration = -1
			}
		}
	}
	dominate_trade_mission = {
		icon = increase_number_of_trade_centers
		required_missions = {
			placate_merchants_mission
		}
		trigger = {
			trade_income_percentage = 0.50
			home_trade_node = {
				trade_share = {
					country = ROOT
					share = 95
				}
			}
		}
		effect = {
			add_country_modifier = {
				name = "es_trade_domination"
				duration = -1
			}
		}
	}
	rulers_of_pandomaic_ocean_mission = {
		icon = rulers_of_pandomaic_ocean_mission
		required_missions = { }
		trigger = {
			OR = {
				AND = {
					724 = { country_or_subject_holds = ROOT }
					702 = { country_or_subject_holds = ROOT }
					730 = { country_or_subject_holds = ROOT }
					685 = { country_or_subject_holds = ROOT }
					700 = { country_or_subject_holds = ROOT }
				}
				AND = {
					1541 = { country_or_subject_holds = ROOT }
					800 = { country_or_subject_holds = ROOT }
					806 = { country_or_subject_holds = ROOT }
					795 = { country_or_subject_holds = ROOT }
					799 = { country_or_subject_holds = ROOT }
				}
				AND = {
					1087 = { country_or_subject_holds = ROOT }
					1098 = { country_or_subject_holds = ROOT }
					1075 = { country_or_subject_holds = ROOT }
					1069 = { country_or_subject_holds = ROOT }
					1064 = { country_or_subject_holds = ROOT }
				}
				
			}
		}
		provinces_to_highlight = {
			OR = {
				province_id = 724		
				province_id = 702
				province_id = 730
				province_id = 685
				province_id = 700
				province_id = 1541		
				province_id = 800
				province_id = 806
				province_id = 795
				province_id = 799
				province_id = 1087		
				province_id = 1098
				province_id = 1075
				province_id = 1069
				province_id = 1064
			}
			NOT = { country_or_subject_holds = ROOT }
		}
		effect = {
			if = {
				limit = {
					capital_scope = { region = northern_islands_lr }
				}
				custom_tooltip = es_conquest_of_islandic_tsakara_lr_tooltip
				add_prestige = 10
				hidden_effect = {
					northern_islands_lr = {
						limit = {
						is_city = yes
						}
						add_permanent_claim = ROOT
					}
				}
				
				1098 = { add_core = ROOT }
				if = { limit = { ai = yes NOT = { is_subject = yes } 1098 = { owner = { ROOT = { NOT = { truce_with = PREV } NOT = { alliance_with = PREV } NOT = { is_subject_of = PREV }  } } } }
				1098 = { owner = { ROOT = { declare_war_with_cb = { who = PREV casus_belli = cb_es_scenario war_goal_province = 1098 } } } } }
			}
			else_if = {
				limit = {
					capital_scope = { continent = Akavir }
				}
				custom_tooltip = es_conquest_of_tsakara_lr_tooltip
				add_prestige = 10
				hidden_effect = {
					tsakara_lr = {
						limit = {
							is_city = yes
						}
						add_permanent_claim = ROOT
					}
				}
				
				1206 = { add_core = ROOT }
				if = { limit = { ai = yes NOT = { is_subject = yes } 1206 = { owner = { ROOT = { NOT = { truce_with = PREV } NOT = { alliance_with = PREV } NOT = { is_subject_of = PREV }  } } } }
				1206 = { owner = { ROOT = { declare_war_with_cb = { who = PREV casus_belli = cb_es_scenario war_goal_province = 1206 } } } } }
			}
			else = {
				custom_tooltip = es_conquest_of_black_marsh_lr_tooltip
				add_prestige = 10
				hidden_effect = {
					black_marsh_superregion = {
						limit = {
							is_city = yes
						}
						add_permanent_claim = ROOT
					}
				}
				800 = { add_core = ROOT }
				if = { limit = { ai = yes NOT = { is_subject = yes } 800 = { owner = { ROOT = { NOT = { truce_with = PREV } NOT = { alliance_with = PREV } NOT = { is_subject_of = PREV }  } } } }
				800 = { owner = { ROOT = { declare_war_with_cb = { who = PREV casus_belli = cb_es_scenario war_goal_province = 800 } } } } }
			}
		}
	}
}

generic_missions_4 = {
	slot = 4
	generic = yes
	ai = yes
	potential = {
		always = yes
	}
	drill_national_army_mission = {
		icon = build_more_training_fields_mission
		position = 2
		required_missions = {
			gather_national_army_mission
		}
		trigger = {
			num_of_regiments_at_full_drill = 25
			num_of_owned_provinces_with = {
				value = 25
				OR = {
					has_building = barracks
					has_building = training_fields
				}
			}
		}
		effect = {
			add_country_modifier = {
				name = "es_drilled_national_army"
				duration = -1
			}
		}
	}
	create_professional_army_mission = {
		icon = es_1_drill_army
		required_missions = {
			drill_national_army_mission
		}
		trigger = {
			if = {
				limit = {
					has_dlc = "Cradle of Civilization"
				}
				army_professionalism = 0.35
			}
			else = {
				num_of_regiments_at_full_drill = 35
			}
			num_of_owned_provinces_with = {
				value = 35
				OR = {
					has_building = regimental_camp
					has_building = conscription_center
				}
			}
		}
		effect = {
			add_country_modifier = {
				name = "es_created_professional_army"
				duration = -1
			}
		}
	}
	adopt_smithing_technique_mission = {
		icon = rare_metals_production_leader
		required_missions = {
			create_professional_army_mission
		}
		trigger = {
			OR = {
				 has_country_modifier = es_aetherial_smithing
				 has_country_modifier = es_arcane_smithing
				 has_country_modifier = es_daedric_smithing
				 has_country_modifier = es_dragonscale_smithing
				 has_country_modifier = es_dwemer_smithing
				 has_country_modifier = es_lunar_smithing
				 has_country_modifier = es_nirncrux_smithing
				 has_country_modifier = es_obsidian_smithing
				 has_country_modifier = es_stalhrim_smithing
			}
			employed_advisor = { type = esu_blacksmith }
		}
		effect = {
			add_country_modifier = {
				name = "es_adopted_smithing_technique"
				duration = -1
			}
		}
	}
	many_kingdoms_one_ruler_mission = {
		icon = build_more_personal_unions_mission
		required_missions = {
			proclaim_kingdom_mission
		}
		trigger = {
			calc_true_if = {
				all_subject_country = {
					num_of_cities = 50
					NOT = { liberty_desire = 1.0 }
				}
				amount = 5
			}
		}
		effect = {
			add_country_modifier = {
				name = "es_many_kingdoms_one_ruler"
				duration = -1
			}
		}
	}
	land_of_fortifications_mission = {
		icon = build_more_forts_mission
		required_missions = {
		}
		trigger = {
			num_of_owned_provinces_with = {
				value = 25
				OR = {
					has_building = fort_15th
					has_building = fort_16th
					has_building = fort_17th
					has_building = fort_18th
				}
			}
			employed_advisor = { type = esu_thane }
		}
		effect = {
			add_country_modifier = {
				name = "es_land_of_fortifications"
				duration = -1
			}
		}
	}
	found_naval_fleet_mission = {
		icon = build_small_fleet_mission
		required_missions = {
			obtain_sea_exit_mission
		}
		trigger = {
			navy_size_percentage = 1.0
			sailors_percentage = 1.0
		}
		effect = {
			add_country_modifier = {
				name = "es_founded_naval_fleet"
				duration = -1
			}
		}
	}
	create_professional_navy_mission = {
		icon = build_medium_fleet_mission
		required_missions = {
			found_naval_fleet_mission
		}
		trigger = {
			navy_tradition = 35
			employed_advisor = { type = esu_navarch }
		}
		effect = {
			add_country_modifier = {
				name = "es_created_professional_navy"
				duration = -1
			}
		}
	}
	support_privateering_mission = {
		icon = support_privateering_mission
		required_missions = {
			create_professional_navy_mission
		}
		trigger = {
			has_privateers = yes
			num_ships_privateering = 35
		}
		effect = {
			add_country_modifier = {
				name = "es_supported_privateering"
				duration = -1
			}
		}
	}
	strengthen_diplomatic_ties_mission = {
		icon = building_alliances_mission
		required_missions = {
			acquire_loyal_vassals_mission
		}
		trigger = {
			any_subject_country = {
				num_of_owned_provinces_with = {
					value = 5
					has_building = embassy
				}
			}
			employed_advisor = { type = esu_negotiator }
		}
		effect = {
			add_country_modifier = {
				name = "es_strengthened_diplomatic_ties"
				duration = -1
			}
		}
	}
	secure_civil_order_mission = {
		icon = increase_2_number_of_trade_centers
		required_missions = {
		}
		trigger = {
			army_tradition = 35
			num_of_owned_provinces_with = {
				value = 10
				has_building = constable
			}
		}
		effect = {
			add_country_modifier = {
				name = "es_secured_civil_order"
				duration = -1
			}
		}
	}
	stabilize_food_supply_mission = {
		icon = build_farm_estates
		required_missions = {
			expand_local_marketplaces_mission
		}
		provinces_to_highlight = {
			devastation = 1.0
			owned_by = ROOT
		}
		trigger = {
			all_owned_province = {
				NOT = { devastation = 1.0 }
			}
			num_of_owned_provinces_with = {
				value = 25
				has_building = grain_depot
			}
		}
		effect = {
			add_country_modifier = {
				name = "es_stabilized_food_supply"
				duration = -1
			}
		}
	}
	expand_trade_centers_mission = {
		icon = increase_1_number_of_trade_centers
		required_missions = {
			acheive_high_mercantilism_mission
		}
		provinces_to_highlight = {
			province_has_center_of_trade_of_level = 1
			NOT = { province_has_center_of_trade_of_level = 3 }
			owned_by = ROOT
		}
		trigger = {
			if = {
				limit = {
					has_dlc = "Dharma"
				}
				check_variable = {
					which = cot_upgraded
					value = 15
				}
			}
			else = {
				num_of_centers_of_trade = 15
			}
			num_of_owned_provinces_with = {
				value = 25
				has_building = canal
			}
		}
		effect = {
			add_country_modifier = {
				name = "es_expanded_trade_centers"
				duration = -1
			}
		}
	}
	expand_trade_companies_mission = {
		icon = increase_tariffs_mission
		required_missions = {
			expand_trade_centers_mission
		}
		trigger = {
			num_of_owned_provinces_with = {
				value = 5
				has_building = tradecompany
			}
			OR = {
				production_leader = {
					trade_goods = potions
				}
				production_leader = {
					trade_goods = slaves
				}
				production_leader = {
					trade_goods = soul_gems
				}
				production_leader = {
					trade_goods = magic_goods
				}
				production_leader = {
					trade_goods = weapons_and_armor
				}
			}
		}
		effect = {
			add_country_modifier = {
				name = "es_expanded_trade_companies"
				duration = -1
			}
		}
	}
	rulers_of_sea_of_ghosts_mission = {
		icon = rulers_of_sea_of_ghosts_mission
		required_missions = { }
		trigger = {
			OR = {
				AND = {
					357 = { country_or_subject_holds = ROOT }
					367 = { country_or_subject_holds = ROOT }
					373 = { country_or_subject_holds = ROOT }
					382 = { country_or_subject_holds = ROOT }
					384 = { country_or_subject_holds = ROOT }
				}
				AND = {
					2505 = { country_or_subject_holds = ROOT }
					395 = { country_or_subject_holds = ROOT }
					484 = { country_or_subject_holds = ROOT }
					2218 = { country_or_subject_holds = ROOT }
					390 = { country_or_subject_holds = ROOT }
				}
				AND = {
					1342 = { country_or_subject_holds = ROOT }
					1306 = { country_or_subject_holds = ROOT }
					1299 = { country_or_subject_holds = ROOT }
					1275 = { country_or_subject_holds = ROOT }
					1336 = { country_or_subject_holds = ROOT }
				}
				AND = {
					407 = { country_or_subject_holds = ROOT }
					415 = { country_or_subject_holds = ROOT }
					2211 = { country_or_subject_holds = ROOT }
					411 = { country_or_subject_holds = ROOT }
					1535 = { country_or_subject_holds = ROOT }
				}
			}
		}
		provinces_to_highlight = {
			OR = {
				province_id = 357		
				province_id = 367
				province_id = 373
				province_id = 382
				province_id = 384
				province_id = 2505		
				province_id = 395
				province_id = 484
				province_id = 2218
				province_id = 390
				province_id = 1342		
				province_id = 1306
				province_id = 1299
				province_id = 1275
				province_id = 1336
				province_id = 407
				province_id = 415
				province_id = 2211
				province_id = 411
				province_id = 1535
			}
			NOT = { country_or_subject_holds = ROOT }
		}
		effect = {
			if = {
				limit = {
					capital_scope = { region = roscrea_lr }
				}
				custom_tooltip = es_conquest_of_islandic_atmora_lr_tooltip
				add_prestige = 10
				hidden_effect = {
					roscrea_lr = {
						limit = {
							is_city = yes
						}
						add_permanent_claim = ROOT
					}
				}
				
				1299 = { add_core = ROOT }
				if = { limit = { ai = yes NOT = { is_subject = yes } 1299 = { owner = { ROOT = { NOT = { truce_with = PREV } NOT = { alliance_with = PREV } NOT = { is_subject_of = PREV }  } } } }
				1299 = { owner = { ROOT = { declare_war_with_cb = { who = PREV casus_belli = cb_es_scenario war_goal_province = 1299 } } } } }
			}
			else_if = {
				limit = {
					capital_scope = { OR = { area = atmora_8_la area = atmora_9_la } }
				}
				custom_tooltip = es_conquest_of_far_atmora_lr_tooltip
				add_prestige = 10
				hidden_effect = {
					Atmora = {
						limit = {
							is_city = yes
							OR = {
								area = atmora_8_la
								area = atmora_9_la
							}
						}
						add_permanent_claim = ROOT
					}
				}
				
				390 = { add_core = ROOT }
				if = { limit = { ai = yes NOT = { is_subject = yes } 390 = { owner = { ROOT = { NOT = { truce_with = PREV } NOT = { alliance_with = PREV } NOT = { is_subject_of = PREV }  } } } }
				390 = { owner = { ROOT = { declare_war_with_cb = { who = PREV casus_belli = cb_es_scenario war_goal_province = 390 } } } } }
			}
			else_if = {
				limit = {
					capital_scope = { continent = Atmora }
				}
				custom_tooltip = es_conquest_of_continental_atmora_lr_tooltip
				add_prestige = 10
				hidden_effect = {
					Atmora = {
						limit = {
							is_city = yes
							OR = {
								area = atmora_1_la
								area = atmora_2_la
								area = atmora_3_la
								area = atmora_4_la
								area = atmora_5_la
								area = atmora_6_la
							}
						}
						add_permanent_claim = ROOT
					}
				}
				
				395 = { add_core = ROOT }
				if = { limit = { ai = yes NOT = { is_subject = yes } 395 = { owner = { ROOT = { NOT = { truce_with = PREV } NOT = { alliance_with = PREV } NOT = { is_subject_of = PREV }  } } } }
				395 = { owner = { ROOT = { declare_war_with_cb = { who = PREV casus_belli = cb_es_scenario war_goal_province = 395 } } } } }
			}
			else = {
				custom_tooltip = es_conquest_of_western_skyrim_lr_tooltip
				add_prestige = 10
				hidden_effect = {
				skyrim_superregion = {
						limit = {
							is_city = yes
						}
						add_permanent_claim = ROOT
					}
				}
				
				2505 = { add_core = ROOT }
				if = { limit = { ai = yes NOT = { is_subject = yes } 2505 = { owner = { ROOT = { NOT = { truce_with = PREV } NOT = { alliance_with = PREV } NOT = { is_subject_of = PREV }  } } } }
				2505 = { owner = { ROOT = { declare_war_with_cb = { who = PREV casus_belli = cb_es_scenario war_goal_province = 2505 } } } } }
			}
		}
	}
}

generic_missions_5 = {
	slot = 5
	generic = yes
	ai = yes
	potential = {
		always = yes
	}
	
	gather_national_army_mission = {
		icon = es_build_army_mission
		required_missions = {
		}
		trigger = {
			army_size_percentage = 1
			num_of_infantry = 25
		}
		effect = {
			add_country_modifier = {
				name = "es_gathered_national_army"
				duration = -1
			}
		}
	}
	conquer_new_lands_mission = {
		icon = es_1_new_lands
		required_missions = {
			gather_national_army_mission
		}
		trigger = {
			grown_by_states = 10
			check_variable = {
				which = provinces_gained
				value = 100
			}
		}
		effect = {
			add_country_modifier = {
				name = "es_conquest_of_new_lands"
				duration = -1
			}
		}
	}
	placate_nobility_mission = {
		icon = placate_nobility_mission
		required_missions = {
			conquer_new_lands_mission
		}
		trigger = {
			estate_loyalty = {
				estate = estate_nobility
				loyalty = 75
			}
			NOT = {
				estate_influence = {
					estate = estate_nobility
					influence = 50
				}
			}
		}
		effect = {
			add_country_modifier = {
				name = "es_placated_nobility"
				duration = -1
			}
		}
	}
	expand_mills_production_mission = {
		icon = build_more_mills_mission
		required_missions = {
			placate_nobility_mission
		}
		trigger = {
			num_of_owned_provinces_with = {
				value = 5
				has_building = mills
			}
			OR = {
				production_leader = {
					trade_goods = gems
				}
				production_leader = {
					trade_goods = glass
				}
				production_leader = {
					trade_goods = marble
				}
				production_leader = {
					trade_goods = ogres_teeth
				}
				production_leader = {
					trade_goods = dragon_scales
				}
			}
		}
		effect = {
			add_country_modifier = {
				name = "es_expanded_mills_production"
				duration = -1
			}
		}
	}
	create_weapon_stockpiles_mission = {
		icon = build_more_arsenal_mission
		required_missions = {
			adopt_smithing_technique_mission
		}
		trigger = {
			num_of_artillery = 35
			num_of_owned_provinces_with = {
				value = 25
				OR = {
					has_building = armory
					has_building = arsenal
				}
			}
		}
		effect = {
			add_country_modifier = {
				name = "es_created_weapon_stockpiles"
				duration = -1
			}
		}
	}
	expand_weapon_manufactoring_mission = {
		icon = expand_weapon_manufactoring_mission
		required_missions = {
			create_weapon_stockpiles_mission
		}
		trigger = {
			num_of_owned_provinces_with = {
				value = 5
				has_building = weapons
			}
			OR = {
				production_leader = {
					trade_goods = ebony
				}
				production_leader = {
					trade_goods = moonstone
				}
				production_leader = {
					trade_goods = dwemer_metal
				}
				production_leader = {
					trade_goods = orichalcum
				}
				production_leader = {
					trade_goods = malachite
				}
			}
		}
		effect = {
			add_country_modifier = {
				name = "es_expanded_weapon_manufactoring"
				duration = -1
			}
		}
	}
	strengthen_defensive_frontier_mission = {
		icon = create_and_protect_marches_mission
		required_missions = {
			land_of_fortifications_mission
		}
		trigger = {
			num_of_owned_provinces_with = {
				value = 25
				has_building = ramparts
			}
			num_of_owned_provinces_with = {
				value = 25
				OR = {
					has_building = earth_rampart
					has_building = tenaille
					has_building = redoubt
				}
			}
		}
		effect = {
			add_country_modifier = {
				name = "es_strengthened_defensive_frontier"
				duration = -1
			}
		}
	}
	guarantee_sailor_abundance_mission = {
		icon = build_large_fleet_mission
		required_missions = {
			found_naval_fleet_mission
		}
		trigger = {
			sailors = 10000
			num_of_owned_provinces_with = {
				value = 25
				has_building = impressment_offices
			}
		}
		effect = {
			add_country_modifier = {
				name = "es_guaranteed_sailor_abundance"
				duration = -1
			}
		}
	}
	acquire_loyal_vassals_mission = {
		icon = build_vassals_mission
		required_missions = {
			
		}
		trigger = {
			calc_true_if = {
				amount = 5
				all_subject_country = {
					is_vassal = yes
					NOT = { liberty_desire = 1.0 }
				}
			}
		}
		effect = {
			add_country_modifier = {
				name = "es_acquired_loyal_vassals"
				duration = -1
			}
		}
	}
	create_and_protect_marches_mission = {
		icon = es_2_drill_army
		required_missions = {
			acquire_loyal_vassals_mission
		}
		trigger = {
			calc_true_if = {
				amount = 3

				all_subject_country = {
					is_march = yes
					num_of_owned_provinces_with = {
						value = 5
						has_building = march_building
					}
				}
			}
		}
		effect = {
			add_country_modifier = {
				name = "es_protected_marches"
				duration = -1
			}
		}
	}
	organise_spy_netwrok_mission = {
		icon = organise_spy_netwrok_mission
		required_missions = {
			create_and_protect_marches_mission
		}
		trigger = {
			employed_advisor = { type = esu_spy }
			all_subject_country = {
				any_owned_province = {
					has_building = spy_agency
				}
			}
		}
		effect = {
			add_country_modifier = {
				name = "es_organised_spy_netwrok"
				duration = -1
			}
		}
	}
	maintain_judicial_system_mission = {
		icon = build_more_courthouses_mission
		required_missions = {
			secure_civil_order_mission
		}
		trigger = {
			num_of_owned_provinces_with = {
				value = 25
				OR = {
					has_building = courthouse
					has_building = town_hall
				}
			}
			custom_trigger_tooltip = {
				tooltip = es_was_not_in_war_for_15_years_tooltip
				NOT = { had_recent_war = 15 }
			}
		}
		effect = {
			add_country_modifier = {
				name = "es_maintained_judicial_system"
				duration = -1
			}
		}
	}
	support_national_development_mission = {
		icon = increase_2_development_mission
		required_missions = {
			stabilize_food_supply_mission
		}
		trigger = {
			grown_by_development = 1000
			num_of_war_reparations = 5
		}
		effect = {
			add_country_modifier = {
				name = "es_supported_national_development"
				duration = -1
			}
		}
	}
	protect_state_property_mission = {
		icon = build_more_embassies_mission
		required_missions = {
			expand_trade_centers_mission
		}
		trigger = {
			NOT = { average_autonomy = 35 }
			crown_land_share = 50
		}
		effect = {
			add_country_modifier = {
				name = "es_protected_state_property"
				duration = -1
			}
		}
	}
	
	rulers_of_akaviri_seas_mission = {
		icon = rulers_of_akaviri_seas_mission
		required_missions = { }
		trigger = {
			542 = { country_or_subject_holds = ROOT }
			571 = { country_or_subject_holds = ROOT }
			561 = { country_or_subject_holds = ROOT }
			551 = { country_or_subject_holds = ROOT }
			575 = { country_or_subject_holds = ROOT }
		}
		provinces_to_highlight = {
			OR = {
			province_id = 542		
			province_id = 571
			province_id = 561
			province_id = 551
			province_id = 575
			}
			NOT = { country_or_subject_holds = ROOT }
		}
		effect = {
			custom_tooltip = es_conquest_of_thousand_lr_tooltip
			add_prestige = 10
			hidden_effect = {
				thousand_lr = {
					limit = {
						is_city = yes
					}
					add_permanent_claim = ROOT
				}
			}
			3443 = { add_core = ROOT }
			if = { limit = { ai = yes NOT = { is_subject = yes } 3443 = { owner = { ROOT = { NOT = { truce_with = PREV } NOT = { alliance_with = PREV } NOT = { is_subject_of = PREV }  } } } }
			3443 = { owner = { ROOT = { declare_war_with_cb = { who = PREV casus_belli = cb_es_scenario war_goal_province = 3443 } } } } }
		}
	}
}