### Nordic ############################################################

es_new_allies = {
	diplomatic_reputation = 1.0
	improve_relation_modifier = 0.25
	envoy_travel_time = -0.15
}

es_subjects_of_the_king = {
	vassal_income = 0.50
	vassal_forcelimit_bonus = 0.25
	reduced_liberty_desire = 15
}

es_trade_with_skalls = {
	trade_efficiency = 0.10
	global_own_trade_power = 0.15
	global_tariffs = 0.25
}

es_protector_of_cyrodiil = {
	prestige = 0.5
	free_leader_pool = 1
	tolerance_own = 1.5
}

es_ruler_of_the_old_holds = {
	legitimacy = 0.5
	republican_tradition = 0.5
	devotion = 0.5
	horde_unity = 0.5
	meritocracy = 0.5
	max_absolutism = 15
	nobility_influence_modifier = 0.10
}

es_skyrim_united = {
	land_maintenance_modifier = -0.15
	naval_maintenance_modifier = -0.25
	reinforce_cost_modifier = -0.1
}

es_crown_of_high_rock = {
	prestige_decay = -0.015
	yearly_absolutism = 0.1
	governing_capacity_modifier = 0.25
}

es_fleet_of_the_new_home = {
	global_sailors_modifier = 0.25
	sailors_recovery_speed = 0.35
	global_ship_cost = -0.15
}

es_conquest_of_snow_elves = {
	local_unrest = -5
}

es_old_kingdom_of_nords = {
	global_unrest = -2.5
	harsh_treatment_cost = -0.15
	stability_cost_modifier = -0.10
}

es_the_true_emperor = {
	imperial_authority = 0.25
}

es_mead_production = {
	global_trade_goods_size_modifier = 0.10
	special_unit_forcelimit = 0.15
	special_unit_cost_modifier = -0.25
}

es_production_boost = {
	production_efficiency = 0.10
	development_cost = -0.15
	build_cost = -0.25
}

es_nordic_merchants = {
	merchants = 1
	ship_power_propagation = 0.25
	global_trade_power = 0.15
}

es_nordic_colonists = {
	colonists = 1
}

es_atmoran_trade_company = {
	trade_steering = 0.15
	trade_range_modifier = 0.25
	placed_merchant_power = 10
}

es_new_tamriel_trade_company = {
	global_foreign_trade_power = 0.10
	privateer_efficiency = 0.15
	embargo_efficiency = 0.25
}

es_legends_of_the_past = {
	land_morale = 0.10
	naval_morale = 0.05
	reserves_organisation = 0.15
}

es_feast_of_dibella = {
	stability_cost_modifier = -0.15
	years_of_nationalism = -5
	global_autonomy = -0.10
}

es_national_epic = {
	prestige_from_land = 0.25
	prestige_from_naval = 0.5
	global_unrest = -1.5
}

es_gates_of_akavir = {
	ship_recruit_speed = -0.5
	naval_forcelimit_modifier = 0.25
	treasure_fleet_income = 1.0
}

es_sky_formation = {
	discipline = 0.05
	land_forcelimit_modifier = 0.10
	reinforce_speed = 0.15
}

### Eastmarcher #######################################################

es_na3_center_skyrim = {
	spy_offence = 0.1
	improve_relation_modifier = 0.15
	global_spy_defence = 0.25
}

es_na3_army = {
	land_morale = 0.1
	land_maintenance_modifier = -0.15
	leader_cost = -0.25
}

es_na3_cultural_genocide = {
	culture_conversion_cost = -0.25
	culture_conversion_time = -0.15
	global_autonomy = -0.10
}

es_na3_navy = {
	ship_durability = 0.15
	global_sailors_modifier = 0.25
	global_ship_cost = -0.10
}

es_na3_trade = {
	light_ship_power = 0.10
	trade_efficiency = 0.15
	ship_power_propagation = 0.25
}

es_na3_economy = {
	core_creation = -0.25
	diplomatic_reputation = 1.0
	production_efficiency = 0.15
}

es_na3_develop_windhelm = {
	trade_goods_size_modifier = 0.10
}

es_na3_cash_money = {
	global_unrest = -2.5
	interest = -1.5
	global_tax_modifier = 0.10
}

es_na3_religion = {
	global_missionary_strength = 0.15
	tolerance_own = 1
	missionary_maintenance_cost = -0.25
}

es_na3_dwemer_oof = {
	years_of_nationalism = -5
	max_absolutism = 10
	stability_cost_modifier = -0.15
}

es_na3_monopoly = {
	global_trade_power = 0.15
	embargo_efficiency = 0.25
	global_sailors_modifier = 0.35
}

### Sinistral #########################################################

sin_mi_all_left = {
	production_efficiency = 0.1
	drill_gain_modifier = 0.15
	army_tradition_decay = -0.025
}

sin_mi_oric_tower = {
	development_cost = -0.10
	institution_spread_from_true_faith = 0.15
	stability_cost_modifier = -0.25
}

sin_mi_sin_intent = {
	land_morale = 0.15
	discipline = 0.10
	leader_cost = -0.25
}

sin_mi_allies_alinor = {
	range = 0.5
	diplomatic_reputation = 1
	naval_attrition = -0.25
}

sin_mi_gypsum_buildings = {
	build_cost = -0.15
	build_time = -0.25
	adm_tech_cost_modifier = -0.10
}

sin_mi_buoyant_steel = {
	ship_durability = 0.25
	heavy_ship_power = 0.15
	leader_naval_manuever = 1
}

sin_mi_nothing_right = {
	administrative_efficiency = 0.05
	mil_tech_cost_modifier = -0.10
	reinforce_cost_modifier = -0.15
}

sin_mi_allies_pyand = {
	global_colonial_growth = 25
	vassal_income = 0.15
	dip_tech_cost_modifier = -0.10
}

### Bosmer ############################################################

val_green_pact = {
	trade_steering = 0.10
	global_unrest = -1.5
	global_own_trade_power = 0.05 
}

val_camoran_throne = {
	diplomatic_reputation = 1.0
	improve_relation_modifier = 0.15
	diplomatic_annexation_cost = -0.25
}

grahtwood_grant = {
	administrative_efficiency = 0.10
}

ornery_orsimer = {
	reserves_organisation = 0.15
	land_morale = 0.10
	discipline = 0.05
}

protecting_yffre = {
	global_manpower_modifier = 0.10
	stability_cost_modifier = -0.15
	harsh_treatment_cost = -0.25
}

implacable_imgan = {
	mercenary_manpower = 0.10
	land_forcelimit_modifier = 0.15
	mercenary_discipline = 0.05
}

trade_with_altmer = {
	merchants = 1
	ship_power_propagation = 0.15
	global_ship_cost = -0.25
}

trade_with_ayleid = {
	build_cost = -0.15
	build_time = -0.25
	production_efficiency = 0.10
}

trade_with_alessian = {
	interest = -0.5
	global_tax_modifier = 0.15
	global_prov_trade_power_modifier = 0.10
}

### Maormer / Pyandonean ##############################################

py_mi_veil_of_mist = {
    sailors_recovery_speed = 0.25
    own_coast_naval_combat_bonus = 1
    light_ship_power = 0.15
}

py_mi_defending_py = {
    global_unrest = -1.5
    hostile_attrition = 1
    defensiveness = 0.25
}

py_mi_sequester_sealanes = {
    land_forcelimit_modifier = 0.1
    cavalry_power = 0.15
    development_cost = -0.25
}

py_mi_fortifying_fenna = {
    land_maintenance_modifier = -0.10
    fort_maintenance_modifier = -0.15
    garrison_growth = 0.25
}

py_mi_abolish_abbarbas = {
    years_of_nationalism = -5
    global_autonomy = -0.10
	stability_cost_modifier = -0.15
}

py_mi_trading_tiguna = {
    trade_efficiency = 0.10
	global_prov_trade_power_modifier = 0.15
	center_of_trade_upgrade_cost = -0.25
}

py_mi_innovating_eilyse = {
    technology_cost = -0.10
    innovativeness_gain = 0.25
    advisor_cost = -0.15
}

py_mi_venerating_vallas_bor = {
    global_tax_modifier = 0.1
    tolerance_own = 1.5
    tolerance_heretic = 2.5
}

py_mi_serpent_king = {
    administrative_efficiency = 0.05
	yearly_absolutism = 0.15
	monarch_military_power = 1
}

py_mi_voyaging_valenwood = {
    leader_naval_manuever = 1
    improve_relation_modifier = 0.25
    naval_attrition = -0.15
}

py_mi_preparing_pyandonea = {
    production_efficiency = 0.10
    land_morale = 0.15
    naval_morale = 0.25
}

py_mi_colonizing_summerset = {
    range = 0.50
	global_colonial_growth = 15
	colonists = 1
}

py_mi_ally_anvil = {
    diplomatic_reputation = 1.5
    diplomatic_upkeep = 1
	prestige_from_naval = 0.25
}

py_mi_summerset_invasion = {
    heavy_ship_power = 0.10
    ship_durability = 0.15
    navy_tradition_decay = -0.025
}

py_mi_sun_never_sets = {
    merchants = 1
    trade_steering = 0.25
    global_trade_power = 0.15
}

py_mi_colonizing_yokuda = {
    colonists = 1
	colonist_placement_chance = 0.05
    native_uprising_chance = -0.15
}

py_mi_pirating = {
    privateer_efficiency = 0.1
    capture_ship_chance = 0.15
    naval_tradition_from_battle = 0.25
}

py_mi_aldmeris_hegenomy = {
    reduced_liberty_desire = 10
    prestige = 0.50
    global_institution_spread = 0.15
}

py_mi_colonizing_lower_yokuda = {
    global_missionary_strength = 0.015
    culture_conversion_cost = -0.25
    religious_unity = 0.1
}

py_mi_colonizing_upper_yokuda = {
    tolerance_heathen = 1.5
    core_creation = -0.10
    missionary_maintenance_cost = -0.25
}

py_mi_hews_bane = {
    naval_tradition_from_trade = 0.5
    global_sailors_modifier = 0.1
    global_ship_cost = -0.15
}

py_mi_orgnum_coffer = {
    global_tax_income = 250
    inflation_action_cost = -0.15
    interest = -1.0
}

py_mi_great_alinor = {
    discipline = 0.05
    infantry_power = 0.10
    siege_ability = 0.15
}

py_mi_auridon = {
    transport_power = 0.1
    galley_power = 0.15
    global_ship_repair = 0.25
}

py_mi_colonizing_empire = {
    colonists = 1
    native_assimilation = 0.25
    global_own_trade_power = 0.15
}

py_mi_slaving_hammerfell = {
    ae_impact = -0.15
    global_trade_goods_size_modifier = 0.1
	global_manpower_modifier = 0.25
}

py_mi_global_trade = {
    global_foreign_trade_power = 0.15
    trade_range_modifier = 0.35
	blockade_efficiency = 0.25
}

py_mi_summerset_secured = {
    max_absolutism = 10
	prestige_decay = -0.015
	unjustified_demands = -0.25
}

py_mi_new_aldmeris = {
    governing_capacity_modifier = 0.25
    state_maintenance_modifier = -0.15
	advisor_pool = 1
}

py_mi_events_1 = {
    privateer_efficiency = -0.15
    capture_ship_chance = -0.25
    prestige_from_naval = -0.35
}

py_mi_events_2 = {
    privateer_efficiency = 0.15
    capture_ship_chance = 0.25
    prestige_from_naval = 0.35
}

### Yokudan ###########################################################

#Sword Singers Modifiers

yok_mi_spiritual_pursuit = {
    missionaries = 1
    stability_cost_modifier = -0.25
    innovativeness_gain = 0.15
}

yok_mi_sword_singers = {
    army_tradition_from_battle = 0.25
    drill_gain_modifier = 0.15
	global_regiment_cost = -0.10
}

yok_mi_sword_singers_two = {
    reserves_organisation = 0.1
	global_manpower_modifier = 0.15
	drill_decay_modifier = -0.25
}

yok_mi_book_circles = {
    land_morale = 0.10
    infantry_power = 0.05
    mil_tech_cost_modifier = -0.15
}

yok_mi_war_of_singers = {
    morale_damage = 0.1
    shock_damage_received = -0.15
    fire_damage_received = -0.05
}

yok_mi_warrior_waves = {
    prestige_decay = -0.01
    warscore_cost_vs_other_religion = -0.25
    naval_morale = 0.15
}

yok_mi_new_frontiers = {
    hostile_attrition = 1.0
    land_attrition = -0.15
    global_colonial_growth = 25
}

yok_mi_new_song = {
    army_tradition_decay = -0.015
    army_tradition = 0.25
    yearly_army_professionalism = 0.01
}

### Main Branch Modifiers 

yok_mi_new_home = {
    land_forcelimit_modifier = 0.1
    naval_forcelimit_modifier = 0.15
    global_sailors_modifier = 0.25
}

yok_mi_rule_totambu = {
    autonomy_change_time = -0.25
    global_unrest = -1.5
    governing_capacity = 100
}

yok_mi_yokudan_empire = {
	yearly_absolutism = 0.10
    liberty_desire_from_subject_development = -0.15
    global_institution_spread = 0.25
}

yok_mi_mansel_sesnit = {
    administrative_efficiency = 0.10
    harsh_treatment_cost = -0.25
    reform_progress_growth = 0.15
}

yok_mi_hammering_hammers = {
    tolerance_own = 1.5
    global_missionary_strength = 0.025
    religious_unity = 0.10
}

yok_mi_sweet_home_hammerfell = {
    mercenary_manpower = 0.25
    years_of_nationalism = -10
    development_cost_in_primary_culture = -0.15
}

yok_mi_sweet_razing_rourkens = {
    idea_cost = -0.15
    technology_cost = -0.10
    build_cost = -0.25
}

yok_mi_landing_limai = {
    colonists = 1
    range = 0.25
    manpower_recovery_speed = 0.15
}

yok_mi_restoring_na_totambu = {
    max_absolutism = 15
    adm_advisor_cost = -0.25
    global_trade_goods_size_modifier = 0.10
}

yok_mi_desert_dessert = {
    movement_speed = 0.15
    native_assimilation = 0.25
    native_uprising_chance = -1
}

### High Rock Modifiers
yok_mi_memory_stones = {
    institution_spread_from_true_faith = 0.25
	adm_tech_cost_modifier = -0.15
    advisor_cost = -0.10
}

yok_mi_settling_high_rock = {
    colonist_placement_chance = 0.05
	discipline = 0.10
	merc_maintenance_modifier = -0.15
}

yok_mi_settling_silverhoof_vale = {
    cavalry_power = 0.1
    cavalry_flanking = 0.15
    manpower_in_true_faith_provinces = 0.25
}

yok_mi_seige_orsinium = {
    fort_maintenance_modifier = -0.15
    garrison_size = 0.25
    assault_fort_ability = 0.10
}

yok_mi_brother_breton = {
    diplomatic_reputation = 2.5
    trade_efficiency = 0.15
    diplomatic_upkeep = 1
}

yok_mi_daggerfall_covenant = {
    improve_relation_modifier = 0.25
    defensiveness = 0.1
    naval_tradition_from_trade = 0.15
}

### Yokudan Events

yok_mi_events_1 = {
    shock_damage = 0.15
    morale_damage_received = -0.1
    assault_fort_cost_modifier = -0.25
}

yok_mi_events_20 = {
    stability_cost_modifier = -0.25
    global_unrest = -1.5
    development_cost = -0.1
}

yok_mi_events_21 = {
    stability_cost_modifier = 1.5
    global_unrest = 5
    reduced_liberty_desire = -100
}

yok_mi_events_3 = {
    artillery_levels_available_vs_fort = 1
    siege_ability = 0.25
	fire_damage = 0.15
}

### Atmoran ###########################################################

es_developed_villages = {
	development_cost = -0.25
	global_tax_income = 0.10
	build_cost = -0.15
}

es_economical_stability = {
	global_trade_power = 0.25
	trade_efficiency = 0.15
	interest = -1.0
}

es_religious_stability = {
	tolerance_own = 1.5
	tolerance_heretic = 2.5
	tolerance_heathen = 3.5
}

horror_for_the_ice_demons = {
	shock_damage_received = -0.15
	land_morale = 0.05
	hostile_attrition = 1.0
}

es_fish_prodction = {
	global_sailors_modifier = 1.0
	naval_forcelimit_modifier = 0.15
	sailors_recovery_speed = 0.25
}

es_algae_production = {
	sailors_recovery_speed = 0.25
	ship_durability = 0.15
    global_trade_goods_size_modifier = 0.10
}

es_survivors_of_the_ice_age = {
	land_attrition = -0.15
	naval_attrition = -0.25
	movement_speed = 0.10
}

es_the_court_of_atmora = {
	free_policy = 1
	max_absolutism = 15
	adm_advisor_cost = -0.15
}

es_raiding_fleet = {
	sunk_ship_morale_hit_recieved = -0.15
	privateer_efficiency = 0.25
	naval_morale = 0.10
}

es_crabs_production = {
	sailor_maintenance_modifer = -0.15
	naval_tradition_from_trade = 0.25
	production_efficiency = 0.10
}

es_daggerfall_enclave = {
	trade_steering = 0.25
	global_tax_modifier = 0.10
	diplomatic_reputation = 1.5
}

es_abeceanean_base = {
	naval_forcelimit_modifier = 0.10
	sailors_recovery_speed = 0.15
	privateer_efficiency = 0.25
}

horror_for_the_high_elves = {
	fire_damage_received = -0.15
	fire_damage = 0.05
	hostile_attrition = 1.0
}

es_atmoran_raiders = {
	privateer_efficiency = 0.25
	naval_attrition = -0.10
	capture_ship_chance = 0.15
}

es_pirates_of_the_nordic_coast = {
	embargo_efficiency = 0.5
	light_ship_power = 0.10
	naval_attrition = -0.15
}

es_vvardenfell_enclave = {
	navy_tradition = 0.25
	naval_forcelimit_modifier = 0.15
	navy_tradition_decay = -0.01
}

es_orecean_market = {
	local_tax_modifier = 1.0
	local_production_efficiency = 0.5
	province_trade_power_modifier = 1.5
}

horror_for_the_argonians = {
	siege_ability = 0.15
	defensiveness = 0.25
	hostile_attrition = 1.0
}

es_raiding_parties = {
	loot_amount = 1.0
	available_province_loot = 1.5
	prestige_from_land = 0.25
}

es_roscrean_independence = {
	local_unrest = 15
	local_defensiveness = -0.25
	local_manpower_modifier = -1.0
}

es_kingdom_of_skyrim = {
	global_manpower_modifier = 0.10
	morale_damage = 0.15
	manpower_recovery_speed = 0.15
}

es_legacy_of_ysgramor = {
	culture_conversion_cost = -0.15
	global_missionary_strength = 0.025
	missionaries = 1
}

### 4 Small Trees #####################################################

es_well_developed_tribe = {
	global_tax_modifier = 0.15
	production_efficiency = 0.10
	build_time = -0.25
}

es_true_owners_of_roscrea = {
	naval_forcelimit_modifier = 0.25
	naval_tradition_from_trade = 0.15
	navy_tradition_decay = -0.01
}

es_land_of_ancestors = {
	land_morale = 0.15
	fire_damage = 0.10
	defensiveness = 0.25
}

es_eternal_alliance = {
	diplomatic_reputation = 1.5
	improve_relation_modifier = 0.25
	dip_tech_cost_modifier = -0.10
}

es_tribal_reform = {
	reform_progress_growth = 0.25
	governing_capacity_modifier = 0.15
	monarch_admin_power = 1
}

es_terror_of_the_seas = {
	naval_morale = 0.10
	light_ship_power = 0.15
	capture_ship_chance = 0.25
}

es_resumed_raids = {
	privateer_efficiency = 0.75
	embargo_efficiency = 0.5
	naval_tradition_from_battle = 1.0
}

es_uncountable_legions = {
	land_maintenance_modifier = -0.25
	manpower_in_own_culture_provinces = 0.15
	morale_damage = 0.10
}

es_golden_reserves = {
	prestige = 0.25
	inflation_action_cost = -0.15
	interest = -1.0
}

es_civilization_of_the_north = {
	innovativeness_gain = 0.25
	idea_cost = -0.10
	global_institution_spread = 0.15
}

es_loyal_subjects = {
	diplomatic_reputation = 1.0
	diplomatic_annexation_cost = -0.25
	unjustified_demands = -0.15
}

es_frost_giant_fleet = {
	galley_power = 0.15
	heavy_ship_power = 0.10
	transport_power = 0.25
}

es_ice_champion = {
	land_morale = 0.15
	leader_land_fire = 1
	mercenary_discipline = 0.05
}

es_glacial_realm = {
	build_cost = -0.10
	autonomy_change_time = 0.15
	harsh_treatment_cost = -0.25
}

es_protectors_of_the_dragon_sanctuary = {
	land_morale = 0.15
	land_forcelimit_modifier = 0.25
	discipline = 0.10
}

es_nordic_subjugation = {
	global_unrest = -1.5
	province_warscore_cost = -0.10
	improve_relation_modifier = 0.25
}

es_fur_trade = {
	global_foreign_trade_power = 0.15
	trade_steering = 0.25
	placed_merchant_power = 10
}

es_island_of_civilization = {
	technology_cost = -0.10
	institution_spread_from_true_faith = 0.15
	embracement_cost = -0.25
}

es_the_dragon_era = {
	missionaries = 1
	global_missionary_strength = 0.05
	tolerance_own = 2.5
	tolerance_heathen = -5
	tolerance_heretic = -5
}

es_glacial_raiders = {
	loot_amount = 1.0
	available_province_loot = 2.5
	global_manpower = 15
}

es_protector_of_atmora = {
	diplomatic_reputation = 2.5
	global_unrest = -1.5
	monarch_military_power = 1
}

es_glacial_legends_of_the_past = {
	prestige_decay = -0.01
	advisor_cost = -0.15
	rebel_support_efficiency = 0.25
}

es_protector_of_ancestors = {
	infantry_power = 0.10
	cavalry_power = 0.15
	tolerance_own = 2.5
}

es_custodian_of_traditions = {
	global_unrest = -2.5
	religious_unity = 0.15
	discipline = 0.10
}

es_allies_in_times_of_need = {
	improve_relation_modifier = 0.25
	diplomats = 1
	global_own_trade_power = 0.15
}

es_no_walls_can_stop_us = {
	siege_ability = 0.25
	reserves_organisation = 0.10
	army_tradition_decay = -0.015
}

es_mammoth_economy = {
	global_trade_goods_size_modifier = 0.10
	global_tax_income = 250
	trade_efficiency = 0.15
}

es_land_of_giants = {
	recover_army_morale_speed = 0.10
	artillery_power = 0.15
	discipline = 0.05
}

es_state_of_giants = {
	global_manpower_modifier = 0.25
	manpower_recovery_speed = 0.015
	free_leader_pool = 1
}

### Altmer ############################################################

es_college_of_aldmeri_propriarity = {
	culture_conversion_cost = -0.15
	advisor_pool = 1
	years_of_nationalism = 5
}

es_slave_trade_expansion = {
	trade_range_modifier = 0.25
	embargo_efficiency = 0.35
	trade_efficiency = 0.10
}

es_goblin_slaves = {
	production_efficiency = 0.10
	build_cost = -0.15
	build_time = -0.25
}

es_colonisation_of_pyandonea = {
	colonists = 1
	global_colonial_growth = 15
	colonist_placement_chance = 0.025
}

es_realm_of_maormers = {
	global_sailors_modifier = 0.25
	sailors_recovery_speed = 0.15
	recover_navy_morale_speed = 0.1
}

es_expansion_to_the_new_world = {
	mercenary_discipline = 0.10
	mercenary_manpower = 0.25
	general_cost = -0.50
}

es_old_ehlnofey = {
	prestige_decay = -0.025
}

es_pearl_of_summerset = {
	development_cost = -0.50
}

es_pearl_of_high_rock = {
	global_tax_modifier = 0.25
}

es_remanants_of_old_traditions = {
	tolerance_own = 1.5
	global_missionary_strength = 0.015
	missionary_maintenance_cost = -0.25
}

es_custodian_of_crystal_tower = {
	free_adm_policy = 1
}

es_rise_of_summerset_islands = {
	global_own_trade_power = 0.10
	diplomatic_reputation = 1.5
	diplomatic_annexation_cost = -0.25
}

es_rise_of_direnni_hegemony = {
	infantry_power = 0.10
	land_maintenance_modifier = -0.15
	global_manpower_modifier = 0.25
}

union_with_sinistral_elves = {
	num_accepted_cultures = 1
}

es_elven_forgery = {
	infantry_power = 0.10
	infantry_cost = -0.25
	global_regiment_recruit_speed = -0.50
}

es_egalitarian_scoiety = {
	monarch_admin_power = 1
	monarch_diplomatic_power = 1
	monarch_military_power = 1
}

es_successors_of_torval_the_pilot = {
	ship_power_propagation = 0.35
	blockade_efficiency = 0.50
	naval_attrition = -0.25
}

es_friends_of_altmers = {
	diplomatic_reputation = 2.5
}

es_embassy_to_valenwood = {
	improve_relation_modifier = 0.25
	tolerance_heretic = 3.5
	tolerance_heathen = 1.5
}

es_embassy_to_elsweyr = {
	diplomats = 1
	envoy_travel_time = -0.25
	diplomatic_reputation = 1.5
}

es_end_of_orsimer_threat = {
	global_unrest = -2.5
	production_efficiency = 0.10
	global_own_trade_power = 0.15
}

es_victory_in_orsimer_war = {
	army_tradition_from_battle = 0.50
	naval_tradition_from_battle = 0.50
	free_leader_pool = 1
}

es_orcish_migration = {
	local_culture_conversion_cost = -0.25
	local_regiment_cost = -0.35
	local_manpower_modifier = 0.50
}

es_cities_of_the_golden_coast = {
	merchants = 1
	trade_steering = 0.10
	light_ship_cost = -0.25
}

es_custodian_of_white_gold_tower = {
	harsh_treatment_cost = -0.5
	tolerance_own = 2.5
	unjustified_demands = -0.15
}

es_primacy_of_elven_culture = {
	imperial_mandate = 0.25
}

es_breton_subjects = {
	reduced_liberty_desire = 10
	vassal_income = 0.25
	vassal_forcelimit_bonus = 0.15
}

es_trade_cities_of_iliac_bay = {
	global_ship_trade_power = 0.35
	naval_maintenance_modifier = -0.25
	global_trade_goods_size_modifier = 0.15
}

es_eastern_holds = {
	caravan_power = 0.25
	manpower_recovery_speed = 0.10
	mercenary_cost = -0.50
}

es_ayleid_heritage = {
	stability_cost_modifier = -0.25
	advisor_cost = -0.10
	global_institution_spread = 0.15
}

es_argonian_colonies = {
	years_of_nationalism = -10
	global_tax_income = 120
	global_regiment_cost = -0.25
}

### Ashlander Chimer ##################################################

vel_pilgrimage_site = {
}

vel_velothi_tradition = {
}

vel_primary_camp_foundation = {
}

vel_ancestors_wrath_worship = {
}

vel_declare_ashkhan = {
}

vel_maintain_guar_herd = {
}

vel_traditions_wise_women = {
}

vel_council_gulakhans = {
}

vel_protection_champion = {
}

vel_employ_lesser_daedra = {
}

vel_farseers_pilgrimage = {
}

vel_nomadic_gatherers = {
}

vel_good_manners_gifts = {
}

vel_mephala = {
}

vel_azura = {
}

vel_boethiah = {
}

vel_dispatch_guides = {
}

vel_illusions_shadows = {
}

vel_land_lorkhan = {
}

vel_masters_spear = {
}

vel_natural_mystics = {
}

vel_mehrunes_dagon = {
}

vel_malacath = {
}

vel_molag_bal = {
}

vel_mobile_fighting_force = {
}

vel_wielders_destruction = {
}

vel_sheogorath = {
}

vel_chitin_armorers = {
}

vel_resistant_flame = {
}

vel_tri_angled_truth = {
}

vel_harassment_tactics = {
}

### Sload #############################################################

contemplation_sl = {
	army_tradition_decay = -0.015
	leader_land_manuever = 1
	drill_gain_modifier = 0.25
}

perfect_memory_sl = {
	idea_cost = -0.15
	local_friendly_movement_speed = 0.10
	naval_maintenance_modifier = -0.05
}

ngasta_sl = {
	recover_army_morale_speed = 0.05
	recover_navy_morale_speed = 0.10
	reserves_organisation = 0.15
}

airshipped_corpses_sl = {
	envoy_travel_time = -0.25
	movement_speed = 0.15
	trade_efficiency = 0.10
}

private_island_sl = {
	technology_cost = -0.10
	prestige_decay = -0.015
	embracement_cost = -0.25
}

flooded_thras = {
	local_monthly_devastation = 0.15
	local_defensiveness = 1.0
	attrition = 5
}

thrassian_plague_sl = {
	leader_land_shock = 1
	leader_land_fire = 2
	leader_siege = 3
}

empire_of_seas_sl = {
	sailors_recovery_speed = 0.10
	navy_tradition_decay = -0.015
	naval_forcelimit_modifier = 0.25
}

revived_pets_sl = {
	land_morale = 0.10
	naval_morale = 0.15
	global_regiment_recruit_speed = -0.25
}

tear_slave_trade = {
	local_production_efficiency = 0.10
	local_unrest = 1.5
	local_manpower_modifier = 0.25
}

necromancy_sl = {
	global_manpower_modifier = 0.25
	land_forcelimit_modifier = 0.10
	global_regiment_cost = -0.15
}

jkosda_m_sl = {
	mil_tech_cost_modifier = -0.10
	mil_advisor_cost = -0.15
	drill_decay_modifier = -0.25
}

ritualist_sacrifice_sl = {
	discipline = 0.10
	global_missionary_strength = 0.025
	manpower_recovery_speed = -0.15
}

elder_distended_one_sl = {
	institution_spread_from_true_faith = 0.25
	adm_advisor_cost = -0.15
	monarch_admin_power = 1
}

breeding_grounds_sl = {
	tolerance_own = 1.5
	reinforce_cost_modifier = -0.15
	ship_recruit_speed = 0.25
}

### Breton ############################################################

es_expanded_capital = {
	global_tax_modifier = 0.15
	build_cost = -0.10
	prestige = 0.25
}

es_new_arms = {
	infantry_power = 0.15
	shock_damage = 0.10
	shock_damage_received = -0.05
}

es_new_advisors = {
	advisor_cost = -0.25
	advisor_pool = 1
	idea_cost = -0.15
}

es_trade_boost = {
	trade_efficiency = 0.10
	trade_steering = 0.15
	global_own_trade_power = 0.25
}

es_allied_with_our_kin = {
	stability_cost_modifier = -0.25
	province_warscore_cost = -0.15
	manpower_in_culture_group_provinces = 0.10
}

es_internal_stability = {
	global_unrest = -2.5
	ae_impact = -0.15
	years_of_nationalism = -10
}

es_hired_mercenaries = {
	merc_maintenance_modifier = -0.25
	mercenary_cost = -0.15
	mercenary_manpower = 0.35
}

es_challenging_the_elves = {
	land_morale = 0.10
	land_forcelimit_modifier = 0.15
	land_maintenance_modifier = -0.25
}

es_hegemony_no_more = {
	prestige_decay = -0.01
	vassal_forcelimit_bonus = 0.15
	vassal_income = 0.25
}

es_honoured_gods = {
	tolerance_own = 2.5
	tolerance_heretic = 1.5
	tolerance_heathen = 1.0
}

es_organised_hierarchy = {
	global_missionary_strength = 0.015
	missionaries = 1
	missionary_maintenance_cost = -0.25
}

es_prepare_for_war = {
	manpower_recovery_speed = 0.15
	global_manpower_modifier = 0.25
	free_leader_pool = 1
}

es_pushed_the_orcs = {
	discipline = 0.05
	recover_army_morale_speed = 0.10
	recover_navy_morale_speed = 0.15
}

es_purification_of_the_land = {
	culture_conversion_cost = -0.25
	global_rebel_suppression_efficiency = 0.35
	culture_conversion_time = -0.50
}

es_secured_wrothgar = {
	mercenary_discipline = 0.10
	global_regiment_cost = -0.15
	merc_leader_army_tradition = 0.25
}

es_secured_borders = {
	diplomats = 1
	rival_border_fort_maintenance = -0.15
	improve_relation_modifier = 0.25
}

es_old_allies = {
	reduced_liberty_desire = 10
	diplomatic_reputation = 1.5
	monthly_favor_modifier = 0.25
}

es_spirit_of_freedom = {
	war_exhaustion_cost = -0.25
	reserves_organisation = 0.15
	global_monthly_devastation = -0.10
}

es_protector_of_half_blood = {
	warscore_cost_vs_other_religion = -0.25
	religious_unity = 0.10
	unjustified_demands = -0.15
}

es_stonetooth_fortress = {
	global_foreign_trade_power = 0.25
	naval_maintenance_modifier = -0.10
	global_ship_cost = -0.15
}

es_coast_of_hammerfell = {
	caravan_power = 0.25
	center_of_trade_upgrade_cost = -0.15
	placed_merchant_power = 10
}

es_dual_monarchy = {
	num_accepted_cultures = 1
	morale_damage_received = -0.15
	diplomatic_annexation_cost = -0.25
}

es_bangkorai_pass = {
	defensiveness = 0.15
	fort_maintenance_modifier = -0.25
	garrison_size = 0.35
}

### Orsimer ###########################################################

es_spread_our_culture_orc = {
	culture_conversion_cost = -0.25
	culture_conversion_time = -0.35
	unjustified_demands = -0.15
}

es_orcish_forgery_mod_orc = {
	infantry_power = 0.15
	infantry_cost = -0.25
	global_regiment_recruit_speed = -0.35
}

es_host_summoned_orc = {
	global_regiment_cost = -0.25
	land_forcelimit_modifier = 0.10
	army_tradition = 0.15
}

es_host_raised_orc = {
	land_maintenance_modifier = -0.10
	loot_amount = 0.5
	available_province_loot = 1.5
}

es_for_malacath_orc = {
	religious_unity = 0.10
	tolerance_heretic = 2.5
	global_heathen_missionary_strength = 0.015
}

es_malacath_embraced_orc = {
	global_missionary_strength = 0.015
	missionaries = 1
	global_religious_conversion_resistance = 0.25
}

es_bretons_repelled_orc = {
	prestige = 0.25
	global_unrest = -1.5
	monarch_military_power = 1
}

es_exploring_our_past_orc = {
	technology_cost = -0.10
	institution_spread_from_true_faith = 0.15
	innovativeness_gain = 0.25
}

es_exploring_our_roots_orc = {
	idea_cost = -0.10
	adm_advisor_cost = -0.15
	leader_cost = -0.25
}

es_strongholds_established_orc = {
	garrison_size = 0.15
	defensiveness = 0.25
	development_cost_in_primary_culture = -0.10
}

es_scare_them_off_orc = {
	fort_maintenance_modifier = -0.25
	movement_speed = 0.15
	hostile_attrition = 1.0
}

es_high_rock_secured_orc = {
	province_warscore_cost = -0.1
	war_exhaustion_cost = -0.15
	harsh_treatment_cost = -0.25
}

es_resettle_orcish_refugees_orc = {
	global_manpower_modifier = 0.25
	global_colonial_growth = 15
	colonists = 1
}

es_orsimer_united_at_last_orc = {
	prestige_decay = -0.025
	reserves_organisation = 0.15
	mercenary_discipline = 0.10
}

es_alliances_secured_orc = {
	land_morale = 0.15
	diplomatic_upkeep = 1
	monthly_favor_modifier = 0.25
}

es_clans_united_orc = {
	morale_damage = 0.15
	years_of_nationalism = -10
	land_attrition = -0.25
}

es_settlers_in_hammerfell_orc = {
	colonist_placement_chance = 0.05
	native_uprising_chance = -1.0
	native_assimilation = 0.15
}

es_integrate_wood_orsimers_orc = {
	num_accepted_cultures = 1
	cavalry_power = 0.15
	spy_offence = 0.25
}

es_orcish_civilization_orc = {
	development_cost = -0.15
	production_efficiency = 0.10
	global_own_trade_power = 0.25
}

es_construction_knowledge_orc = {
	build_cost = -0.1
	build_time = -0.25
	global_institution_spread = 0.15
}

es_connect_with_kin_orc = {
	num_accepted_cultures = 1
	diplomatic_reputation = 1.5
	improve_relation_modifier = 0.25
}

es_integrate_iron_orcs_orc = {
	num_accepted_cultures = 1
	tolerance_own = 2.5
	artillery_power = 0.15 
}

es_natural_warriors_mod_orc = {
	shock_damage = 0.15
	leader_land_shock = 1
	cavalry_flanking = 0.25
}


### Iron Orc ############################################################

es_trinimacs_strength_iro = {
    land_morale = 0.15
    discipline = 0.10
    army_tradition = 0.25
}

es_made_of_iro = {
    land_forcelimit_modifier = 0.15
    global_manpower_modifier = 0.25
    infantry_power = 0.10
}

es_fueled_by_hatred_mod_iro = {
    province_warscore_cost = -0.15
    ae_impact = -0.1
    enemy_core_creation = 0.25
}

es_raiding_orcs_iro = {
    loot_amount = 1.0
    available_province_loot = 1.5
	prestige_from_land = 0.5
}

es_dwemer_tech_raided_iro = {
    technology_cost = -0.1
    idea_cost = -0.15
    embracement_cost = -0.25
}

es_nords_raided_iro = {
    army_tradition_from_battle = 0.25
    leader_land_shock = 1
    siege_ability = 0.15
}

es_forces_gathered_iro = {
    land_maintenance_modifier = -0.10
    reinforce_speed = 0.25
    manpower_recovery_speed = 0.15
}

es_fortress_retaken_iro = {
    fort_maintenance_modifier = -0.25
    garrison_size = 0.15
    defensiveness = 0.10
}

es_not_weak_iro = {
    prestige_decay = -0.015
    monarch_military_power = 1
    power_projection_from_insults = 0.25
}

es_orsimer_raided_iro = {
    army_tradition_decay = -0.01
	drill_decay_modifier = -0.15
    drill_gain_modifier = 0.25
}

es_tame_welwas_iro = {
    cavalry_flanking = 0.25
	movement_speed = 0.15
    cavalry_power = 0.10
}

es_infused_trolls_iro = {
	mercenary_discipline = 0.10
    mercenary_manpower = 0.25
    merc_maintenance_modifier = -0.15
}

es_protectors_of_the_stones_iro = {
    production_efficiency = 0.1
    trade_efficiency = 0.15
	caravan_power = 0.25
}

es_beginning_purges_iro = {
    culture_conversion_cost = -0.25
    global_missionary_strength = 0.015
    global_unrest = -1.0
}

es_spreading_our_ways_iro = {
    culture_conversion_time = -0.50
    tolerance_own = 2.5
    stability_cost_modifier = -0.35
}

es_mountain_warfare_mod_iro = {
    hostile_attrition = 2.5
    recover_army_morale_speed = 0.15
    leader_land_manuever = 1
}

### Vampires ##########################################################

es_harbour_of_stability_modifier = {
	harsh_treatment_cost = -0.25
	global_rebel_suppression_efficiency = 0.35
	interest = -0.5
}

es_gold_and_blood_modifier = {
	gold_depletion_chance_modifier = -1.0
	build_cost = -0.15
	build_time = -0.25
}

es_mortal_markets_modifier = {
	trade_efficiency = 0.05
	global_own_trade_power = 0.15
	merchants_influence_modifier = 0.10
}

es_thrall_s_workshops_modifier = {
	global_trade_goods_size_modifier = 0.15
}

es_temples_for_molag_bal_modifier = {
	global_tax_modifier = 0.10
	global_missionary_strength = 0.025
	tolerance_own = 1.5
}

es_feeding_traditions_modifier = {
	leader_land_manuever = 1
	reinforce_cost_modifier = -0.15
	reinforce_speed = 0.25
}

es_drill_vampires_modifier = {
	drill_gain_modifier = 0.25
	siege_ability = 0.15
	land_morale = 0.10
}

es_blood_knights_modifier = {
	shock_damage = 0.10
	cavalry_power = 0.15
	cavalry_flanking = 0.25
}

es_sanguine_wine_production_modifier = {
	global_prov_trade_power_modifier = 0.15
}

es_human_feast_modifier = {
	global_manpower_modifier = 0.10
	envoy_travel_time = -0.25
	liberty_desire_from_subject_development = -0.15
}

es_trade_domination_modifier = {
	global_foreign_trade_power = 0.15
	trade_steering = 0.25
	trade_range_modifier = 0.35
}

es_military_towns_modifier = {
	manpower_recovery_speed = 0.10
	mercenary_manpower = 0.15
	global_supply_limit_modifier = 0.25
}

es_industrial_centers_modifier = {
	production_efficiency = 0.10
	development_cost = -0.15
	center_of_trade_upgrade_cost = -0.25
}

es_human_blood_modifier = {
	mercenary_cost = -0.25
	mil_advisor_cost = -0.15
	diplomatic_upkeep = 1
}

es_human_subjects_modifier = {
	years_of_nationalism = -10
	vassal_income = 0.15
	prestige = 0.25
}

es_strengthened_bloodline_modifier = {
	improve_relation_modifier = 0.25
	reduced_liberty_desire_on_same_continent = 15
	max_absolutism = 10
}

es_true_allies_modifier = {
	enemy_core_creation = 1.0
	monthly_federation_favor_growth = 0.25
	diplomatic_annexation_cost = -0.15
}

es_blood_of_coldharbour_modifier = {
	yearly_absolutism = 0.10
	global_unrest = -1.5
	warscore_cost_vs_other_religion = -0.25
}

es_feast_of_molag_bal_modifier = {
	num_accepted_cultures = 1
	global_heretic_missionary_strength = 0.025
	missionary_maintenance_cost = -0.15
}

es_vampire_unification_modifier = {
	morale_damage_received = -0.15
}

es_vampiric_invasion_modifier = {
	global_heathen_missionary_strength = 0.05
	tolerance_heathen = 2.5
	religious_unity = 0.10
}

es_thrall_ships_modifier = {
	naval_forcelimit_modifier = 0.15
	naval_maintenance_modifier = -0.35
	global_sailors_modifier = 0.25
}

es_undead_fleet_modifier = {
	naval_morale = 0.10
	sunk_ship_morale_hit_recieved = -0.15
	naval_tradition_from_battle = 0.25
}

es_undead_army_modifier = {
	loot_amount = 0.50
	available_province_loot = 1.5
	movement_speed = 0.10
}

es_spread_vampiric_drain_modifier = {
	land_forcelimit_modifier = 0.15
	vassal_manpower_bonus = 0.25
	land_maintenance_modifier = -0.10
}

es_acquire_daedra_hearts_modifier = {
	infantry_power = 0.10
	infantry_cost = -0.15
	army_tradition_from_battle = 0.25
}

es_elven_blood_modifier = {
	stability_cost_modifier = -0.25
	adm_advisor_cost = -0.15
	province_warscore_cost = -0.10
}

es_elven_subjects_modifier = {
	fire_damage = 0.10
	vassal_forcelimit_bonus = 0.25
	culture_conversion_cost = -0.15
}

es_secure_sovereignty_modifier = {
	power_projection_from_insults = 0.5
	monarch_diplomatic_power = 1
	possible_condottieri = 1.5
}

es_vampire_lords_modifier = {
	leader_land_fire = 3
}

es_family_crypts_modifier = {
	garrison_size = 0.15
	fort_maintenance_modifier = -0.25
	defensiveness = 0.10
}

es_the_sole_owner_of_state = {
	reform_progress_growth = 0.25
}

es_acquire_bloodstone_chalice_modifier = {
	prestige_decay = -0.01
	dip_advisor_cost = -0.15
	diplomatic_reputation = 2.5
}

es_activated_bloodstone_chalice_modifier = {
	recover_army_morale_speed = 0.05
	recover_navy_morale_speed = 0.10
	war_exhaustion_cost = -0.15
}

es_deceive_the_herd_modifier = {
	unjustified_demands = -0.15
	relation_with_heretics = 35
	relation_with_heathens = 25
}

es_deal_with_dwemer_threat_modifier = {
	autonomy_change_time = -0.25
	yearly_corruption = -0.15
	free_leader_pool = 1
}

strike_blackreach_modifier = {
	assault_fort_cost_modifier = -0.25
	prestige_from_land = 0.15
	morale_damage = 0.10
}

es_destroy_the_dawnguard_modifier = {
	ae_impact = -0.15
	global_religious_conversion_resistance = 0.25
	artillery_power = 0.10
}

es_find_frightful_heart_modifier = {
	all_estate_loyalty_equilibrium = 0.10
	spy_offence = 0.15
	discovered_relations_impact = -0.25
}

es_activate_dark_heart_modifier = {
	fabricate_claims_cost = -0.25
	fire_damage_received = -0.15
	monthly_splendor = 1
}

es_subjugate_wrothgar_orcs_modifier = {
	reduced_liberty_desire = 10
	merc_maintenance_modifier = -0.15
	assault_fort_ability = 0.25
}

es_rivenspire_secrets_modifier = {
	technology_cost = -0.10
	idea_cost = -0.15
	institution_spread_from_true_faith = 0.25
}

es_collect_elder_scrolls_modifier = {
	advisor_cost = -0.10
	innovativeness_gain = 0.15
	core_creation = -0.25
}

es_secret_of_elder_scrolls_modifier = {
	global_institution_spread = 0.25
	governing_capacity_modifier = 0.15
	all_power_cost = -0.10
}

es_end_of_the_sun_tyrrany_modifier = {
	land_attrition = -0.15
	naval_attrition = -0.25
	free_mil_policy = 1
}

es_consolidate_vvardenfell_vampires = {
	culture_conversion_time = -0.15
	tolerance_heretic = 2.5
	monarch_military_power = 1
}

es_scamp_blood_modifier = {
	hostile_attrition = 1.0
	heir_chance = 0.25
	global_spy_defence = 0.15
}

es_scamp_skin_trade_modifier = {
	placed_merchant_power = 15
	leader_cost = -0.25
	leader_land_shock = 1
}

es_no_more_destructive_influence_modifier = {
	stability_cost_to_declare_war = -1
}

es_dremoran_blood_modifier = {
	global_regiment_cost = -0.25
	administrative_efficiency = 0.10
	global_regiment_recruit_speed = -0.15
}

es_deal_with_dremoran_threat_modifier = {
	establish_order_cost = -0.15
	mercenary_discipline = 0.10
	merc_leader_army_tradition = 0.25
}

es_soul_shriven_slaves_modifier = {
	caravan_power = 0.10
	embargo_efficiency = 0.25
	mercantilism_cost = -0.15
}

es_lightless_oubliette_owners_modifier = {
	free_adm_policy = 1
}

es_dremoran_culture_modifier = {
	same_culture_advisor_cost = -0.10
	army_tradition = 0.15
	claim_duration = 0.25
}

es_new_lands_colonisation_modifier = {
	colonists = 1
	global_colonial_growth = 15
	colonist_placement_chance = 0.05
}

#### Daggerfall ############################################################

es_independance_secured_dgf = {
	global_tax_modifier = 0.15
	improve_relation_modifier = 0.25
	advisor_pool = 1
}

es_expansion_of_our_borders_dgf = {
	colonists = 1
}

es_colonizers_dgf = {
	global_colonial_growth = 15
	colonist_placement_chance = 0.05
	global_tariffs = 0.1
}

es_reconnected_with_our_brothers_dgf = {
	land_morale = 0.15
	manpower_recovery_speed = 0.25
	diplomatic_upkeep = 1
}

es_subjects_acquired_dgf = {
	diplomatic_reputation = 1.5
	reduced_liberty_desire = 10
	vassal_forcelimit_bonus = 0.25
}

es_daggerfall_founded_dgf = {
	development_cost = -0.35
	prestige = 0.5
	advisor_cost = -0.25
}

es_strong_capital_dgf = {
	global_unrest = -2.5
	defensiveness = 0.15
	governing_capacity_modifier = 0.1
}

es_nordic_smithing_mod_dgf = {
	shock_damage = 0.15
}

es_skyforge_steel_mod_dgf = {
	fire_damage_received = -0.15
}

es_position_secured_dgf = {
	drill_gain_modifier = 0.25
	drill_decay_modifier = -0.15
	free_leader_pool = 1
}

es_founders_ways_dgf = {
	global_missionary_strength = 0.015
	culture_conversion_cost = -0.25
	tolerance_own = 1.0
}

es_pacify_locals_dgf = {
	free_dip_policy = 1
	stability_cost_modifier = -0.25
	state_maintenance_modifier = -0.15
}

es_rulers_of_skyrim_dgf = {
	army_tradition = 0.15
	army_tradition_decay = -0.01
	army_tradition_from_battle = 0.25
}

es_victory_over_rival_dgf = {
	prestige_decay = -0.01
}

es_dominating_iliac_bay_dgf = {
	global_trade_goods_size_modifier = 0.15
	trade_steering = 0.25
	merchants = 1
}

es_bank_constructed_dgf = {
	build_cost = -0.15
	merchants_influence_modifier = 0.10
	build_time = -0.25
}

es_bank_finished_dgf = {
	placed_merchant_power = 15
	interest = -1
	production_efficiency = 0.05
}

es_swimming_in_money_mod_dgf = {
	inflation_action_cost = -0.15
}

es_spies_of_daggerfall_mod_dgf = {
	diplomats = 1
	spy_offence = 0.25
	envoy_travel_time = -0.15
}

es_prepare_invasion_dgf = {
	naval_forcelimit_modifier = 0.35
	transport_power = 0.75
	regiment_disembark_speed = 1.0
}

es_excellent_spies_dgf = {
	spy_action_cost_modifier = -0.15
	global_spy_defence = 0.25
	global_rebel_suppression_efficiency = 0.35
}

es_prepare_for_retaliation_dgf = {
	hostile_attrition = 1
	reinforce_cost_modifier = -0.15
	reinforce_speed = 0.25
}

es_dominating_glenumbra_dgf = {
	trade_efficiency = 0.15
	embargo_efficiency = 0.25
	caravan_power = 0.1
}

es_protecting_trade_dgf = {
	global_ship_trade_power = 0.15
	naval_maintenance_modifier = 0.25
	light_ship_power = 0.10
}

es_breton_steel_dgf = {
	global_regiment_cost = -0.25
	regiment_recruit_speed = 0.35
	land_forcelimit_modifier = 0.15
}

# Tang Mo #############################################################

es_expanded_defences_modifier = {
	fort_maintenance_modifier = -0.25
	land_maintenance_modifier = -0.15
	garrison_size = 0.35
}

es_expanded_navy_modifier = {
	global_ship_cost = -0.35
	global_ship_recruit_speed = -0.25
	sailor_maintenance_modifer = -0.15
}

es_naval_traditions_modifier = {
	navy_tradition = 0.50
	naval_morale = 0.10
	prestige_from_naval = 0.25
}

es_greatest_akaviri_fleet_modifier = {
	navy_tradition_decay = -0.01
	naval_maintenance_modifier = -0.25
	sunk_ship_morale_hit_recieved = -0.15
}

es_gold_reserves_modifier = {
	inflation_reduction = 0.015
	gold_depletion_chance_modifier = -0.25
	interest = -0.5
}

es_developed_infrastructure_modifier = {
	movement_speed = 0.10
	reinforce_speed = 0.25
	global_regiment_recruit_speed = -0.50
}

es_po_tun_allies_modifier = {
	improve_relation_modifier = 0.25
	diplomatic_reputation = 1.5
	discovered_relations_impact = -0.50
}

es_expanded_army_modifier = {
	yearly_army_professionalism = 0.005
	army_tradition_decay = -0.01
	prestige_from_land = 0.15
}

es_dealed_with_menace_modifier = {
	global_unrest = -2.5
	stability_cost_modifier = -0.15
	global_autonomy = -0.05
}

es_true_akaviri_emperor_modifier = {
	num_accepted_cultures = 3
	religious_unity = 0.15
	prestige = 0.25
}

es_supreme_akaviri_court_modifier = {
	same_culture_advisor_cost = -0.05
	advisor_pool = 1
	state_maintenance_modifier = -0.15
}

es_monuments_of_tang_mo_modifier = {
	development_cost = -0.15
	build_cost = -0.25
	build_time = -0.35
}

es_temples_of_knowlege_modifier = {
	global_institution_spread = 0.25
	idea_cost = -0.15
	technology_cost = -0.10
}

es_tang_mo_champions_modifier = {
	free_leader_pool = 1
	leader_land_fire = 1
	leader_land_manuever = 1
	leader_land_shock = 1
	leader_siege = 1
}

es_single_ruler_of_the_islands_modifier = {
	reduced_liberty_desire = 25
	legitimacy = 0.35
	republican_tradition = 0.35
	horde_unity = 0.35
	devotion = 0.35
	meritocracy = 0.35
	reform_progress_growth = 0.10
}

es_debrises_of_the_old_empire_modifier = {
	global_trade_power = 0.25
	global_trade_goods_size_modifier = 0.15
	ship_power_propagation = 0.35
}

es_the_new_hegemony_modifier = {
	global_tax_modifier = 0.10
	production_efficiency = 0.10
	tolerance_own = 1
}

es_subjects_of_the_monkey_king_modifier = {
	reduced_liberty_desire_on_same_continent = 10
	relation_with_heretics = 50
	relation_with_heathens = 25
}

es_ascended_tang_mo_modifier = {
	free_adm_policy = 1
	free_dip_policy = 1
	free_mil_policy = 1
}

es_brave_adventures_modifier = {
	range = 0.25
	light_ship_power = 0.15
	transport_power = 0.10
}

es_mapping_akavir_modifier = {
	global_ship_trade_power = 0.25
	global_foreign_trade_power = 0.15
	trade_steering = 0.10
}

es_the_eastern_colony_modifier = {
	trade_efficiency = 0.10
	embargo_efficiency = 0.35
	privateer_efficiency = 0.25
}

es_new_aldmeris_found_modifier = {
	fabricate_claims_cost = -0.25
	core_creation = -0.15
	unjustified_demands = -0.35
}

es_protector_of_summerset_islands_modifier = {
	prestige_decay = -0.01
	core_decay_on_your_own = -0.25
	global_tax_income = 5
}

es_forest_foorhold_modifier = {
	land_attrition = -0.25
	fire_damage = 0.10
	shock_damage_received = -0.10
}

es_expanded_trade_harbours_modifier = {
	global_prov_trade_power_modifier = 0.15
	center_of_trade_upgrade_cost = -0.15
	mercantilism_cost = -0.15
}

es_enlighted_king_modifier = {
	administrative_efficiency = 0.10
}

es_war_fleet_modifier = {
	heavy_ship_power = 0.10
	galley_power = 0.15
	naval_tradition_from_battle = 0.25
}

es_home_trade_monopoly_modifier = {
	global_own_trade_power = 0.10
	trade_range_modifier = 0.35
	global_ship_trade_power = 0.25
}

es_merchants_of_safala_modifier = {
	caravan_power = 0.25
	global_colonial_growth = 15
	colonist_placement_chance = 0.05
}

es_the_trade_empire_modifier = {
	trade_company_investment_cost = -0.25
	treasure_fleet_income = 0.50
	expel_minorities_cost = -0.35
}

es_outshined_rivals_modifier = {
	rival_change_cost = -0.50
	power_projection_from_insults = 1.0
	justify_trade_conflict_cost = -0.25
}

# Solitude ############################################################

es_gates_of_solitude = {
	local_defender_dice_roll_bonus = 1
	local_fort_maintenance_modifier = -0.50
	local_defensiveness = 0.25
}

es_the_northern_frontier = {
	culture_conversion_cost = -0.15
	global_missionary_strength = 0.025
	infantry_cost = -0.35
}

es_castle_dour = {
	local_unrest = -3.5
	local_manpower_modifier = 0.5
	local_governing_cost = -0.25
}

solitude_city_guard = {
	stability_cost_modifier = -0.35
	yearly_corruption = -0.25
	global_unrest = -5.0
}

es_marshes_of_hjaalmarch = {
	land_attrition = -0.15
	shock_damage_received = -0.05
	free_leader_pool = 1
}

es_true_purity = {
	tolerance_own = 1.5
	tolerance_heretic = -1
	tolerance_heathen = -2.5
}

es_swords_of_solitude = {
	infantry_power = 0.10
	cavalry_power = 0.10
	global_regiment_recruit_speed = -0.25
}

es_karth_river_trade = {
	trade_efficiency = 0.10
	global_own_trade_power = 0.15
	ship_power_propagation = 0.25
}

es_nordic_fleet = {
	naval_morale = 0.10
	sunk_ship_morale_hit_recieved = -0.15
	recover_navy_morale_speed = 0.05
}

es_the_trade_of_pale = {
	global_foreign_trade_power = 0.15
	trade_range_modifier = 0.50
	trade_steering = 0.25
}

es_prosperity_secured = {
	global_prosperity_growth = 0.25
	global_monthly_devastation = -0.10
	global_autonomy = -0.05
}

es_bards_college = {
	adm_advisor_cost = -0.10
	prestige_decay = -0.01
	monarch_admin_power = 1
}

es_new_capital_of_skyrim = {
	prestige = 0.5
	state_maintenance_modifier = -0.35
	legitimacy = 0.25
	republican_tradition = 0.25
	horde_unity = 0.25
	meritocracy = 0.25
	devotion = 0.25
}

es_foothold_on_reach = {
	years_of_nationalism = -10
	unjustified_demands = -0.15
	harsh_treatment_cost = -0.25
}

es_dwemer_technologies = {
	idea_cost = -0.15
	global_institution_spread = 0.10
	technology_cost = -0.05
}

es_mines_of_nchuand_zel = {
	local_production_efficiency = 0.25
	local_tax_modifier = 0.25
	local_prosperity_growth = 0.25
}

es_gateway_to_west = {
	caravan_power = 0.25
	placed_merchant_power = 5
	mercantilism_cost = -0.15
}

king_of_the_western_reach = {
	diplomatic_reputation = 1.5
	improve_relation_modifier = 0.25
	diplomatic_annexation_cost = -0.35
}

es_lands_of_krethmen = {
	land_morale = 0.15
	discipline = 0.10
	mercenary_discipline = 0.05
}

es_overlords_of_plains = {
	cavalry_power  = 0.15
	cavalry_cost = -0.50
	cavalry_flanking = 0.25
}

### Khajiiti Mission Modifiers

kh_honor_khajiit_gods = {
	global_unrest = -2.5
	stability_cost_modifier = -0.15
	adm_advisor_cost = -0.10
}

kh_annual_moon_festivals_province = {
	local_unrest = -5
}

kh_annual_moon_festivals = {
	stability_cost_modifier = -0.15
	culture_conversion_cost = -0.10
	global_tax_modifier = -0.05
}

kh_confused_heathens = {
	global_heathen_missionary_strength = 0.035
	tolerance_own = 1.5
	tolerance_heathen = 2.5
}

kh_expansion = {
	special_unit_forcelimit = 0.10
	manpower_recovery_speed = 0.15
	global_manpower_modifier = 0.25
}

kh_expanding_into_quinrawl = {
	land_morale = 0.15
}

kh_integration = {
	naval_forcelimit_modifier = 0.25
	development_cost_modifier = -0.15
	global_trade_goods_size_modifier = 0.10
}

kh_land_integration = {
	land_forcelimit_modifier = 0.10
	mercantilism_cost = -0.20
	global_own_trade_power = 0.15
}

kh_naval_trade = {
	light_ship_power = 0.10
	light_ship_cost = -0.15
	global_ship_trade_power = 0.25
}

kh_caravan_trade = {
	caravan_power = 0.25
	trade_range_modifier = 0.50
	placed_merchant_power = 10
}

kh_dominating_anequina = {
	shock_damage = 0.15
}

kh_reapers_march = {
	manpower_in_own_culture_provinces = 0.10
	mil_advisor_cost = -0.15
	global_regiment_cost = -0.25
}

kh_trading_in_elsweyr = {
	trade_efficiency = 0.10
}

kh_protected_caravans = {
	diplomatic_reputation = 1.0
	global_foreign_trade_power = 0.15
	embargo_efficiency = 0.25
}

kh_caravan_investing = {
	center_of_trade_upgrade_cost = -0.50
	placed_merchant_power_modifier = 0.25
	global_prov_trade_power_modifier = 0.10
}

kh_traders_of_elsweyr = {
	trade_steering = 0.15
	improve_relation_modifier = 0.25
	global_trade_power = 0.10
}

kh_alliance_with_pirates = {
	privateer_efficiency = 0.35
	capture_ship_chance = 0.25
	naval_attrition = -0.10
}

kh_pirates_destroyed = {
	ship_power_propagation = 0.25
	global_ship_cost = -0.15
	naval_morale = 0.10
}

kh_elsweyr_cleansed = {
	prestige = 0.50
	vassal_income = 0.35
	core_creation = -0.25
}

kh_desert_mercenaries = {
	discipline = 0.10
}

kh_mercenary_armies = {
	mercenary_manpower = 0.15
	mercenary_cost = -0.10
	merc_leader_army_tradition = 0.25
}

kh_mercenaries_of_tamriel = {
	mercenary_discipline = 0.10
	merc_maintenance_modifier = -0.15
	army_tradition_from_battle = 0.25
}

kh_moon_sugar = {
	trade_goods_size_modifier = 0.10
	reduced_liberty_desire = 15
	morale_damage_received = -0.05
}

# Nedic ###########################################################################################

es_independent_trade_modifier = {
	global_own_trade_power = 0.25
	center_of_trade_upgrade_cost = -0.15
	trade_range_modifier = 0.35
}

es_trade_with_elsweyr_modifier = {
	tolerance_heretic = 1.5
	trade_efficiency = 0.10
	placed_merchant_power = 5
}

es_khajiiti_allies_modifier = {
	caravan_power = 0.25
	privateer_efficiency = 0.35
	trade_company_investment_cost = -0.15
}

es_ally_chorrol_modifier = {
	army_tradition_decay = -0.01
	claim_duration = 0.15
	province_warscore_cost = -0.25
}

es_nedes_of_colovia_modifier = {
	global_manpower_modifier = 0.25
	cavalry_cost = -0.15
	cavalry_power = 0.05
}

es_path_to_gold_coast_modifier = {
	infantry_power = 0.10
	war_exhaustion_cost = -0.15
	prestige_from_land = 0.25
}

es_gates_of_morrowind_modifier = {
	manpower_in_accepted_culture_provinces = 0.15
	morale_damage_received = -0.10
	global_supply_limit_modifier = 0.25
}

es_dwemer_knowlwdge_modifier = {
	idea_cost = -0.15
	technology_cost = -0.10
	adm_advisor_cost = -0.05 
}

es_ports_of_inner_sea_modifier = {
	embargo_efficiency = 0.25
	global_ship_trade_power = 0.15
	merchants = 1
}

es_path_to_elsweyr_modifier = {
	global_regiment_recruit_speed = -0.25
	core_creation = -0.15
	land_attrition = -0.10
}

es_seat_of_the_mane_modifier = {
	monthly_favor_modifier = 0.15
	cav_to_inf_ratio = 0.10
	global_monthly_devastation = -0.05
}

es_develop_nedic_economy_modifier = {
	interest = -1
	build_cost = -0.15
	build_time = -0.25
}

es_support_nedic_market_modifier = {
	global_trade_power = 0.15
	inflation_action_cost = -0.1
	global_prosperity_growth = 0.05
}

es_develop_nedic_cities_modifier = {
	development_cost_modifier = -0.10
	global_tax_modifier = 0.15
	garrison_size = 0.25
}

es_nordic_brothers_modifier = {
	drill_gain_modifier = 0.25
	drill_decay_modifier = -0.35
	global_regiment_cost = -0.15
}

es_ally_skingrad_modifier = {
	army_tradition = 0.15
	land_maintenance_modifier = -0.25
	rival_border_fort_maintenance = -0.35
}

es_port_of_bravil_modifier = {
	naval_tradition_from_trade = 0.25
	global_ship_recruit_speed = -0.15
	sailors_recovery_speed = 0.10
}

es_develop_imperial_city_modifier = {
	local_tax_modifier = 0.50
	local_production_efficiency = 0.15
	local_manpower_modifier = 0.25
}

es_liberate_gold_coast_modifier = {
	global_trade_goods_size_modifier = 0.10
	manpower_recovery_speed = 0.15
	state_maintenance_modifier = -0.5
}

es_the_story_of_pelinal_modifier = {
	possible_condottieri = 1.0
	global_garrison_growth = 0.15
	leader_cost = -0.25
}

es_lake_hlaalu_modifier = {
	advisor_pool = 1
	warscore_from_battles_modifier = 0.15
	rebel_support_efficiency = 0.25
}

es_kings_of_morrowind_modifier = {
	free_leader_pool = 1
	stability_cost_modifier = -0.15
	culture_conversion_time = -0.25
}

es_jewel_of_topal_bay_modifier = {
	ship_power_propagation = 0.35
	navy_tradition = 0.25
	great_project_upgrade_time = -0.15
}

es_doors_of_black_marsh_modifier = {
	naval_tradition_from_battle = 0.35
	justify_trade_conflict_cost = -0.25
	production_efficiency = 0.15
}

es_establish_court_modifier = {
	fabricate_claims_cost = -0.25
	same_culture_advisor_cost = -0.10
	prestige_decay = -0.015
}

es_economic_oversight_modifier = {
	global_prov_trade_power_modifier = 0.15
	monthly_gold_inflation_modifier = -0.25
	inflation_reduction = 0.1
}

es_cyrodilic_roads_modifier = {
	movement_speed = 0.05
	manpower_in_own_culture_provinces = 0.10
	reinforce_speed = 0.15
}

es_diplomatic_outreach_modifier = {
	diplomats = 1
	diplomatic_reputation = 1.5
	improve_relation_modifier = 0.25
}

es_arise_nedes_all_as_one_modifier = {
	manpower_in_culture_group_provinces = 0.15
	land_morale = 0.10
	recover_army_morale_speed = 0.05
}

es_secure_white_gold_tower_modifier = {
	unjustified_demands = -0.25
	assault_fort_ability = 0.15
	morale_damage = 0.10
}

es_liberate_heartlands_modifier = {
	reserves_organisation = 0.10
	reinforce_cost_modifier = -0.15
	administrative_efficiency = 0.05
}

es_heroes_of_mankind_modifier = {
	military_tactics = 0.05
	mil_advisor_cost = -0.1
	ae_impact = -0.15
}

es_snow_peaks_of_bruma_modifier = {
	siege_ability = 0.15
	hostile_attrition = 1
	artillery_cost = -0.25
}

es_secure_pale_pass_modifier = {
	fort_maintenance_modifier = -0.25
	global_rebel_suppression_efficiency = 0.15
	years_of_nationalism = -10
}

es_the_great_planes_modifier = {
	cavalry_power = 0.10
	cavalry_flanking = 0.15
	state_governing_cost = -0.25
}

es_jarls_of_skyrim_modifier = {
	yearly_corruption = -0.10
	dip_advisor_cost = -0.15
	move_capital_cost_modifier = -0.25
}

es_tamriel_for_mankind_modifier = {
	allow_mercenary_drill = yes
	vassal_forcelimit_bonus = 0.15
	vassal_income = 0.25
}

es_sacred_monastery_modifier = {
	local_unrest = -2.5
	local_garrison_size = 0.15
	trade_goods_size_modifier = 0.10
}

es_expand_nedic_clergy_modifier = {
	missionaries = 1
	tolerance_own = 1.5
	global_missionary_strength = 0.025
}

es_the_sword_and_the_shield_modifier = {
	manpower_in_true_faith_provinces = 0.25
	warscore_cost_vs_other_religion = -0.15
	fire_damage_received = -0.10
}

es_enemy_of_my_enemy_modifier = {
	mercenary_manpower = 0.25
	merc_maintenance_modifier = -0.15
	mercenary_discipline = 0.10
}

es_ally_cheydinhall_modifier = {
	army_tradition_from_battle = 0.25
	cavalry_cost = -0.15
	leader_land_fire = 1
}

es_liberate_niben_basin_modifier = {
	available_province_loot = 0.25
	min_autonomy_in_territories = -0.15
	expand_administration_cost = -0.10
}

es_liberate_nibenay_modifier = {
	shock_damage_received = -0.10
	reduced_trade_penalty_on_non_main_tradenode = 0.15
	global_unrest = -2.5
}

es_the_story_of_morihaus_modifier = {
	diplomatic_upkeep = 1
	diplomatic_annexation_cost = -0.15
	discipline = 0.05
}

es_keptu_brothers_modifier = {
	centralize_state_cost = -0.25
	mercenary_cost = -0.15
	artillery_power = 0.10
}

es_home_of_kreathmen_modifier = {
	religious_unity = 0.10
	defensiveness = 0.15
	reform_progress_growth = 0.25
}

es_kings_of_the_reach_modifier = {
	tolerance_heathen = 1.5
	core_decay_on_your_own = -0.25
	land_forcelimit_modifier = 0.10
}

es_camoran_throne_modifier = {
	envoy_travel_time = -0.25
	governing_capacity_modifier = 0.15
	monthly_splendor = 1
}

es_doors_of_summerset_modifier = {
	placed_merchant_power_modifier = 0.15
	leader_naval_fire = 1
	gold_depletion_chance_modifier = -0.25
}

es_spread_the_light_modifier = {
	missionary_maintenance_cost = -0.25
	prestige_per_development_from_conversion = 0.35
	enforce_religion_cost = -0.5
}

es_trade_with_valenwood_modifier = {
	trade_steering = 0.15
	mercantilism_cost = -0.25
	global_foreign_trade_power = 0.10
}

es_bosmer_allies_modifier = {
	shock_damage = 0.10
	spy_action_cost_modifier = -0.15
	harsh_treatment_cost = -0.25
}

es_ally_leyawiin_modifier = {
	merc_leader_army_tradition = 0.25
	blockade_efficiency = 0.15
	own_coast_naval_combat_bonus = 1.0
}

es_tribes_of_blackwood_modifier = {
	fire_damage = 0.10
	trade_company_governing_cost = -0.15
	discovered_relations_impact = -0.25
}

es_liberate_niben_valley_modifier = {
	leader_naval_manuever = 1
	global_autonomy = -0.15
	regiment_disembark_speed = 0.25
}

es_keptu_brothers_modifier_ned = {
	infantry_cost = -0.25
	annexation_relations_impact = -0.15
	leader_land_manuever = 1
}

es_the_city_of_mages_modifier = {
	leader_siege = 1
	liberty_desire_from_subject_development = -0.15
	global_spy_defence = 0.25
}

es_hold_of_skyreach_modifier = {
	spy_offence = 0.15
	yearly_army_professionalism = 0.01
	all_estate_loyalty_equilibrium = 0.05
}

es_path_to_valenwood_modifier = {
	leader_land_shock = 1
	war_exhaustion = -0.05
	autonomy_change_time = -0.15
}

es_foundation_of_woodhearth_modifier = {
	navy_tradition_decay = -0.015
	leader_naval_shock = 1
	prestige = 0.25
}

### Reachmen ######################################################################################

es_prepared_expansion_mod = {
	land_morale = 0.10
	drill_gain_modifier = 0.25
	drill_decay_modifier = -0.15
}

es_unite_the_clan_mod = {
	global_manpower_modifier = 0.25
	global_regiment_cost = -0.15
	production_efficiency = 0.10
}

es_stand_out_among_the_clans_mod = {
	army_tradition = 0.25
	leader_land_fire = 1
	discovered_relations_impact = -0.15
}

es_gather_the_wealth_of_the_reach_mod = {
	interest = -1.0
	trade_efficiency = 0.05
	trade_range_modifier = 0.15
}

es_we_are_the_reachfolk_mod = {
	global_supply_limit_modifier = 0.25
	fort_maintenance_modifier = -0.15
	garrison_size = 0.10
}

es_the_city_above_the_karth_mod = {
	leader_siege = 1
	global_heretic_missionary_strength = 0.015
	autonomy_change_time = -0.25
}

es_conquer_the_colovia_mod = {
	cavalry_cost = -0.25
	cavalry_power = 0.10
	cavalry_flanking = 0.15
}

es_the_western_reach_mod = {
	defensiveness = 0.25
	global_spy_defence = 0.15
	monthly_splendor = 1
}

es_wrothgar_for_the_reachfolk_mod = {
	culture_conversion_cost = -0.25
	culture_conversion_time = -0.50
	development_cost_in_primary_culture = -0.15
}

es_heart_of_high_rock_mod = {
	monthly_favor_modifier = 0.25
	idea_cost = -0.10
	embracement_cost = -0.15
}

es_into_cheydinhal_mod = {
	yearly_corruption = -0.10
	reserves_organisation = 0.15
	years_of_nationalism = -5
}

es_dominate_rival_clansh_mod = {
	liberty_desire_from_subject_development = -0.25
	spy_offence = 0.15
	rebel_support_efficiency = 1.0
}

es_push_into_haafingaar_mod = {
	all_estate_influence_modifier = 0.10
	global_foreign_trade_power = 0.15
	mercantilism_cost = -0.25
}

es_the_sack_of_solitude_mod = {
	infantry_cost = -0.25
	loot_amount = 0.5
	available_province_loot = 1.0
}

es_jerall_mountains_mod = {
	min_autonomy_in_territories = -0.25
	state_governing_cost = -0.1
	trade_steering = 0.15
}

es_blessings_of_the_hunt_father_mod = {
	ae_impact = -0.15
	all_estate_loyalty_equilibrium = 0.05
	missionaries = 1
}

es_curry_favor_from_hagravens_mod = {
	artillery_cost = -0.15
	assault_fort_ability = 0.25
	artillery_power = 0.10
}

es_briarheart_warriors_mod = {
	discipline = 0.05
	recover_army_morale_speed = 0.10
	shock_damage_received = -0.15
}

es_follow_the_white_river_mod = {
	mercenary_discipline = 0.10
	caravan_power = 0.25
	placed_merchant_power = 0.15
}

es_center_of_skyrim_mod = {
	global_own_trade_power = 0.10
	center_of_trade_upgrade_cost = -0.25
	embargo_efficiency = 0.15
}

es_reach_into_the_east_mod = {
	yearly_absolutism = 0.25
	province_warscore_cost = -0.15
	governing_capacity_modifier = 0.10
}

es_defile_their_temples_mod = {
	global_heathen_missionary_strength = 0.025
	unjustified_demands = -0.15
	reduced_liberty_desire = 10
}

es_spread_the_old_truths_mod = {
	global_missionary_strength = 0.025
	missionary_maintenance_cost = -0.50
	religious_unity = 0.15
}

es_daedric_shrines_mod = {
	tolerance_own = 1.5
	tolerance_heretic = 2.5
	tolerance_heathen = 3.5
}

es_secure_luxury_for_our_people_mod = {
	global_unrest = -2.5
	merc_maintenance_modifier = -0.10
	inflation_action_cost = -0.15
}

es_secure_bloodroot_forge_mod = {
	global_trade_goods_size_modifier = 0.10
	reinforce_cost_modifier = -0.15
	reinforce_speed = 0.25
}

es_path_to_craglorn_mod = {
	movement_speed = 0.10
	land_attrition = -0.15
	siege_ability = 0.25
}

es_stop_the_grey_host_mod = {
	fire_damage = 0.10
	mercenary_manpower = 0.15
	merc_leader_army_tradition = 0.25
}

es_destroy_nighthollow_clan_mod = {
	all_power_cost = -0.10
	diplomatic_reputation = 1.5
	unjustified_demands = -0.25
}

###

es_conquer_the_kreathmen_mod = {
	production_efficiency = 0.10
	global_prosperity_growth = 0.15
	administrative_efficiency = 0.05
}

es_take_leadership_of_the_clans_mod = {
	build_time = -0.25
	land_maintenance_modifier = -0.15
	leader_land_shock = 1
}

es_consolidate_the_clans_mod = {
	diplomatic_upkeep = 1
	vassal_income = 0.25
	same_culture_advisor_cost = -0.15
}

es_the_city_of_white_gold_mod = {
	state_maintenance_modifier = -0.15
	improve_relation_modifier = 0.25
	army_tradition_decay = -0.01
}

es_transform_the_old_faith_mod = {
	enforce_religion_cost = -0.50
	warscore_cost_vs_other_religion = -0.10
	establish_order_cost = -0.25
}

es_exquisite_wedding_mod = {
	prestige = -0.50
	hostile_attrition = 1
	global_rebel_suppression_efficiency = 0.25
}

###

es_drive_out_nord_interlopers_mod = {
	possible_condottieri = 0.50
	leader_land_manuever = 1
	expand_administration_cost = -0.15
}

es_one_reach_mod = {
	stability_cost_modifier = -0.25
	merchants = 1
	global_institution_spread = 0.15
}

es_superiority_over_the_bretons_mod = {
	prestige_decay = -0.01
	core_creation = -0.15
	diplomatic_annexation_cost = -0.25
}

es_lord_of_the_reach_mod = {
	global_tax_modifier = 0.15
	monarch_military_power = 1
	vassal_forcelimit_bonus = 0.25
}

es_the_longhouse_emperors_mod = {
	num_accepted_cultures = 1
	harsh_treatment_cost = -0.15
	imperial_mandate = 0.25
}

es_skyrim_s_new_masters_mod = {
	manpower_recovery_speed = 0.10
	max_absolutism = 15
	prestige_from_land = 0.25
}

es_expand_bloodroot_forge_mod = {
	morale_damage = 0.10
	army_tradition_from_battle = 0.15
	global_regiment_recruit_speed = -0.25
}

# Dwemer ##########################################################################################

es_dwemer_large_state = {
	governing_capacity_modifier = 0.25
	adm_advisor_cost = -0.15
	global_tax_modifier = 0.10
}
es_dwemer_large_nord_minority = {
	manpower_in_accepted_culture_provinces = 0.25
	garrison_size = 0.15
	years_of_nationalism = -10
}

es_dwemer_forges_of_war = {
	infantry_power = 0.10
	reinforce_cost_modifier = -0.15
	infantry_cost = -0.25
}

es_dwemer_acquire_subjects = {
	mercenary_manpower = 0.25
	vassal_income = 0.15
	reduced_liberty_desire = 10
}

es_dwemer_military_might = {
	land_forcelimit_modifier = 0.15
	cavalry_flanking = 0.25
	artillery_levels_available_vs_fort = 1
}

es_dwemer_make_dwemer_allies = {
	diplomatic_reputation = 1.0
	dip_advisor_cost = -0.15
	improve_relation_modifier = 0.25
}

es_dwemer_trade_power = {
	global_own_trade_power = 0.25
	trade_steering = 0.15
	merchants = 1
}

es_dwemer_morrowind_expansion = {
	state_maintenance_modifier = -0.25
	special_unit_cost_modifier = -0.15
	reinforce_speed = 0.10
}

es_dwemer_chimer_subjects = {
	drill_gain_modifier = 0.25
	vassal_forcelimit_bonus = 0.15
	monarch_admin_power = 1
}

es_dwemer_develop_capital = {
	expand_administration_cost = -0.25
	core_creation = -0.15
	diplomats = 1
}

es_dwemer_hire_tonal_achitect = {
	stability_cost_modifier = -0.25
	assault_fort_ability = 0.15
	all_estate_loyalty_equilibrium = 0.10
}

es_dwemer_mountain_development = {
	defensiveness = 0.25
	movement_speed = 0.15
	development_cost = -0.10
}

es_dwemer_skyforge = {
	global_regiment_recruit_speed = -0.35
	global_regiment_cost = -0.25
	siege_ability = 0.15
}

es_dwemer_exterminate_vampires = {
	global_unrest = -2.5
	province_warscore_cost = -0.15
	global_spy_defence = 0.35
}

es_dwemer_vampire_menace = {
	fire_damage = 0.10
	ae_impact = -0.15
	leader_cost = -0.25
}

es_dwemer_crush_nighthollow = {
	monarch_military_power = 1
	unjustified_demands = -0.25
	global_rebel_suppression_efficiency = 0.35
}

es_dwemer_conquer_mournhold = {
	recover_army_morale_speed = 0.10
	merc_maintenance_modifier = -0.15
	spy_offence = 0.25
}

es_dwemer_morrowind_hegemon = {
	global_trade_goods_size_modifier = 0.1
	manpower_recovery_speed = 0.15
	mercantilism_cost = -0.25
}

es_dwemer_blacklight = {
	leader_land_manuever = 1
	reduced_trade_penalty_on_non_main_tradenode = 0.15
	sunk_ship_morale_hit_recieved = -0.25
}

es_dwemer_ebonheartt = {
	prestige_from_land = 0.25
	caravan_power = 0.15
	global_monthly_devastation = -0.1
}

es_dwemer_vvardenfell_hegemon = {
	land_morale = 0.10
	drill_decay_modifier = -0.15
	mercenary_cost = -0.25
}

es_dwemer_conquer_windhelm = {
	discipline = 0.10
	mil_advisor_cost = -0.15
	diplomatic_annexation_cost = -0.25
}

es_dwemer_produce_aetherium = {
	land_maintenance_modifier = -0.10
	artillery_power = 0.15
	culture_conversion_time = -0.25
}

es_dwemer_aetherium_monopoly = {
	embargo_efficiency = 0.25
	special_unit_forcelimit = 0.15
	monarch_diplomatic_power = 1
}

es_dwemer_conquer_high_rock = {
	num_accepted_cultures = 1
	naval_morale = 0.15
	fabricate_claims_cost = -0.25
}

es_dwemer_icereach = {
	shock_damage = 0.10
	rebel_support_efficiency = 0.5
	possible_condottieri = 1.0
}

es_dwemer_white_haven = {
	global_foreign_trade_power = 0.1
	reserves_organisation = 0.15
	army_tradition = 0.25
}

es_dwemer_daggerfall = {
	infantry_power = 0.10
	interest = -1.5
	discovered_relations_impact = -0.25
}

es_dwemer_forgotten_vale = {
	global_prosperity_growth = 0.1
	innovativeness_gain = 0.15
	prestige = 0.25
}

es_dwemer_orcish_menace = {
	army_tradition_from_battle = 0.25
	loot_amount = 0.75
	available_province_loot = 1.5
}

es_dwemer_hammerfell_subjects = {
	mercenary_discipline = 0.10
	cavalry_power = 0.15
	merc_leader_army_tradition = 0.25
}

es_dwemer_volundrung = {
	land_attrition = -0.25
	army_tradition_decay = -0.015
	hostile_attrition = 1
}

es_dwemer_dominate_hammerfell = {
	trade_range_modifier = 0.25
	trade_company_governing_cost = -0.15
	global_trade_power = 0.1
}

es_dwemer_stross_mkai = {
	privateer_efficiency = 0.25
	light_ship_power = 0.10
	sailors_recovery_speed = 0.15
}

es_dwemer_golden_coast = {
	trade_efficiency = 0.10
	ship_power_propagation = 0.15
	center_of_trade_upgrade_cost = -0.25
}

es_dwemer_navy = {
	prestige_from_naval = 0.35
	navy_tradition_decay = -0.025
	naval_morale = 0.15
}

es_dwemer_colony = {
	trade_company_investment_cost = -0.25
	treasure_fleet_income = 0.15
	global_colonial_growth = 10
}

es_dwemer_metal_production = {
	build_cost = -0.15
	global_regiment_recruit_speed = -0.25
	build_time = -0.35
}

es_dwemer_universities = {
	global_institution_spread = 0.25
	prestige = 0.35
	embracement_cost = -0.50
}

es_dwemer_religion = {
	tolerance_own = 1.5
	global_missionary_strength = 0.025
	enforce_religion_cost = -0.35
}

es_dwemer_purge_orcs = {
	culture_conversion_cost = -0.25
	morale_damage = 0.15
	leader_land_fire = 1
}

###################################################################################################

es_dwemer_mzark = {
	local_manpower_modifier = 0.25
	local_governing_cost = -0.15
	local_hostile_attrition = 1
}

es_dwemer_silversnow = {
	local_defensiveness = 0.25
	local_garrison_size = 0.15
	local_hostile_attrition = 1
}

es_dwemer_gloomreach = {
	local_fort_maintenance_modifier = -0.25
	local_development_cost = -0.15
	local_hostile_attrition = 1
}

es_dwemer_owns_bthar_zel = {
	local_state_maintenance_modifier = -0.10
}

es_dwemer_owns_arkngthamz = {
	local_build_cost = -0.25
	local_defensiveness = 0.15
	local_state_maintenance_modifier = -0.10
}

es_dwemer_owns_raldbthar= {
	local_build_time = -0.25
	local_regiment_cost = -0.15
	local_state_maintenance_modifier = -0.10
}

es_dwemer_owns_mzulft = {
	local_unrest = -2.5
	local_manpower_modifier = 0.15
	local_state_maintenance_modifier = -0.10
}

es_dwemer_aetherium_forge = {
	local_development_cost = -0.25
}
es_dwemer_build_tunnel = {
	local_defender_dice_roll_bonus = 1
}

es_dwemer_earth_forge = {
	local_production_efficiency = 0.25
}

es_dwemer_develop_markarth = {
	local_tax_modifier = 0.25
}

# Snow Elves ######################################################################################

esu_the_worship_of_auri_el = {
	global_heretic_missionary_strength = 0.025
	tolerance_heretic = 3.5
	tolerance_of_heretics_capacity = 5.0
}

esu_the_reign_of_auri_el = {
	monarch_diplomatic_power = 1
	monarch_admin_power = 1
	monarch_military_power = 1
}

esu_auriels_bow_missionary = {
	missionaries = 1
	global_heathen_missionary_strength = 0.015
	missionary_maintenance_cost = -0.25
}

esu_rivalry_with_the_altmer = {
	num_accepted_cultures = 1
	prestige_decay = -0.015
	rival_change_cost = -0.25
}

esu_dominant_mer_race = {
	governing_capacity = 150
	free_policy = 1
	power_projection_from_insults = 0.50
}

esu_welcome_the_brothers = {
	vassal_income = 0.15
	vassal_forcelimit_bonus = 0.10
	diplomatic_annexation_cost = -0.25
}

esu_the_mer_resistance = {
	morale_damage = 0.10
	hostile_attrition = 1.5
	manpower_recovery_speed = 0.25
}

esu_unite_against_the_nords = {
	diplomatic_upkeep = 1
	cavalry_power = 0.15
	defensiveness = 0.25
}

esu_the_reach_must_be_purged = {
	global_missionary_strength = 0.025
	warscore_cost_vs_other_religion = -0.15
	tolerance_own = 1.0
}

esu_big_deal = {
	center_of_trade_upgrade_cost = -0.25
	global_monthly_devastation = -0.1
	production_efficiency = 0.15
}

esu_deal_with_the_furious = {
	artillery_power = 0.10
	reserves_organisation = 0.15
	siege_ability = 0.25
}

esu_battle_of_moesring = {
	morale_damage = 0.15
	possible_condottieri = 1.0
	army_tradition_decay = -0.025
}

esu_dawn_of_tears = {
	infantry_power = 0.15
	fire_damage = 0.10
	shock_damage = 0.05
}

esu_the_eye_of_magnus = {
	all_power_cost = -0.05
}

esu_skyrim_for_the_elves = {
	culture_conversion_cost = -0.25
	culture_conversion_time = -0.35
	global_rebel_suppression_efficiency = 0.50
}

esu_the_end_of_ysgramor = {
	shock_damage_received = -0.15
	land_morale = 0.1
	discipline = 0.05
}

esu_follow_their_roots = {
	naval_morale = 0.15
	global_sailors_modifier = 0.25
	navy_tradition_decay = -0.01
}

esu_their_last_hold = {
	years_of_nationalism = -10
	general_cost = -0.15
	harsh_treatment_cost = 0.25
}

esu_the_end_of_the_nord = {
	administrative_efficiency = 0.1
	stability_cost_modifier = -0.25
	diplomatic_reputation = 1.5
}

esu_snow_elven_military = {
	leader_cost = -0.25
	global_manpower_modifier = 0.15
	global_regiment_cost = -0.10
}

esu_serenarth = {
	assault_fort_ability = 0.25
	core_creation = -0.15
	fire_damage_received = -0.1
}

esu_repel_the_nords = {
	global_unrest = -2.5
	ae_impact = -0.15
	min_autonomy_in_territories = -0.10
}

esu_reconquest_of_solstheim = {
	prestige = 0.25
	leader_land_fire = 1
	global_tax_income = 0.15
}

esu_secure_the_nordic_coast = {
	trade_power_in_fleet_modifier = 0.35
	light_ship_power = 0.15
	ship_power_propagation = 0.25
}

esu_companions = {
	colonists = 1
	range = 0.25
	global_colonial_growth = 15
}

esu_mercenaries_for_elves = {
	mercenary_discipline = 0.05
	mercenary_cost = -0.1
	merc_maintenance_modifier = -0.15
}

esu_mer_trade_in_skyrim = {
	caravan_power = 0.25
	trade_steering = 0.15
	merchants_influence_modifier = 0.10
}

esu_embargo_the_nord = {
	merchants = 1
	embargo_efficiency = 0.25
	global_foreign_trade_power = 0.15
}

esu_dip_for_dwemer = {
	diplomats = 1
	discovered_relations_impact = -0.15
	improve_relation_modifier = 0.25
}

esu_how_turn_tables = {
	adm_tech_cost_modifier = -0.10
	idea_cost = -0.15
	global_institution_spread = 0.25
}

esu_dwemer_adviser_goes_wild = {
	technology_cost = -0.10
	advisor_cost = -0.15
	embracement_cost = -0.25
}

esu_white_palace = {
	global_own_trade_power = 0.10
	dip_advisor_cost = -0.15
	monthly_favor_modifier = 0.25
}

esu_white_river_elves = {
	hostile_disembark_speed = -0.25
	movement_speed = 0.10
	movement_speed_in_fleet_modifier = 0.15
}

esu_nord_aids = {
	trade_efficiency = 0.1
	placed_merchant_power = 15
	mercantilism_cost = -0.25
}

esu_white_quarters = {
	spy_offence = 0.25
	liberty_desire_from_subject_development = -0.10
	global_spy_defence = 0.15
}

esu_the_snow_elve_empire = {
	imperial_authority = 0.15
	yearly_absolutism = 0.15
	max_absolutism = 10
}

###################################################################################################

esu_the_great_chantry_of_auri_el = {
	local_tax_modifier = 0.15
}

esu_the_end_of_heresy_in_skyrim = {
	local_build_time = -0.25
	local_build_cost = -0.15
	local_prosperity_growth = 0.1
}

esu_prosperity = {
	local_development_cost = -0.15
	local_tax_modifier = 0.10
	local_manpower_modifier = 0.25
}

esu_the_nose_of_magnus = {
	local_development_cost = -0.25
	local_unrest = -1.5
	local_production_efficiency = 0.10
}

esu_blood_of_ice = {
	local_development_cost = -0.10
	local_production_efficiency = 0.15
	local_tax_modifier = 0.25
}

esu_bastion_of_the_elves = {
	local_defensiveness = 0.5
	province_trade_power_modifier = 0.25
	local_fort_maintenance_modifier = -0.35
}

esu_the_snow_cedar = {
	local_production_efficiency = 0.25
}

# Balmora #########################################################################################

ashlander_defender_of_veloth = {
    fort_maintenance_modifier = -0.10
    relation_with_same_culture = 15
    defensiveness = 0.25
}

ashlander_improved_infrastructure = {
	development_cost = -0.05
	movement_speed = 0.10
	land_attrition = -0.25
}

ashlander_red_mountain_ores = {
	development_cost_in_primary_culture = -0.10
	production_efficiency = 0.15
	global_regiment_cost = -0.25
}

ashlander_growing_support_priests = {
    tolerance_own = 1.5
    global_missionary_strength = 0.025
    priests_loyalty_modifier = 0.10
}

ashlander_estuary_odai = {
    trade_goods_size = 1.0
	trade_value_modifier = 0.15
	local_defensiveness = 0.25
}

ashlander_odai_plateau = {
	ship_recruit_speed = 0.25
    ship_power_propagation = 0.15
	galley_power = 0.10
}

ashlander_precious_gifts = {
    diplomatic_reputation = 1.5
    improve_relation_modifier = 0.25
    monarch_diplomatic_power = 1
}

ashlander_heathen_islands_fervor = {
    global_heathen_missionary_strength = 0.025
    light_ship_cost = -0.10
    light_ship_power = 0.15
}

ashlander_veloth_piety = {
    global_unrest = -3.5
    establish_order_cost = -0.25
    global_heretic_missionary_strength = 0.05
}

ashlander_jewel_odai = {
    trade_efficiency = 0.10
	global_foreign_trade_power = 0.15
	mercantilism_cost = -0.25
}

ashlander_trade_centers = {
	center_of_trade_upgrade_cost = -0.25
    trade_steering = 0.15
    merchants = 1
}

ashlander_census_excise = {
	global_own_trade_power = 0.10
    global_tax_modifier = 0.15
	build_time = -0.25
}

ashlander_secure_sea_control = {
    naval_morale = 0.15
    max_flagships = 1
	sunk_ship_morale_hit_recieved = -0.25
}

ashlander_wood_fences = {
    global_ship_cost = -0.25
	ship_durability = 0.15
	leader_naval_manuever = 1
}

ashlander_religious_unity = {
    warscore_cost_vs_other_religion = -0.15
    reverse_relation_with_same_religion = 25
    religious_unity = 0.10
}

ashlander_colonization_push = {
    local_development_cost_modifier = -0.15
	colonists = 1
    colonist_placement_chance = 0.05
}

ashlander_efficient_warrior_guilds = {
    stability_cost_modifier = -0.15
    global_rebel_suppression_efficiency = 0.25
    land_morale = 0.10
}

ashlander_swamp_reclaimed = {
    local_build_cost = -0.35
    local_build_time = -0.50
    local_unrest = -2.5
}

ashlander_expedition = {
    free_land_leader_pool = 1
    leader_cost = -0.25
	shock_damage_received = -0.15
}

ashlander_heathen_orders_suppression = {
    harsh_treatment_cost = -0.25
	province_warscore_cost = -0.15
    years_of_nationalism = -10
}

ashlander_dwemer_study = {
    technology_cost = -0.10
    advisor_cost = -0.15
    global_institution_spread = 0.25
}

ashlander_safe_passage_arkngthand = {
    land_maintenance_modifier = -0.10
    army_tradition = 0.25
    reinforce_cost_modifier = -0.15
}

ashlander_moonmoth_fortified = {
    rival_border_fort_maintenance = -0.25
    drill_decay_modifier = -0.15
    morale_damage_received = -0.10
}

ashlander_learn_enemies = {
    fire_damage = 0.15
    discipline = 0.05
    leader_land_fire = 1
}