country_decisions = {
	become_pirates_decision = {
		major = yes
		potential = {
			is_subject = no
			has_dlc = "Golden Century"
			is_emperor = no
			NOT = { government = tribal }
			NOT = { has_reform = pirate_republic_reform }
			NOT = { has_reform = pirate_king_reform }
			NOT = { has_reform = criminal_consortium_reform }
			OR = {
				tag = ABE
				tag = RES
				tag = TPL
				tag = STA
				tag = SED
				tag = KME
				tag = ELZ
				tag = KHE
				tag = KAA
				tag = RAL
				AND = {
					OR = {
						capital_scope = {
							is_island = yes 
						} 
						NOT = { num_of_cities = 10 }
					}
					any_owned_province = {
						has_port = yes 
					} 
				}
		    }
		}
		allow = {
			stability = 3
			navy_size_percentage = 0.9
			home_trade_node = {
				privateer_power = {
					country = ROOT
					share = 10
				}
			}
			is_bankrupt = no
			is_at_war = no
		}
		effect = {
			es_remove_stability_3 = yes
			if = {
				limit = {
					NOT = { government = republic }
				}
				change_government_reform_progress = -99999 country_event = { id = temporarytitle.1 }
			}
			change_government_to_republic = yes
			add_government_reform = pirate_republic_reform
			add_republican_tradition = 50
		}
		ai_will_do = {
			factor = 1
		}
	}
}