namespace = internal_conflicts

# Internal Conflicts
country_event = {
	id = internal_conflicts.1
	title = "EVTNAME3001"
	desc = "EVTDESC3001"
	picture = ES_PLAGUE_eventPicture

	major = yes
	
	is_triggered_only = yes
	
	mean_time_to_happen = {
		days = 1
	}
	
	immediate = {
		hidden_effect = {
			set_country_flag = had_internal_conflicts
		}
		es_remove_stability_3 = yes
		random_owned_province = {
			limit = {
				is_capital = no
				fort_level = 1
			}
			spawn_rebels = {
				type = noble_rebels
				size = 2
				win = yes
			}
		}
		random_owned_province = {
			limit = {
				is_capital = no
			}
			spawn_rebels = {
				type = anti_tax_rebels
				size = 2
				win = yes
			}
		}
	}

	option = {
		name = "EVTOPTA3001" # Dire times are ahead of us
		
	}
}

# Unrest among the peasants
country_event = {
	id = internal_conflicts.4
	title = "EVTNAME3004"
	desc = "EVTDESC3004"
	picture = ES_COMMONERS_ESTATE_eventPicture
	
	trigger = {
		NOT = {	has_country_modifier = 	restrict_serfdom }
		NOT = {	has_country_modifier = 	enforce_serfdom }		
	}
	
	is_triggered_only = yes
	
	mean_time_to_happen = {
		days = 1
	}
	
	option = {
		name = "EVTOPTA3004"			# Restrict serfdom
		random_owned_province = { noble_rebels = 1 }
		if = {
			limit = {
				has_disaster = internal_conflicts
			}
			add_disaster_modifier = {
				name = "restrict_serfdom"
				duration = -1
				disaster = internal_conflicts
			}
		}
	}
	option = {
		name = "EVTOPTB3004"			# Keep the masses in chains
		random_owned_province = { anti_tax_rebels = 1 }
		if = {
			limit = {
				has_disaster = internal_conflicts
			}
			add_disaster_modifier = {
				name = "enforce_serfdom"
				duration = -1
				disaster = internal_conflicts
			}
		}
	}
}

# War exhaustion
country_event = {
	id = internal_conflicts.5
	title = "EVTNAME3005"
	desc = "EVTDESC3005"
	picture = ES_FAMINE_VILLAGE_2
	
	trigger = {
		NOT = {	has_country_modifier = 	decreased_morale }
		war_exhaustion = 5
	}
	
	is_triggered_only = yes
	
	mean_time_to_happen = {
		days = 1
	}
	
	option = {
		name = "EVTOPTA3005"			# There is no immediate solution at hand
		if = {
			limit = {
				has_disaster = internal_conflicts
			}
			add_disaster_modifier = {
				name = "decreased_morale"
				duration = -1
				disaster = internal_conflicts
			}
		}
	}
	
	option = {
		name = "EVTOPTB3005"			# Let their voices be heard
		add_mil_power = -50
		add_yearly_manpower = -1.0
	}
}

# Famine
country_event = {
	id = internal_conflicts.7
	title = "EVTNAME3007"
	desc = "EVTDESC3007"
	picture = ES_FAMINE_VILLAGE
	
	trigger = {
		NOT = {	has_country_modifier = 	alleviate_population }
		NOT = {	has_country_modifier = 	starvation }
	}
	
	is_triggered_only = yes
	
	mean_time_to_happen = {
		days = 1
	}
	
	option = {
		name = "EVTOPTA3007"			# Try to alleviate the suffering
		add_years_of_income = -1.0
		if = {
			limit = {
				has_disaster = internal_conflicts
			}
			add_disaster_modifier = {
				name = "alleviate_population"
				duration = -1
				disaster = internal_conflicts
			}
		}
	}
	option = {
		name = "EVTOPTB3007"			# We are helpless in the face of such a disaster...
		if = {
			limit = {
				has_disaster = internal_conflicts
			}
			add_disaster_modifier = {
				name = "starvation"
				duration = -1
				disaster = internal_conflicts
			}
		}
	}
}

# Stability returns
country_event = {
	id = internal_conflicts.8
	title = "EVTNAME3008"
	desc = "EVTDESC3008"
	picture = ES_THRONE_CROWN_ESTATE_eventPicture
	
	
	is_triggered_only = yes
	
	mean_time_to_happen = {
		days = 1
	}
	major = yes
	
	option = {
		name = "EVTOPTA3008"			# Restore order
		es_add_stability_1 = yes
	}
}
