namespace = es_pirate_factions
namespace = es_republic_factions

# Event Manager

country_event = {
	id = es_republic_factions.100
	title = es_republic_factions.1.t
	desc = es_republic_factions.1.d
	picture = ES_SUNKEN_SHIP_eventPicture
	
	hidden = yes
	is_triggered_only = yes

	immediate = {
		random_list = {
			1 = { country_event = { id = es_pirate_factions.19 } }
			1 = { country_event = { id = es_pirate_factions.18 } }
			1 = { country_event = { id = es_pirate_factions.17 } }
			1 = { country_event = { id = es_pirate_factions.16 } }
			1 = { country_event = { id = es_pirate_factions.15 } }
			1 = { country_event = { id = es_pirate_factions.14 } }
			1 = { country_event = { id = es_pirate_factions.13 } }
			1 = { country_event = { id = es_pirate_factions.12 } }
			1 = { country_event = { id = es_pirate_factions.11 } }
			1 = { country_event = { id = es_pirate_factions.10 } }
			1 = { country_event = { id = es_republic_factions.1 } }
			1 = { country_event = { id = es_republic_factions.2 } }
			1 = { country_event = { id = es_republic_factions.5 } }
			1 = { country_event = { id = es_republic_factions.6 } }
			1 = { country_event = { id = es_republic_factions.8 } }
			1 = { country_event = { id = es_republic_factions.9 } }
			1 = { country_event = { id = es_republic_factions.10 } }
			1 = { country_event = { id = es_republic_factions.11 } }
			1 = { country_event = { id = es_republic_factions.12 } }
			1 = { country_event = { id = es_republic_factions.13 } }
			1 = { country_event = { id = es_republic_factions.14 } }
			1 = { country_event = { id = es_republic_factions.15 } }
			1 = { country_event = { id = es_republic_factions.16 } }
			1 = { country_event = { id = es_republic_factions.17 } }
			1 = { country_event = { id = es_republic_factions.18 } }
			1 = { country_event = { id = es_republic_factions.19 } }
			1 = { country_event = { id = es_republic_factions.20 } }
			73 = { set_country_flag = successful_republic_factions_event }
		}
	}
	
	option = {
		name = es_republic_factions.1.a
	}
	
	after = {
		if = {
			limit = { has_country_flag = successful_republic_factions_event }
			clr_country_flag = successful_republic_factions_event
		}
		else = {
			country_event = {
				id = es_republic_factions.100
				days = 1
			}
		}
	}
}

#######################################################################
# PIRATE FACTIONS EVENTS
#######################################################################

# pirates.10.t:0 "Sunken Treasure"
# pirates.10.d:0 "Rumors abound that the location of a sunken ship with treasures has been discovered. Wrecked by a raging hurricane, the lost vessel is said to have taken some one thousand sailors and millions of [sunken_ship_country.GetAdjective] golden coins to its watery grave.\n\nNow that its purported location is widely know it is sure to attract opportunistic salvagers and perhaps even the [sunken_ship_country.GetAdjective] authorities seeking to recover their wealth."
# pirates.10.a:0 "Arrange an ambush for would-be salvagers."
# pirates.10.b:0 "Lower the diving bell. The gold will be ours!"

country_event = {
	id = es_pirate_factions.10
	title = es_pirate_factions.10.t
	picture = ES_SUNKEN_SHIP_eventPicture
	desc = es_pirate_factions.10.d
	
	is_triggered_only = yes
	
	trigger = {
		OR = {
			has_reform = pirate_republic_reform
			has_reform = pirate_king_reform
			has_reform = criminal_consortium_reform
		}
		any_country = {
			capital_scope = {
				continent = Tamriel
			}
			any_subject_country = {
				exists = yes
			}
		}
	}
	
	immediate = {
		hidden_effect = {
			set_country_flag = successful_republic_factions_event
		}
	}
	
	option = {
		name = es_pirate_factions.10.a
		add_mil_power = 50
		change_mil_faction_influence = { value = 10 }
	}
	
	option = {
		name = es_pirate_factions.10.b
		change_adm_faction_influence = { value = 10 }
		add_yearly_sailors = -5
		random_list = {
			25 = {
				add_years_of_income = 1.5
			}
			75 = {
				add_prestige = -10
			}
		}
	}
}

# The Tyranny of Captain
country_event = {
	id = es_pirate_factions.11
	title = pirates.11.t
	picture = ES_PIRATE_CAPTAIN_eventPicture
	desc = pirates.11.d
	
	is_triggered_only = yes
	
	trigger = {
		OR = {
			has_reform = pirate_republic_reform
			has_reform = pirate_king_reform
			has_reform = criminal_consortium_reform
		}
	}
	
	immediate = {
		hidden_effect = {
			set_saved_name = {
				key = captain_name
				type = advisor
				scope = ROOT
			}
			set_country_flag = successful_republic_factions_event
		}
	}
	
	option = {
		name = pirates.11.a
		es_remove_stability_1 = yes
		change_adm_faction_influence = { value = 10 }
		change_mil_faction_influence = { value = -10 }
	}
	option = {
		name = pirates.11.b
		add_scaled_republican_tradition = -10
		change_mil_faction_influence = { value = 10 }
		change_adm_faction_influence = { value = -10 }
	}
}

# es_pirate_factions.12.t:0 "Division of Plunder"
# es_pirate_factions.12.d:0 "Our latest prize turned out to be carrying a much more valuable cargo than expected. This fact has not yet been revealed to the crews, who would expect and demand that the additional plunder be added to their share. The captains of the involved ships wish sequester the money to refit their ships, while the fence’s representative argues that it is best spent on bribing officials in legitimate ports. As an argument breaks out, a drunken crewman stumbles into the room and hears too much."
# es_pirate_factions.12.a:0 "Divide it evenly amongst the crew."
# es_pirate_factions.12.b:0 "The fence will take their cut."
# es_pirate_factions.12.c:0 "The Captain will receive an extra share."

country_event = {
	id = es_pirate_factions.12
	title = es_pirate_factions.12.t
	picture = PIRATE_DEBATES_eventPicture
	desc = es_pirate_factions.12.d
	
	is_triggered_only = yes
	
	trigger = {
		OR = {
			has_reform = pirate_republic_reform
			has_reform = pirate_king_reform
			has_reform = criminal_consortium_reform
		}
		has_privateers = yes
	}
	
	immediate = {
		hidden_effect = {
			set_country_flag = successful_republic_factions_event
		}
	}
	
	option = {
		name = es_pirate_factions.12.a
		add_adm_power = 50
		change_adm_faction_influence = { value = 10 }
	}
	option = {
		name = es_pirate_factions.12.b
		add_dip_power = 50
		change_dip_faction_influence = { value = 10 }
		change_adm_faction_influence = { value = -5 }
	}
	option = {
		name = es_pirate_factions.12.c
		add_mil_power = 50
		change_mil_faction_influence = { value = 10 }
		change_adm_faction_influence = { value = -5 }
		
	}
}

# Smuggler acquires forged licenses
country_event = {
	id = es_pirate_factions.13
	title = "pirates.13.t"
	picture = PIRATE_DEAL_eventPicture
	desc = "pirates.13.d"
	
	is_triggered_only = yes
	
	trigger = {
		OR = {
			has_reform = pirate_republic_reform
			has_reform = pirate_king_reform
			has_reform = criminal_consortium_reform
		}
	}
	
	immediate = {
		hidden_effect = {
			set_saved_name = {
				key = skilled_forger
				type = advisor
				scope = ROOT
			}
			set_country_flag = successful_republic_factions_event
		}
	}
	
	option = {
		name = "pirates.13.a"
		change_dip_faction_influence = { value = 10 }
		define_advisor = {
			type = esu_merchant
			skill = 3
			cost_multiplier = 0.5
		}
	}
}

# es_pirate_factions.14.t:0 "Privateer Defects"
# es_pirate_factions.14.d:0 "The privateer Captain [Root.defecting_privateer.GetName] has made quite a name for himself in the service of the [privateer_origin_country.GetAdjective] Navy. The payment he has been receiving for his prizes however is much less than the full value of the prizes themselves. Like many savvy privateers, [Root.defecting_privateer.GetName] has realized that he could make a greater profit by turning pirate. As a pirate of [Root.GetName] he will be free to plunder to his heart’s content and keep the spoils he has rightfully stolen."
# es_pirate_factions.14.a:0 "To profit and plunder!"

country_event = {
	id = es_pirate_factions.14
	title = es_pirate_factions.14.t
	picture = ES_PIRATE_CAPTAIN_1_eventPicture
	desc = es_pirate_factions.14.d
	
	is_triggered_only = yes
	
	trigger = {
		OR = {
			has_reform = pirate_republic_reform
			has_reform = pirate_king_reform
			has_reform = criminal_consortium_reform
		}
		any_country = {
			num_of_heavy_ship = 3
			capital_scope = {
				has_discovered = ROOT
			}
		}
	}
	
	immediate = {
		hidden_effect = {
			random_country = {
				limit = {
					num_of_heavy_ship = 3
					capital_scope = {
						has_discovered = ROOT
					}
				}
				save_event_target_as = privateer_origin_country
			}
			set_saved_name = {
				key = defecting_privateer
				type = advisor
				scope = event_target:privateer_origin_country
			}
			set_country_flag = successful_republic_factions_event
		}
	}
	
	option = {
		name = es_pirate_factions.14.a
		change_mil_faction_influence = { value = 10 }
		create_admiral = {
			tradition = 50
			name = defecting_privateer
		}
		capital_scope = {
			heavy_ship = ROOT
		}
		reverse_add_opinion = {
			who = event_target:privateer_origin_country
			modifier = opinion_defected_privateer
		}
	}
}

# Capture of a slaver ship
country_event = {
	id = es_pirate_factions.15
	title = "pirates.15.t"
	picture = SLAVES_ON_SHIP_eventPicture
	desc = "pirates.15.d"
	
	is_triggered_only = yes
	
	trigger = {
		OR = {
			has_reform = pirate_republic_reform
			has_reform = pirate_king_reform
			has_reform = criminal_consortium_reform
		}
	}
	
	immediate = {
		hidden_effect = {
			set_country_flag = successful_republic_factions_event
		}
	}
	
	option = {
		name = "pirates.15.a"
		add_yearly_manpower = 2.5
		add_yearly_sailors = 5.0
		change_adm_faction_influence = { value = 10 }
	}
	option = {
		name = "pirates.15.b"
		add_years_of_income = 1.0
		change_dip_faction_influence = { value = 10 }
		change_adm_faction_influence = { value = -10 }
	}
}

# Careening
country_event = {
	id = es_pirate_factions.16
	title = "pirates.16.t"
	picture = PIRATE_SHIP_BEACH_eventPicture
	desc = "pirates.16.d"
	
	is_triggered_only = yes
	
	trigger = {	
		OR = {
			has_reform = pirate_republic_reform
			has_reform = pirate_king_reform
			has_reform = criminal_consortium_reform
		}
		navy_size = 5
		NOT = { has_country_modifier = thorough_careening }
		NOT = { has_country_modifier = relaxed_careening }
	}
	
	immediate = {
		hidden_effect = {
			set_country_flag = successful_republic_factions_event
		}
	}
	
	option = {
		name = "pirates.16.a"
		change_mil_faction_influence = { value = 10 }
		add_country_modifier = { # ship durability
			name = "thorough_careening"
			duration = 3650
		}
	}
	option = {
		name = "pirates.16.b"
		change_adm_faction_influence = { value = 10 }
		add_country_modifier = { # naval morale
			name = "relaxed_careening"
			duration = 3650
		}
	}
}

# es_pirate_factions.17.t:0 "Smugglers Struggling"
# es_pirate_factions.17.d:0 "Even at the best of times there it is difficult to smuggle contraband into foreign ports. These are most certainly not the best of times. Many of our smugglers are returning to [Root.Capital.GetCapitalName] having had their goods confiscated. Some do not return at all."
# es_pirate_factions.17.a:0 "Unfortunate."

country_event = {
	id = es_pirate_factions.17
	title = es_pirate_factions.17.t
	picture = ES_PIRATE_SMUGGLERS_eventPicture
	desc = es_pirate_factions.17.d
	
	is_triggered_only = yes
	
	trigger = {
		OR = {
			has_reform = pirate_republic_reform
			has_reform = pirate_king_reform
			has_reform = criminal_consortium_reform
		}
		NOT = { has_country_modifier = smugglers_struggling }
	}
	
	immediate = {
		hidden_effect = {
			set_country_flag = successful_republic_factions_event
		}
	}
	
	option = {
		name = es_pirate_factions.17.a
		change_dip_faction_influence = { value = -10 }
		add_country_modifier = {
			name = "smugglers_struggling"
			duration = 3650
		}
	}
}

# Electing a new quartermaster
country_event = {
	id = es_pirate_factions.18
	title = "pirates.18.t"
	picture = ES_PIRATE_CAPTAIN_3_eventPicture
	desc = "pirates.18.d"
	
	is_triggered_only = yes
	
	trigger = {
		OR = {
			has_reform = pirate_republic_reform
			has_reform = pirate_king_reform
			has_reform = criminal_consortium_reform
		}
	}
	
	immediate = {
		hidden_effect = {
			set_saved_name = {
				key = crew_representative
				type = advisor
				scope = ROOT
			}
			set_saved_name = {
				key = captains_puppet
				type = advisor
				scope = ROOT
			}
			set_country_flag = successful_republic_factions_event
		}
	}
	
	option = { # A spokesman for the crew
		name = "pirates.18.a"
		define_advisor = {
			type = esu_officer
			skill = 3
			name = crew_representative
			cost_multiplier = 0.5
		}
		change_adm_faction_influence = { value = 10 }
		change_mil_faction_influence = { value = -10 }
	}
	
	option = { # The captain's puppet
		name = "pirates.18.b"
		define_advisor = {
			type = esu_navarch
			skill = 3
			name = captains_puppet
			cost_multiplier = 0.5
		}
		change_mil_faction_influence = { value = 10 }
		change_adm_faction_influence = { value = -10 }
	}
}

# Crew Blacklisted
country_event = {
	id = es_pirate_factions.19
	title = "pirates.19.t"
	picture = ES_PIRATE_TAVERn_FIGHT_eventPicture
	desc = "pirates.19.d"
	
	is_triggered_only = yes
	
	trigger = {
		OR = {
			has_reform = pirate_republic_reform
			has_reform = pirate_king_reform
			has_reform = criminal_consortium_reform
		}
	}
	
	immediate = {
		hidden_effect = {
			set_country_flag = successful_republic_factions_event
		}
	}
	
	option = {
		name = "pirates.19.a"
		add_country_modifier = {
			name = "blacklisted_crew"
			duration = 3650
		}
		change_dip_faction_influence = { value = 10 }
		change_adm_faction_influence = { value = -10 }
	}
	
	option = {
		name = "pirates.19.b"
		add_prestige = -10
		change_adm_faction_influence = { value = 10 }
		change_dip_faction_influence = { value = -10 }
	}
}

#######################################################################
# Faction Events
#######################################################################

# es_republic_factions.1.t:0 "Guilds Push for Mercantilist Reforms"
# es_republic_factions.1.d:0 "Mercantilist economic theory has become fashionable among influential guild members lately. They are, of course, highly knowledgeable in these matters... and also, coincidentally, likely to benefit from the policies they are backing.\n\nOthers are not as likely to benefit. Powerful traders operating internationally claim that these theories constitute a dead end, and will fight tooth and nail to prevent their adoption. With the support of the guilds, it may be possible, but not without political upheaval."
# es_republic_factions.1.a:0 "We can't afford to explore dead ends."
# es_republic_factions.1.b:0 "Mercantilism is the future, whether traders know it or not."

country_event = {
	id = es_republic_factions.1
	title = es_republic_factions.1.t
	desc = es_republic_factions.1.d
	picture = ES_MAP_GOLD_COMPASS_eventPicture

	is_triggered_only = yes
	
	trigger = {
		NOT = { has_reform = pirate_republic_reform }
		NOT = { has_reform = pirate_king_reform }
		NOT = { has_reform = criminal_consortium_reform }
	}
	
	immediate = {
		hidden_effect = {
			set_country_flag = successful_republic_factions_event
		}
	}

	option = {
		name = "es_republic_factions.1.a"
		
		change_adm_faction_influence = { value = 10 }
		change_dip_faction_influence = { value = -10 }
		add_dip_power = 50
	}

	option = {
		name = "es_republic_factions.1.b"
		change_dip_faction_influence = { value = 10 }
		change_adm_faction_influence = { value = -10 }
		
		add_mercantilism = 1
		add_adm_power = -50
		add_dip_power = -50
	}
}

# es_republic_factions.2.t:0 "Secret Societies in Government"
# es_republic_factions.2.d:0 "The full extent of a party's activity is really only known to members. You have paid little attention to these ideas, considering them paranoid delu-\n\n'[Root.Monarch.GetTitle], our country is in danger! We cannot speak here.'\nA noble drags you to the side and talks in a whispered voice at length of who may or may not be part of secret parties within the government of [Root.GetName]. He names other nobles who are equally concerned... so many, in fact, that his own side seems more like a conspiracy than the ones he accuses. Even so, there is no doubt that the aristocrats of [Root.GetName] feel threatened by these possible secret societies, brought into existence."
# es_republic_factions.2.a:0 "Who cares? Maybe these conspiracies can make politicians agree for once."
# es_republic_factions.2.a.tt:0 "Leave the possible secret guild influences unaddressed for now."
# es_republic_factions.2.b:0 "Fine. Let those known to be loyal investigate this."
 
country_event = {
	id = es_republic_factions.2
	title = es_republic_factions.2.t
	desc = es_republic_factions.2.d
	picture = ES_SECRET_SOCIETY_eventPicture

	is_triggered_only = yes
	
	trigger = {
		NOT = { has_reform = pirate_republic_reform }
		NOT = { has_reform = pirate_king_reform }
		NOT = { has_reform = criminal_consortium_reform }
	}
	
	immediate = {
		hidden_effect = {
			set_country_flag = successful_republic_factions_event
		}
	}

	option = {
		name = es_republic_factions.2.a
		change_adm_faction_influence = { value = 10 }
		change_mil_faction_influence = { value = -10 }
		
		es_add_stability_1 = yes
		add_prestige = -10
		custom_tooltip = "republic_factions.5.a.tt"
		hidden_effect = {
			random_list = {
				30 = { country_event = { id = es_republic_factions.3 days = 730 } }
				20 = { country_event = { id = es_republic_factions.4 days = 1460 } }
				50 = {}
			}
		}
	}

	option = {
		name = es_republic_factions.2.b
		change_mil_faction_influence = { value = 10 }
		change_adm_faction_influence = { value = -10 }
		
		add_prestige = 10
		add_country_modifier = {
			name = "paranoid_recruitment"
			duration = 3650
		}
	}
}

# Guild Before Country
country_event = {
	id = es_republic_factions.3
	title = "republic_factions.6.t"
	desc = "republic_factions.6.d"
	picture = ES_SECRET_SOCIETY_1_eventPicture

	is_triggered_only = yes

	trigger = {
		has_advisor = yes
	}

	option = {
		name = "republic_factions.6.a"
		kill_advisor = random
		add_adm_power = -50
	}

	option = {
		name = "republic_factions.6.b"
		add_adm_power = -100
	}
}

# International Guild Contacts
country_event = {
	id = es_republic_factions.4
	title = "republic_factions.7.t"
	desc = "republic_factions.7.d"
	picture = ES_FOREIGN_GUILD_MEMBER_eventPicture

	is_triggered_only = yes

	option = {
		name = "republic_factions.7.a"
		
		change_dip_faction_influence = { value = 10 }
		change_mil_faction_influence = { value = -10 }
		
		random_list = {
			50 = {
				add_country_modifier = {
					name = "foreign_guild_infiltrated"
					duration = 3650
				}
			}
			50 = {
				add_country_modifier = {
					name = "guilds_compromised"
					duration = 3650
				}
			}
		}
	}

	option = {
		name = "republic_factions.7.b"
		change_mil_faction_influence = { value = 10 }
		change_dip_faction_influence = { value = -10 }
		
		add_country_modifier = {
			name = "suspended_diplomat"
			duration = 3650
		}
	}
}

# es_republic_factions.5.t:0 "Candidates Vie for Opportunities"
# es_republic_factions.5.d:0 "We strive to strike a balance between military interests and tradition. We choose our advisors accordingly. Families who know this try to plan ahead and get their representatives into positions of opportunity before they seek to advise the [Root.Monarch.GetName] directly.\n\nA position offering such opportunities recently opened, and now different parties are pressuring us for it. There can be no pleasing everyone, and someone has to be appointed soon."
# es_republic_factions.5.a:0 "Someone experienced in military matters would be of use."
# es_republic_factions.5.b:0 "Traditions comes first in [Root.GetName]."
 
country_event = {
	id = es_republic_factions.5
	title = es_republic_factions.5.t
	desc = es_republic_factions.5.d
	picture = ES_CANDIDATE_ELECTIONS_eventPicture

	is_triggered_only = yes
	
	trigger = {
		NOT = { has_reform = pirate_republic_reform }
		NOT = { has_reform = pirate_king_reform }
		NOT = { has_reform = criminal_consortium_reform }
	}
	
	immediate = {
		hidden_effect = {
			set_country_flag = successful_republic_factions_event
		}
	}

	option = {
		name = es_republic_factions.5.a
		change_mil_faction_influence = { value = 10 }
		change_adm_faction_influence = { value = -10 }
		
		define_advisor = {
			type = esu_officer
			skill = 3
			discount = yes
		}
		
		add_dip_power = -50
	}

	option = {
		name = es_republic_factions.5.b
		change_adm_faction_influence = { value = 10 }
		change_mil_faction_influence = { value = -10 }
		
		define_advisor = {
			type = esu_merchant
			skill = 3
			discount = yes
		}
		
		add_mil_power = -50
	}
}

# es_republic_factions.6.t:0 "Trade between Rivals"
# es_republic_factions.6.d:0 "We are open to business with everyone... as long as we can control it. What business we can and cannot control is open to debate, and as most question open to debate, it has become subject to it. Merchants have started trading on friendly terms with one of our rivals, claiming it's necessary despite political disagreements. Aristocrats find this questionable and call for an immediate end to the exchanges."
# es_republic_factions.6.a:0 "We can afford to cut ties with these swine."
# es_republic_factions.6.b:0 "We cannot afford to cut ties with these swine."
# es_republic_factions.6.b.tt:0 "[This.GetName] will gain power in one of the nodes we trade in."
 
country_event = {
	id = es_republic_factions.6
	title = es_republic_factions.6.t
	desc = es_republic_factions.6.d
	picture = ES_MAP_PLANNING_eventPicture

	is_triggered_only = yes

	trigger = {
		any_rival_country = {
			NOT = { war_with = ROOT }
			NOT = { trade_embargo_by = ROOT }
		}
		NOT = { has_reform = pirate_republic_reform }
		NOT = { has_reform = pirate_king_reform }
		NOT = { has_reform = criminal_consortium_reform }
	}
	
	immediate = {
		hidden_effect = {
			set_country_flag = successful_republic_factions_event
		}
	}

	option = {
		name = es_republic_factions.6.a
		change_mil_faction_influence = { value = 10 }
		change_dip_faction_influence = { value = -10 }

		add_years_of_income = -0.5
		add_mil_power = 50
	}

	option = {
		name = es_republic_factions.6.b
		change_dip_faction_influence = { value = 10 }
		change_mil_faction_influence = { value = -10 }
		
		random_rival_country = {
			country_event = { id = es_republic_factions.7 days = 7 tooltip = "es_republic_factions.6.b.tt" }
		}
		add_dip_power = 100
	}
}

# [From.GetName] Opens for Trade
country_event = {
	id = es_republic_factions.7
	title = "republic_factions.11.t"
	desc = "republic_factions.11.d"
	picture = ES_MAP_PLANNING_eventPicture

	is_triggered_only = yes

	option = {
		name = "republic_factions.11.a"
		FROM = {
			random_active_trade_node = {
				add_trade_modifier = {
					who = root
					duration = 3650
					power = 25
					key = enemy_allowed_trade
				}
			}
		}
	}
}

# es_republic_factions.8.t:0 "Offer from Guilds"
# es_republic_factions.8.d:0 "The guilds of [Root.GetName] have outmaneuvered their competitors in the political arena, wresting control over the [Root.GetAdjective] government, but their power is far from uncontested. A shift in power now may undo everything the guilds have wisely worked towards. Thus, the guilds want to ensure that this does not happen and they do not lack funds for political donations."
# es_republic_factions.8.a:0 "Do you not think I recognize a bribe when I see one?"
# es_republic_factions.8.b:0 "A donation used to fund public projects seems perfectly innocent."

country_event = {
	id = es_republic_factions.8
	title = es_republic_factions.8.t
	desc = es_republic_factions.8.d
	picture = ES_MERCHANT_GUILD_KHAJIIT_eventPicture

	is_triggered_only = yes

	trigger = {
		OR = {
			faction_in_power = es_monopolists
			faction_in_power = es_traders
			faction_in_power = es_merchants
			faction_in_power = es_guilds
			faction_in_power = es_artisans
		}
	}
	
	immediate = {
		hidden_effect = {
			set_country_flag = successful_republic_factions_event
		}
	}

	option = {
		name = es_republic_factions.8.a
		
		change_dip_faction_influence = { value = -15 }
		
		add_adm_power = 150
	}

	option = {
		name = es_republic_factions.8.b
		add_years_of_income = 1.5
		add_republican_tradition = -10
		add_legitimacy = -10
		add_devotion = -10
		add_meritocracy = -10
		add_horde_unity = -10
	}
}

# es_republic_factions.9.t:0 "Offer from Aristocracy"
# es_republic_factions.9.d:0 "Aristocrats state in a private conversation after a recent political debate that they start to loose ground. They claim, that if we continue to put interests of other groups ahead, we will soon find ourselves ruled by confused minds who will abandon everything, what has brought us to greatness. But aristocracy can again make this nation follow a true way... and, of course, they are willing to bring the wealth for its wise ruler."
# es_republic_factions.9.a:0 "What this country needs least of all is corruption."
# es_republic_factions.9.b:0 "Of course, Traders may rely on our support."

country_event = {
	id = es_republic_factions.9
	title = es_republic_factions.9.t
	desc = es_republic_factions.9.d
	picture = ARISTOCRATIC_OFFER_eventPicture

	is_triggered_only = yes
	
	immediate = {
		hidden_effect = {
			set_country_flag = successful_republic_factions_event
		}
	}

	option = {
		name = es_republic_factions.9.a
		change_adm_faction_influence = { value = -15 }
		
		add_mil_power = 150
	}

	option = {
		name = es_republic_factions.9.b
		add_years_of_income = 1.5
		add_republican_tradition = -10
		add_legitimacy = -10
		add_devotion = -10
		add_meritocracy = -10
		add_horde_unity = -10
	}
}

# es_republic_factions.10.t:0 "Offer from Military"
# es_republic_factions.10.d:0 "In many other nations, generals enjoy much greater power than here, while in [Root.GetName] money is what matters, not rank. Nobles, who are lacking neither, are well aware of this. They also claim, that if [Root.GetName] is to flourish, it needs a strong ruler, supported by the military in restoration of its old glory. The nobility is willing to back such a cause with considerable funds, unless its priveleges are not going to be restricted in the nearest future."
# es_republic_factions.10.a:0 "The [Root.GetName] cannot be bought!"
# es_republic_factions.10.b:0 "Your loyalty is highly appreciated."

country_event = {
	id = es_republic_factions.10
	title = es_republic_factions.10.t
	desc = es_republic_factions.10.d
	picture = ES_GENERAL_PLANNING_eventPicture

	is_triggered_only = yes
	
	immediate = {
		hidden_effect = {
			set_country_flag = successful_republic_factions_event
		}
	}

	option = {
		name = es_republic_factions.10.a
		change_mil_faction_influence = { value = -15 }
		
		add_corruption = -2.5
	}

	option = {
		name = es_republic_factions.10.b
		add_years_of_income = 1.5
		add_republican_tradition = -10
		add_legitimacy = -10
		add_devotion = -10
		add_meritocracy = -10
		add_horde_unity = -10
	}
}

# es_republic_factions.11.t:0 "The Inner Circle"
# es_republic_factions.11.d:0 "You have tried to maintain a relative neutrality as [Root.Monarch.GetTitle] to merchants, especially since they have somewhat fallen out of favor in [Root.GetName]. You are not the member of any guild, nor would it in the current political climate be appropriate for you to be. Yet that situation may change. The most prominent organisation in the country has offered you membership, even promising to maintain secrecy regarding this as long as needed."
# es_republic_factions.11.a:0 "Loyalty can't be sweared to anything but the nation."
# es_republic_factions.11.b:0 "A small secret can be kept."

country_event = {
	id = es_republic_factions.11
	title = es_republic_factions.11.t
	desc = es_republic_factions.11.d
	picture = ES_GUILD_MEETING_eventPicture

	is_triggered_only = yes
	
	immediate = {
		hidden_effect = {
			set_country_flag = successful_republic_factions_event
		}
	}

	option = {
		name = es_republic_factions.11.a
		add_adm_power = -150
	}

	option = {
		name = es_republic_factions.11.b
		add_republican_tradition = -10
		add_legitimacy = -10
		add_devotion = -10
		add_meritocracy = -10
		add_horde_unity = -10
		change_dip_faction_influence = { value = 15 }
	}
}

# es_republic_factions.12.t:0 "A Beneficial Transaction"
# es_republic_factions.12.d:1 "In [Root.GetName], business and politics have been irreversibly intertwined since time immemorial. Sometimes, we may be faced with deals that benefit many parties but not the state itself. For example, a good business agreement can improve relations with key aristocrats - that's something we could certainly use. However, if we want to avoid the alienation of these partners, we will have to sacrifice some of our integrity as a representative of the nation."
# es_republic_factions.12.a:0 "Integrity is worth more in the long run."
# es_republic_factions.12.b:0 "We cannot be expected to go against our own interests for the sake of [Root.GetName]."

country_event = {
	id = es_republic_factions.12
	title = es_republic_factions.12.t
	desc = es_republic_factions.12.d
	picture = ES_COINS_eventPicture

	is_triggered_only = yes

	immediate = {
		hidden_effect = {
			set_country_flag = successful_republic_factions_event
		}
	}

	option = {
		name = es_republic_factions.12.a
		add_dip_power = -150
	}

	option = {
		name = es_republic_factions.12.b
		add_republican_tradition = -10
		add_legitimacy = -10
		add_devotion = -10
		add_meritocracy = -10
		add_horde_unity = -10
		change_adm_faction_influence = { value = 15 }
	}
}

# es_republic_factions.13.t:0 "Thicker Than Water"
# es_republic_factions.13.d:0 "Generals are far from the most powerful faction in our state at this time, but they still use the same methods to ensure loyalty. A recent request for the hand of $MONARCH$'s daughter from a well-known family of hereditary military men is clearly such an attempt. We know that this will force to steer politics closer to line of warmongers and weaken other factions, but refusing will make it even more difficult to compel support for planned military reforms."
# es_republic_factions.13.a:0 "The offer should be declined as politely as possible."
# es_republic_factions.13.b:0 "We need to maintain close ties to this family."

country_event = {
	id = es_republic_factions.13
	title = es_republic_factions.13.t
	desc = es_republic_factions.13.d
	picture = ES_WEDDING_RINGS_eventPicture

	is_triggered_only = yes
	
	immediate = {
		hidden_effect = {
			set_country_flag = successful_republic_factions_event
		}
	}

	option = {
		name = es_republic_factions.13.a
		add_mil_power = -150
	}

	option = {
		name = es_republic_factions.13.b
		add_republican_tradition = -10
		add_legitimacy = -10
		add_devotion = -10
		add_meritocracy = -10
		add_horde_unity = -10
		change_mil_faction_influence = { value = 15 }
	}
}


# es_republic_factions.14.t:0 "Floods"
# es_republic_factions.14.d:0 "The Seasonal rains have hit us unusually hard this year. Rivers burst their banks and flood fields and villages, washing away homes and livestock. In the provinces rumors have begun to circulate that this catastrophe is a sign of the iminent collapse of the [Root.Country.GetName] [Root.GovernmentName]."
# es_republic_factions.14.a:0 "It is our duty to restore what we can."
# es_republic_factions.14.b:0 "We can clearly no longer protect these people."

country_event = {
	id = es_republic_factions.14
	title = "es_republic_factions.14.t"
	desc = "es_republic_factions.14.d"
	picture = ES_RIVER_FLOOD_eventPicture
	
	is_triggered_only = yes
	
	immediate = {
		hidden_effect = {
			set_country_flag = successful_republic_factions_event
		}
	}
	
	option = {
		name = "es_republic_factions.14.a"
		add_years_of_income = -1.0
		change_adm_faction_influence = { value = 10 }
	}
	
	option = {
		name = "es_republic_factions.14.b"
		change_dip_faction_influence = { value = 10 }
		add_legitimacy = -10
		add_republican_tradition = -10
		add_horde_unity = -10
		add_devotion = -10
		add_meritocracy = -10
		add_mandate = -10
	}
}

# es_republic_factions.15.t:0 "Portentous Solar Eclipse"
# es_republic_factions.15.d:0 "The glowing white of the sun disappears behind the black disc suspended in the sky. The world turns to darkness despite it being mid day. A few minutes later the disc has passed by the sun, and light returns. Some people of [Root.Country.GetName] are just shaken by the experience, but others are absolutely terrified. They whisper that the eclipse proves that hard times await the [Root.GovernmentName], and blames it on $MONARCH$."
# es_republic_factions.15.a:0 "Blame the court mage and his experiments!"
# es_republic_factions.15.b:0 "Fools! It's a sign of blessing, not a curse!"
country_event = {
	id = es_republic_factions.15
	title = "es_republic_factions.15.t"
	desc = "es_republic_factions.15.d"
	picture = ES_SOLAR_ECLIPSE_1_eventPicture
	
	is_triggered_only = yes
	
	immediate = {
		hidden_effect = {
			set_country_flag = successful_republic_factions_event
		}
	}
	
	option = {
		name = "es_republic_factions.15.a"
		add_prestige = -10
		change_innovativeness = -5
		change_mil_faction_influence = { value = 10 }
	}
	
	option = {
		name = "es_republic_factions.15.b"
		es_remove_stability_1 = yes
		add_mandate = 10
		change_adm_faction_influence = { value = 10 }
	}
}

# es_republic_factions.16.t:0 "Lacking Authority"
# es_republic_factions.16.d:0 "Unfortunately, the wisdom and delicacy with which $MONARCH$ governs the country is seen as weakness by some of our subjects. More and more often, they question our decisions, challenge our decrees and simply refuse to pay taxes because they think we only spend them on our own needs. If this keeps up, how can we be sure they won't stab us in the back during the next war?"
# es_republic_factions.16.a:0 "Fear will keep them in line!"

country_event = {
	id = es_republic_factions.16
	title = "es_republic_factions.16.t"
	desc = "es_republic_factions.16.d"
	picture = ES_MONARCH_WALKING_eventPicture
	
	trigger = {
		num_of_subjects = 1
	}
	
	is_triggered_only = yes
	
	immediate = {
		hidden_effect = {
			set_country_flag = successful_republic_factions_event
		}
	}
	
	option = {
		name = "es_republic_factions.16.a"
		random_subject_country = {
			add_liberty_desire = 25
		}
		change_mil_faction_influence = { value = 15 }
	}
}

# es_republic_factions.17.t:0 "Plague Strikes The Court"
# es_republic_factions.17.d:0 "Plagues, famines, droughts and calamities are becoming increasingly frequent in $COUNTRY$ these days, and now a particularly nasty disease has arrived at court. Yesterday morning one of our advisors was found dead after having complained of a sore throat the day before. The disease is now spreading throughout the court, and several more are already showing symptoms."
# es_republic_factions.17.a:0 "Flee to a countryside province."
# es_republic_factions.17.b:0 "We shall all remain in the capital."

country_event = {
	id = es_republic_factions.17
	title = "es_republic_factions.17.t"
	desc = "es_republic_factions.17.d"
	picture = ES_PLAGUE_BED_eventPicture

	is_triggered_only = yes
	
	immediate = {
		hidden_effect = {
			set_country_flag = successful_republic_factions_event
		}
		capital_scope = {
			area = {
				limit = { owned_by = ROOT }
				add_province_modifier = {
					name = "severe_plague_local"
					duration = 3650
				}
			}
		}
	}
	
	option = {
		name = "es_republic_factions.17.a"
		add_adm_power = -100
		add_dip_power = -100
		add_mil_power = -100
		change_dip_faction_influence = { value = 15 }
	}
	
	option = {
		name = "es_republic_factions.17.b"
		add_mandate = -20
		add_legitimacy = -20
		add_republican_tradition = -20
		add_horde_unity = -20
		add_meritocracy = -20
		add_devotion = -20
		change_adm_faction_influence = { value = 15 }
	}
}

# es_republic_factions.18.t:0 "Gold Mine Discovered"
# es_republic_factions.18.d:0 "A gold mine has been discovered in one of our provinces by a young the shepherd looking for the lost sheep. Exploiting this new and rich vein could allow us to swim in gold. However, some caution that it could also lead to a depreciation of our coins and an increase in inflation."
# es_republic_factions.18.a:0 "Dig deep and greedily!"
# es_republic_factions.18.b:0 "It's best not to touch this field just yet."

country_event = {
	id = es_republic_factions.18
	title = "es_republic_factions.18.t"
	desc = "es_republic_factions.18.d"
	picture = ES_GOLD_NUGGETS_eventPicture
	
	is_triggered_only = yes
	
	trigger = {
		NOT = { gold = 1 }
		NOT = { ai = yes }
		num_of_cities = 50
		any_owned_province = {
			NOT = { trade_goods = gold }
			NOT = { has_fixed_trade_good = yes }
			has_port = no
		}
	}
	
	immediate = {
		hidden_effect = {
			set_country_flag = successful_republic_factions_event
		}
	}
	
	option = {
		name = "es_republic_factions.18.a"
		random_owned_province = {
			limit = {
				NOT = { trade_goods = gold }
				NOT = { has_fixed_trade_good = yes }
				has_port = no
			}
			change_trade_goods = gold
		}
		change_dip_faction_influence = { value = 10 }
	}
	
	option = {
		name = "es_republic_factions.18.b"
		add_inflation = -10
		change_adm_faction_influence = { value = 10 }
	}
}

# es_republic_factions.19.t:0 "Diplomatic Insults"
# es_republic_factions.19.d:0 "Today the reception of foreign ambassadors to the $COUNTRY_ADJ$ court has caused a diplomatic blunder. Contrary to protocol a foreign diplomat failed to perform the customary bow before our representatives. This major loss of face has quickly developed into a scandal and threatens to hurt our relations with [country_of_interest.GetName] for some time to come. The ambassador is now offering us valuable gifts to forget the affair. But should we accept them after such insolence?"
# es_republic_factions.19.a:0 "Accept the gifts."
# es_republic_factions.19.b:0 "Refuse to deal with their ambassador again."
country_event = {
	id = es_republic_factions.19
	title = "es_republic_factions.19.t"
	desc = "es_republic_factions.19.d"
	picture = ES_CHEST_GOLD_eventPicture
	
	is_triggered_only = yes
	
	trigger = {
		any_known_country = {
			NOT = { is_subject_of = ROOT }
		}
	}
	
	immediate = {
		hidden_effect = {
			set_country_flag = successful_republic_factions_event
			
			random_known_country = {
				limit = {
					NOT = { is_subject_of = ROOT }
				}
				save_event_target_as = country_of_interest
			}
		}
	}
	
	option = {
		name = "es_republic_factions.19.a"
		add_years_of_income = 0.50
		change_dip_faction_influence = { value = 10 }
	}
	option = {
		name = "es_republic_factions.19.b"
		change_mil_faction_influence = { value = 10 }
		event_target:country_of_interest = {
			reverse_add_casus_belli = {
				target = ROOT
				type = cb_insult
				months = 36
			}
		}
	}
}

# es_republic_factions.20.t:0 "History of the [Root.Country.GetName] [Root.GovernmentName]"
# es_republic_factions.20.d:0 "It is clear, that a new age for [Root.Country.GetName] has begun and we will undoubtedly prosper for many years to come. Perhaps the time has come to look back to the past days of the [Root.GovernmentName] and start the compilation of our history. Of course, it will cost a fair bit of money and take much time to be completed, but the benefits might outweigh the costs."
# es_republic_factions.20.a:0 "Time is of the essence!"
# es_republic_factions.20.b:0 "A thorough work for a solid rule."

country_event = {
	id = es_republic_factions.20
	title = "es_republic_factions.20.t"
	desc = "es_republic_factions.20.d"
	picture = ES_HISTRORY_BOOK_eventPicture
	
	is_triggered_only = yes
	
	immediate = {
		hidden_effect = {
			set_country_flag = successful_republic_factions_event
		}
	}
	
	option = {
		name = "es_republic_factions.20.a"
		add_legitimacy = 10
		add_meritocracy = 10
		add_horde_unity = 10
		add_republican_tradition = 10
		add_devotion = 10
		change_mil_faction_influence = { value = 10 }
	}
	
	option = {
		name = "es_republic_factions.20.b"
		add_mandate = 10
		add_prestige = 10
		add_years_of_income = -1.0
		change_mil_faction_influence = { value = -20 }
	}
}
