namespace = es_hre_incident

# 100 cities 
country_event = {
	id = es_hre_incident.1
	title = es_hre_incident.1.t
	desc = es_hre_incident.1.d
	picture = ES_INCIDENT_1

	trigger = {
		has_dlc = "Emperor"
		NOT = { active_imperial_incident = any }
		is_part_of_hre = yes
		num_of_cities = 100
		NOT = { has_country_flag = es_hre_incident_2_flag }
	}
	
	mean_time_to_happen = {
		months = 120
	}
	
	option = {
		name = es_hre_incident.1.a
		set_imperial_incident = incident_es_big_country
		save_global_event_target_as = hre_incident_target
		set_country_flag = es_hre_incident_2_flag
	}
}

country_event = {
	id = es_hre_incident.2
	title = es_hre_incident.2.t
	desc = es_hre_incident.2.d
	picture = ES_INCIDENT_1

	is_triggered_only = yes
	
	option = {
		name = es_hre_incident.2.a
		event_target:hre_incident_target = {
			add_country_modifier = {
				name = "100_cities_1"
				duration = 9125
			}
		}
	}
	
	option = {
		name = es_hre_incident.2.b
		every_country = {
			limit = {
				is_part_of_hre = yes
				is_neighbor_of = event_target:hre_incident_target
			}
			add_country_modifier = {
				name = "100_cities_2"
				duration = 5475
			}
		}
	}
	
	option = {
		name = es_hre_incident.2.c
		every_country = {
			limit = {
				is_part_of_hre = yes
			}
			add_country_modifier = {
				name = "100_cities_3"
				duration = 3650
			}
		}
	}
}

# 100 infantry regiments
country_event = {
	id = es_hre_incident.3
	title = es_hre_incident.3.t
	desc = es_hre_incident.3.d
	picture = ES_INCIDENT_2

	trigger = {
		has_dlc = "Emperor"
		NOT = { active_imperial_incident = any }
		is_part_of_hre = yes
		num_of_infantry = 100
		NOT = { has_country_flag = es_hre_incident_4_flag }
	}
	
	mean_time_to_happen = {
		months = 120
	}
	
	option = {
		name = es_hre_incident.3.a
		set_imperial_incident = incident_es_big_army
		save_global_event_target_as = hre_incident_target
		set_country_flag = es_hre_incident_4_flag
	}
}

country_event = {
	id = es_hre_incident.4
	title = es_hre_incident.4.t
	desc = es_hre_incident.4.d
	picture = ES_INCIDENT_2

	is_triggered_only = yes
	
	option = {
		name = es_hre_incident.4.a
		event_target:hre_incident_target = {
			add_country_modifier = {
				name = "100_army_1"
				duration = 9125
			}
		}
	}
	
	option = {
		name = es_hre_incident.4.b
		every_country = {
			limit = {
				is_part_of_hre = yes
				is_neighbor_of = event_target:hre_incident_target
			}
			add_country_modifier = {
				name = "100_army_2"
				duration = 5475
			}
		}
	}
	
	option = {
		name = es_hre_incident.4.c
		every_country = {
			limit = {
				is_part_of_hre = yes
			}
			add_country_modifier = {
				name = "100_army_3"
				duration = 3650
			}
		}
	}
}

# 100 ships
country_event = {
	id = es_hre_incident.5
	title = es_hre_incident.5.t
	desc = es_hre_incident.5.d
	picture = ES_INCIDENT_3

	trigger = {
		has_dlc = "Emperor"
		NOT = { active_imperial_incident = any }
		is_part_of_hre = yes
		navy_size = 100
		NOT = { has_country_flag = es_hre_incident_6_flag }
	}
	
	mean_time_to_happen = {
		months = 120
	}
	
	option = {
		name = es_hre_incident.5.a
		set_imperial_incident = incident_es_big_fleet
		save_global_event_target_as = hre_incident_target
		set_country_flag = es_hre_incident_6_flag
	}
}

country_event = {
	id = es_hre_incident.6
	title = es_hre_incident.6.t
	desc = es_hre_incident.6.d
	picture = ES_INCIDENT_3

	is_triggered_only = yes
	
	option = {
		name = es_hre_incident.6.a
		event_target:hre_incident_target = {
			add_country_modifier = {
				name = "100_navy_1"
				duration = 9125
			}
		}
	}
	
	option = {
		name = es_hre_incident.6.b
		every_country = {
			limit = {
				is_part_of_hre = yes
				any_owned_province = { has_port = yes }
				NOT = { has_country_flag = es_hre_incident_6_flag } 
			}
			add_country_modifier = {
				name = "100_navy_2"
				duration = 5475
			}
		}
	}
	
	option = {
		name = es_hre_incident.6.c
		every_country = {
			limit = {
				is_part_of_hre = yes
			}
			add_country_modifier = {
				name = "100_navy_3"
				duration = 3650
			}
		}
	}
}

# 5 mercenary companies
country_event = {
	id = es_hre_incident.7
	title = es_hre_incident.7.t
	desc = es_hre_incident.7.d
	picture = ES_INCIDENT_4

	trigger = {
		has_dlc = "Emperor"
		NOT = { active_imperial_incident = any }
		is_part_of_hre = yes
		num_of_hired_mercenary_companies = 3
		NOT = { has_country_flag = es_hre_incident_8_flag }
	}
	
	mean_time_to_happen = {
		months = 120
	}
	
	option = {
		name = es_hre_incident.7.a
		set_imperial_incident = incident_es_many_merc_companies
		save_global_event_target_as = hre_incident_target
		set_country_flag = es_hre_incident_8_flag
	}
}

country_event = {
	id = es_hre_incident.8
	title = es_hre_incident.8.t
	desc = es_hre_incident.8.d
	picture = ES_INCIDENT_4

	is_triggered_only = yes
	
	option = {
		name = es_hre_incident.8.a
		event_target:hre_incident_target = {
			add_country_modifier = {
				name = "5_merc_1"
				duration = 9125
			}
		}
	}
	
	option = {
		name = es_hre_incident.8.b
		every_country = {
			limit = {
				is_part_of_hre = yes
				NOT = { has_country_flag = es_hre_incident_6_flag } 
			}
			add_country_modifier = {
				name = "5_merc_2"
				duration = 5475
			}
		}
	}
	
	option = {
		name = es_hre_incident.8.c
		every_country = {
			limit = {
				is_part_of_hre = yes
			}
			add_country_modifier = {
				name = "5_merc_3"
				duration = 3650
			}
		}
	}
}

### Low Stability
country_event = {
	id = es_hre_incident.9
	title = es_hre_incident.9.t
	desc = es_hre_incident.9.d
	picture = ES_INCIDENT_5

	trigger = {
		has_dlc = "Emperor"
		NOT = { active_imperial_incident = any }
		is_part_of_hre = yes
		NOT = { stability = -2 }
		NOT = { has_country_flag = es_hre_incident_10_flag }
	}
	
	mean_time_to_happen = {
		months = 240
	}
	
	option = {
		name = es_hre_incident.9.a
		ai_chance = { factor = 100 }
		set_imperial_incident = incident_es_low_stability
		save_global_event_target_as = hre_incident_target
		set_country_flag = es_hre_incident_10_flag
	}
	
	option = {
		name = es_hre_incident.9.b
		ai_chance = { factor = 0 }
		add_prestige = 15
		set_country_flag = es_hre_incident_10_flag
	}
}

country_event = {
	id = es_hre_incident.10
	title = es_hre_incident.10.t
	desc = es_hre_incident.10.d
	picture = ES_INCIDENT_5

	is_triggered_only = yes
	
	option = {
		name = es_hre_incident.10.a
		event_target:hre_incident_target = {
			es_add_stability_5 = yes
			add_country_modifier = {
				name = "low_stab_1"
				duration = 9125
			}
		}
	}
	
	option = {
		name = es_hre_incident.10.b
		event_target:hre_incident_target = {
			add_country_modifier = {
				name = "low_stab_2"
				duration = 5475
			}
		}
	}
	
	option = {
		name = es_hre_incident.10.c
		every_country = {
			limit = {
				is_part_of_hre = yes
			}
			add_country_modifier = {
				name = "low_stab_3"
				duration = 3650
			}
		}
	}
}

### Low Legitimacy
country_event = {
	id = es_hre_incident.11
	title = es_hre_incident.11.t
	desc = es_hre_incident.11.d
	picture = ES_INCIDENT_6

	trigger = {
		has_dlc = "Emperor"
		NOT = { active_imperial_incident = any }
		is_part_of_hre = yes
		OR = {
			AND = {
				government = monarchy
				NOT = { legitimacy = 25 }
			}
			AND = {
				government = republic
				NOT = { republican_tradition = 25 }
			}
			AND = {
				government = theocracy
				NOT = { devotion = 25 }
			}
			AND = {
				is_nomad = yes
				NOT = { horde_unity = 25 }
			}
			AND = {
				is_emperor_of_china = yes
				NOT = { meritocracy = 25 }
			}
		}
		NOT = { has_country_flag = es_hre_incident_12_flag }
	}
	
	mean_time_to_happen = {
		months = 240
	}
	
	option = {
		name = es_hre_incident.11.a
		ai_chance = { factor = 100 }
		set_imperial_incident = incident_es_low_legitimacy
		save_global_event_target_as = hre_incident_target
		set_country_flag = es_hre_incident_12_flag
	}
	
	option = {
		name = es_hre_incident.11.b
		ai_chance = { factor = 0 }
		add_prestige = 15
		set_country_flag = es_hre_incident_12_flag
	}
}

country_event = {
	id = es_hre_incident.12
	title = es_hre_incident.12.t
	desc = es_hre_incident.12.d
	picture = ES_INCIDENT_6

	is_triggered_only = yes
	
	option = {
		name = es_hre_incident.12.a
		event_target:hre_incident_target = {
			add_legitimacy = 100
			add_devotion = 100
			add_republican_tradition = 100
			add_horde_unity = 100
			add_meritocracy = 100
			add_country_modifier = {
				name = "low_legit_1"
				duration = 9125
			}
		}
	}
	
	option = {
		name = es_hre_incident.12.b
		event_target:hre_incident_target = {
			country_event = { id = ge_revolution.2 days = 31 tooltip = es_collapse.11.a.tt }
			add_country_modifier = {
				name = "low_legit_2"
				duration = 5475
			}
		}
	}
	
	option = {
		name = es_hre_incident.12.c
		every_country = {
			limit = {
				is_part_of_hre = yes
				is_neighbor_of = event_target:hre_incident_target
			}
			add_country_modifier = {
				name = "low_legit_3"
				duration = 3650
			}
		}
	}
}

### High Liberty Desire
country_event = {
	id = es_hre_incident.13
	title = es_hre_incident.13.t
	desc = es_hre_incident.13.d
	picture = ES_INCIDENT_7

	trigger = {
		has_dlc = "Emperor"
		NOT = { active_imperial_incident = any }
		is_part_of_hre = yes
		liberty_desire = 100
		NOT = { has_country_flag = es_hre_incident_14_flag }
	}
	
	mean_time_to_happen = {
		months = 240
	}
	
	option = {
		name = es_hre_incident.13.a
		ai_chance = { factor = 100 }
		set_imperial_incident = incident_es_high_liberty_desire
		save_global_event_target_as = hre_incident_target
		set_country_flag = es_hre_incident_14_flag
	}
	
	option = {
		name = es_hre_incident.13.b
		ai_chance = { factor = 0 }
		add_prestige = 15
		set_country_flag = es_hre_incident_14_flag
	}
}

country_event = {
	id = es_hre_incident.14
	title = es_hre_incident.14.t
	desc = es_hre_incident.14.d
	picture = ES_INCIDENT_7

	is_triggered_only = yes
	
	option = {
		name = es_hre_incident.14.a
		event_target:hre_incident_target = {
			overlord = {
				PREV = {
					grant_independence = yes
				}
			}
				grant_independence = yes
				add_country_modifier = {
					name = "high_liberty_1"
					duration = 9125
				}
			}
	}
	
	option = {
		name = es_hre_incident.14.b
			random_country = {
				limit = { overlord_of = event_target:hre_incident_target }
				add_country_modifier = {
					name = "high_liberty_2"
					duration = 5475
				}
			}
	}
	
	option = {
		name = es_hre_incident.14.c
		every_country = {
			limit = {
				is_part_of_hre = yes
				is_neighbor_of = event_target:hre_incident_target
				NOT = { overlord_of = event_target:hre_incident_target }
			}
			add_country_modifier = {
				name = "high_liberty_3"
				duration = 3650
			}
		}
	}
}

### Low religious Unity
country_event = {
	id = es_hre_incident.15
	title = es_hre_incident.15.t
	desc = es_hre_incident.15.d
	picture = ES_INCIDENT_8

	trigger = {
		has_dlc = "Emperor"
		NOT = { active_imperial_incident = any }
		is_part_of_hre = yes
		NOT = { religious_unity = 0.25 }
		NOT = { has_country_flag = es_hre_incident_16_flag }
	}
	
	mean_time_to_happen = {
		months = 240
	}
	
	option = {
		name = es_hre_incident.15.a
		ai_chance = { factor = 100 }
		set_imperial_incident = incident_es_low_religious_unity
		save_global_event_target_as = hre_incident_target
		set_country_flag = es_hre_incident_16_flag
	}
	
	option = {
		name = es_hre_incident.15.b
		ai_chance = { factor = 0 }
		add_prestige = 15
		set_country_flag = es_hre_incident_16_flag
	}
}

country_event = {
	id = es_hre_incident.16
	title = es_hre_incident.16.t
	desc = es_hre_incident.16.d
	picture = ES_INCIDENT_8

	is_triggered_only = yes
	
	option = {
		name = es_hre_incident.16.a
		event_target:hre_incident_target = {
			add_country_modifier = {
				name = "low_rel_unity_1"
				duration = 9125
			}
		}
	}
	
	option = {
		name = es_hre_incident.16.b
		event_target:hre_incident_target = {
			add_country_modifier = {
				name = "low_rel_unity_2"
				duration = 5475
			}
		}
	}
	
	option = {
		name = es_hre_incident.16.c
		every_country = {
			limit = {
				is_part_of_hre = yes
				is_neighbor_of = event_target:hre_incident_target
			}
			add_country_modifier = {
				name = "low_rel_unity_3"
				duration = 3650
			}
		}
	}
}

#### Subject not in HRE
country_event = {
	id = es_hre_incident.17
	title = es_hre_incident.17.t
	desc = es_hre_incident.17.d
	picture = ES_INCIDENT_9

	trigger = {
		has_dlc = "Emperor"
		NOT = { active_imperial_incident = any }
		is_part_of_hre = no
		overlord = { is_part_of_hre = yes }
		NOT = { has_country_flag = es_hre_incident_18_flag }
		NOT = { government = native }
		NOT = { is_free_or_tributary_trigger = yes }
	}
	
	mean_time_to_happen = {
		months = 480
	}
	
	option = {
		name = es_hre_incident.17.a
		ai_chance = { factor = 100 }
		set_imperial_incident = incident_es_subject_not_in_hre
		save_global_event_target_as = hre_incident_target
		set_country_flag = es_hre_incident_18_flag
		es_add_stability_1 = yes
	}
	
}

country_event = {
	id = es_hre_incident.18
	title = es_hre_incident.18.t
	desc = es_hre_incident.18.d
	picture = ES_INCIDENT_9

	is_triggered_only = yes
	
	option = {
		name = es_hre_incident.18.a
		event_target:hre_incident_target = {
			every_owned_province = {
				limit = {
					is_part_of_hre = no
					NOT = { owner = { government = native } }
				}
				set_in_empire = yes
			}
			add_country_modifier = {
				name = "subject_not_in_hre_1"
				duration = 9125
			}
		}
	}
	
	option = {
		name = es_hre_incident.18.b
		every_country = {
			limit = {
				is_part_of_hre = yes
				is_neighbor_of = event_target:hre_incident_target
			}
			add_country_modifier = {
				name = "subject_not_in_hre_2"
				duration = 5475
			}
		}
	}
	
	option = {
		name = es_hre_incident.18.c
		every_country = {
			limit = {
				is_part_of_hre = yes
				overlord_of = event_target:hre_incident_target
			}
			add_country_modifier = {
				name = "subject_not_in_hre_3"
				duration = 3650
			}
		}
	}
}

### New Trade_cmpany
country_event = {
	id = es_hre_incident.19
	title = es_hre_incident.19.t
	desc = es_hre_incident.19.d
	picture = ES_INCIDENT_10

	trigger = {
		has_dlc = "Emperor"
		NOT = { active_imperial_incident = any }
		is_part_of_hre = yes
		num_of_strong_trade_companies = 1
		NOT = { has_country_flag = es_hre_incident_20_flag }
	}
	
	mean_time_to_happen = {
		months = 480
	}
	
	option = {
		name = es_hre_incident.19.a
		ai_chance = { factor = 100 }
		set_imperial_incident = incident_es_new_trade_company
		save_global_event_target_as = hre_incident_target
		set_country_flag = es_hre_incident_20_flag
		add_years_of_income = 1.0
	}
	
}

country_event = {
	id = es_hre_incident.20
	title = es_hre_incident.20.t
	desc = es_hre_incident.20.d
	picture = ES_INCIDENT_10

	is_triggered_only = yes
	
	option = {
		name = es_hre_incident.20.a
		event_target:hre_incident_target = {
			add_country_modifier = {
				name = "new_trade_com_1"
				duration = 9125
			}
		}
	}
	
	option = {
		name = es_hre_incident.20.b
		every_country = {
			limit = {
				is_part_of_hre = yes
				NOT = { has_country_flag = es_hre_incident_20_flag }
			}
			add_country_modifier = {
				name = "new_trade_com_2"
				duration = 5475
			}
		}
	}
	
	option = {
		name = es_hre_incident.20.c
		emperor = {
			add_country_modifier = {
				name = "new_trade_com_3"
				duration = 3650
			}
			add_imperial_influence = -15
		}
		event_target:hre_incident_target = {
			every_owned_province = {
				limit = {
					is_part_of_hre = no
					is_owned_by_trade_company = yes
				}
				set_in_empire = yes
			}
		}
	}
}

### Tribal Border
country_event = {
	id = es_hre_incident.21
	title = es_hre_incident.21.t
	desc = es_hre_incident.21.d
	picture = ES_INCIDENT_11

	trigger = {
		has_dlc = "Emperor"
		NOT = { active_imperial_incident = any }
		is_part_of_hre = yes
		any_neighbor_country = {
			government = tribal
		}
		NOT = { has_country_flag = es_hre_incident_22_flag }
	}
	
	mean_time_to_happen = {
		months = 480
	}
	
	option = {
		name = es_hre_incident.21.a
		ai_chance = { factor = 100 }
		set_imperial_incident = incident_es_border_tribal_nation
		save_global_event_target_as = hre_incident_target
		set_country_flag = es_hre_incident_22_flag
		add_yearly_manpower = 1.0
	}
	
}

country_event = {
	id = es_hre_incident.22
	title = es_hre_incident.22.t
	desc = es_hre_incident.22.d
	picture = ES_INCIDENT_11

	is_triggered_only = yes
	
	option = {
		name = es_hre_incident.22.a
		event_target:hre_incident_target = {
			add_country_modifier = {
				name = "tribal_border_1"
				duration = 9125
			}
			add_years_of_income = -0.5
		}
	}
	
	option = {
		name = es_hre_incident.22.b
		event_target:hre_incident_target = {
			add_country_modifier = {
				name = "tribal_border_2"
				duration = 5475
			}
			add_years_of_income = -1.0
		}
	}
	
	option = {
		name = es_hre_incident.22.c
		event_target:hre_incident_target = {
			add_country_modifier = {
				name = "tribal_border_3"
				duration = 3650
			}
			add_years_of_income = -1.5
			random_owned_province = {
				limit = {
					any_neighbor_province = {
						owner = {
							government = tribal
						}
					}
					NOT = { has_building = fort_15th }
					NOT = { has_building = fort_16th }
					NOT = { has_building = fort_17th }
					NOT = { has_building = fort_18th }
				}
				add_building = fort_15th
			}
			random_owned_province = {
				limit = {
					any_neighbor_province = {
						owner = {
							government = tribal
						}
					}
					NOT = { has_building = fort_15th }
					NOT = { has_building = fort_16th }
					NOT = { has_building = fort_17th }
					NOT = { has_building = fort_18th }
				}
				add_building = fort_15th
			}
			random_owned_province = {
				limit = {
					any_neighbor_province = {
						owner = {
							government = tribal
						}
					}
					NOT = { has_building = fort_15th }
					NOT = { has_building = fort_16th }
					NOT = { has_building = fort_17th }
					NOT = { has_building = fort_18th }
				}
				add_building = fort_15th
			}
		}
	}
}

### Too many Subjects
country_event = {
	id = es_hre_incident.23
	title = es_hre_incident.23.t
	desc = es_hre_incident.23.d
	picture = ES_INCIDENT_12

	trigger = {
		has_dlc = "Emperor"
		NOT = { active_imperial_incident = any }
		is_part_of_hre = yes
		num_of_subjects = 10
		NOT = { has_country_flag = es_hre_incident_22_flag }
	}
	
	mean_time_to_happen = {
		months = 480
	}
	
	option = {
		name = es_hre_incident.23.a
		ai_chance = { factor = 100 }
		set_imperial_incident = incident_es_too_many_subjects
		save_global_event_target_as = hre_incident_target
		set_country_flag = es_hre_incident_24_flag
		add_prestige = 10
	}
	
}

country_event = {
	id = es_hre_incident.24
	title = es_hre_incident.24.t
	desc = es_hre_incident.24.d
	picture = ES_INCIDENT_12

	is_triggered_only = yes
	
	option = {
		name = es_hre_incident.24.a
		event_target:hre_incident_target = {
			add_country_modifier = {
				name = "too_many_subjects_1"
				duration = 9125
			}
		}
	}
	
	option = {
		name = es_hre_incident.24.b
		every_country = {
			limit = {
				is_part_of_hre = yes
			}
			add_country_modifier = {
				name = "too_many_subjects_2"
				duration = 5475
			}
		}
	}
	
	option = {
		name = es_hre_incident.24.c
		emperor = {
			add_country_modifier = {
				name = "too_many_subjects_3"
				duration = 3650
			}
			add_prestige = -15
		}
	}
}