graphical_culture = africangfx

color = { 0 35 0 }

revolutionary_colors = { 10 15 2}


historical_idea_groups = {
}

historical_units = {
}

monarch_names = {
    "Abijoo-Anoo #0" = 10
    "Ah-Ra #0" = 10
    "Ah-Shehs #0" = 10
    "Ahaht-Ei #0" = 10
    "Ahaht-Kilaya #0" = 10
    "Ahaht-Naat #0" = 10
    "Ahkur #0" = 10
    "Ahtalg #0" = 10
    "Ajim-Jaa #0" = 10
    "Ajim-Meeus #0" = 10
    "Ajum-Jekka #0" = 10
    "Aki-Osheeja #0" = 10
    "Alan-Tei #0" = 10
    "Aliskeeh #0" = 10
    "Am-Sakka #0" = 10
    "An-Jeen-Sakka #0" = 10
    "An-Jeen-Seek #0" = 10
    "An-Taeed #0" = 10
    "Anash #0" = 10
    "Anooz-Izt #0" = 10
    "Anooz-Lar #0" = 10
    "Aojee-Da #0" = 10
    "Aojee-Ei #0" = 10
    "Aojee-Mota #0" = 10
    "Aomee-Shehs #0" = 10
    "Argar #0" = 10
    "Aseepa #0" = 10
    "Asheeus #0" = 10
    "Ashgar #0" = 10
    "Atl-Xulith #0" = 10
    "Az-Maxath #0" = 10
    "Az-Muz #0" = 10
    "Azbai-Meenus #0" = 10
    "Azeenus #0" = 10
    "Azeex-Eix #0" = 10
    "Azinar #0" = 10
    "Azjai-Tee #0" = 10
    "Azri #0" = 10
    "Bahrei #0" = 10
    "Bahtei #0" = 10
    "Balahkath #0" = 10
    "Banka #0" = 10
    "Bar-Goh #0" = 10
    "Bar-Neeus #0" = 10
    "Barnaxi #0" = 10
    "Batar-Meej #0" = 10
    "Batuus #0" = 10
    "Baxilt-Gah #0" = 10
    "Beeheisei #0" = 10
    "Beek-Kajin #0" = 10
    "Beek-Metaku #0" = 10
    "Beenalz #0" = 10
    "Benas #0" = 10
    "Beshnus #0" = 10
    "Bewlus #0" = 10
    "Bezeer #0" = 10
    "Bijot #0" = 10
    "Bijum-Eeto #0" = 10
    "Bijum-Ta #0" = 10
    "Bimee-Kas #0" = 10
    "Bosekus #0" = 10
    "Brand-Ra #0" = 10
    "Bun-Maxath #0" = 10
    "Bunishyeeth #0" = 10
    "Bur-Tee #0" = 10
    "Bur-Waska #0" = 10
    "Buujhan #0" = 10
    "Buxutheeus #0" = 10
    "Chakuk #0" = 10
    "Chal-Jah #0" = 10
    "Chal-Maht #0" = 10
    "Chaleed-Wan #0" = 10
    "Chalish #0" = 10
    "Chanka #0" = 10
    "Chatapnaza #0" = 10
    "Chath-Jaa #0" = 10
    "Chee-Jah #0" = 10
    "Chee-Sakka #0" = 10
    "Chee-Sei #0" = 10
    "Cheedal-Gah #0" = 10
    "Cheedal-Jeen #0" = 10
    "Cheesh-Nassa #0" = 10
    "Chilwir #0" = 10
    "Chitakus #0" = 10
    "Cholzei #0" = 10
    "Chosumeel #0" = 10
    "Choxusha #0" = 10
    "Chukka-Jekka #0" = 10
    "Chuxu #0" = 10
    "Chuzu #0" = 10
    "Claurth #0" = 10
    "Dakee-Goh #0" = 10
    "Dakee-Jat #0" = 10
    "Dakee-Mota #0" = 10
    "Dal-Eekwa #0" = 10
    "Dar-Jasa #0" = 10
    "Darasken #0" = 10
    "Dashnu #0" = 10
    "Debameel #0" = 10
    "Deed-Mema #0" = 10
    "Deed-Tei #0" = 10
    "Deegeeta #0" = 10
    "Deeheesotl #0" = 10
    "Deejeeta #0" = 10
    "Deekonus #0" = 10
    "Deekum #0" = 10
    "Deer-Xol #0" = 10
    "Deerlus #0" = 10
    "Deesh-Mota #0" = 10
    "Deet-Zeeus #0" = 10
    "Deetum-Gih #0" = 10
    "Deetum-Jah #0" = 10
    "Demeepa #0" = 10
    "Depasa-Chath #0" = 10
    "Derkeehez #0" = 10
    "Deroh-Metaku #0" = 10
    "Deroh-Zah #0" = 10
    "Desh-Taa #0" = 10
    "Dezanu #0" = 10
    "Dosu-Larash #0" = 10
    "Dosu-Muz #0" = 10
    "Dowoseez #0" = 10
    "Dozaeek #0" = 10
    "Drakaws #0" = 10
    "Dramukkath #0" = 10
    "Dreevureesh #0" = 10
    "Dritan #0" = 10
    "Drumarz #0" = 10
    "Druseesh #0" = 10
    "Druxith #0" = 10
    "Duk-Marza #0" = 10
    "Dunaxith #0" = 10
    "Effe-Lar #0" = 10
    "Ei-Ei #0" = 10
    "Ei-Eiuus #0" = 10
    "Ei-Etaku #0" = 10
    "Eleedal-Kia #0" = 10
    "Eleedal-Lai #0" = 10
    "Eoki #0" = 10
    "Er-Jaseen #0" = 10
    "Ereel-Dum #0" = 10
    "Ereel-Sa #0" = 10
    "Esqoo #0" = 10
    "Etsabeeh #0" = 10
    "Gah-Dum #0" = 10
    "Gam-Kur #0" = 10
    "Gatulm #0" = 10
    "Geeh-Lurz #0" = 10
    "Geel-Gei #0" = 10
    "Geel-Ma #0" = 10
    "Ghelos #0" = 10
    "Ghesee #0" = 10
    "Gilustulm #0" = 10
    "Gir-Ta #0" = 10
    "Gjomee-Loh #0" = 10
    "Gom-Tulm #0" = 10
    "Grish #0" = 10
    "Guleesh #0" = 10
    "Gulum-La #0" = 10
    "Haj-Meht #0" = 10
    "Haj-Ru #0" = 10
    "Hal-Nei #0" = 10
    "Halish #0" = 10
    "Hareeya #0" = 10
    "Haxal #0" = 10
    "Heek-Dimik #0" = 10
    "Heem-Weska #0" = 10
    "Heetzasi #0" = 10
    "Heir-Marza #0" = 10
    "Hikathus #0" = 10
    "Hixeeh-Raj #0" = 10
    "Hjorn #0" = 10
    "Hleezeireeus #0" = 10
    "Honan #0" = 10
    "Iggistill #0" = 10
    "Ilus #0" = 10
    "Im-Kajin #0" = 10
    "Im-Nei #0" = 10
    "Im-Zish #0" = 10
    "Iokkas #0" = 10
    "Iskenaaz #0" = 10
    "J'ram-Hei #0" = 10
    "J'ram-Jeen #0" = 10
    "Ja-Reet #0" = 10
    "Jaraleet #0" = 10
    "Jaree-Eeto #0" = 10
    "Jee-Lar #0" = 10
    "Jee-Tan #0" = 10
    "Jee-Tul #0" = 10
    "Jeeba-Eius #0" = 10
    "Jeela #0" = 10
    "Jeelus #0" = 10
    "Jeer-Tei #0" = 10
    "Jeetum-Hei #0" = 10
    "Jeetum-Tulm #0" = 10
    "Jesh-Minko #0" = 10
    "Jilux #0" = 10
    "Jin-Ei #0" = 10
    "Jotep-Liurz #0" = 10
    "Juut #0" = 10
    "Kal-Eeto #0" = 10
    "Kalanu #0" = 10
    "Kamatpa #0" = 10
    "Kamax-Ei #0" = 10
    "Kankeeus #0" = 10
    "Kasa-Jas #0" = 10
    "Kaxutl #0" = 10
    "Keeko #0" = 10
    "Keel-Medul #0" = 10
    "Keema-Ja #0" = 10
    "Keema-Ru #0" = 10
    "Keema-Ta #0" = 10
    "Keemeen #0" = 10
    "Keenem #0" = 10
    "Keerasa-Lan #0" = 10
    "Keesekeeth #0" = 10
    "Keesu #0" = 10
    "Kepanuu #0" = 10
    "Kiameed #0" = 10
    "Kizta-Lee #0" = 10
    "Klankaatu #0" = 10
    "Klor #0" = 10
    "Kloxu #0" = 10
    "Kluleesh #0" = 10
    "Klutsaan #0" = 10
    "Krona #0" = 10
    "Kud-Lan #0" = 10
    "Kudleez #0" = 10
    "Lara-Eix #0" = 10
    "Loh-Jat #0" = 10
    "Lohupeel #0" = 10
    "Losum #0" = 10
    "Lotaeel #0" = 10
    "Lotash #0" = 10
    "Luh-Maxath #0" = 10
    "Luteema #0" = 10
    "Maahi #0" = 10
    "Mach-Loh #0" = 10
    "Mach-Taeed #0" = 10
    "Maheelius #0" = 10
    "Mahei-Muz #0" = 10
    "Mahei-Tei #0" = 10
    "Makadel #0" = 10
    "Maneeshik #0" = 10
    "Markka #0" = 10
    "Marz-Ja #0" = 10
    "Mathei #0" = 10
    "Meejapa #0" = 10
    "Meema-Zaw #0" = 10
    "Meenjee #0" = 10
    "Meenosh #0" = 10
    "Meensuda #0" = 10
    "Meer-Mesei #0" = 10
    "Meewulm #0" = 10
    "Miharil #0" = 10
    "Mikeesh #0" = 10
    "Miun-Eidu #0" = 10
    "Mobareed #0" = 10
    "Mohimeem #0" = 10
    "Mopakuz #0" = 10
    "Motuu #0" = 10
    "Mujeen #0" = 10
    "Muranatepa #0" = 10
    "Mush-Jekka #0" = 10
    "Mush-Shei #0" = 10
    "Muz-Shah #0" = 10
    "Nam-Shah #0" = 10
    "Napetui #0" = 10
    "Naska #0" = 10
    "Naxaltan #0" = 10
    "Nazuux #0" = 10
    "Nebutil #0" = 10
    "Neelo #0" = 10
    "Neeluka #0" = 10
    "Neeti-Nur #0" = 10
    "Neetzara #0" = 10
    "Neexi #0" = 10
    "Nema-Pachat #0" = 10
    "Neposh #0" = 10
    "Nesh-Deeka #0" = 10
    "Netapatuu #0" = 10
    "Nexith #0" = 10
    "Nodeeus #0" = 10
    "Nomu #0" = 10
    "Nosaleeth #0" = 10
    "Notei #0" = 10
    "Nowajan #0" = 10
    "Nowajeem #0" = 10
    "Noyei-Heem #0" = 10
    "Nuduxith #0" = 10
    "Nulaz-Eidu #0" = 10
    "Nuleez #0" = 10
    "Nurhei #0" = 10
    "Obaxith #0" = 10
    "Odeel-Shehs #0" = 10
    "Ojei #0" = 10
    "Okalg #0" = 10
    "Okan-Jeen #0" = 10
    "Okan-Julan #0" = 10
    "Okan-Sakka #0" = 10
    "Okaw-Dar #0" = 10
    "Okaw-Neeus #0" = 10
    "Okeeh #0" = 10
    "Oleed-Tah #0" = 10
    "Oleen-Jei #0" = 10
    "Oleen-Tul #0" = 10
    "Olik-Jah #0" = 10
    "Onuja #0" = 10
    "Onurai-Betu #0" = 10
    "Opatieel #0" = 10
    "Otumi-Lar #0" = 10
    "Owai-Leem #0" = 10
    "Pacheeva #0" = 10
    "Pacheevutar #0" = 10
    "Pad-Julan #0" = 10
    "Paduxi #0" = 10
    "Parash #0" = 10
    "Paraxeeh #0" = 10
    "Paxalt #0" = 10
    "Peek-Shah #0" = 10
    "Peek-Tul #0" = 10
    "Peesha #0" = 10
    "Peexalt #0" = 10
    "Pejureel #0" = 10
    "Pekai-Jee #0" = 10
    "Petaxai #0" = 10
    "Pideelus #0" = 10
    "Pimaxi-Loh #0" = 10
    "Pimaxi-Taeed #0" = 10
    "Pimaxi-Zeeus #0" = 10
    "Pimsy #0" = 10
    "Pojeel #0" = 10
    "Powaj #0" = 10
    "Powostulm #0" = 10
    "Radeelan #0" = 10
    "Radithax #0" = 10
    "Rahu-Teemeeta #0" = 10
    "Rareel #0" = 10
    "Rarez #0" = 10
    "Ratulmdutsei #0" = 10
    "Redieeus #0" = 10
    "Ree-Kia #0" = 10
    "Reeesh #0" = 10
    "Reekeesh #0" = 10
    "Reekisk #0" = 10
    "Reezal-Jul #0" = 10
    "Resari #0" = 10
    "Rezei #0" = 10
    "Rultkath #0" = 10
    "Rupah #0" = 10
    "Rushmeek #0" = 10
    "Ruxol #0" = 10
    "Sakeeus #0" = 10
    "Sar-Keer #0" = 10
    "Seed-Maht #0" = 10
    "Seemarz #0" = 10
    "Sejaijilax #0" = 10
    "Shadutsei #0" = 10
    "Shakiis #0" = 10
    "Shanil-Nei #0" = 10
    "Sheer-Hahtsei #0" = 10
    "Sheer-Saak #0" = 10
    "Shuvu #0" = 10
    "Sinanis #0" = 10
    "Skalasha #0" = 10
    "Skasei #0" = 10
    "Skeehei #0" = 10
    "Skeewul #0" = 10
    "Sureeus #0" = 10
    "Tah-Tehat #0" = 10
    "Taleel-Bex #0" = 10
    "Tan-Skee #0" = 10
    "Tanaka #0" = 10
    "Tar-Makka #0" = 10
    "Tar-Meeus #0" = 10
    "Tee-Marza #0" = 10
    "Teeka #0" = 10
    "Teelawei #0" = 10
    "Teineeja #0" = 10
    "Terezeeus #0" = 10
    "Tikaasi #0" = 10
    "Tikkus #0" = 10
    "Tlixilja #0" = 10
    "Tlosee #0" = 10
    "Topeeth-Gih #0" = 10
    "Topeth #0" = 10
    "Topith-Kuz #0" = 10
    "Tsatheitepa #0" = 10
    "Tsatva-Lan #0" = 10
    "Tsilmtulm #0" = 10
    "Tsixotl #0" = 10
    "Tsoglaez #0" = 10
    "Tsoxolza #0" = 10
    "Tsurei #0" = 10
    "Tulalurash #0" = 10
    "Tumma-Beekus #0" = 10
    "Tunbam-Kahz #0" = 10
    "Tuxo #0" = 10
    "Uaxal #0" = 10
    "Ukaspa #0" = 10
    "Ukatsei #0" = 10
    "Ukka-Dimik #0" = 10
    "Ukka-Malz #0" = 10
    "Ulawa #0" = 10
    "Uralgnaza #0" = 10
    "Uraz #0" = 10
    "Ushmeek #0" = 10
    "Uta-Chuna #0" = 10
    "Uta-Ra #0" = 10
    "Utadeek #0" = 10
    "Utamukeeus #0" = 10
    "Utatul #0" = 10
    "Uxith-Ei #0" = 10
    "Uzeialus #0" = 10
    "Vaeshna #0" = 10
    "Vara-Zeen #0" = 10
    "Veekas #0" = 10
    "Veelisheeh #0" = 10
    "Veenaza #0" = 10
    "Veexalt #0" = 10
    "Vetra-Zaw #0" = 10
    "Vintheel #0" = 10
    "Visskar #0" = 10
    "Vistha-Jush #0" = 10
    "Vohta-Lan #0" = 10
    "Voneesh #0" = 10
    "Vornan #0" = 10
    "Vozei #0" = 10
    "Vudeelal #0" = 10
    "Vuh-Dimik #0" = 10
    "Vukus #0" = 10
    "Vushtulm #0" = 10
    "Vuskayeeth #0" = 10
    "Waku-Mat #0" = 10
    "Wanam-Jush #0" = 10
    "Wanum-Neeus #0" = 10
    "Wayiteh #0" = 10
    "Weedum-Eius #0" = 10
    "Wideem-Voh #0" = 10
    "Wih-Sei #0" = 10
    "Wixil #0" = 10
    "Wixulbeeh #0" = 10
    "Wuja-Lei #0" = 10
    "Wuja-Sei #0" = 10
    "Wuleen-Weska #0" = 10
    "Wunalz #0" = 10
    "Xal-Geh #0" = 10
    "Xal-Nur #0" = 10
    "Xazar #0" = 10
    "Xil-Jekka #0" = 10
    "Xil-Vilax #0" = 10
    "Xode #0" = 10
    "Xozuka #0" = 10
    "Xukas #0" = 10
    "Xul-Mot #0" = 10
    "Xuzu #0" = 10
    "Yelus #0" = 10
    "Yexil #0" = 10
    "Yinz-Hei #0" = 10
    "Yotep-Kus	 #0" = 10

    "Adzi-Mota #0" = -10
    "Ah-Kajul #0" = -10
    "Ah-Mudeska #0" = -10
    "Ah-Seeba #0" = -10
    "Ah-Zish #0" = -10
    "Ahaht-Malz #0" = -10
    "Ajim-Kiurz #0" = -10
    "Ajim-Ra #0" = -10
    "Ajul-Jas #0" = -10
    "Ajul-Kahz #0" = -10
    "Akeenus #0" = -10
    "Akishan #0" = -10
    "Aleeta #0" = -10
    "Aleeto #0" = -10
    "Am-Eepa #0" = -10
    "Am-Jasuda #0" = -10
    "Am-Lai #0" = -10
    "Am-Meesei #0" = -10
    "Amatkeeus #0" = -10
    "Amel-Kiurz #0" = -10
    "Amussa #0" = -10
    "An-Dar #0" = -10
    "An-Jeen #0" = -10
    "Anozz-Crath #0" = -10
    "Aomee-Ru #0" = -10
    "Aseis #0" = -10
    "Asheemar #0" = -10
    "Asska #0" = -10
    "Awas #0" = -10
    "Az-Loh #0" = -10
    "Az-Maxath #0" = -10
    "Azeez-Eix #0" = -10
    "Baar-Taeed #0" = -10
    "Bahrez #0" = -10
    "Bar-Beekus #0" = -10
    "Baseekus #0" = -10
    "Baseenar #0" = -10
    "Beehuna #0" = -10
    "Beek-Ja #0" = -10
    "Beek-Nassa #0" = -10
    "Beek-Nei #0" = -10
    "Beek-Ru #0" = -10
    "Beek-Shei #0" = -10
    "Beekaw #0" = -10
    "Beel-Ranu #0" = -10
    "Beela #0" = -10
    "Beem-Jee #0" = -10
    "Beem-Tei #0" = -10
    "Beexutl #0" = -10
    "Ber-Jaseen #0" = -10
    "Ber-Lurash #0" = -10
    "Betzi #0" = -10
    "Bezarbeeh #0" = -10
    "Bijum-Loh #0" = -10
    "Bijum-Mei #0" = -10
    "Bikusotl #0" = -10
    "Bishalus #0" = -10
    "Bixitleesh #0" = -10
    "Bizara #0" = -10
    "Bokeeus #0" = -10
    "Buki #0" = -10
    "Bur-Lei #0" = -10
    "Bura-Natoo #0" = -10
    "Buxtil #0" = -10
    "Chalaree #0" = -10
    "Chana-La #0" = -10
    "Chanaius #0" = -10
    "Chaneej #0" = -10
    "Chanil-Wei #0" = -10
    "Chastul #0" = -10
    "Chaxolee #0" = -10
    "Chee-Dooka #0" = -10
    "Chee-Dum #0" = -10
    "Chee-Osheeka #0" = -10
    "Chee-Saak #0" = -10
    "Cheemee #0" = -10
    "Cheerz #0" = -10
    "Cheesh-Mei #0" = -10
    "Chelni #0" = -10
    "Chexi #0" = -10
    "Chimatei #0" = -10
    "Chirurgeon #0" = -10
    "Choixth #0" = -10
    "Cholasistu #0" = -10
    "Choxi #0" = -10
    "Chukka-Jee #0" = -10
    "Chukka-Li #0" = -10
    "Chukka-Saak #0" = -10
    "Chunkeesei #0" = -10
    "Churasu #0" = -10
    "Dafeeso #0" = -10
    "Dajaheel #0" = -10
    "Dajaleen #0" = -10
    "Dakee #0" = -10
    "Dakee-Kai #0" = -10
    "Dakee-Kia #0" = -10
    "Dakeeto #0" = -10
    "Daleez #0" = -10
    "Damatez #0" = -10
    "Damee #0" = -10
    "Damonalus #0" = -10
    "Dan-Meesei #0" = -10
    "Dar-Liurz #0" = -10
    "Dar-Zish #0" = -10
    "Dasha #0" = -10
    "Dee-Kur #0" = -10
    "Dee-Nur #0" = -10
    "Dee-Weska #0" = -10
    "Deechee-Noo #0" = -10
    "Deegeeta #0" = -10
    "Deel #0" = -10
    "Deem-Ja #0" = -10
    "Deemat #0" = -10
    "Deet-Waska #0" = -10
    "Deetaku #0" = -10
    "Deetul #0" = -10
    "Deetwos #0" = -10
    "Dergla #0" = -10
    "Desh-Jasaiin #0" = -10
    "Desh-Wazei #0" = -10
    "Detu-Meeus #0" = -10
    "Deyapa #0" = -10
    "Dokishnaza #0" = -10
    "Dosa #0" = -10
    "Dosu-Nur #0" = -10
    "Dradeiva #0" = -10
    "Dreet-Meena #0" = -10
    "Dreet-Wulm #0" = -10
    "Droran #0" = -10
    "Drujal #0" = -10
    "Druxolneeus #0" = -10
    "Duk-Makka #0" = -10
    "Dus-Geet #0" = -10
    "Easeeto #0" = -10
    "Eatzapa #0" = -10
    "Ei-Jahz #0" = -10
    "Ereel-Maxath #0" = -10
    "Eukkaneeus #0" = -10
    "Ezei #0" = -10
    "Fal-Xoc #0" = -10
    "Gah-Ju #0" = -10
    "Geeh #0" = -10
    "Geeh-Dooka #0" = -10
    "Geeh-Sakka #0" = -10
    "Geel-Nur #0" = -10
    "Ghekuknaza #0" = -10
    "Ghelaha #0" = -10
    "Gideelar #0" = -10
    "Gin-Wan #0" = -10
    "Haj-Ta #0" = -10
    "Haj-Tei #0" = -10
    "Haj-Tulm #0" = -10
    "Han-Ma #0" = -10
    "Hara-Na #0" = -10
    "Haxara #0" = -10
    "Heed-Jush #0" = -10
    "Heed-Meeus #0" = -10
    "Heed-Nakal #0" = -10
    "Heek-Sa #0" = -10
    "Heem-Dum #0" = -10
    "Heenashan #0" = -10
    "Heita-Meen #0" = -10
    "Hiis-Ja #0" = -10
    "Hikinu #0" = -10
    "Hixultvutar #0" = -10
    "Honei #0" = -10
    "Hul-Tei #0" = -10
    "Hul-Wan #0" = -10
    "Ianix #0" = -10
    "Ilas-Betu #0" = -10
    "Imhey #0" = -10
    "Inalz #0" = -10
    "Inue #0" = -10
    "Io-Io #0" = -10
    "Iozukeeus #0" = -10
    "Itan-Nur #0" = -10
    "Itzaki #0" = -10
    "Ix-Utha #0" = -10
    "Jaree-Li #0" = -10
    "Jasaii #0" = -10
    "Jasudei #0" = -10
    "Jazeez-Geel #0" = -10
    "Jee-Ma #0" = -10
    "Jeeba-Naza #0" = -10
    "Jeeba-Noo #0" = -10
    "Jeeda-Tei #0" = -10
    "Jeelus-Lei #0" = -10
    "Jeelus-Lurash #0" = -10
    "Jeer-Xu #0" = -10
    "Jeetum #0" = -10
    "Jeetum-Hei #0" = -10
    "Jeetum-Lah #0" = -10
    "Jotep-Jasaiin #0" = -10
    "Jotep-Makka #0" = -10
    "Jukka #0" = -10
    "Jun-Jassa #0" = -10
    "Junal-Nakal #0" = -10
    "Juutenma #0" = -10
    "Kahei #0" = -10
    "Kal-Mei #0" = -10
    "Kaloo #0" = -10
    "Kani-Meedish #0" = -10
    "Kasa-Jeen #0" = -10
    "Kaska #0" = -10
    "Keel-Kia #0" = -10
    "Keel-Lurash #0" = -10
    "Keema-Ru #0" = -10
    "Keema-Shah #0" = -10
    "Keeran #0" = -10
    "Keerasa #0" = -10
    "Keesa #0" = -10
    "Keshu #0" = -10
    "Kiurz #0" = -10
    "Kizta #0" = -10
    "Kizta-Raj #0" = -10
    "Kloxu #0" = -10
    "Klumuk #0" = -10
    "Kud-Gei #0" = -10
    "Kud-Jat #0" = -10
    "Kud-Mere #0" = -10
    "Kud-Nakal #0" = -10
    "Kudda #0" = -10
    "Kulusi #0" = -10
    "Kunasheeth #0" = -10
    "Kuzei #0" = -10
    "Lara-Deesei #0" = -10
    "Lara-Geel #0" = -10
    "Lara-Ma #0" = -10
    "Lara-Tan #0" = -10
    "Lara-Zish #0" = -10
    "Leel-Vata #0" = -10
    "Leetu #0" = -10
    "Lineem #0" = -10
    "Lohulurash #0" = -10
    "Lorpat-Xeed #0" = -10
    "Loseitsei #0" = -10
    "Loxaldesh #0" = -10
    "Lunsu #0" = -10
    "Luraxith #0" = -10
    "Lutapeeth #0" = -10
    "Luxultava #0" = -10
    "Mach-Neeus #0" = -10
    "Mahei-Jee #0" = -10
    "Mahei-Ma #0" = -10
    "Makeusta #0" = -10
    "Mani-Waza #0" = -10
    "Markka #0" = -10
    "Martul #0" = -10
    "Marz-Loh #0" = -10
    "Mateem #0" = -10
    "Matreeka #0" = -10
    "Mee-See #0" = -10
    "Meeh-Chuna #0" = -10
    "Meeh-Zaw #0" = -10
    "Meelni #0" = -10
    "Meema-Na #0" = -10
    "Meena #0" = -10
    "Meenai #0" = -10
    "Meenai-Enoo #0" = -10
    "Meenai-Makka #0" = -10
    "Meer-Zish #0" = -10
    "Meerana #0" = -10
    "Meetza #0" = -10
    "Mereel #0" = -10
    "Methei #0" = -10
    "Mewah-Lee #0" = -10
    "Mezatil #0" = -10
    "Milaw #0" = -10
    "Milzus #0" = -10
    "Mim-Jas #0" = -10
    "Mim-Naza #0" = -10
    "Mimme #0" = -10
    "Misei #0" = -10
    "Mishapa #0" = -10
    "Miuni #0" = -10
    "Muhu #0" = -10
    "Mujee-Naat #0" = -10
    "Mukka #0" = -10
    "Murak-Lei #0" = -10
    "Murrax #0" = -10
    "Mutei #0" = -10
    "Muz-Medul #0" = -10
    "Muz-Muz #0" = -10
    "Na-Kesh #0" = -10
    "Najeepa #0" = -10
    "Nam-Ja #0" = -10
    "Nam-Teeus #0" = -10
    "Nameel #0" = -10
    "Narnum #0" = -10
    "Nasee #0" = -10
    "Natalgreesh #0" = -10
    "Nathrasa #0" = -10
    "Nebaxireet #0" = -10
    "Neeja-Meen #0" = -10
    "Neeka #0" = -10
    "Neer #0" = -10
    "Neeta-Li #0" = -10
    "Neeti-Gai #0" = -10
    "Neeti-Ra #0" = -10
    "Neetizei #0" = -10
    "Neetra #0" = -10
    "Nesh-Ja #0" = -10
    "Nesh-Tan #0" = -10
    "Niima #0" = -10
    "Nijuna #0" = -10
    "Nijuneel #0" = -10
    "Nojaxia #0" = -10
    "Nokama #0" = -10
    "Nolu-Azza #0" = -10
    "Nomu-Goh #0" = -10
    "Nowa #0" = -10
    "Noxutln #0" = -10
    "Nubaree #0" = -10
    "Nukorash #0" = -10
    "Nuleem-Malem #0" = -10
    "Nurdan #0" = -10
    "Nutum #0" = -10
    "Nuwisha #0" = -10
    "Nuxal #0" = -10
    "Odeel-Medul #0" = -10
    "Odeel-Tul #0" = -10
    "Okan-Jeen #0" = -10
    "Oleed-Meen #0" = -10
    "Oleed-Tah #0" = -10
    "Oleen-Ta #0" = -10
    "Oleen-Xu #0" = -10
    "Omeeta #0" = -10
    "On-Nei #0" = -10
    "Onai-Ruul #0" = -10
    "Onurai-Maht #0" = -10
    "Osheeja #0" = -10
    "Otumi-Wulm #0" = -10
    "Owai-La #0" = -10
    "Pad-Maxath #0" = -10
    "Padeehei #0" = -10
    "Padeel #0" = -10
    "Paheiza #0" = -10
    "Pakee #0" = -10
    "Pameel #0" = -10
    "Pash-Riha #0" = -10
    "Pateem #0" = -10
    "Pavu #0" = -10
    "Peek-Ereel #0" = -10
    "Peek-Majin #0" = -10
    "Peek-Neeus #0" = -10
    "Peekeus #0" = -10
    "Peelgah #0" = -10
    "Pegareem #0" = -10
    "Pekai-Vilax #0" = -10
    "Pinooh #0" = -10
    "Porath #0" = -10
    "Pujeerish #0" = -10
    "Pulaya #0" = -10
    "Puweel #0" = -10
    "Puyatha #0" = -10
    "Rabeen-Ei #0" = -10
    "Raleetal #0" = -10
    "Ree-Kilaya #0" = -10
    "Ree-Nakal #0" = -10
    "Ree-Zish #0" = -10
    "Reeh-Li #0" = -10
    "Reeh-Nur #0" = -10
    "Reekatul #0" = -10
    "Reekaturl #0" = -10
    "Reekeepa #0" = -10
    "Reesa #0" = -10
    "Renesh-Zaka #0" = -10
    "Ruja-Wan #0" = -10
    "Ruko #0" = -10
    "Rupaheel #0" = -10
    "Rutabeeh #0" = -10
    "Ruxultav #0" = -10
    "Sali-Jah #0" = -10
    "Sashee #0" = -10
    "Sawen-Geet #0" = -10
    "Saxolt #0" = -10
    "Shanil-Ja #0" = -10
    "Sharava #0" = -10
    "Shatasha #0" = -10
    "Shatuna #0" = -10
    "Shazara-Ta #0" = -10
    "Sheelahi #0" = -10
    "Shei-Beekus #0" = -10
    "Shei-Chuna #0" = -10
    "Shei-Kilaya #0" = -10
    "Shei-Osheeja #0" = -10
    "Shei-Shei #0" = -10
    "Shukesh #0" = -10
    "Shuliish #0" = -10
    "Shumeesh #0" = -10
    "Shuxaltsei #0" = -10
    "Silm-Jusha #0" = -10
    "Silm-Kia #0" = -10
    "Simeesh #0" = -10
    "Sisar #0" = -10
    "Skatinava #0" = -10
    "Skeeheieeus #0" = -10
    "Skeetees #0" = -10
    "Slim-Jah #0" = -10
    "Solni #0" = -10
    "Sonsu #0" = -10
    "Sulahkeesh #0" = -10
    "Sumanirr #0" = -10
    "Supo-Gith #0" = -10
    "Supowateer #0" = -10
    "Talen-Dum #0" = -10
    "Talen-Jush #0" = -10
    "Talosha #0" = -10
    "Tana-Teeus #0" = -10
    "Tar-Ei #0" = -10
    "Tar-Jekka #0" = -10
    "Tar-Lurash #0" = -10
    "Tar-Shehs #0" = -10
    "Taxatl #0" = -10
    "Taxilteer #0" = -10
    "Teeba-Deesei #0" = -10
    "Teeba-Ja #0" = -10
    "Teeba-Makka #0" = -10
    "Teegya #0" = -10
    "Teeteka #0" = -10
    "Telixith #0" = -10
    "Tem-Tei #0" = -10
    "Terameen #0" = -10
    "Tim-Kasi #0" = -10
    "Tlaiuhticah #0" = -10
    "Tlatiz #0" = -10
    "Tletva #0" = -10
    "Tlixult #0" = -10
    "Tlonkaan #0" = -10
    "Tloxalith #0" = -10
    "Tludul #0" = -10
    "Tsaesh #0" = -10
    "Tseedasi #0" = -10
    "Tsleitzei #0" = -10
    "Tsona-Ei #0" = -10
    "Tsudeereeus #0" = -10
    "Tulut #0" = -10
    "Tumaka #0" = -10
    "Tumma-Shah #0" = -10
    "Tunbam-Na #0" = -10
    "Tuwul #0" = -10
    "Uazee #0" = -10
    "Ukara #0" = -10
    "Ukasha #0" = -10
    "Ukka-Meedish #0" = -10
    "Ula-Kii #0" = -10
    "Ula-Reen #0" = -10
    "Uta-Deeka #0" = -10
    "Uta-Tei #0" = -10
    "Utazaw #0" = -10
    "Utzaei #0" = -10
    "Uwa-Jekka #0" = -10
    "Uwa-Meenus #0" = -10
    "Vaxeeh #0" = -10
    "Veek-Gai #0" = -10
    "Veemarz #0" = -10
    "Veest-Halu #0" = -10
    "Veest-Nakal #0" = -10
    "Veesum #0" = -10
    "Veezil #0" = -10
    "Veth-Veidal #0" = -10
    "Vetra-Jat #0" = -10
    "Villa #0" = -10
    "Vistha #0" = -10
    "Vistha-Mee #0" = -10
    "Volahnu #0" = -10
    "Vorh #0" = -10
    "Vuh-Naat #0" = -10
    "Vukus #0" = -10
    "Vureiem #0" = -10
    "Wahirat #0" = -10
    "Wanam-Betu #0" = -10
    "Wanam-Jaa #0" = -10
    "Wareem #0" = -10
    "Wawul #0" = -10
    "Weechei #0" = -10
    "Weedum-Ja #0" = -10
    "Weegam #0" = -10
    "Weewish #0" = -10
    "Wemeerit #0" = -10
    "Wenaxi #0" = -10
    "Wih-Jat #0" = -10
    "Wih-Waska #0" = -10
    "Wiku #0" = -10
    "Wixil #0" = -10
    "Wud-Weska #0" = -10
    "Wuja-Ei #0" = -10
    "Wuja-Meenus #0" = -10
    "Wuleen-Ze #0" = -10
    "Wusava #0" = -10
    "Xal-Sisei #0" = -10
    "Xaleez #0" = -10
    "Xamarz #0" = -10
    "Xarei #0" = -10
    "Xeejalish #0" = -10
    "Xeeka #0" = -10
    "Xijai-Teel #0" = -10
    "Xil-Zish #0" = -10
    "Ximukto #0" = -10
    "Xinka #0" = -10
    "Xixuai #0" = -10
    "Xohaneel #0" = -10
    "Xokomar #0" = -10
    "Xowaj #0" = -10
    "Xugirus-Dimik #0" = -10
    "Xula #0" = -10
    "Zasha-Ja #0" = -10
    "Zatzu #0" = -10
}

leader_names = {
    Abijoo-Anoo Ah-Ra Ah-Shehs Ahaht-Ei Ahaht-Kilaya Ahaht-Naat Ahkur Ahtalg Ajim-Jaa Ajim-Meeus Ajum-Jekka Aki-Osheeja Alan-Tei Aliskeeh Am-Sakka An-Jeen-Sakka An-Jeen-Seek An-Taeed Anash Anooz-Izt Anooz-Lar Aojee-Da Aojee-Ei Aojee-Mota Aomee-Shehs Argar Aseepa Asheeus Ashgar Atl-Xulith Az-Maxath Az-Muz Azbai-Meenus Azeenus Azeex-Eix Azinar Azjai-Tee Azri Bahrei Bahtei Balahkath Banka Bar-Goh Bar-Neeus Barnaxi Batar-Meej Batuus Baxilt-Gah Beeheisei Beek-Kajin Beek-Metaku Beenalz Benas Beshnus Bewlus Bezeer Bijot Bijum-Eeto Bijum-Ta Bimee-Kas Bosekus Brand-Ra Bun-Maxath Bunishyeeth Bur-Tee Bur-Waska Buujhan Buxutheeus Chakuk Chal-Jah Chal-Maht Chaleed-Wan Chalish Chanka Chatapnaza Chath-Jaa Chee-Jah Chee-Sakka Chee-Sei Cheedal-Gah Cheedal-Jeen Cheesh-Nassa Chilwir Chitakus Cholzei Chosumeel Choxusha Chukka-Jekka Chuxu Chuzu Claurth Dakee-Goh Dakee-Jat Dakee-Mota Dal-Eekwa Dar-Jasa Darasken Dashnu Debameel Deed-Mema Deed-Tei Deegeeta Deeheesotl Deejeeta Deekonus Deekum Deer-Xol Deerlus Deesh-Mota Deet-Zeeus Deetum-Gih Deetum-Jah Demeepa Depasa-Chath Derkeehez Deroh-Metaku Deroh-Zah Desh-Taa Dezanu Dosu-Larash Dosu-Muz Dowoseez Dozaeek Drakaws Dramukkath Dreevureesh Dritan Drumarz Druseesh Druxith Duk-Marza Dunaxith Effe-Lar Ei-Ei Ei-Eiuus Ei-Etaku Eleedal-Kia Eleedal-Lai Eoki Er-Jaseen Ereel-Dum Ereel-Sa Esqoo Etsabeeh Gah-Dum Gam-Kur Gatulm Geeh-Lurz Geel-Gei Geel-Ma Ghelos Ghesee Gilustulm Gir-Ta Gjomee-Loh Gom-Tulm Grish Guleesh Gulum-La Haj-Meht Haj-Ru Hal-Nei Halish Hareeya Haxal Heek-Dimik Heem-Weska Heetzasi Heir-Marza Hikathus Hixeeh-Raj Hjorn Hleezeireeus Honan Iggistill Ilus Im-Kajin Im-Nei Im-Zish Iokkas Iskenaaz J'ram-Hei J'ram-Jeen Ja-Reet Jaraleet Jaree-Eeto Jee-Lar Jee-Tan Jee-Tul Jeeba-Eius Jeela Jeelus Jeer-Tei Jeetum-Hei Jeetum-Tulm Jesh-Minko Jilux Jin-Ei Jotep-Liurz Juut Kal-Eeto Kalanu Kamatpa Kamax-Ei Kankeeus Kasa-Jas Kaxutl Keeko Keel-Medul Keema-Ja Keema-Ru Keema-Ta Keemeen Keenem Keerasa-Lan Keesekeeth Keesu Kepanuu Kiameed Kizta-Lee Klankaatu Klor Kloxu Kluleesh Klutsaan Krona Kud-Lan Kudleez Lara-Eix Loh-Jat Lohupeel Losum Lotaeel Lotash Luh-Maxath Luteema Maahi Mach-Loh Mach-Taeed Maheelius Mahei-Muz Mahei-Tei Makadel Maneeshik Markka Marz-Ja Mathei Meejapa Meema-Zaw Meenjee Meenosh Meensuda Meer-Mesei Meewulm Miharil Mikeesh Miun-Eidu Mobareed Mohimeem Mopakuz Motuu Mujeen Muranatepa Mush-Jekka Mush-Shei Muz-Shah Nam-Shah Napetui Naska Naxaltan Nazuux Nebutil Neelo Neeluka Neeti-Nur Neetzara Neexi Nema-Pachat Neposh Nesh-Deeka Netapatuu Nexith Nodeeus Nomu Nosaleeth Notei Nowajan Nowajeem Noyei-Heem Nuduxith Nulaz-Eidu Nuleez Nurhei Obaxith Odeel-Shehs Ojei Okalg Okan-Jeen Okan-Julan Okan-Sakka Okaw-Dar Okaw-Neeus Okeeh Oleed-Tah Oleen-Jei Oleen-Tul Olik-Jah Onuja Onurai-Betu Opatieel Otumi-Lar Owai-Leem Pacheeva Pacheevutar Pad-Julan Paduxi Parash Paraxeeh Paxalt Peek-Shah Peek-Tul Peesha Peexalt Pejureel Pekai-Jee Petaxai Pideelus Pimaxi-Loh Pimaxi-Taeed Pimaxi-Zeeus Pimsy Pojeel Powaj Powostulm Radeelan Radithax Rahu-Teemeeta Rareel Rarez Ratulmdutsei Redieeus Ree-Kia Reeesh Reekeesh Reekisk Reezal-Jul Resari Rezei Rultkath Rupah Rushmeek Ruxol Sakeeus Sar-Keer Seed-Maht Seemarz Sejaijilax Shadutsei Shakiis Shanil-Nei Sheer-Hahtsei Sheer-Saak Shuvu Sinanis Skalasha Skasei Skeehei Skeewul Sureeus Tah-Tehat Taleel-Bex Tan-Skee Tanaka Tar-Makka Tar-Meeus Tee-Marza Teeka Teelawei Teineeja Terezeeus Tikaasi Tikkus Tlixilja Tlosee Topeeth-Gih Topeth Topith-Kuz Tsatheitepa Tsatva-Lan Tsilmtulm Tsixotl Tsoglaez Tsoxolza Tsurei Tulalurash Tumma-Beekus Tunbam-Kahz Tuxo Uaxal Ukaspa Ukatsei Ukka-Dimik Ukka-Malz Ulawa Uralgnaza Uraz Ushmeek Uta-Chuna Uta-Ra Utadeek Utamukeeus Utatul Uxith-Ei Uzeialus Vaeshna Vara-Zeen Veekas Veelisheeh Veenaza Veexalt Vetra-Zaw Vintheel Visskar Vistha-Jush Vohta-Lan Voneesh Vornan Vozei Vudeelal Vuh-Dimik Vukus Vushtulm Vuskayeeth Waku-Mat Wanam-Jush Wanum-Neeus Wayiteh Weedum-Eius Wideem-Voh Wih-Sei Wixil Wixulbeeh Wuja-Lei Wuja-Sei Wuleen-Weska Wunalz Xal-Geh Xal-Nur Xazar Xil-Jekka Xil-Vilax Xode Xozuka Xukas Xul-Mot Xuzu Yelus Yexil Yinz-Hei Yotep-Kus
}

ship_names = {
    Adzi-Mota Ah-Kajul Ah-Mudeska Ah-Seeba Ah-Zish Ahaht-Malz Ajim-Kiurz Ajim-Ra Ajul-Jas Ajul-Kahz Akeenus Akishan Aleeta Aleeto Am-Eepa Am-Jasuda Am-Lai Am-Meesei Amatkeeus Amel-Kiurz Amussa An-Dar An-Jeen Anozz-Crath Aomee-Ru Aseis Asheemar Asska Awas Az-Loh Az-Maxath Azeez-Eix Baar-Taeed Bahrez Bar-Beekus Baseekus Baseenar Beehuna Beek-Ja Beek-Nassa Beek-Nei Beek-Ru Beek-Shei Beekaw Beel-Ranu Beela Beem-Jee Beem-Tei Beexutl Ber-Jaseen Ber-Lurash Betzi Bezarbeeh Bijum-Loh Bijum-Mei Bikusotl Bishalus Bixitleesh Bizara Bokeeus Buki Bur-Lei Bura-Natoo Buxtil Chalaree Chana-La Chanaius Chaneej Chanil-Wei Chastul Chaxolee Chee-Dooka Chee-Dum Chee-Osheeka Chee-Saak Cheemee Cheerz Cheesh-Mei Chelni Chexi Chimatei Chirurgeon Choixth Cholasistu Choxi Chukka-Jee Chukka-Li Chukka-Saak Chunkeesei Churasu Dafeeso Dajaheel Dajaleen Dakee Dakee-Kai Dakee-Kia Dakeeto Daleez Damatez Damee Damonalus Dan-Meesei Dar-Liurz Dar-Zish Dasha Dee-Kur Dee-Nur Dee-Weska Deechee-Noo Deegeeta Deel Deem-Ja Deemat Deet-Waska Deetaku Deetul Deetwos Dergla Desh-Jasaiin Desh-Wazei Detu-Meeus Deyapa Dokishnaza Dosa Dosu-Nur Dradeiva Dreet-Meena Dreet-Wulm Droran Drujal Druxolneeus Duk-Makka Dus-Geet Easeeto Eatzapa Ei-Jahz Ereel-Maxath Eukkaneeus Ezei Fal-Xoc Gah-Ju Geeh Geeh-Dooka Geeh-Sakka Geel-Nur Ghekuknaza Ghelaha Gideelar Gin-Wan Haj-Ta Haj-Tei Haj-Tulm Han-Ma Hara-Na Haxara Heed-Jush Heed-Meeus Heed-Nakal Heek-Sa Heem-Dum Heenashan Heita-Meen Hiis-Ja Hikinu Hixultvutar Honei Hul-Tei Hul-Wan Ianix Ilas-Betu Imhey Inalz Inue Io-Io Iozukeeus Itan-Nur Itzaki Ix-Utha Jaree-Li Jasaii Jasudei Jazeez-Geel Jee-Ma Jeeba-Naza Jeeba-Noo Jeeda-Tei Jeelus-Lei Jeelus-Lurash Jeer-Xu Jeetum Jeetum-Hei Jeetum-Lah Jotep-Jasaiin Jotep-Makka Jukka Jun-Jassa Junal-Nakal Juutenma Kahei Kal-Mei Kaloo Kani-Meedish Kasa-Jeen Kaska Keel-Kia Keel-Lurash Keema-Ru Keema-Shah Keeran Keerasa Keesa Keshu Kiurz Kizta Kizta-Raj Kloxu Klumuk Kud-Gei Kud-Jat Kud-Mere Kud-Nakal Kudda Kulusi Kunasheeth Kuzei Lara-Deesei Lara-Geel Lara-Ma Lara-Tan Lara-Zish Leel-Vata Leetu Lineem Lohulurash Lorpat-Xeed Loseitsei Loxaldesh Lunsu Luraxith Lutapeeth Luxultava Mach-Neeus Mahei-Jee Mahei-Ma Makeusta Mani-Waza Markka Martul Marz-Loh Mateem Matreeka Mee-See Meeh-Chuna Meeh-Zaw Meelni Meema-Na Meena Meenai Meenai-Enoo Meenai-Makka Meer-Zish Meerana Meetza Mereel Methei Mewah-Lee Mezatil Milaw Milzus Mim-Jas Mim-Naza Mimme Misei Mishapa Miuni Muhu Mujee-Naat Mukka Murak-Lei Murrax Mutei Muz-Medul Muz-Muz Na-Kesh Najeepa Nam-Ja Nam-Teeus Nameel Narnum Nasee Natalgreesh Nathrasa Nebaxireet Neeja-Meen Neeka Neer Neeta-Li Neeti-Gai Neeti-Ra Neetizei Neetra Nesh-Ja Nesh-Tan Niima Nijuna Nijuneel Nojaxia Nokama Nolu-Azza Nomu-Goh Nowa Noxutln Nubaree Nukorash Nuleem-Malem Nurdan Nutum Nuwisha Nuxal Odeel-Medul Odeel-Tul Okan-Jeen Oleed-Meen Oleed-Tah Oleen-Ta Oleen-Xu Omeeta On-Nei Onai-Ruul Onurai-Maht Osheeja Otumi-Wulm Owai-La Pad-Maxath Padeehei Padeel Paheiza Pakee Pameel Pash-Riha Pateem Pavu Peek-Ereel Peek-Majin Peek-Neeus Peekeus Peelgah Pegareem Pekai-Vilax Pinooh Porath Pujeerish Pulaya Puweel Puyatha Rabeen-Ei Raleetal Ree-Kilaya Ree-Nakal Ree-Zish Reeh-Li Reeh-Nur Reekatul Reekaturl Reekeepa Reesa Renesh-Zaka Ruja-Wan Ruko Rupaheel Rutabeeh Ruxultav Sali-Jah Sashee Sawen-Geet Saxolt Shanil-Ja Sharava Shatasha Shatuna Shazara-Ta Sheelahi Shei-Beekus Shei-Chuna Shei-Kilaya Shei-Osheeja Shei-Shei Shukesh Shuliish Shumeesh Shuxaltsei Silm-Jusha Silm-Kia Simeesh Sisar Skatinava Skeeheieeus Skeetees Slim-Jah Solni Sonsu Sulahkeesh Sumanirr Supo-Gith Supowateer Talen-Dum Talen-Jush Talosha Tana-Teeus Tar-Ei Tar-Jekka Tar-Lurash Tar-Shehs Taxatl Taxilteer Teeba-Deesei Teeba-Ja Teeba-Makka Teegya Teeteka Telixith Tem-Tei Terameen Tim-Kasi Tlaiuhticah Tlatiz Tletva Tlixult Tlonkaan Tloxalith Tludul Tsaesh Tseedasi Tsleitzei Tsona-Ei Tsudeereeus Tulut Tumaka Tumma-Shah Tunbam-Na Tuwul Uazee Ukara Ukasha Ukka-Meedish Ula-Kii Ula-Reen Uta-Deeka Uta-Tei Utazaw Utzaei Uwa-Jekka Uwa-Meenus Vaxeeh Veek-Gai Veemarz Veest-Halu Veest-Nakal Veesum Veezil Veth-Veidal Vetra-Jat Villa Vistha Vistha-Mee Volahnu Vorh Vuh-Naat Vukus Vureiem Wahirat Wanam-Betu Wanam-Jaa Wareem Wawul Weechei Weedum-Ja Weegam Weewish Wemeerit Wenaxi Wih-Jat Wih-Waska Wiku Wixil Wud-Weska Wuja-Ei Wuja-Meenus Wuleen-Ze Wusava Xal-Sisei Xaleez Xamarz Xarei Xeejalish Xeeka Xijai-Teel Xil-Zish Ximukto Xinka Xixuai Xohaneel Xokomar Xowaj Xugirus-Dimik Xula Zasha-Ja Zatzu
}

army_names = {
    "Army of $PROVINCE$"
}

fleet_names = {
    "Fleet of $PROVINCE$"
}