graphical_culture = turkishgfx

color = { 0 0 0 }

revolutionary_colors = { 5 9 5}


historical_idea_groups = {
}

historical_units = {
}

monarch_names = {
    "Endarre #0" = 10
    "Fenlord #0" = 10
    "Hadhuul #0" = 10
    "Hergor #0" = 10
    "Houtern #0" = 10
    "Laloriaran #0" = 10
    "Malyon #0" = 10
    "Myndhal #0" = 10
    "Narilmor #0" = 10
    "Odilon #0" = 10
    "Ostarand #0" = 10
    "Quaronaldil #0" = 10
    "Talkynd #0" = 10
    "Varondil #0" = 10
    "Anumaril #0" = 10
    "Calinden #0" = 10
    "Cenedelin #0" = 10
    "Ceyran #0" = 10
    "Filestis #0" = 10
    "Glinferen #0" = 10
    "Gordhaur #0" = 10
    "Haromir #0" = 10
    "Nilichi #0" = 10
    "Tjurhane #0" = 10
    "Uluscant #0" = 10
    "Uuril #0" = 10
    "Nym #0" = 10
    "Umarik #0" = 10
    "Celethelel #0" = 10
    "Cumhul #0" = 10
    "Guumond #0" = 10
    "Qystur #0" = 10
    "Fisno #0" = 10
    "Nimender #0" = 10
    "Lurdon #0" = 10
    "Veruu #0" = 10
    "Genuuladom #0" = 10
    "Djus #0" = 10
    "Tjan #0" = 10
    "Masnam #0" = 10
    "Heystuadhisind #0" = 10
    "Tjughandonos #0" = 10
    "Vossyduron #0" = 10
    "Djun #0" = 10
    "Niruugadant #0" = 10
    "Cogir #0" = 10
    "Lida #0" = 10
    "Cordu #0" = 10
    "Tjimdymegi #0" = 10
    "Tjisneymaulont #0" = 10
    "Heystalero #0" = 10
    "Luudagarund #0" = 10
    "Cam #0" = 10
    "Vunhualdadont #0" = 10
    "Undorrau #0" = 10
    "Cusdar #0" = 10
    "Lymher #0" = 10
    "Tamhuundogo #0" = 10
    "Cossin #0" = 10
    "Fyndiscas #0" = 10
    "Tuanum #0" = 10
    "Nilind #0" = 10
    "Tjuunrerhen #0" = 10
    "Limdardhunur #0" = 10
    "Umhuur #0" = 10
    "Enyrrolum #0" = 10
    "Dedhan #0" = 10
    "Cuussint #0" = 10
    "Lydar #0" = 10
    "Vanhur #0" = 10
    "Cyrheganund #0" = 10
    "Qegylomo #0" = 10
    "Vond #0" = 10
    "Dondont #0" = 10
    "Fin #0" = 10
    "Gisegilin #0" = 10
    "Teymeyladis #0" = 10
    "Min #0" = 10
    "Orhualmuunint #0" = 10
    "Femde #0" = 10
    "Nant #0" = 10
    "Dalin #0" = 10
    "Ryland #0" = 10
    "Hegint #0" = 10
    "Rorguuramis #0" = 10
    "Cyr #0" = 10
    "Nas #0" = 10
    "Narges #0" = 10
    "Murhyldiment #0" = 10
    "Tjosaunt #0" = 10
    "Gemhel #0" = 10
    "Vingiant #0" = 10
    "Djel #0" = 10
    "Djamduusceges #0" = 10
    "Eguggend #0" = 10
    "Lenalmel #0" = 10
    "Toduurhasym #0" = 10
    "Ragedarel #0" = 10
    "Hunro #0" = 10
    "Cosudam #0" = 10
    "Rirgurhand #0" = 10
    "Djangent #0" = 10
    "Nogo #0" = 10
    "Fidhi #0" = 10
    "Tedygedo #0" = 10
    "Qon #0" = 10
    "Dingardigam #0" = 10
    "Cymylmuumer #0" = 10
    "Lunrun #0" = 10
    "Hosnuugaura #0" = 10
    "Mimuurgusen #0" = 10
    "Nisnen #0" = 10
    "Irgogol #0" = 10
    "Gand #0" = 10
    "Lagan #0" = 10
    "Hasind #0" = 10
    "Nugant #0" = 10
    "Leydel #0" = 10
    "Ussamuul #0" = 10
    "Inhuagadom #0" = 10
    "Omashaul #0" = 10
    "Rorhemeras #0" = 10
    "Djador #0" = 10
    "Muanhilan #0" = 10
    "Vem #0" = 10
    "Cur #0" = 10
    "Linduasdesem #0" = 10
    "Qessem #0" = 10
    "Vuudunt #0" = 10

    "Curano #0" = -10
    "Elanwe #0" = -10
    "Erraduure #0" = -10
    "Faranwe #0" = -10
    "Lanath #0" = -10
    "Morilye #0" = -10
    "Nuralanya #0" = -10
    "Palolel #0" = -10
    "Urenenya #0" = -10
    "Valasha #0" = -10
    "Wynaldia #0" = -10
    "Anurraame #0" = -10
    "Lannessa #0" = -10
    "Celethelel #0" = -10
    "Illarrymo #0" = -10
    "Uzynhoth #0" = -10
    "Elonlaris #0" = -10
    "Darammel #0" = -10
    "Cele #0" = -10
    "Ymme #0" = -10
    "Suhe #0" = -10
    "Lymma #0" = -10
    "Ynnylsasul #0" = -10
    "Ironwymu #0" = -10
    "Elis #0" = -10
    "Puvusadya #0" = -10
    "Lyzelniniath #0" = -10
    "Liva #0" = -10
    "Pehi #0" = -10
    "Yrraldylith #0" = -10
    "Irreshyva #0" = -10
    "Pemu #0" = -10
    "Lonnosson #0" = -10
    "Leru #0" = -10
    "Mene #0" = -10
    "Pallush #0" = -10
    "Mennith #0" = -10
    "Arro #0" = -10
    "Nenemmeve #0" = -10
    "Cimase #0" = -10
    "Came #0" = -10
    "Sezenhuvo #0" = -10
    "Immi #0" = -10
    "Ymmu #0" = -10
    "Immol #0" = -10
    "Hunne #0" = -10
    "Muzos #0" = -10
    "Hunnul #0" = -10
    "Parrunde #0" = -10
    "Hennynlyho #0" = -10
    "Cunylne #0" = -10
    "Emma #0" = -10
    "Cylyris #0" = -10
    "Dynnyan #0" = -10
    "Erridhish #0" = -10
    "Uhidhon #0" = -10
    "Nivo #0" = -10
    "Nula #0" = -10
    "Helydu #0" = -10
    "Summi #0" = -10
    "Dini #0" = -10
    "Monado #0" = -10
    "Vyza #0" = -10
    "Mevirlen #0" = -10
    "Ammas #0" = -10
    "Lomaldydaa #0" = -10
    "Pehyshen #0" = -10
    "Soreshi #0" = -10
    "Ymi #0" = -10
    "Nivi #0" = -10
    "Sullidhash #0" = -10
    "Purru #0" = -10
    "Sumadhiash #0" = -10
    "Hilli #0" = -10
    "Vurel #0" = -10
    "Myzas #0" = -10
    "Nyrrin #0" = -10
    "Illerra #0" = -10
    "Carro #0" = -10
    "Yhu #0" = -10
    "Sylanwesh #0" = -10
    "Allonde #0" = -10
    "Onya #0" = -10
    "Synarlysush #0" = -10
    "Wahemnyhol #0" = -10
    "Himmon #0" = -10
    "Pymmynnenu #0" = -10
    "Lunnu #0" = -10
    "Ivenash #0" = -10
    "Illath #0" = -10
    "Azu #0" = -10
    "Wuria #0" = -10
    "Wimunmara #0" = -10
    "Mezol #0" = -10
    "Pyziesh #0" = -10
    "Cavannorel #0" = -10
    "Ymmilune #0" = -10
    "Poman #0" = -10
    "Dyzas #0" = -10
    "Nulynhi #0" = -10
    "Symmu #0" = -10
    "Yve #0" = -10
    "Cyledha #0" = -10
    "Wommi #0" = -10
    "Danasso #0" = -10
    "Puzulnudu #0" = -10
    "Lometh #0" = -10
    "Yrru #0" = -10
    "Honnomule #0" = -10
    "Harrylnes #0" = -10
    "Eradhiho #0" = -10
    "Nanalne #0" = -10
}

leader_names = {
    Endarre Fenlord Hadhuul Hergor Houtern Laloriaran Malyon Myndhal Narilmor Odilon Ostarand Quaronaldil Talkynd Varondil Anumaril Calinden Cenedelin Ceyran Filestis Glinferen Gordhaur Haromir Nilichi Tjurhane Uluscant Uuril Nym Umarik Celethelel Cumhul Guumond Qystur Fisno Nimender Lurdon Veruu Genuuladom Djus Tjan Masnam Heystuadhisind Tjughandonos Vossyduron Djun Niruugadant Cogir Lida Cordu Tjimdymegi Tjisneymaulont Heystalero Luudagarund Cam Vunhualdadont Undorrau Cusdar Lymher Tamhuundogo Cossin Fyndiscas Tuanum Nilind Tjuunrerhen Limdardhunur Umhuur Enyrrolum Dedhan Cuussint Lydar Vanhur Cyrheganund Qegylomo Vond Dondont Fin Gisegilin Teymeyladis Min Orhualmuunint Femde Nant Dalin Ryland Hegint Rorguuramis Cyr Nas Narges Murhyldiment Tjosaunt Gemhel Vingiant Djel Djamduusceges Eguggend Lenalmel Toduurhasym Ragedarel Hunro Cosudam Rirgurhand Djangent Nogo Fidhi Tedygedo Qon Dingardigam Cymylmuumer Lunrun Hosnuugaura Mimuurgusen Nisnen Irgogol Gand Lagan Hasind Nugant Leydel Ussamuul Inhuagadom Omashaul Rorhemeras Djador Muanhilan Vem Cur Linduasdesem Qessem Vuudunt
}

ship_names = {
    Curano Elanwe Erraduure Faranwe Lanath Morilye Nuralanya Palolel Urenenya Valasha Wynaldia Anurraame Lannessa Celethelel Illarrymo Uzynhoth Elonlaris Darammel Cele Ymme Suhe Lymma Ynnylsasul Ironwymu Elis Puvusadya Lyzelniniath Liva Pehi Yrraldylith Irreshyva Pemu Lonnosson Leru Mene Pallush Mennith Arro Nenemmeve Cimase Came Sezenhuvo Immi Ymmu Immol Hunne Muzos Hunnul Parrunde Hennynlyho Cunylne Emma Cylyris Dynnyan Erridhish Uhidhon Nivo Nula Helydu Summi Dini Monado Vyza Mevirlen Ammas Lomaldydaa Pehyshen Soreshi Ymi Nivi Sullidhash Purru Sumadhiash Hilli Vurel Myzas Nyrrin Illerra Carro Yhu Sylanwesh Allonde Onya Synarlysush Wahemnyhol Himmon Pymmynnenu Lunnu Ivenash Illath Azu Wuria Wimunmara Mezol Pyziesh Cavannorel Ymmilune Poman Dyzas Nulynhi Symmu Yve Cyledha Wommi Danasso Puzulnudu Lometh Yrru Honnomule Harrylnes Eradhiho Nanalne
}

army_names = {
    "Army of $PROVINCE$"
}

fleet_names = {
    "Fleet of $PROVINCE$"
}