graphical_culture = northamericagfx

color = { 155 40 40 }

revolutionary_colors = { 14 9 0}


historical_idea_groups = {
}

historical_units = {
}

monarch_names = {
    "Nae #0" = 10
    "Licah #0" = 10
    "Ukhulk #0" = 10
    "Zeranalk #0" = 10
    "Zulduadek #0" = 10
    "Grulkrir #0" = 10
    "Aum #0" = 10
    "Haldrag #0" = 10
    "Sruashk #0" = 10
    "Nuuri #0" = 10
    "Laeruannith #0" = 10
    "Nuukhushk #0" = 10
    "Mudagaashk #0" = 10
    "Drirasih #0" = 10
    "Ulduzzussush #0" = 10
    "Zerith #0" = 10
    "Saath #0" = 10
    "Suab #0" = 10
    "Baa #0" = 10
    "Aeb #0" = 10
    "Bissuki #0" = 10
    "Chaudem #0" = 10
    "Lareg #0" = 10
    "Shilkrer #0" = 10
    "Gerhum #0" = 10
    "Issil #0" = 10
    "Maur #0" = 10
    "Hulkir #0" = 10
    "Braethraubam #0" = 10
    "Draur #0" = 10
    "Bruklevum #0" = 10
    "Gruklal #0" = 10
    "Chalkesh #0" = 10
    "Maulkrellem #0" = 10
    "Gulstelk #0" = 10
    "Hegekibel #0" = 10
    "Muurthush #0" = 10
    "Ulkillath #0" = 10
    "Dukivinuk #0" = 10
    "Brukhauvisil #0" = 10
    "Luldushk #0" = 10
    "Beseve #0" = 10
    "Beghrilk #0" = 10
    "Drekhek #0" = 10
    "Lalstushk #0" = 10
    "Uulk #0" = 10
    "Gaulk #0" = 10
    "Gedhraek #0" = 10
    "Dilstulah #0" = 10
    "Nidhrazem #0" = 10
    "Disezzusim #0" = 10
    "Uartevath #0" = 10
    "Mirhib #0" = 10
    "Ualk #0" = 10
    "Bruldilk #0" = 10
    "Chertaleth #0" = 10
    "Salkeg #0" = 10
    "Beklab #0" = 10
    "Chidhirrash #0" = 10
    "Zuklidig #0" = 10
    "Lluldrelk #0" = 10
    "Ethruzu #0" = 10
    "Gaareh #0" = 10
    "Lissirruth #0" = 10
    "Gruku #0" = 10
    "Balilk #0" = 10
    "Zuabulashk #0" = 10
    "Buukullushk #0" = 10
    "Adhrath #0" = 10
    "Lleklaezzannem #0" = 10
    "Sralkeb #0" = 10
    "Brelannibil #0" = 10
    "Nekluvessug #0" = 10
    "Gasah #0" = 10
    "Llica #0" = 10
    "Gruur #0" = 10
    "Zudharrab #0" = 10
    "Marhirrush #0" = 10
    "Sreldreh #0" = 10
    "Bregerauzzi #0" = 10
    "Braur #0" = 10
    "Shighrilk #0" = 10
    "Graushk #0" = 10
    "Chudar #0" = 10
    "Essesh #0" = 10
    "Sraldudulu #0" = 10
    "Eguh #0" = 10
    "Elkralk #0" = 10
    "Berhinnir #0" = 10
    "Luthre #0" = 10
    "Hulleshk #0" = 10
    "Nadhrabaesuth #0" = 10
    "Lidhum #0" = 10
    "Grekhul #0" = 10
    "Athrib #0" = 10
    "Lubekenneg #0" = 10
    "Srudhral #0" = 10
    "Shuagadik #0" = 10
    "Ilallish #0" = 10
    "Sussi #0" = 10

    "Lerudes #0" = -10
    "Marru #0" = -10
    "Zohmetli #0" = -10
    "Siehnava #0" = -10
    "Virag #0" = -10
    "Meres #0" = -10
    "Zurheteth #0" = -10
    "Zimnoruk #0" = -10
    "Lamnut #0" = -10
    "Kodurath #0" = -10
    "Nuvagit #0" = -10
    "Liedela #0" = -10
    "Narhith #0" = -10
    "Himukag #0" = -10
    "Nizilit #0" = -10
    "Lumnic #0" = -10
    "Virra #0" = -10
    "Livi #0" = -10
    "Vadis #0" = -10
    "Lorhi #0" = -10
    "Kimnit #0" = -10
    "Kenneluth #0" = -10
    "Hahmi #0" = -10
    "Zorath #0" = -10
    "Zunnaera #0" = -10
    "Zimis #0" = -10
    "Kudes #0" = -10
    "Masha #0" = -10
    "Sorrat #0" = -10
    "Sossu #0" = -10
    "Hosseg #0" = -10
    "Lirru #0" = -10
    "Hihlatle #0" = -10
    "Lenaruc #0" = -10
    "Sonegac #0" = -10
    "Monede #0" = -10
    "Harri #0" = -10
    "Nuritu #0" = -10
    "Lossik #0" = -10
    "Zeshigit #0" = -10
    "Devic #0" = -10
    "Nurhuth #0" = -10
    "Ludak #0" = -10
    "Lassath #0" = -10
    "Kezis #0" = -10
    "Lienna #0" = -10
    "Massec #0" = -10
    "Numnik #0" = -10
    "Kadik #0" = -10
    "Vureth #0" = -10
    "Zume #0" = -10
    "Lerhek #0" = -10
    "Ninnalag #0" = -10
    "Vohnis #0" = -10
    "Losheth #0" = -10
    "Lames #0" = -10
    "Zonnuk #0" = -10
    "Hinnat #0" = -10
    "Sevotlec #0" = -10
    "Maere #0" = -10
    "Hiehlakis #0" = -10
    "Minnuki #0" = -10
    "Neres #0" = -10
    "Sinuda #0" = -10
    "Simat #0" = -10
    "Dedora #0" = -10
    "Mihlus #0" = -10
    "Lahnumuc #0" = -10
    "Sissuc #0" = -10
    "Darrat #0" = -10
    "Mierhak #0" = -10
    "Medegas #0" = -10
    "Lomug #0" = -10
    "Zave #0" = -10
    "Kinnig #0" = -10
    "Vemis #0" = -10
    "Huhlu #0" = -10
    "Vuras #0" = -10
    "Vaedith #0" = -10
    "Marraerek #0" = -10
    "Venag #0" = -10
    "Sirit #0" = -10
    "Dama #0" = -10
    "Hossovat #0" = -10
    "Zuvakut #0" = -10
    "Kenneth #0" = -10
    "Nimuth #0" = -10
    "Mihnukic #0" = -10
    "Nissith #0" = -10
    "Henivu #0" = -10
    "Zori #0" = -10
    "Menotla #0" = -10
    "Vomnera #0" = -10
    "Vedek #0" = -10
    "Kieshe #0" = -10
    "Zovug #0" = -10
    "Koderu #0" = -10
    "Kimenet #0" = -10
    "Nieze #0" = -10
    "Kidak #0" = -10
}

leader_names = {
    Nae Licah Ukhulk Zeranalk Zulduadek Grulkrir Aum Haldrag Sruashk Nuuri Laeruannith Nuukhushk Mudagaashk Drirasih Ulduzzussush Zerith Saath Suab Baa Aeb Bissuki Chaudem Lareg Shilkrer Gerhum Issil Maur Hulkir Braethraubam Draur Bruklevum Gruklal Chalkesh Maulkrellem Gulstelk Hegekibel Muurthush Ulkillath Dukivinuk Brukhauvisil Luldushk Beseve Beghrilk Drekhek Lalstushk Uulk Gaulk Gedhraek Dilstulah Nidhrazem Disezzusim Uartevath Mirhib Ualk Bruldilk Chertaleth Salkeg Beklab Chidhirrash Zuklidig Lluldrelk Ethruzu Gaareh Lissirruth Gruku Balilk Zuabulashk Buukullushk Adhrath Lleklaezzannem Sralkeb Brelannibil Nekluvessug Gasah Llica Gruur Zudharrab Marhirrush Sreldreh Bregerauzzi Braur Shighrilk Graushk Chudar Essesh Sraldudulu Eguh Elkralk Berhinnir Luthre Hulleshk Nadhrabaesuth Lidhum Grekhul Athrib Lubekenneg Srudhral Shuagadik Ilallish Sussi
}

ship_names = {
    Lerudes Marru Zohmetli Siehnava Virag Meres Zurheteth Zimnoruk Lamnut Kodurath Nuvagit Liedela Narhith Himukag Nizilit Lumnic Virra Livi Vadis Lorhi Kimnit Kenneluth Hahmi Zorath Zunnaera Zimis Kudes Masha Sorrat Sossu Hosseg Lirru Hihlatle Lenaruc Sonegac Monede Harri Nuritu Lossik Zeshigit Devic Nurhuth Ludak Lassath Kezis Lienna Massec Numnik Kadik Vureth Zume Lerhek Ninnalag Vohnis Losheth Lames Zonnuk Hinnat Sevotlec Maere Hiehlakis Minnuki Neres Sinuda Simat Dedora Mihlus Lahnumuc Sissuc Darrat Mierhak Medegas Lomug Zave Kinnig Vemis Huhlu Vuras Vaedith Marraerek Venag Sirit Dama Hossovat Zuvakut Kenneth Nimuth Mihnukic Nissith Henivu Zori Menotla Vomnera Vedek Kieshe Zovug Koderu Kimenet Nieze Kidak
}

army_names = {
    "Army of $PROVINCE$"
}

fleet_names = {
    "Fleet of $PROVINCE$"
}