graphical_culture = thaigfx

color = { 210 175 175 }

revolutionary_colors = { 15 14 6}


historical_idea_groups = {
}

historical_units = {
}

monarch_names = {
    "Gaghughan #0" = 10
    "Ganaghan #0" = 10
    "Ganenighan #0" = 10
    "Gangawapoi #0" = 10
    "Gaseghan #0" = 10
    "Gasyongabya #0" = 10
    "Geghan #0" = 10
    "Gesyighan #0" = 10
    "Ghapavyamun #0" = 10
    "Ghatoka #0" = 10
    "Ghatyaghan #0" = 10
    "Ghetyaghan #0" = 10
    "Ghintimun #0" = 10
    "Ghisyumabya #0" = 10
    "Ghoghoghan #0" = 10
    "Ghoka #0" = 10
    "Ghomatobya #0" = 10
    "Ghopapoi #0" = 10
    "Ghubya #0" = 10
    "Ghuka #0" = 10
    "Giraka #0" = 10
    "Gityumpoi #0" = 10
    "Goghan #0" = 10
    "Govyopoi #0" = 10
    "Gugabya #0" = 10
    "Gumun #0" = 10
    "Laghampoi #0" = 10
    "Lampamun #0" = 10
    "Lapuka #0" = 10
    "Latamun #0" = 10
    "Lobya #0" = 10
    "Lonasoghan #0" = 10
    "Luwatyobya #0" = 10
    "Maguka #0" = 10
    "Malighan #0" = 10
    "Mampampoi #0" = 10
    "Mampoi #0" = 10
    "Matebya #0" = 10
    "Matoghan #0" = 10
    "Matyumpupoi #0" = 10
    "Mevyeka #0" = 10
    "Moghan #0" = 10
    "Molomimpoi #0" = 10
    "Monevompoi #0" = 10
    "Moyaghan #0" = 10
    "Mpabya #0" = 10
    "Mpampoi #0" = 10
    "Mpapaka #0" = 10
    "Mparampoi #0" = 10
    "Mparopoi #0" = 10
    "Mpimpoi #0" = 10
    "Mpoyaghan #0" = 10
    "Mpuka #0" = 10
    "Mpumpoi #0" = 10
    "Mugebya #0" = 10
    "Mulika #0" = 10
    "Myamyayeghan #0" = 10
    "Myawomun #0" = 10
    "Myelughan #0" = 10
    "Myipoi #0" = 10
    "Myivabya #0" = 10
    "Myumyoghaka #0" = 10
    "Namingika #0" = 10
    "Nanawika #0" = 10
    "Nesyampoi #0" = 10
    "Netyompoi #0" = 10
    "Ngibya #0" = 10
    "Ngilayaka #0" = 10
    "Ngisyamun #0" = 10
    "Ngkamumun #0" = 10
    "Ngkasyoghan #0" = 10
    "Ngkasyopoi #0" = 10
    "Ngkawaghan #0" = 10
    "Ngkawamyomun #0" = 10
    "Ngkengkanubya #0" = 10
    "Ngkomubya #0" = 10
    "Ngkongosyuka #0" = 10
    "Ngkowaghan #0" = 10
    "Ngkugimpoi #0" = 10
    "Ngkunturompoi #0" = 10
    "Ngkupuka #0" = 10
    "Ngkutyimun #0" = 10
    "Nguka #0" = 10
    "Ngupompoi #0" = 10
    "Nompampoi #0" = 10
    "Nongkamaghan #0" = 10
    "Nowatobya #0" = 10
    "Noweghan #0" = 10
    "Ntengusaghan #0" = 10
    "Ntenyimpoi #0" = 10
    "Ntontomun #0" = 10
    "Ntulompoi #0" = 10
    "Numpumpoi #0" = 10
    "Nyameghan #0" = 10
    "Nyanyutobya #0" = 10
    "Nyepoi #0" = 10
    "Nyeroyumun #0" = 10
    "Nyimpebya #0" = 10
    "Nyingkavyampoi #0" = 10
    "Nyipoi #0" = 10
    "Nyomyika #0" = 10
    "Nyopoi #0" = 10
    "Nyumpoi #0" = 10
    "Pamoghan #0" = 10
    "Pampevomun #0" = 10
    "Pamyabya #0" = 10
    "Panganupoi #0" = 10
    "Papipoi #0" = 10
    "Papoi #0" = 10
    "Pengkaghan #0" = 10
    "Pipempoi #0" = 10
    "Pomun #0" = 10
    "Pumpopughan #0" = 10
    "Ramyapoi #0" = 10
    "Ravarimun #0" = 10
    "Rinamun #0" = 10
    "Romun #0" = 10
    "Rumoka #0" = 10
    "Rungupoi #0" = 10
    "Rununyeka #0" = 10
    "Rupoi #0" = 10
    "Ruwarimpoi #0" = 10
    "Sasyamun #0" = 10
    "Setumpoi #0" = 10
    "Sogamyumun #0" = 10
    "Sowepoi #0" = 10
    "Subya #0" = 10
    "Sughampoi #0" = 10
    "Suka #0" = 10
    "Sulughan #0" = 10
    "Supapoi #0" = 10
    "Suwighan #0" = 10
    "Syaghan #0" = 10
    "Syapoi #0" = 10
    "Syasampoi #0" = 10
    "Syivisyoghan #0" = 10
    "Syiwempoi #0" = 10
    "Syoka #0" = 10
    "Syonyeka #0" = 10
    "Syupoi #0" = 10
    "Tapoghan #0" = 10
    "Tapoi #0" = 10
    "Teromun #0" = 10
    "Tika #0" = 10
    "Timpamun #0" = 10
    "Tingkapepoi #0" = 10
    "Tipoi #0" = 10
    "Tisimun #0" = 10
    "Towepoi #0" = 10
    "Tubya #0" = 10
    "Tughan #0" = 10
    "Tughumpoi #0" = 10
    "Tugighumpoi #0" = 10
    "Tyitumpoi #0" = 10
    "Tyumyatompoi #0" = 10
    "Tyumyotapoi #0" = 10
    "Vagaghan #0" = 10
    "Vangaghan #0" = 10
    "Vevyapoi #0" = 10
    "Vingebya #0" = 10
    "Volumaghan #0" = 10
    "Vopuka #0" = 10
    "Voromun #0" = 10
    "Vughan #0" = 10
    "Vuka #0" = 10
    "Vumyemun #0" = 10
    "Vyalimpoi #0" = 10
    "Vyamaghan #0" = 10
    "Vyamebya #0" = 10
    "Vyaripoi #0" = 10
    "Vyavyughan #0" = 10
    "Vyayuka #0" = 10
    "Vyengkapughan #0" = 10
    "Vyiraka #0" = 10
    "Vyivamun #0" = 10
    "Vyontumpoi #0" = 10
    "Vyupomun #0" = 10
    "Wampoi #0" = 10
    "Wapoi #0" = 10
    "Wemun #0" = 10
    "Wengkabya #0" = 10
    "Wompoi #0" = 10
    "Wonyughan #0" = 10
    "Wopoi #0" = 10
    "Wowighan #0" = 10
    "Wubya #0" = 10
    "Wughan #0" = 10
    "Wunumyabya #0" = 10
    "Yampangkaghan #0" = 10
    "Yangkompoi #0" = 10
    "Yarobya #0" = 10
    "Yawuwaka #0" = 10
    "Yeghan #0" = 10
    "Yesubya #0" = 10
    "Yighan #0" = 10
    "Yighanika #0" = 10
    "Yoghan #0" = 10
    "Yulumpoi #0" = 10
    "Yumpompoi #0" = 10

    "Gasatyar #0" = -10
    "Ghaputyatyar #0" = -10
    "Ghasotun #0" = -10
    "Ghatun #0" = -10
    "Ghavyadun #0" = -10
    "Ghayompidun #0" = -10
    "Ghinguar #0" = -10
    "Ghodun #0" = -10
    "Ghoredun #0" = -10
    "Ghumangkaar #0" = -10
    "Ghuyatyar #0" = -10
    "Gusyitun #0" = -10
    "Gutun #0" = -10
    "Laghungedun #0" = -10
    "Lanimpotyar #0" = -10
    "Lasyatun #0" = -10
    "Latun #0" = -10
    "Ledun #0" = -10
    "Lesyodun #0" = -10
    "Lomyitun #0" = -10
    "Lonyotyar #0" = -10
    "Lotun #0" = -10
    "Lovyotun #0" = -10
    "Ludun #0" = -10
    "Lugutun #0" = -10
    "Lutyar #0" = -10
    "Magear #0" = -10
    "Mamyear #0" = -10
    "Masuar #0" = -10
    "Masyadun #0" = -10
    "Mayomyutyar #0" = -10
    "Mimatyar #0" = -10
    "Miperatun #0" = -10
    "Mpadun #0" = -10
    "Mpampalatun #0" = -10
    "Mpangkadun #0" = -10
    "Mpanyedun #0" = -10
    "Mpatun #0" = -10
    "Mpatyar #0" = -10
    "Mpolitun #0" = -10
    "Mpoyadun #0" = -10
    "Mpuar #0" = -10
    "Mpungadun #0" = -10
    "Mpunudun #0" = -10
    "Mpuvutyar #0" = -10
    "Mudun #0" = -10
    "Mutyar #0" = -10
    "Myaghangkatyar #0" = -10
    "Myalatun #0" = -10
    "Myamatyear #0" = -10
    "Myelavidun #0" = -10
    "Myenotun #0" = -10
    "Myodun #0" = -10
    "Myompatun #0" = -10
    "Myongemaar #0" = -10
    "Myopuar #0" = -10
    "Myudun #0" = -10
    "Myumputyar #0" = -10
    "Nadun #0" = -10
    "Nangkolotun #0" = -10
    "Nayadun #0" = -10
    "Ngamear #0" = -10
    "Ngamyiyudun #0" = -10
    "Ngatyar #0" = -10
    "Ngayavutyar #0" = -10
    "Ngetyaar #0" = -10
    "Ngetyar #0" = -10
    "Ngevyadun #0" = -10
    "Ngidun #0" = -10
    "Ngighatun #0" = -10
    "Nginarutun #0" = -10
    "Ngkadun #0" = -10
    "Ngkaginyutun #0" = -10
    "Ngkalitun #0" = -10
    "Ngkangkidun #0" = -10
    "Ngkangkodun #0" = -10
    "Ngkangkungkidun #0" = -10
    "Ngkawatyar #0" = -10
    "Ngkipusyetyar #0" = -10
    "Ngkityoar #0" = -10
    "Ngkongodun #0" = -10
    "Ngkongotyar #0" = -10
    "Ngkutear #0" = -10
    "Ngkuvyaar #0" = -10
    "Ngoghadun #0" = -10
    "Ngovyiar #0" = -10
    "Ngoyoar #0" = -10
    "Ngumyunguar #0" = -10
    "Norutyar #0" = -10
    "Numyutyodun #0" = -10
    "Nupatyar #0" = -10
    "Nyangopatyar #0" = -10
    "Nyatyar #0" = -10
    "Nyavudun #0" = -10
    "Nyomyunear #0" = -10
    "Nyotyar #0" = -10
    "Pagetun #0" = -10
    "Pamengidun #0" = -10
    "Pamyutun #0" = -10
    "Panguar #0" = -10
    "Payedun #0" = -10
    "Pevadun #0" = -10
    "Pinamyoar #0" = -10
    "Pungkutyar #0" = -10
    "Rarotyar #0" = -10
    "Rasuluar #0" = -10
    "Ratyar #0" = -10
    "Ravyitun #0" = -10
    "Raweruar #0" = -10
    "Rutun #0" = -10
    "Rutyar #0" = -10
    "Sagenyodun #0" = -10
    "Satyar #0" = -10
    "Satyetyar #0" = -10
    "Savyonotyar #0" = -10
    "Sawuyodun #0" = -10
    "Sesyanyotyar #0" = -10
    "Sodun #0" = -10
    "Sumatyar #0" = -10
    "Syadun #0" = -10
    "Syangkatyar #0" = -10
    "Syasotyar #0" = -10
    "Syasyatyar #0" = -10
    "Syenyatyar #0" = -10
    "Syetun #0" = -10
    "Syinyutun #0" = -10
    "Syonayatun #0" = -10
    "Syongoghodun #0" = -10
    "Syongugadun #0" = -10
    "Syonyotyar #0" = -10
    "Syuvudun #0" = -10
    "Tadun #0" = -10
    "Talitun #0" = -10
    "Tamyudun #0" = -10
    "Tangkadun #0" = -10
    "Tawear #0" = -10
    "Totyar #0" = -10
    "Tudun #0" = -10
    "Tungapidun #0" = -10
    "Tutyadun #0" = -10
    "Tutyatun #0" = -10
    "Tuvyatun #0" = -10
    "Tyanaritun #0" = -10
    "Tyatyaar #0" = -10
    "Tyatyar #0" = -10
    "Tyatyiar #0" = -10
    "Tyayetyar #0" = -10
    "Tyodun #0" = -10
    "Tyongkotyar #0" = -10
    "Tyonyoredun #0" = -10
    "Tyotun #0" = -10
    "Tyuvaar #0" = -10
    "Vamaar #0" = -10
    "Vatun #0" = -10
    "Venegutun #0" = -10
    "Vingovyadun #0" = -10
    "Vitun #0" = -10
    "Voridun #0" = -10
    "Vosanudun #0" = -10
    "Vovyedun #0" = -10
    "Vyadun #0" = -10
    "Vyanyedun #0" = -10
    "Vyasadun #0" = -10
    "Vyear #0" = -10
    "Vyetyidun #0" = -10
    "Vyivadun #0" = -10
    "Vyonatyar #0" = -10
    "Vyovyovuar #0" = -10
    "Vyudun #0" = -10
    "Vyumutyar #0" = -10
    "Vyunotun #0" = -10
    "Waar #0" = -10
    "Watyar #0" = -10
    "Wayodun #0" = -10
    "Wighatyar #0" = -10
    "Wimyangkuar #0" = -10
    "Wityar #0" = -10
    "Woputun #0" = -10
    "Wusetyar #0" = -10
    "Wusyaar #0" = -10
    "Wutyar #0" = -10
    "Wuwuar #0" = -10
    "Yagetyar #0" = -10
    "Yangadun #0" = -10
    "Yanyiwadun #0" = -10
    "Yapatyar #0" = -10
    "Yaratun #0" = -10
    "Yisovyotyar #0" = -10
    "Yoghutun #0" = -10
    "Yotuar #0" = -10
    "Yoyetyar #0" = -10
    "Yumpotun #0" = -10
    "Yungkinatyar #0" = -10
    "Yutun #0" = -10
    "Yutyar #0" = -10
    "Yutyatun #0" = -10
}

leader_names = {
    Gaghughan Ganaghan Ganenighan Gangawapoi Gaseghan Gasyongabya Geghan Gesyighan Ghapavyamun Ghatoka Ghatyaghan Ghetyaghan Ghintimun Ghisyumabya Ghoghoghan Ghoka Ghomatobya Ghopapoi Ghubya Ghuka Giraka Gityumpoi Goghan Govyopoi Gugabya Gumun Laghampoi Lampamun Lapuka Latamun Lobya Lonasoghan Luwatyobya Maguka Malighan Mampampoi Mampoi Matebya Matoghan Matyumpupoi Mevyeka Moghan Molomimpoi Monevompoi Moyaghan Mpabya Mpampoi Mpapaka Mparampoi Mparopoi Mpimpoi Mpoyaghan Mpuka Mpumpoi Mugebya Mulika Myamyayeghan Myawomun Myelughan Myipoi Myivabya Myumyoghaka Namingika Nanawika Nesyampoi Netyompoi Ngibya Ngilayaka Ngisyamun Ngkamumun Ngkasyoghan Ngkasyopoi Ngkawaghan Ngkawamyomun Ngkengkanubya Ngkomubya Ngkongosyuka Ngkowaghan Ngkugimpoi Ngkunturompoi Ngkupuka Ngkutyimun Nguka Ngupompoi Nompampoi Nongkamaghan Nowatobya Noweghan Ntengusaghan Ntenyimpoi Ntontomun Ntulompoi Numpumpoi Nyameghan Nyanyutobya Nyepoi Nyeroyumun Nyimpebya Nyingkavyampoi Nyipoi Nyomyika Nyopoi Nyumpoi Pamoghan Pampevomun Pamyabya Panganupoi Papipoi Papoi Pengkaghan Pipempoi Pomun Pumpopughan Ramyapoi Ravarimun Rinamun Romun Rumoka Rungupoi Rununyeka Rupoi Ruwarimpoi Sasyamun Setumpoi Sogamyumun Sowepoi Subya Sughampoi Suka Sulughan Supapoi Suwighan Syaghan Syapoi Syasampoi Syivisyoghan Syiwempoi Syoka Syonyeka Syupoi Tapoghan Tapoi Teromun Tika Timpamun Tingkapepoi Tipoi Tisimun Towepoi Tubya Tughan Tughumpoi Tugighumpoi Tyitumpoi Tyumyatompoi Tyumyotapoi Vagaghan Vangaghan Vevyapoi Vingebya Volumaghan Vopuka Voromun Vughan Vuka Vumyemun Vyalimpoi Vyamaghan Vyamebya Vyaripoi Vyavyughan Vyayuka Vyengkapughan Vyiraka Vyivamun Vyontumpoi Vyupomun Wampoi Wapoi Wemun Wengkabya Wompoi Wonyughan Wopoi Wowighan Wubya Wughan Wunumyabya Yampangkaghan Yangkompoi Yarobya Yawuwaka Yeghan Yesubya Yighan Yighanika Yoghan Yulumpoi Yumpompoi
}

ship_names = {
    Gasatyar Ghaputyatyar Ghasotun Ghatun Ghavyadun Ghayompidun Ghinguar Ghodun Ghoredun Ghumangkaar Ghuyatyar Gusyitun Gutun Laghungedun Lanimpotyar Lasyatun Latun Ledun Lesyodun Lomyitun Lonyotyar Lotun Lovyotun Ludun Lugutun Lutyar Magear Mamyear Masuar Masyadun Mayomyutyar Mimatyar Miperatun Mpadun Mpampalatun Mpangkadun Mpanyedun Mpatun Mpatyar Mpolitun Mpoyadun Mpuar Mpungadun Mpunudun Mpuvutyar Mudun Mutyar Myaghangkatyar Myalatun Myamatyear Myelavidun Myenotun Myodun Myompatun Myongemaar Myopuar Myudun Myumputyar Nadun Nangkolotun Nayadun Ngamear Ngamyiyudun Ngatyar Ngayavutyar Ngetyaar Ngetyar Ngevyadun Ngidun Ngighatun Nginarutun Ngkadun Ngkaginyutun Ngkalitun Ngkangkidun Ngkangkodun Ngkangkungkidun Ngkawatyar Ngkipusyetyar Ngkityoar Ngkongodun Ngkongotyar Ngkutear Ngkuvyaar Ngoghadun Ngovyiar Ngoyoar Ngumyunguar Norutyar Numyutyodun Nupatyar Nyangopatyar Nyatyar Nyavudun Nyomyunear Nyotyar Pagetun Pamengidun Pamyutun Panguar Payedun Pevadun Pinamyoar Pungkutyar Rarotyar Rasuluar Ratyar Ravyitun Raweruar Rutun Rutyar Sagenyodun Satyar Satyetyar Savyonotyar Sawuyodun Sesyanyotyar Sodun Sumatyar Syadun Syangkatyar Syasotyar Syasyatyar Syenyatyar Syetun Syinyutun Syonayatun Syongoghodun Syongugadun Syonyotyar Syuvudun Tadun Talitun Tamyudun Tangkadun Tawear Totyar Tudun Tungapidun Tutyadun Tutyatun Tuvyatun Tyanaritun Tyatyaar Tyatyar Tyatyiar Tyayetyar Tyodun Tyongkotyar Tyonyoredun Tyotun Tyuvaar Vamaar Vatun Venegutun Vingovyadun Vitun Voridun Vosanudun Vovyedun Vyadun Vyanyedun Vyasadun Vyear Vyetyidun Vyivadun Vyonatyar Vyovyovuar Vyudun Vyumutyar Vyunotun Waar Watyar Wayodun Wighatyar Wimyangkuar Wityar Woputun Wusetyar Wusyaar Wutyar Wuwuar Yagetyar Yangadun Yanyiwadun Yapatyar Yaratun Yisovyotyar Yoghutun Yotuar Yoyetyar Yumpotun Yungkinatyar Yutun Yutyar Yutyatun
}

army_names = {
    "Army of $PROVINCE$"
}

fleet_names = {
    "Fleet of $PROVINCE$"
}