graphical_culture = northamericagfx

color = { 210 140 70 }

revolutionary_colors = { 4 15 4}


historical_idea_groups = {
}

historical_units = {
}

monarch_names = {
    "Tuch #0" = 10
    "Obrum #0" = 10
    "Dych #0" = 10
    "Ilcev #0" = 10
    "Bayl #0" = 10
    "Brunnuli #0" = 10
    "Dril #0" = 10
    "Rulmuwo #0" = 10
    "Kog #0" = 10
    "Vereho #0" = 10
    "Vomlol #0" = 10
    "Pinah #0" = 10
    "Erbod #0" = 10
    "Endeg #0" = 10
    "Welin #0" = 10
    "Nanrale #0" = 10
    "Dridvomvac #0" = 10
    "Treroga #0" = 10
    "Trugrognayd #0" = 10
    "Uveza #0" = 10
    "Gur #0" = 10
    "Ergamo #0" = 10
    "Puud #0" = 10
    "Orvete #0" = 10
    "Treyn #0" = 10
    "Walage #0" = 10
    "Doch #0" = 10
    "Pevlen #0" = 10
    "Dog #0" = 10
    "Dandage #0" = 10
    "Ilnyc #0" = 10
    "Nonvemo #0" = 10
    "Olkach #0" = 10
    "Erboda #0" = 10
    "Drinrur #0" = 10
    "Todara #0" = 10
    "Nemlovluc #0" = 10
    "Ralora #0" = 10
    "Bragranbac #0" = 10
    "Wovror #0" = 10
    "Taud #0" = 10
    "Enneda #0" = 10
    "Ber #0" = 10
    "Omveda #0" = 10
    "Bruc #0" = 10
    "Omrafi #0" = 10
    "Wad #0" = 10
    "Erile #0" = 10
    "Kin #0" = 10
    "Arkav #0" = 10
    "Brumroch #0" = 10
    "Dranres #0" = 10
    "Meldich #0" = 10
    "Edemo #0" = 10
    "Povren #0" = 10
    "Olcawa #0" = 10
    "Dilvortad #0" = 10
    "Belrusa #0" = 10
    "Gaiccedvuon #0" = 10
    "Eldin #0" = 10
    "Bor #0" = 10
    "Brubbumi #0" = 10
    "Bad #0" = 10
    "Gedohu #0" = 10
    "Proch #0" = 10
    "Abrari #0" = 10
    "Kac #0" = 10
    "Duldoso #0" = 10
    "Ped #0" = 10
    "Odohe #0" = 10
    "Predluc #0" = 10
    "Osrata #0" = 10
    "Dennan #0" = 10
    "Edlosa #0" = 10
    "Veyrbid #0" = 10
    "Edvaw #0" = 10
    "Pondislug #0" = 10
    "Greglih #0" = 10
    "Drerdirtan #0" = 10
    "Onbus #0" = 10
    "Pal #0" = 10
    "Nuldage #0" = 10
    "Weg #0" = 10
    "Demrenu #0" = 10
    "Waug #0" = 10
    "Uvloz #0" = 10
    "Greg #0" = 10
    "Gralret #0" = 10
    "Vuur #0" = 10
    "Drergan #0" = 10
    "Nuolrig #0" = 10
    "Ivror #0" = 10
    "Tresrac #0" = 10
    "Olcivo #0" = 10
    "Sovril #0" = 10
    "Paduvo #0" = 10
    "Negnulvog #0" = 10
    "Braldeho #0" = 10
    "Elkonbuor #0" = 10
    "Sumdesa #0" = 10

    "Diea #0" = -10
    "Tommuh #0" = -10
    "Hai #0" = -10
    "Arvafa #0" = -10
    "Tuai #0" = -10
    "Elvohi #0" = -10
    "Kitu #0" = -10
    "Dolvov #0" = -10
    "Siho #0" = -10
    "Martane #0" = -10
    "Kofa #0" = -10
    "Trimmewo #0" = -10
    "Sove #0" = -10
    "Wovvavi #0" = -10
    "Ualo #0" = -10
    "Ruldihu #0" = -10
    "Ieate #0" = -10
    "Onbam #0" = -10
    "Eidi #0" = -10
    "Olkave #0" = -10
    "Leia #0" = -10
    "Icraw #0" = -10
    "Huae #0" = -10
    "Egvih #0" = -10
    "Riea #0" = -10
    "Harbon #0" = -10
    "Noge #0" = -10
    "Ilnez #0" = -10
    "Jano #0" = -10
    "Panefu #0" = -10
    "Roro #0" = -10
    "Drevludi #0" = -10
    "Mowe #0" = -10
    "Kandata #0" = -10
    "Uaina #0" = -10
    "Egvizo #0" = -10
    "Eifa #0" = -10
    "Gradotu #0" = -10
    "Eira #0" = -10
    "Trarvuha #0" = -10
    "Jaie #0" = -10
    "Temluwe #0" = -10
    "Hia #0" = -10
    "Rerbone #0" = -10
    "Suae #0" = -10
    "Rerdere #0" = -10
    "Mofu #0" = -10
    "Koldus #0" = -10
    "Heto #0" = -10
    "Kaccivi #0" = -10
    "Relo #0" = -10
    "Todlav #0" = -10
    "Weto #0" = -10
    "Ocdolo #0" = -10
    "Uane #0" = -10
    "Ogmetu #0" = -10
    "Eiaha #0" = -10
    "Aref #0" = -10
    "Iaewi #0" = -10
    "Emdori #0" = -10
    "Tei #0" = -10
    "Suvrov #0" = -10
    "Reia #0" = -10
    "Amdide #0" = -10
    "Siae #0" = -10
    "Nuvvahe #0" = -10
    "Woza #0" = -10
    "Onnut #0" = -10
    "Wewe #0" = -10
    "Tuvles #0" = -10
    "Vena #0" = -10
    "Ilkuz #0" = -10
    "Biza #0" = -10
    "Karkar #0" = -10
    "Uaizi #0" = -10
    "Predriro #0" = -10
    "Uaeme #0" = -10
    "Igmava #0" = -10
    "Aiga #0" = -10
    "Emrele #0" = -10
    "Fuae #0" = -10
    "Nevehi #0" = -10
    "Nei #0" = -10
    "Grerdad #0" = -10
    "Ria #0" = -10
    "Trengen #0" = -10
    "Kama #0" = -10
    "Prurgad #0" = -10
    "Duti #0" = -10
    "Morvevo #0" = -10
    "Levi #0" = -10
    "Emriso #0" = -10
    "Tizo #0" = -10
    "Omvedi #0" = -10
    "Uaeti #0" = -10
    "Grocrig #0" = -10
    "Uaira #0" = -10
    "Necdava #0" = -10
    "Ieaho #0" = -10
    "Nadrewa #0" = -10
}

leader_names = {
    Tuch Obrum Dych Ilcev Bayl Brunnuli Dril Rulmuwo Kog Vereho Vomlol Pinah Erbod Endeg Welin Nanrale Dridvomvac Treroga Trugrognayd Uveza Gur Ergamo Puud Orvete Treyn Walage Doch Pevlen Dog Dandage Ilnyc Nonvemo Olkach Erboda Drinrur Todara Nemlovluc Ralora Bragranbac Wovror Taud Enneda Ber Omveda Bruc Omrafi Wad Erile Kin Arkav Brumroch Dranres Meldich Edemo Povren Olcawa Dilvortad Belrusa Gaiccedvuon Eldin Bor Brubbumi Bad Gedohu Proch Abrari Kac Duldoso Ped Odohe Predluc Osrata Dennan Edlosa Veyrbid Edvaw Pondislug Greglih Drerdirtan Onbus Pal Nuldage Weg Demrenu Waug Uvloz Greg Gralret Vuur Drergan Nuolrig Ivror Tresrac Olcivo Sovril Paduvo Negnulvog Braldeho Elkonbuor Sumdesa
}

ship_names = {
    Diea Tommuh Hai Arvafa Tuai Elvohi Kitu Dolvov Siho Martane Kofa Trimmewo Sove Wovvavi Ualo Ruldihu Ieate Onbam Eidi Olkave Leia Icraw Huae Egvih Riea Harbon Noge Ilnez Jano Panefu Roro Drevludi Mowe Kandata Uaina Egvizo Eifa Gradotu Eira Trarvuha Jaie Temluwe Hia Rerbone Suae Rerdere Mofu Koldus Heto Kaccivi Relo Todlav Weto Ocdolo Uane Ogmetu Eiaha Aref Iaewi Emdori Tei Suvrov Reia Amdide Siae Nuvvahe Woza Onnut Wewe Tuvles Vena Ilkuz Biza Karkar Uaizi Predriro Uaeme Igmava Aiga Emrele Fuae Nevehi Nei Grerdad Ria Trengen Kama Prurgad Duti Morvevo Levi Emriso Tizo Omvedi Uaeti Grocrig Uaira Necdava Ieaho Nadrewa
}

army_names = {
    "Army of $PROVINCE$"
}

fleet_names = {
    "Fleet of $PROVINCE$"
}