graphical_culture = westerngfx

color = { 209 48 33 }

revolutionary_colors = { 14 10 13}


historical_idea_groups = {
}

historical_units = {
}

monarch_names = {
    "Abel #0" = 10
    "Absolard #0" = 10
    "Absolet #0" = 10
    "Achane #0" = 10
    "Achene #0" = 10
    "Achibert #0" = 10
    "Achille #0" = 10
    "Adair #0" = 10
    "Adalard #0" = 10
    "Adam #0" = 10
    "Adeber #0" = 10
    "Adel #0" = 10
    "Adistair #0" = 10
    "Adnot #0" = 10
    "Adric #0" = 10
    "Adrien #0" = 10
    "Adrone #0" = 10
    "Adwig #0" = 10
    "Aelwin #0" = 10
    "Ailex #0" = 10
    "Aillard #0" = 10
    "Aime #0" = 10
    "Aimeric #0" = 10
    "Ainethach #0" = 10
    "Ajac #0" = 10
    "Alabane #0" = 10
    "Alain #0" = 10
    "Alaird #0" = 10
    "Alard #0" = 10
    "Albec #0" = 10
    "Alberic #0" = 10
    "Albert #0" = 10
    "Aldouin #0" = 10
    "Aleron #0" = 10
    "Alesace #0" = 10
    "Alessiac #0" = 10
    "Alessio #0" = 10
    "Alexain #0" = 10
    "Alexis #0" = 10
    "Alezan #0" = 10
    "Alfred #0" = 10
    "Alinon #0" = 10
    "Alix #0" = 10
    "Allan #0" = 10
    "Allunen #0" = 10
    "Alodie #0" = 10
    "Aloin #0" = 10
    "Alouis #0" = 10
    "Alphaury #0" = 10
    "Alphonse #0" = 10
    "Altus #0" = 10
    "Alvaren #0" = 10
    "Alvuin #0" = 10
    "Amable #0" = 10
    "Amaund #0" = 10
    "Amaury #0" = 10
    "Amberic #0" = 10
    "Ambroise #0" = 10
    "Amelus #0" = 10
    "Amiable #0" = 10
    "Amiberl #0" = 10
    "Anatole #0" = 10
    "Ancus #0" = 10
    "Andbert #0" = 10
    "Andre #0" = 10
    "Andrec #0" = 10
    "Androche #0" = 10
    "Androne #0" = 10
    "Angof #0" = 10
    "Annibal #0" = 10
    "Antoine #0" = 10
    "Anton #0" = 10
    "Antonin #0" = 10
    "Aphaurin #0" = 10
    "Aphren #0" = 10
    "Arbert #0" = 10
    "Arcady #0" = 10
    "Archimbert #0" = 10
    "Archimbide #0" = 10
    "Aresin #0" = 10
    "Aribert #0" = 10
    "Armel #0" = 10
    "Armin #0" = 10
    "Arnand #0" = 10
    "Arnaud #0" = 10
    "Arniel #0" = 10
    "Arnitole #0" = 10
    "Arnoth #0" = 10
    "Arnousten #0" = 10
    "Arphevic #0" = 10
    "Arthur #0" = 10
    "Asard #0" = 10
    "Astav #0" = 10
    "Astien #0" = 10
    "Athanin #0" = 10
    "Athel #0" = 10
    "Atroque #0" = 10
    "Aubaud #0" = 10
    "Auberic #0" = 10
    "Aude #0" = 10
    "Audric #0" = 10
    "Auglard #0" = 10
    "Auguste #0" = 10
    "Aveberl #0" = 10
    "Avent #0" = 10
    "Avrippe #0" = 10
    "Axel #0" = 10
    "Balik #0" = 10
    "Balin #0" = 10
    "Banning #0" = 10
    "Banyrick #0" = 10
    "Baragon #0" = 10
    "Baralyn #0" = 10
    "Barjot #0" = 10
    "Barnabe #0" = 10
    "Barnand #0" = 10
    "Barthel #0" = 10
    "Bartram #0" = 10
    "Baryctor #0" = 10
    "Basile #0" = 10
    "Basilien #0" = 10
    "Bastibien #0" = 10
    "Bastien #0" = 10
    "Baurion #0" = 10
    "Beaubel #0" = 10
    "Beaucourt #0" = 10
    "Beaunois #0" = 10
    "Bedastair #0" = 10
    "Begnaud #0" = 10
    "Belchimac #0" = 10
    "Belethor #0" = 10
    "Belic #0" = 10
    "Bendt #0" = 10
    "Benjamin #0" = 10
    "Benjamund #0" = 10
    "Benjamyn #0" = 10
    "Benoit #0" = 10
    "Benry #0" = 10
    "Beran #0" = 10
    "Bereditte #0" = 10
    "Beric #0" = 10
    "Berjac #0" = 10
    "Berjamund #0" = 10
    "Bernamund #0" = 10
    "Bernard #0" = 10
    "Bernardine #0" = 10
    "Bertran #0" = 10
    "Bertrand #0" = 10
    "Beryn #0" = 10
    "Birard #0" = 10
    "Bistrand #0" = 10
    "Blaise #0" = 10
    "Blasius #0" = 10
    "Blithe #0" = 10
    "Boeuf #0" = 10
    "Bradon #0" = 10
    "Braig #0" = 10
    "Brandish #0" = 10
    "Bric #0" = 10
    "Brice #0" = 10
    "Brinarch #0" = 10
    "Bruc #0" = 10
    "Brucetus #0" = 10
    "Brulo #0" = 10
    "Brunile #0" = 10
    "Bruno #0" = 10
    "Brussec #0" = 10
    "Buneau #0" = 10
    "Cahusque #0" = 10
    "Calden #0" = 10
    "Calixte #0" = 10
    "Cambio #0" = 10
    "Canollot #0" = 10
    "Cantier #0" = 10
    "Caoiss #0" = 10
    "Casimir #0" = 10
    "Cavot #0" = 10
    "Cedran #0" = 10
    "Celann #0" = 10
    "Celnard #0" = 10
    "Cesamund #0" = 10
    "Cesarel #0" = 10
    "Chantot #0" = 10
    "Charbriel #0" = 10
    "Charlebert #0" = 10
    "Charlemic #0" = 10
    "Charlemund #0" = 10
    "Charlerel #0" = 10
    "Charleric #0" = 10
    "Charques #0" = 10
    "Chartrand #0" = 10
    "Chedric #0" = 10
    "Chervain #0" = 10
    "Chrismin #0" = 10
    "Christoph #0" = 10
    "Christophe #0" = 10
    "Churley #0" = 10
    "Ciel #0" = 10
    "Cimon #0" = 10
    "Cirges #0" = 10
    "Claude #0" = 10
    "Claumin #0" = 10
    "Clauvis #0" = 10
    "Clement #0" = 10
    "Clinton #0" = 10
    "Clovis #0" = 10
    "Colane #0" = 10
    "Colbois #0" = 10
    "Colby #0" = 10
    "Colin #0" = 10
    "Colwin #0" = 10
    "Colwyn #0" = 10
    "Condier #0" = 10
    "Condrenn #0" = 10
    "Corbyn #0" = 10
    "Cordier #0" = 10
    "Corentin #0" = 10
    "Corintthac #0" = 10
    "Corlas #0" = 10
    "Corrick #0" = 10
    "Corwyn #0" = 10
    "Cosnach #0" = 10
    "Coyne #0" = 10
    "Craig #0" = 10
    "Crenard #0" = 10
    "Crendal #0" = 10
    "Curtice #0" = 10
    "Cynric #0" = 10
    "Cyntoine #0" = 10
    "Cyrill #0" = 10
    "Dacele #0" = 10
    "Daimbert #0" = 10
    "Daine #0" = 10
    "Dalan #0" = 10
    "Dalenc #0" = 10
    "Damard #0" = 10
    "Damian #0" = 10
    "Damien #0" = 10
    "Danders #0" = 10
    "Danforth #0" = 10
    "Daniel #0" = 10
    "Dantoine #0" = 10
    "Danual #0" = 10
    "Danwyche #0" = 10
    "Darcy #0" = 10
    "Daribert #0" = 10
    "Daric #0" = 10
    "Dariel #0" = 10
    "Darien #0" = 10
    "Dariot #0" = 10
    "Daro #0" = 10
    "Darrel #0" = 10
    "Darren #0" = 10
    "Darric #0" = 10
    "Darron #0" = 10
    "Darryn #0" = 10
    "Darvell #0" = 10
    "Davide #0" = 10
    "Davier #0" = 10
    "Davyd #0" = 10
    "Debentien #0" = 10
    "Degaine #0" = 10
    "Degaratien #0" = 10
    "Delacourt #0" = 10
    "Delane #0" = 10
    "Delric #0" = 10
    "Delven #0" = 10
    "Delvin #0" = 10
    "Derrell #0" = 10
    "Destaine #0" = 10
    "Destane #0" = 10
    "Detritus #0" = 10
    "Deverak #0" = 10
    "Deveral #0" = 10
    "Dhalen #0" = 10
    "Didier #0" = 10
    "Dilan #0" = 10
    "Dilborn #0" = 10
    "Dimitri #0" = 10
    "Donel #0" = 10
    "Donnel #0" = 10
    "Dorand #0" = 10
    "Dore #0" = 10
    "Dorel #0" = 10
    "Dorian #0" = 10
    "Doumant #0" = 10
    "Dracien #0" = 10
    "Drago #0" = 10
    "Dran #0" = 10
    "Draven #0" = 10
    "Drivien #0" = 10
    "Dryston #0" = 10
    "Duach #0" = 10
    "Duncan #0" = 10
    "Dunimond #0" = 10
    "Duraeg #0" = 10
    "Dureau #0" = 10
    "Dydier #0" = 10
    "Dyric #0" = 10
    "Ealis #0" = 10
    "Edain #0" = 10
    "Edgar #0" = 10
    "Edgard #0" = 10
    "Edmund #0" = 10
    "Edouard #0" = 10
    "Edreld #0" = 10
    "Edric #0" = 10
    "Edrien #0" = 10
    "Edryg #0" = 10
    "Eduard #0" = 10
    "Edweg #0" = 10
    "Elbert #0" = 10
    "Ellic #0" = 10
    "Elnis #0" = 10
    "Eloic #0" = 10
    "Eltrys #0" = 10
    "Emeric #0" = 10
    "Emile #0" = 10
    "Emiliard #0" = 10
    "Emilien #0" = 10
    "Emmandic #0" = 10
    "Emmanuel #0" = 10
    "Emmerard #0" = 10
    "Emnard #0" = 10
    "Emory #0" = 10
    "Emoryan #0" = 10
    "Endemel #0" = 10
    "Enmon #0" = 10
    "Ennemond #0" = 10
    "Ennoc #0" = 10
    "Enri #0" = 10
    "Enrick #0" = 10
    "Erbogar #0" = 10
    "Erind #0" = 10
    "Erj #0" = 10
    "Ernand #0" = 10
    "Ernard #0" = 10
    "Ernele #0" = 10
    "Ernest #0" = 10
    "Ernirus #0" = 10
    "Erold #0" = 10
    "Erwan #0" = 10
    "Escabert #0" = 10
    "Escamel #0" = 10
    "Esmond #0" = 10
    "Esquier #0" = 10
    "Esteve #0" = 10
    "Estien #0" = 10
    "Estienn #0" = 10
    "Ethian #0" = 10
    "Etiache #0" = 10
    "Etienne #0" = 10
    "Eugal #0" = 10
    "Eugien #0" = 10
    "Eustis #0" = 10
    "Evien #0" = 10
    "Evinn #0" = 10
    "Evrart #0" = 10
    "Fabremund #0" = 10
    "Fabrice #0" = 10
    "Faolchu #0" = 10
    "Farelle #0" = 10
    "Faric #0" = 10
    "Farvour #0" = 10
    "Federic #0" = 10
    "Felipe #0" = 10
    "Felyx #0" = 10
    "Fenas #0" = 10
    "Ferarilie #0" = 10
    "Ferou #0" = 10
    "Ferrand #0" = 10
    "Ferrum #0" = 10
    "Filbert #0" = 10
    "Filibert #0" = 10
    "Finious #0" = 10
    "Florenot #0" = 10
    "Florent #0" = 10
    "Floyd #0" = 10
    "Fonten #0" = 10
    "Fontenot #0" = 10
    "Foucault #0" = 10
    "Franck #0" = 10
    "Francois #0" = 10
    "Francynak #0" = 10
    "Franque #0" = 10
    "Frederic #0" = 10
    "Frederuno #0" = 10
    "Frencque #0" = 10
    "Frilan #0" = 10
    "Frizkav #0" = 10
    "Frizwyr #0" = 10
    "Frostien #0" = 10
    "Frubert #0" = 10
    "Frugo #0" = 10
    "Fugues #0" = 10
    "Gaban #0" = 10
    "Gabin #0" = 10
    "Gaboryan #0" = 10
    "Gabrien #0" = 10
    "Gabryel #0" = 10
    "Gaffer #0" = 10
    "Gailen #0" = 10
    "Gaillard #0" = 10
    "Gan #0" = 10
    "Ganet #0" = 10
    "Garbert #0" = 10
    "Gargrell #0" = 10
    "Garron #0" = 10
    "Garth #0" = 10
    "Garvey #0" = 10
    "Gascone #0" = 10
    "Gaspar #0" = 10
    "Gaspard #0" = 10
    "Gasparien #0" = 10
    "Gastarge #0" = 10
    "Gastau #0" = 10
    "Gasteau #0" = 10
    "Gaston #0" = 10
    "Gaubert #0" = 10
    "Gauldur #0" = 10
    "Gaven #0" = 10
    "Gavin #0" = 10
    "Gavrard #0" = 10
    "Gavric #0" = 10
    "Gawayne #0" = 10
    "Gedric #0" = 10
    "Gelem #0" = 10
    "Gelvin #0" = 10
    "Gennove #0" = 10
    "Geon #0" = 10
    "Geonard #0" = 10
    "Geor #0" = 10
    "Georges #0" = 10
    "Gepard #0" = 10
    "Gepelem #0" = 10
    "Gerard #0" = 10
    "Geraud #0" = 10
    "Gerbert #0" = 10
    "Geric #0" = 10
    "Gernaud #0" = 10
    "Gerrald #0" = 10
    "Gessure #0" = 10
    "Gherig #0" = 10
    "Gib #0" = 10
    "Gierry #0" = 10
    "Gil #0" = 10
    "Gilbert #0" = 10
    "Gilgoire #0" = 10
    "Gilles #0" = 10
    "Ginus #0" = 10
    "Giorges #0" = 10
    "Giraud #0" = 10
    "Gitienne #0" = 10
    "Glaubert #0" = 10
    "Glover #0" = 10
    "Gondistair #0" = 10
    "Gordon #0" = 10
    "Gordyn #0" = 10
    "Graham #0" = 10
    "Grancis #0" = 10
    "Grandeau #0" = 10
    "Granden #0" = 10
    "Granier #0" = 10
    "Grantham #0" = 10
    "Gregoire #0" = 10
    "Gregory #0" = 10
    "Grivier #0" = 10
    "Grobert #0" = 10
    "Grugues #0" = 10
    "Gryf #0" = 10
    "Gudyn #0" = 10
    "Guilbert #0" = 10
    "Guillaume #0" = 10
    "Guilliot #0" = 10
    "Guitaut #0" = 10
    "Gustave #0" = 10
    "Guy #0" = 10
    "Guybert #0" = 10
    "Guymund #0" = 10
    "Guyseph #0" = 10
    "Gyrard #0" = 10
    "Hacques #0" = 10
    "Halar #0" = 10
    "Hamelyn #0" = 10
    "Handyn #0" = 10
    "Hannibal #0" = 10
    "Harald #0" = 10
    "Harbin #0" = 10
    "Harcourt #0" = 10
    "Haskill #0" = 10
    "Hastrel #0" = 10
    "Hathrasil #0" = 10
    "Henri #0" = 10
    "Henrien #0" = 10
    "Herane #0" = 10
    "Herluin #0" = 10
    "Heron #0" = 10
    "Herric #0" = 10
    "Hervetole #0" = 10
    "Hescot #0" = 10
    "Heseph #0" = 10
    "Hierot #0" = 10
    "Hilaire #0" = 10
    "Holbert #0" = 10
    "Hoster #0" = 10
    "Hubert #0" = 10
    "Huet #0" = 10
    "Hughes #0" = 10
    "Hulbert #0" = 10
    "Idaron #0" = 10
    "Idhdean #0" = 10
    "Igleric #0" = 10
    "Igmund #0" = 10
    "Ignace #0" = 10
    "Ignobert #0" = 10
    "Ilzo #0" = 10
    "Imedhnain #0" = 10
    "Inwold #0" = 10
    "Irbran #0" = 10
    "Irnand #0" = 10
    "Istirus #0" = 10
    "Ivic #0" = 10
    "Jac #0" = 10
    "Jacmund #0" = 10
    "Jacques #0" = 10
    "Jadien #0" = 10
    "Jadier #0" = 10
    "Jakarn #0" = 10
    "Jakben #0" = 10
    "Jansen #0" = 10
    "Janvin #0" = 10
    "Jarnot #0" = 10
    "Jascien #0" = 10
    "Jasper #0" = 10
    "Jauffre #0" = 10
    "Javerien #0" = 10
    "Javiel #0" = 10
    "Javier #0" = 10
    "Jean #0" = 10
    "Jean-Jacques #0" = 10
    "Jean-Pierre #0" = 10
    "Jeanciele #0" = 10
    "Jerall #0" = 10
    "Jeran #0" = 10
    "Jerard #0" = 10
    "Jeraud #0" = 10
    "Jeremie #0" = 10
    "Jerian #0" = 10
    "Jernald #0" = 10
    "Jeromec #0" = 10
    "Jerromec #0" = 10
    "Jesper #0" = 10
    "Jhared #0" = 10
    "Jim #0" = 10
    "Jimy #0" = 10
    "Jocien #0" = 10
    "Joheric #0" = 10
    "Joile #0" = 10
    "Jolippe #0" = 10
    "Jollivet #0" = 10
    "Jonah #0" = 10
    "Joncis #0" = 10
    "Jonne #0" = 10
    "Jorden #0" = 10
    "Jorvuld #0" = 10
    "Jossen #0" = 10
    "Jouane #0" = 10
    "Jowan #0" = 10
    "Juberic #0" = 10
    "Juillen #0" = 10
    "Julien #0" = 10
    "Juste #0" = 10
    "Kaenach #0" = 10
    "Kalhot #0" = 10
    "Kalin #0" = 10
    "Kareem #0" = 10
    "Kasorayn #0" = 10
    "Kastus #0" = 10
    "Kasynac #0" = 10
    "Kasynak #0" = 10
    "Kathner #0" = 10
    "Kauric #0" = 10
    "Kellis #0" = 10
    "Kelmen #0" = 10
    "Kevinne #0" = 10
    "Kilian #0" = 10
    "Kip #0" = 10
    "Kirk #0" = 10
    "Krag #0" = 10
    "Krasdore #0" = 10
    "Kurt #0" = 10
    "Kylian #0" = 10
    "Kyrtos #0" = 10
    "Labhraidh #0" = 10
    "Lanard #0" = 10
    "Landal #0" = 10
    "Lanie #0" = 10
    "Lanis #0" = 10
    "Lanobert #0" = 10
    "Lanovic #0" = 10
    "Laroche #0" = 10
    "Lartigue #0" = 10
    "Lauric #0" = 10
    "Laurient #0" = 10
    "Laurisac #0" = 10
    "Lazare #0" = 10
    "Leclaude #0" = 10
    "Len #0" = 10
    "Lenet #0" = 10
    "Lennoc #0" = 10
    "Leo #0" = 10
    "Leobert #0" = 10
    "Leobois #0" = 10
    "Leon #0" = 10
    "Leonaud #0" = 10
    "Leonce #0" = 10
    "Leonhard #0" = 10
    "Leovic #0" = 10
    "Leric #0" = 10
    "Leseph #0" = 10
    "Lestault #0" = 10
    "Lesuin #0" = 10
    "Lewin #0" = 10
    "Leynard #0" = 10
    "Liam #0" = 10
    "Lionel #0" = 10
    "Lisien #0" = 10
    "Listien #0" = 10
    "Loic #0" = 10
    "Lorant #0" = 10
    "Lort #0" = 10
    "Loucel #0" = 10
    "Louic #0" = 10
    "Louis #0" = 10
    "Loupel #0" = 10
    "Louveau #0" = 10
    "Luc #0" = 10
    "Lucas #0" = 10
    "Lucien #0" = 10
    "Ludippe #0" = 10
    "Lumagne #0" = 10
    "Lureau #0" = 10
    "Lurelien #0" = 10
    "Lyam #0" = 10
    "Madanach #0" = 10
    "Maecald #0" = 10
    "Mael #0" = 10
    "Maldred #0" = 10
    "Malkoran #0" = 10
    "Mandel #0" = 10
    "Manis #0" = 10
    "Marane #0" = 10
    "Marbet #0" = 10
    "Marc #0" = 10
    "Marcel #0" = 10
    "Marchel #0" = 10
    "Marco #0" = 10
    "Marcoryan #0" = 10
    "Marent #0" = 10
    "Marjaques #0" = 10
    "Marley #0" = 10
    "Marnest #0" = 10
    "Marone #0" = 10
    "Marq #0" = 10
    "Marrec #0" = 10
    "Martin #0" = 10
    "Martine #0" = 10
    "Marwig #0" = 10
    "Mathias #0" = 10
    "Mathieu #0" = 10
    "Mathon #0" = 10
    "Mathys #0" = 10
    "Matthew #0" = 10
    "Matthias #0" = 10
    "Matthiaume #0" = 10
    "Matthieu #0" = 10
    "Matys #0" = 10
    "Maul #0" = 10
    "Maurice #0" = 10
    "Mavus #0" = 10
    "Maxelot #0" = 10
    "Maxevain #0" = 10
    "Maxim #0" = 10
    "Mebestien #0" = 10
    "Mederic #0" = 10
    "Menoit #0" = 10
    "Merard #0" = 10
    "Mercer #0" = 10
    "Merien #0" = 10
    "Merten #0" = 10
    "Merthierry #0" = 10
    "Merthyval #0" = 10
    "Merton #0" = 10
    "Michaniel #0" = 10
    "Michebert #0" = 10
    "Michel #0" = 10
    "Micholas #0" = 10
    "Millengor #0" = 10
    "Milo #0" = 10
    "Miquel #0" = 10
    "Mirten #0" = 10
    "Mivier #0" = 10
    "Mollier #0" = 10
    "Moric #0" = 10
    "Morric #0" = 10
    "Morten #0" = 10
    "Mortine #0" = 10
    "Morvan #0" = 10
    "Morven #0" = 10
    "Munche #0" = 10
    "Muran #0" = 10
    "Mylo #0" = 10
    "Myn #0" = 10
    "Nael #0" = 10
    "Nak'tah #0" = 10
    "Nathaniel #0" = 10
    "Nellic #0" = 10
    "Nemic #0" = 10
    "Nepas #0" = 10
    "Nepos #0" = 10
    "Nicholas #0" = 10
    "Nicolard #0" = 10
    "Nicolas #0" = 10
    "Nilas #0" = 10
    "Nirine #0" = 10
    "Noah #0" = 10
    "Noam #0" = 10
    "Noleon #0" = 10
    "Noloen #0" = 10
    "Nolore #0" = 10
    "Nombert #0" = 10
    "Nompar #0" = 10
    "Norbert #0" = 10
    "Octieve #0" = 10
    "Octin #0" = 10
    "Octivien #0" = 10
    "Odei #0" = 10
    "Odvan #0" = 10
    "Ogier #0" = 10
    "Olarz #0" = 10
    "Olivier #0" = 10
    "Olwin #0" = 10
    "Omistyr #0" = 10
    "Omluag #0" = 10
    "Ondre #0" = 10
    "Onfroi #0" = 10
    "Onri #0" = 10
    "Ormax #0" = 10
    "Orrard #0" = 10
    "Orrent #0" = 10
    "Orvel #0" = 10
    "Oscar #0" = 10
    "Oscard #0" = 10
    "Ouard #0" = 10
    "Oubelic #0" = 10
    "Ourson #0" = 10
    "Owayine #0" = 10
    "Owen #0" = 10
    "Padier #0" = 10
    "Paldrin #0" = 10
    "Parelle #0" = 10
    "Parquier #0" = 10
    "Parriot #0" = 10
    "Parsifal #0" = 10
    "Pascal #0" = 10
    "Pascual #0" = 10
    "Patraud #0" = 10
    "Paulemond #0" = 10
    "Paulin #0" = 10
    "Paur #0" = 10
    "Pavel #0" = 10
    "Percy #0" = 10
    "Perien #0" = 10
    "Perranas #0" = 10
    "Perrine #0" = 10
    "Perrot #0" = 10
    "Perry #0" = 10
    "Perth #0" = 10
    "Peryn #0" = 10
    "Peverel #0" = 10
    "Phaistyr #0" = 10
    "Phane #0" = 10
    "Phelain #0" = 10
    "Phelibert #0" = 10
    "Philien #0" = 10
    "Philimac #0" = 10
    "Philip #0" = 10
    "Phillic #0" = 10
    "Phinis #0" = 10
    "Pierjean #0" = 10
    "Pierrand #0" = 10
    "Pierrant #0" = 10
    "Pierraud #0" = 10
    "Pierre #0" = 10
    "Pierric #0" = 10
    "Pierrie #0" = 10
    "Pilou #0" = 10
    "Piper #0" = 10
    "Popeil #0" = 10
    "Porthippe #0" = 10
    "Praxin #0" = 10
    "Pugereau #0" = 10
    "Quentin #0" = 10
    "Quentyn #0" = 10
    "Quinton #0" = 10
    "Quiston #0" = 10
    "Rahd #0" = 10
    "Raldan #0" = 10
    "Rallaume #0" = 10
    "Ramis #0" = 10
    "Ranser #0" = 10
    "Raolin #0" = 10
    "Raphael #0" = 10
    "Rayan #0" = 10
    "Raylen #0" = 10
    "Redwyg #0" = 10
    "Reges #0" = 10
    "Relien #0" = 10
    "Remic #0" = 10
    "Remius #0" = 10
    "Remy #0" = 10
    "Renald #0" = 10
    "Renard #0" = 10
    "Renardou #0" = 10
    "Renchant #0" = 10
    "Renko #0" = 10
    "Renoit #0" = 10
    "Renwic #0" = 10
    "Rerlas #0" = 10
    "Reynald #0" = 10
    "Reynard #0" = 10
    "Reynaud #0" = 10
    "Richard #0" = 10
    "Richarde #0" = 10
    "Richion #0" = 10
    "Richon #0" = 10
    "Ricque #0" = 10
    "Riente #0" = 10
    "Robert #0" = 10
    "Roberto #0" = 10
    "Robier #0" = 10
    "Robyn #0" = 10
    "Rocheric #0" = 10
    "Rodednain #0" = 10
    "Roderic #0" = 10
    "Rodmand #0" = 10
    "Rodolphe #0" = 10
    "Rodynak #0" = 10
    "Rogeraud #0" = 10
    "Rogier #0" = 10
    "Rogolphe #0" = 10
    "Rohlbert #0" = 10
    "Roland #0" = 10
    "Rolbert #0" = 10
    "Romain #0" = 10
    "Rondach #0" = 10
    "Rowley #0" = 10
    "Rubyn #0" = 10
    "Ruffe #0" = 10
    "Ruran #0" = 10
    "Rurestian #0" = 10
    "Sadun #0" = 10
    "Saehon #0" = 10
    "Salach #0" = 10
    "Salazar #0" = 10
    "Salomon #0" = 10
    "Sam #0" = 10
    "Samiel #0" = 10
    "Sammis #0" = 10
    "Samuel #0" = 10
    "Sandor #0" = 10
    "Sarvith #0" = 10
    "Sebastian #0" = 10
    "Sebastien #0" = 10
    "Serenarth #0" = 10
    "Serge #0" = 10
    "Sergerien #0" = 10
    "Sernays #0" = 10
    "Serrien #0" = 10
    "Severin #0" = 10
    "Silas #0" = 10
    "Simine #0" = 10
    "Sirion #0" = 10
    "Socucius #0" = 10
    "Solumor #0" = 10
    "Sorais #0" = 10
    "Soran #0" = 10
    "Sosil #0" = 10
    "Spencer #0" = 10
    "Staubin #0" = 10
    "Stefan #0" = 10
    "Stelvene #0" = 10
    "Stenwick #0" = 10
    "Stephen #0" = 10
    "Stephenn #0" = 10
    "Stephile #0" = 10
    "Sternis #0" = 10
    "Stibbons #0" = 10
    "Stral #0" = 10
    "Strastnoc #0" = 10
    "Stromm #0" = 10
    "Styriche #0" = 10
    "Sunel #0" = 10
    "Suriel #0" = 10
    "Sutler #0" = 10
    "Sylvain #0" = 10
    "Syndelius #0" = 10
    "Taig #0" = 10
    "Tamien #0" = 10
    "Telfour #0" = 10
    "Tetra #0" = 10
    "Tevenot #0" = 10
    "Theo #0" = 10
    "Theobald #0" = 10
    "Theodore #0" = 10
    "Theomund #0" = 10
    "Theophile #0" = 10
    "Theranis #0" = 10
    "Therich #0" = 10
    "Therron #0" = 10
    "Thetrard #0" = 10
    "Theyo #0" = 10
    "Thibauld #0" = 10
    "Thibault #0" = 10
    "Thibaut #0" = 10
    "Thibierry #0" = 10
    "Thibret #0" = 10
    "Thierric #0" = 10
    "Thierry #0" = 10
    "Thomas #0" = 10
    "Thomase #0" = 10
    "Thorley #0" = 10
    "Tildus #0" = 10
    "Timeo #0" = 10
    "Timmon #0" = 10
    "Timothee #0" = 10
    "Tolwin #0" = 10
    "Tom #0" = 10
    "Topheric #0" = 10
    "Torvic #0" = 10
    "Tourvic #0" = 10
    "Traelius #0" = 10
    "Treves #0" = 10
    "Trierre #0" = 10
    "Trystan #0" = 10
    "Tryste #0" = 10
    "Tsiniuc #0" = 10
    "Turenn #0" = 10
    "Tuthul #0" = 10
    "Tynan #0" = 10
    "Tyree #0" = 10
    "Ulrich #0" = 10
    "Uraccen #0" = 10
    "Urfon #0" = 10
    "Usquebald #0" = 10
    "Usquenot #0" = 10
    "Utheccan #0" = 10
    "Vachel #0" = 10
    "Vaford #0" = 10
    "Valcent #0" = 10
    "Valentois #0" = 10
    "Vallis #0" = 10
    "Vance #0" = 10
    "Varaine #0" = 10
    "Vardan #0" = 10
    "Varnis #0" = 10
    "Vaurice #0" = 10
    "Velan #0" = 10
    "Velian #0" = 10
    "Ven #0" = 10
    "Vencobert #0" = 10
    "Verdrey #0" = 10
    "Verel #0" = 10
    "Verick #0" = 10
    "Verney #0" = 10
    "Veronard #0" = 10
    "Verrik #0" = 10
    "Vertrand #0" = 10
    "Vic #0" = 10
    "Vicente #0" = 10
    "Vicmond #0" = 10
    "Victraud #0" = 10
    "Vierry #0" = 10
    "Vignac #0" = 10
    "Vilhim #0" = 10
    "Vilum #0" = 10
    "Vincebald #0" = 10
    "Vincein #0" = 10
    "Vincent #0" = 10
    "Virgeraud #0" = 10
    "Virgile #0" = 10
    "Vontan #0" = 10
    "Vorthag #0" = 10
    "Vyctor #0" = 10
    "Vyrois #0" = 10
    "Warrane #0" = 10
    "Weylin #0" = 10
    "Wilkes #0" = 10
    "Willem #0" = 10
    "William #0" = 10
    "Wuhkusto #0" = 10
    "Wylon #0" = 10
    "Wynn #0" = 10
    "Xandier #0" = 10
    "Xavippe #0" = 10
    "Yanis #0" = 10
    "Ylbert #0" = 10
    "Ylbore #0" = 10
    "Ylvandre #0" = 10
    "Yncien #0" = 10
    "Yngwie #0" = 10
    "Yugene #0" = 10
    "Yves #0" = 10
    "Zacharie #0" = 10
    "Zackael #0" = 10
    "Zavierry #0" = 10
    "Zavour #0" = 10
    "Zibaran #0" = 10

    "Abelle #0" = -10
    "Adelais #0" = -10
    "Adele #0" = -10
    "Adelie #0" = -10
    "Adeline #0" = -10
    "Adelle #0" = -10
    "Adiel #0" = -10
    "Aditte #0" = -10
    "Adrienne #0" = -10
    "Aelynn #0" = -10
    "Agarthe #0" = -10
    "Agata #0" = -10
    "Agathe #0" = -10
    "Ajac #0" = -10
    "Alainne #0" = -10
    "Alana #0" = -10
    "Alarice #0" = -10
    "Ales #0" = -10
    "Alexandra #0" = -10
    "Alexia #0" = -10
    "Alexine #0" = -10
    "Alison #0" = -10
    "Alix #0" = -10
    "Allene #0" = -10
    "Allice #0" = -10
    "Allysin #0" = -10
    "Aloin #0" = -10
    "Alona #0" = -10
    "Althene #0" = -10
    "Alverine #0" = -10
    "Alyenore #0" = -10
    "Alyssa #0" = -10
    "Alyze #0" = -10
    "Ama #0" = -10
    "Amarie #0" = -10
    "Ambre #0" = -10
    "Ambrelie #0" = -10
    "Amelia #0" = -10
    "Amelie #0" = -10
    "Amora #0" = -10
    "Anabelle #0" = -10
    "Anabeth #0" = -10
    "Anais #0" = -10
    "Anastasie #0" = -10
    "Andeleine #0" = -10
    "Andree #0" = -10
    "Andrya #0" = -10
    "Angeline #0" = -10
    "Angier #0" = -10
    "Aniele #0" = -10
    "Aniette #0" = -10
    "Annabelle #0" = -10
    "Annaline #0" = -10
    "Annalise #0" = -10
    "Annalysse #0" = -10
    "Annarique #0" = -10
    "Annaïg #0" = -10
    "Anne #0" = -10
    "Anne-Marie #0" = -10
    "Annelette #0" = -10
    "Annese #0" = -10
    "Annyce #0" = -10
    "Antoinetta #0" = -10
    "Antys #0" = -10
    "Anya #0" = -10
    "Arabelle #0" = -10
    "Arbene #0" = -10
    "Arcineaux #0" = -10
    "Ardeline #0" = -10
    "Ardile #0" = -10
    "Ardine #0" = -10
    "Aren #0" = -10
    "Ariane #0" = -10
    "Arianna #0" = -10
    "Arie #0" = -10
    "Arielle #0" = -10
    "Arienne #0" = -10
    "Arlettie #0" = -10
    "Arlie #0" = -10
    "Armandine #0" = -10
    "Armelle #0" = -10
    "Arnaude #0" = -10
    "Artura #0" = -10
    "Arzhela #0" = -10
    "Asciene #0" = -10
    "Ashtah #0" = -10
    "Asteria #0" = -10
    "Astrid #0" = -10
    "Astrimunde #0" = -10
    "Aubrey #0" = -10
    "Augustelle #0" = -10
    "Augustina #0" = -10
    "Augustine #0" = -10
    "Aurane #0" = -10
    "Aurelie #0" = -10
    "Aurine #0" = -10
    "Aurnie #0" = -10
    "Aurore #0" = -10
    "Aurorelle #0" = -10
    "Aveberl #0" = -10
    "Axelle #0" = -10
    "Babette #0" = -10
    "Babineaux #0" = -10
    "Barbara #0" = -10
    "Barbise #0" = -10
    "Beatrice #0" = -10
    "Beddi #0" = -10
    "Belene #0" = -10
    "Beliene #0" = -10
    "Beline #0" = -10
    "Belle #0" = -10
    "Belline #0" = -10
    "Bellucia #0" = -10
    "Belya #0" = -10
    "Berengere #0" = -10
    "Bergi #0" = -10
    "Bernadette #0" = -10
    "Bernetta #0" = -10
    "Bernice #0" = -10
    "Bernique #0" = -10
    "Berrice #0" = -10
    "Bethany #0" = -10
    "Biene #0" = -10
    "Binlay #0" = -10
    "Blanche #0" = -10
    "Blynnie #0" = -10
    "Bothela #0" = -10
    "Bovkinna #0" = -10
    "Brea #0" = -10
    "Brela #0" = -10
    "Brendou #0" = -10
    "Brenlynne #0" = -10
    "Breywenne #0" = -10
    "Brigibeth #0" = -10
    "Brunile #0" = -10
    "Brunna #0" = -10
    "Brunwyn #0" = -10
    "Cairine #0" = -10
    "Calesse #0" = -10
    "Callia #0" = -10
    "Callice #0" = -10
    "Calysa #0" = -10
    "Camille #0" = -10
    "Candice #0" = -10
    "Candile #0" = -10
    "Capucine #0" = -10
    "Carcette #0" = -10
    "Carena #0" = -10
    "Carine #0" = -10
    "Carlier #0" = -10
    "Carmyne #0" = -10
    "Caroline #0" = -10
    "Caronique #0" = -10
    "Cassandre #0" = -10
    "Catherine #0" = -10
    "Caydeire #0" = -10
    "Cayleigh #0" = -10
    "Cecile #0" = -10
    "Celarion #0" = -10
    "Celence #0" = -10
    "Celeste #0" = -10
    "Celestine #0" = -10
    "Celia #0" = -10
    "Celiane #0" = -10
    "Celice #0" = -10
    "Celina #0" = -10
    "Cerise #0" = -10
    "Cesabelle #0" = -10
    "Cesarelle #0" = -10
    "Chana #0" = -10
    "Chantale #0" = -10
    "Chantisse #0" = -10
    "Charlisse #0" = -10
    "Charlotte #0" = -10
    "Charloux #0" = -10
    "Charmel #0" = -10
    "Charmela #0" = -10
    "Chatelle #0" = -10
    "Chental #0" = -10
    "Cherese #0" = -10
    "Cheryline #0" = -10
    "Christelle #0" = -10
    "Ciara #0" = -10
    "Cidathia #0" = -10
    "Cienne #0" = -10
    "Clairene #0" = -10
    "Clara #0" = -10
    "Clarelda #0" = -10
    "Clarique #0" = -10
    "Clarisse #0" = -10
    "Claudelle #0" = -10
    "Claudette #0" = -10
    "Claudie #0" = -10
    "Claudine #0" = -10
    "Clotylda #0" = -10
    "Clovine #0" = -10
    "Coletta #0" = -10
    "Colette #0" = -10
    "Concordia #0" = -10
    "Constance #0" = -10
    "Coquina #0" = -10
    "Corynne #0" = -10
    "Cyndique #0" = -10
    "Cyrille #0" = -10
    "Dabienne #0" = -10
    "Daighre #0" = -10
    "Dame #0" = -10
    "Darcielle #0" = -10
    "Darene #0" = -10
    "Daria #0" = -10
    "Darya #0" = -10
    "Delighre #0" = -10
    "Delphine #0" = -10
    "Delumna #0" = -10
    "Demara #0" = -10
    "Denille #0" = -10
    "Denyse #0" = -10
    "Derella #0" = -10
    "Derelle #0" = -10
    "Deryvyra #0" = -10
    "Desmie #0" = -10
    "Dessire #0" = -10
    "Desyree #0" = -10
    "Dhalana #0" = -10
    "Diabelle #0" = -10
    "Diane #0" = -10
    "Dianette #0" = -10
    "Didiane #0" = -10
    "Dirdre #0" = -10
    "Dominique #0" = -10
    "Donella #0" = -10
    "Dori #0" = -10
    "Dorianne #0" = -10
    "Dorothea #0" = -10
    "Dorothella #0" = -10
    "Dorothique #0" = -10
    "Dorys #0" = -10
    "Dovice #0" = -10
    "Drienne #0" = -10
    "Drusilla #0" = -10
    "Dufrain #0" = -10
    "Edana #0" = -10
    "Edelinne #0" = -10
    "Edeonore #0" = -10
    "Edilitte #0" = -10
    "Edona #0" = -10
    "Edre #0" = -10
    "Edwinna #0" = -10
    "Edwyge #0" = -10
    "Eesamelle #0" = -10
    "Eirdre #0" = -10
    "Elain #0" = -10
    "Elara #0" = -10
    "Elgenie #0" = -10
    "Elia #0" = -10
    "Elin #0" = -10
    "Elisa #0" = -10
    "Elise #0" = -10
    "Elivette #0" = -10
    "Ella #0" = -10
    "Ellina #0" = -10
    "Elodie #0" = -10
    "Eloise #0" = -10
    "Elona #0" = -10
    "Elvira #0" = -10
    "Elvyrie #0" = -10
    "Elysette #0" = -10
    "Emabeth #0" = -10
    "Emeraude #0" = -10
    "Emilie #0" = -10
    "Emusette #0" = -10
    "Endyra #0" = -10
    "Ennia #0" = -10
    "Enriquette #0" = -10
    "Eola #0" = -10
    "Erendette #0" = -10
    "Erind #0" = -10
    "Erisia #0" = -10
    "Erith #0" = -10
    "Erline #0" = -10
    "Ernella #0" = -10
    "Escalette #0" = -10
    "Esdeline #0" = -10
    "Eselde #0" = -10
    "Esmie #0" = -10
    "Estayne #0" = -10
    "Estelle #0" = -10
    "Estelline #0" = -10
    "Estevie #0" = -10
    "Etty #0" = -10
    "Eubella #0" = -10
    "Eudeline #0" = -10
    "Eugenie #0" = -10
    "Evangeline #0" = -10
    "Evanine #0" = -10
    "Eveline #0" = -10
    "Evolitte #0" = -10
    "Evveline #0" = -10
    "Fabrelle #0" = -10
    "Falette #0" = -10
    "Falhut #0" = -10
    "Falice #0" = -10
    "Falisse #0" = -10
    "Farlivere #0" = -10
    "Fasele #0" = -10
    "Fasile #0" = -10
    "Felande #0" = -10
    "Felycie #0" = -10
    "Felyse #0" = -10
    "Fianna #0" = -10
    "Fiesque #0" = -10
    "Finia #0" = -10
    "Floriane #0" = -10
    "Florine #0" = -10
    "Florinna #0" = -10
    "Florique #0" = -10
    "Fortisa #0" = -10
    "Franara #0" = -10
    "Francine #0" = -10
    "Frederique #0" = -10
    "Fredevieve #0" = -10
    "Frelausa #0" = -10
    "Frelene #0" = -10
    "Freyda #0" = -10
    "Frieda #0" = -10
    "Gabria #0" = -10
    "Gabrialle #0" = -10
    "Gabrielle #0" = -10
    "Gaelle #0" = -10
    "Gaelora #0" = -10
    "Gaetane #0" = -10
    "Galynne #0" = -10
    "Ganise #0" = -10
    "Genele #0" = -10
    "Genevelle #0" = -10
    "Genevret #0" = -10
    "Geniette #0" = -10
    "Genvieve #0" = -10
    "Georgia #0" = -10
    "Geralda #0" = -10
    "Gerielle #0" = -10
    "Germonde #0" = -10
    "Gervaise #0" = -10
    "Gessica #0" = -10
    "Gette #0" = -10
    "Gilbara #0" = -10
    "Gine #0" = -10
    "Ginette #0" = -10
    "Gisele #0" = -10
    "Glendora #0" = -10
    "Gloria #0" = -10
    "Grace #0" = -10
    "Granette #0" = -10
    "Grania #0" = -10
    "Grigitte #0" = -10
    "Grivette #0" = -10
    "Guendeline #0" = -10
    "Gulitte #0" = -10
    "Gwen #0" = -10
    "Gwenaelle #0" = -10
    "Gwenifyr #0" = -10
    "Gwynienne #0" = -10
    "Gwynnifer #0" = -10
    "Gwyssa #0" = -10
    "Gyna #0" = -10
    "Harbert #0" = -10
    "Helainie #0" = -10
    "Helane #0" = -10
    "Helene #0" = -10
    "Helenette #0" = -10
    "Helese #0" = -10
    "Heloise #0" = -10
    "Helviane #0" = -10
    "Helwyn #0" = -10
    "Hendrice #0" = -10
    "Heniele #0" = -10
    "Henneque #0" = -10
    "Henona #0" = -10
    "Henriette #0" = -10
    "Henrisa #0" = -10
    "Heralda #0" = -10
    "Hereld #0" = -10
    "Hervemina #0" = -10
    "Hester #0" = -10
    "Hilaria #0" = -10
    "Huguette #0" = -10
    "Hulotte #0" = -10
    "Icolana #0" = -10
    "Ileana #0" = -10
    "Ilise #0" = -10
    "Ina #0" = -10
    "Inawyn #0" = -10
    "Ines #0" = -10
    "Ingride #0" = -10
    "Inirisi #0" = -10
    "Iona #0" = -10
    "Iraldine #0" = -10
    "Irene #0" = -10
    "Isabeau #0" = -10
    "Isabelle #0" = -10
    "Isabeth #0" = -10
    "Isara #0" = -10
    "Jacquebeth #0" = -10
    "Jacqueline #0" = -10
    "Janand #0" = -10
    "Janavynn #0" = -10
    "Janese #0" = -10
    "Janeve #0" = -10
    "Janille #0" = -10
    "Janise #0" = -10
    "Janne #0" = -10
    "Janona #0" = -10
    "Jasmine #0" = -10
    "Javierre #0" = -10
    "Jeanette #0" = -10
    "Jeanne #0" = -10
    "Jeannelle #0" = -10
    "Jeannine #0" = -10
    "Jeanylle #0" = -10
    "Jeberilie #0" = -10
    "Jehanne #0" = -10
    "Jehannette #0" = -10
    "Jenna #0" = -10
    "Jo #0" = -10
    "Joelle #0" = -10
    "Jolie #0" = -10
    "Josee #0" = -10
    "Josienne #0" = -10
    "Joslin #0" = -10
    "Josseline #0" = -10
    "Julienne #0" = -10
    "Juline #0" = -10
    "Julisa #0" = -10
    "Jurisa #0" = -10
    "Jusanne #0" = -10
    "Jyllia #0" = -10
    "Kaera #0" = -10
    "Kaie #0" = -10
    "Karnellas #0" = -10
    "Katrine #0" = -10
    "Kestral #0" = -10
    "Ketrique #0" = -10
    "Konia #0" = -10
    "Krisandra #0" = -10
    "Lacherie #0" = -10
    "Laelette #0" = -10
    "Laelyn #0" = -10
    "Laetille #0" = -10
    "Laetitia #0" = -10
    "Lanarette #0" = -10
    "Lanier #0" = -10
    "Lantoinette #0" = -10
    "Laranette #0" = -10
    "Lariane #0" = -10
    "Larynn #0" = -10
    "Laudine #0" = -10
    "Lauran #0" = -10
    "Lauranne #0" = -10
    "Lauravieve #0" = -10
    "Laure #0" = -10
    "Laurette #0" = -10
    "Lea #0" = -10
    "Leana #0" = -10
    "Leila #0" = -10
    "Leles #0" = -10
    "Leonique #0" = -10
    "Leonora #0" = -10
    "Leontille #0" = -10
    "Lerisa #0" = -10
    "Lessa #0" = -10
    "Leticia #0" = -10
    "Lexi #0" = -10
    "Lexille #0" = -10
    "Lia #0" = -10
    "Liane #0" = -10
    "Lielle #0" = -10
    "Liisan #0" = -10
    "Lila #0" = -10
    "Lilou #0" = -10
    "Lily #0" = -10
    "Limren #0" = -10
    "Linane #0" = -10
    "Linele #0" = -10
    "Lionne #0" = -10
    "Lirielle #0" = -10
    "Lisanne #0" = -10
    "Lisette #0" = -10
    "Lisolda #0" = -10
    "Livelle #0" = -10
    "Lizabet #0" = -10
    "Lleraya #0" = -10
    "Lodys #0" = -10
    "Lonel #0" = -10
    "Lorene #0" = -10
    "Loriel #0" = -10
    "Louarde #0" = -10
    "Louise #0" = -10
    "Loulou #0" = -10
    "Louna #0" = -10
    "Luce #0" = -10
    "Luceline #0" = -10
    "Lucete #0" = -10
    "Lucette #0" = -10
    "Luciana #0" = -10
    "Lucie #0" = -10
    "Lucienne #0" = -10
    "Lucille #0" = -10
    "Lucynda #0" = -10
    "Ludivine #0" = -10
    "Lurgette #0" = -10
    "Lydi #0" = -10
    "Lyna #0" = -10
    "Lynie #0" = -10
    "Lysaux #0" = -10
    "Lyse #0" = -10
    "Lysse #0" = -10
    "Lyze #0" = -10
    "Mabilete #0" = -10
    "Mabrel #0" = -10
    "Mabrelle #0" = -10
    "Madena #0" = -10
    "Madenn #0" = -10
    "Madisone #0" = -10
    "Maelle #0" = -10
    "Maelrisse #0" = -10
    "Maelys #0" = -10
    "Magali #0" = -10
    "Mahlene #0" = -10
    "Malielle #0" = -10
    "Maline #0" = -10
    "Malvina #0" = -10
    "Malyna #0" = -10
    "Manone #0" = -10
    "Maranique #0" = -10
    "Marayna #0" = -10
    "Marcele #0" = -10
    "Marcella #0" = -10
    "Marcelle #0" = -10
    "Marcellyne #0" = -10
    "Marcelyn #0" = -10
    "Marciele #0" = -10
    "Marelie #0" = -10
    "Marelle #0" = -10
    "Maretta #0" = -10
    "Margaud #0" = -10
    "Margaux #0" = -10
    "Margerelle #0" = -10
    "Margine #0" = -10
    "Margot #0" = -10
    "Margrette #0" = -10
    "Marguerite #0" = -10
    "Marian #0" = -10
    "Marie #0" = -10
    "Marielle #0" = -10
    "Marien #0" = -10
    "Marienne #0" = -10
    "Mariette #0" = -10
    "Marieve #0" = -10
    "Marisette #0" = -10
    "Marlene #0" = -10
    "Marquerite #0" = -10
    "Martha #0" = -10
    "Marthe #0" = -10
    "Marthine #0" = -10
    "Martine #0" = -10
    "Martinne #0" = -10
    "Maryse #0" = -10
    "Masalinie #0" = -10
    "Mathelle #0" = -10
    "Mathilde #0" = -10
    "Mathilie #0" = -10
    "Matilda #0" = -10
    "Matilde #0" = -10
    "Maurrie #0" = -10
    "Maxelle #0" = -10
    "Maxille #0" = -10
    "Maxime #0" = -10
    "Maxine #0" = -10
    "Maya #0" = -10
    "Mayla #0" = -10
    "Medya #0" = -10
    "Melanie #0" = -10
    "Melie #0" = -10
    "Melina #0" = -10
    "Melisande #0" = -10
    "Melita #0" = -10
    "Melodie #0" = -10
    "Melynie #0" = -10
    "Mena #0" = -10
    "Merielle #0" = -10
    "Mervilda #0" = -10
    "Michel #0" = -10
    "Michele #0" = -10
    "Michelia #0" = -10
    "Michelle #0" = -10
    "Michou #0" = -10
    "Milie #0" = -10
    "Mimou #0" = -10
    "Minerva #0" = -10
    "Minette #0" = -10
    "Minone #0" = -10
    "Miquela #0" = -10
    "Mira #0" = -10
    "Mirabelle #0" = -10
    "Miramel #0" = -10
    "Miranda #0" = -10
    "Miroleine #0" = -10
    "Mitanne #0" = -10
    "Mizou #0" = -10
    "Mochveda #0" = -10
    "Modhna #0" = -10
    "Molly #0" = -10
    "Morgane #0" = -10
    "Morrigh #0" = -10
    "Mortine #0" = -10
    "Moumou #0" = -10
    "Muazzaz #0" = -10
    "Muiri #0" = -10
    "Muriel #0" = -10
    "Murielle #0" = -10
    "Mylenne #0" = -10
    "Myriame #0" = -10
    "Nadine #0" = -10
    "Nahlia #0" = -10
    "Nana #0" = -10
    "Nanette #0" = -10
    "Nanoyra #0" = -10
    "Nathalye #0" = -10
    "Naudet #0" = -10
    "Nemarc #0" = -10
    "Nemic #0" = -10
    "Neomi #0" = -10
    "Nessa #0" = -10
    "Nicolene #0" = -10
    "Nicoline #0" = -10
    "Ninette #0" = -10
    "Noebelle #0" = -10
    "Noemi #0" = -10
    "Noemie #0" = -10
    "Nonenamwen #0" = -10
    "Norine #0" = -10
    "Normina #0" = -10
    "Nurese #0" = -10
    "Nuresse #0" = -10
    "Nyna #0" = -10
    "Nyomie #0" = -10
    "Nyrona #0" = -10
    "Oceane #0" = -10
    "Odette #0" = -10
    "Odyle #0" = -10
    "Ofelia #0" = -10
    "Olivia #0" = -10
    "Olivie #0" = -10
    "Olyna #0" = -10
    "Olyve #0" = -10
    "Ondrisa #0" = -10
    "Opel #0" = -10
    "Ophelia #0" = -10
    "Orguerite #0" = -10
    "Oriane #0" = -10
    "Orice #0" = -10
    "Osanna #0" = -10
    "Osianne #0" = -10
    "Otha #0" = -10
    "Ouida #0" = -10
    "Pabla #0" = -10
    "Parisse #0" = -10
    "Pepi #0" = -10
    "Petrille #0" = -10
    "Phebe #0" = -10
    "Philippa #0" = -10
    "Phoebe #0" = -10
    "Phylgaux #0" = -10
    "Pierette #0" = -10
    "Pierielle #0" = -10
    "Pierlette #0" = -10
    "Piernette #0" = -10
    "Pierrie #0" = -10
    "Pietine #0" = -10
    "Prolyssa #0" = -10
    "Prudence #0" = -10
    "Pyline #0" = -10
    "Pyn #0" = -10
    "Pyppe #0" = -10
    "Quillet #0" = -10
    "Quirin #0" = -10
    "Rachel #0" = -10
    "Raelyn #0" = -10
    "Raelynn #0" = -10
    "Raelynne #0" = -10
    "Rebecca #0" = -10
    "Regina #0" = -10
    "Regine #0" = -10
    "Reine #0" = -10
    "Reinette #0" = -10
    "Reliana #0" = -10
    "Relie #0" = -10
    "Remelie #0" = -10
    "Renardine #0" = -10
    "Reyna #0" = -10
    "Reynelle #0" = -10
    "Reynine #0" = -10
    "Rhealt #0" = -10
    "Rhiada #0" = -10
    "Rianciene #0" = -10
    "Riane #0" = -10
    "Rianne #0" = -10
    "Rielle #0" = -10
    "Rinelle #0" = -10
    "Rochelle #0" = -10
    "Rokrya #0" = -10
    "Romaire #0" = -10
    "Ronela #0" = -10
    "Ronerelie #0" = -10
    "Ronyssa #0" = -10
    "Rosaldine #0" = -10
    "Rosalia #0" = -10
    "Rosalie #0" = -10
    "Rosalind #0" = -10
    "Rosalyn #0" = -10
    "Rosamonde #0" = -10
    "Rosamund #0" = -10
    "Roselle #0" = -10
    "Rosette #0" = -10
    "Rosine #0" = -10
    "Roulena #0" = -10
    "Roumiet #0" = -10
    "Roxanne #0" = -10
    "Roxy #0" = -10
    "Rozenn #0" = -10
    "Rozette #0" = -10
    "Ryva #0" = -10
    "Sabina #0" = -10
    "Sabine #0" = -10
    "Sabinette #0" = -10
    "Sabrine #0" = -10
    "Sabyssa #0" = -10
    "Sachine #0" = -10
    "Sandire #0" = -10
    "Sandrine #0" = -10
    "Sara #0" = -10
    "Saravith #0" = -10
    "Savinie #0" = -10
    "Segolene #0" = -10
    "Seline #0" = -10
    "Senna #0" = -10
    "Seraphyne #0" = -10
    "Serine #0" = -10
    "Severine #0" = -10
    "Shaelle #0" = -10
    "Shalia #0" = -10
    "Shilia #0" = -10
    "Shillin #0" = -10
    "Shorrin #0" = -10
    "Sibellec #0" = -10
    "Simone #0" = -10
    "Sirone #0" = -10
    "Sorcha #0" = -10
    "Sorine #0" = -10
    "Sosara #0" = -10
    "Sosia #0" = -10
    "Sovelle #0" = -10
    "Stephange #0" = -10
    "Stephie #0" = -10
    "Surane #0" = -10
    "Suriel #0" = -10
    "Susane #0" = -10
    "Sybille #0" = -10
    "Sybilline #0" = -10
    "Sylvie #0" = -10
    "Synette #0" = -10
    "Tabakah #0" = -10
    "Taern #0" = -10
    "Talara #0" = -10
    "Thais #0" = -10
    "Thayer #0" = -10
    "Theonique #0" = -10
    "Theophilia #0" = -10
    "Thonine #0" = -10
    "Thylvie #0" = -10
    "Tilelle #0" = -10
    "Tremelle #0" = -10
    "Tuecille #0" = -10
    "Tyrrya #0" = -10
    "Uaile #0" = -10
    "Ursanne #0" = -10
    "Ursuline #0" = -10
    "Urvie #0" = -10
    "Urvien #0" = -10
    "Valarie #0" = -10
    "Valaunce #0" = -10
    "Valentina #0" = -10
    "Valentine #0" = -10
    "Valentique #0" = -10
    "Valeriane #0" = -10
    "Valerie #0" = -10
    "Valerine #0" = -10
    "Valessa #0" = -10
    "Valyrie #0" = -10
    "Vanisande #0" = -10
    "Varisse #0" = -10
    "Vaudrie #0" = -10
    "Velica #0" = -10
    "Vendi #0" = -10
    "Verene #0" = -10
    "Veroine #0" = -10
    "Veronica #0" = -10
    "Veronique #0" = -10
    "Versien #0" = -10
    "Victoire #0" = -10
    "Victrice #0" = -10
    "Vienne #0" = -10
    "Vimy #0" = -10
    "Vincelle #0" = -10
    "Violette #0" = -10
    "Vireche #0" = -10
    "Virene #0" = -10
    "Virgile #0" = -10
    "Visanne #0" = -10
    "Vistra #0" = -10
    "Vitache #0" = -10
    "Vivian #0" = -10
    "Vivien #0" = -10
    "Vivienne #0" = -10
    "Vivonne #0" = -10
    "Voada #0" = -10
    "Vyctarine #0" = -10
    "Vyctorelle #0" = -10
    "Vyctoria #0" = -10
    "Vylie #0" = -10
    "Xandria #0" = -10
    "Yasmine #0" = -10
    "Ygerne #0" = -10
    "Ylanie #0" = -10
    "Yolande #0" = -10
    "Ysabel #0" = -10
    "Ysabeth #0" = -10
    "Ysanne #0" = -10
    "Ysarne #0" = -10
    "Ysausa #0" = -10
    "Yseline #0" = -10
    "Yurta #0" = -10
    "Yvara #0" = -10
    "Yvayne #0" = -10
    "Yveline #0" = -10
    "Yvelle #0" = -10
    "Yveque #0" = -10
    "Yvon #0" = -10
    "Zeli #0" = -10
    "Zelie #0" = -10
    "Zephyrine #0" = -10
    "Zinadia #0" = -10
    "Zinedine #0" = -10
    "Zizou #0" = -10
    "Zoe #0" = -10
    "Zoellene #0" = -10
    "Zouzou #0" = -10
    "Zozubeth #0" = -10
    "Zylle #0" = -10
    "Zyssa #0" = -10
}

leader_names = {
    Abel Absolard Absolet Achane Achene Achibert Achille Adair Adalard Adam Adeber Adel Adistair Adnot Adric Adrien Adrone Adwig Aelwin Ailex Aillard Aime Aimeric Ainethach Ajac Alabane Alain Alaird Alard Albec Alberic Albert Aldouin Aleron Alesace Alessiac Alessio Alexain Alexis Alezan Alfred Alinon Alix Allan Allunen Alodie Aloin Alouis Alphaury Alphonse Altus Alvaren Alvuin Amable Amaund Amaury Amberic Ambroise Amelus Amiable Amiberl Anatole Ancus Andbert Andre Andrec Androche Androne Angof Annibal Antoine Anton Antonin Aphaurin Aphren Arbert Arcady Archimbert Archimbide Aresin Aribert Armel Armin Arnand Arnaud Arniel Arnitole Arnoth Arnousten Arphevic Arthur Asard Astav Astien Athanin Athel Atroque Aubaud Auberic Aude Audric Auglard Auguste Aveberl Avent Avrippe Axel Balik Balin Banning Banyrick Baragon Baralyn Barjot Barnabe Barnand Barthel Bartram Baryctor Basile Basilien Bastibien Bastien Baurion Beaubel Beaucourt Beaunois Bedastair Begnaud Belchimac Belethor Belic Bendt Benjamin Benjamund Benjamyn Benoit Benry Beran Bereditte Beric Berjac Berjamund Bernamund Bernard Bernardine Bertran Bertrand Beryn Birard Bistrand Blaise Blasius Blithe Boeuf Bradon Braig Brandish Bric Brice Brinarch Bruc Brucetus Brulo Brunile Bruno Brussec Buneau Cahusque Calden Calixte Cambio Canollot Cantier Caoiss Casimir Cavot Cedran Celann Celnard Cesamund Cesarel Chantot Charbriel Charlebert Charlemic Charlemund Charlerel Charleric Charques Chartrand Chedric Chervain Chrismin Christoph Christophe Churley Ciel Cimon Cirges Claude Claumin Clauvis Clement Clinton Clovis Colane Colbois Colby Colin Colwin Colwyn Condier Condrenn Corbyn Cordier Corentin Corintthac Corlas Corrick Corwyn Cosnach Coyne Craig Crenard Crendal Curtice Cynric Cyntoine Cyrill Dacele Daimbert Daine Dalan Dalenc Damard Damian Damien Danders Danforth Daniel Dantoine Danual Danwyche Darcy Daribert Daric Dariel Darien Dariot Daro Darrel Darren Darric Darron Darryn Darvell Davide Davier Davyd Debentien Degaine Degaratien Delacourt Delane Delric Delven Delvin Derrell Destaine Destane Detritus Deverak Deveral Dhalen Didier Dilan Dilborn Dimitri Donel Donnel Dorand Dore Dorel Dorian Doumant Dracien Drago Dran Draven Drivien Dryston Duach Duncan Dunimond Duraeg Dureau Dydier Dyric Ealis Edain Edgar Edgard Edmund Edouard Edreld Edric Edrien Edryg Eduard Edweg Elbert Ellic Elnis Eloic Eltrys Emeric Emile Emiliard Emilien Emmandic Emmanuel Emmerard Emnard Emory Emoryan Endemel Enmon Ennemond Ennoc Enri Enrick Erbogar Erind Erj Ernand Ernard Ernele Ernest Ernirus Erold Erwan Escabert Escamel Esmond Esquier Esteve Estien Estienn Ethian Etiache Etienne Eugal Eugien Eustis Evien Evinn Evrart Fabremund Fabrice Faolchu Farelle Faric Farvour Federic Felipe Felyx Fenas Ferarilie Ferou Ferrand Ferrum Filbert Filibert Finious Florenot Florent Floyd Fonten Fontenot Foucault Franck Francois Francynak Franque Frederic Frederuno Frencque Frilan Frizkav Frizwyr Frostien Frubert Frugo Fugues Gaban Gabin Gaboryan Gabrien Gabryel Gaffer Gailen Gaillard Gan Ganet Garbert Gargrell Garron Garth Garvey Gascone Gaspar Gaspard Gasparien Gastarge Gastau Gasteau Gaston Gaubert Gauldur Gaven Gavin Gavrard Gavric Gawayne Gedric Gelem Gelvin Gennove Geon Geonard Geor Georges Gepard Gepelem Gerard Geraud Gerbert Geric Gernaud Gerrald Gessure Gherig Gib Gierry Gil Gilbert Gilgoire Gilles Ginus Giorges Giraud Gitienne Glaubert Glover Gondistair Gordon Gordyn Graham Grancis Grandeau Granden Granier Grantham Gregoire Gregory Grivier Grobert Grugues Gryf Gudyn Guilbert Guillaume Guilliot Guitaut Gustave Guy Guybert Guymund Guyseph Gyrard Hacques Halar Hamelyn Handyn Hannibal Harald Harbin Harcourt Haskill Hastrel Hathrasil Henri Henrien Herane Herluin Heron Herric Hervetole Hescot Heseph Hierot Hilaire Holbert Hoster Hubert Huet Hughes Hulbert Idaron Idhdean Igleric Igmund Ignace Ignobert Ilzo Imedhnain Inwold Irbran Irnand Istirus Ivic Jac Jacmund Jacques Jadien Jadier Jakarn Jakben Jansen Janvin Jarnot Jascien Jasper Jauffre Javerien Javiel Javier Jean Jean-Jacques Jean-Pierre Jeanciele Jerall Jeran Jerard Jeraud Jeremie Jerian Jernald Jeromec Jerromec Jesper Jhared Jim Jimy Jocien Joheric Joile Jolippe Jollivet Jonah Joncis Jonne Jorden Jorvuld Jossen Jouane Jowan Juberic Juillen Julien Juste Kaenach Kalhot Kalin Kareem Kasorayn Kastus Kasynac Kasynak Kathner Kauric Kellis Kelmen Kevinne Kilian Kip Kirk Krag Krasdore Kurt Kylian Kyrtos Labhraidh Lanard Landal Lanie Lanis Lanobert Lanovic Laroche Lartigue Lauric Laurient Laurisac Lazare Leclaude Len Lenet Lennoc Leo Leobert Leobois Leon Leonaud Leonce Leonhard Leovic Leric Leseph Lestault Lesuin Lewin Leynard Liam Lionel Lisien Listien Loic Lorant Lort Loucel Louic Louis Loupel Louveau Luc Lucas Lucien Ludippe Lumagne Lureau Lurelien Lyam Madanach Maecald Mael Maldred Malkoran Mandel Manis Marane Marbet Marc Marcel Marchel Marco Marcoryan Marent Marjaques Marley Marnest Marone Marq Marrec Martin Martine Marwig Mathias Mathieu Mathon Mathys Matthew Matthias Matthiaume Matthieu Matys Maul Maurice Mavus Maxelot Maxevain Maxim Mebestien Mederic Menoit Merard Mercer Merien Merten Merthierry Merthyval Merton Michaniel Michebert Michel Micholas Millengor Milo Miquel Mirten Mivier Mollier Moric Morric Morten Mortine Morvan Morven Munche Muran Mylo Myn Nael Nak'tah Nathaniel Nellic Nemic Nepas Nepos Nicholas Nicolard Nicolas Nilas Nirine Noah Noam Noleon Noloen Nolore Nombert Nompar Norbert Octieve Octin Octivien Odei Odvan Ogier Olarz Olivier Olwin Omistyr Omluag Ondre Onfroi Onri Ormax Orrard Orrent Orvel Oscar Oscard Ouard Oubelic Ourson Owayine Owen Padier Paldrin Parelle Parquier Parriot Parsifal Pascal Pascual Patraud Paulemond Paulin Paur Pavel Percy Perien Perranas Perrine Perrot Perry Perth Peryn Peverel Phaistyr Phane Phelain Phelibert Philien Philimac Philip Phillic Phinis Pierjean Pierrand Pierrant Pierraud Pierre Pierric Pierrie Pilou Piper Popeil Porthippe Praxin Pugereau Quentin Quentyn Quinton Quiston Rahd Raldan Rallaume Ramis Ranser Raolin Raphael Rayan Raylen Redwyg Reges Relien Remic Remius Remy Renald Renard Renardou Renchant Renko Renoit Renwic Rerlas Reynald Reynard Reynaud Richard Richarde Richion Richon Ricque Riente Robert Roberto Robier Robyn Rocheric Rodednain Roderic Rodmand Rodolphe Rodynak Rogeraud Rogier Rogolphe Rohlbert Roland Rolbert Romain Rondach Rowley Rubyn Ruffe Ruran Rurestian Sadun Saehon Salach Salazar Salomon Sam Samiel Sammis Samuel Sandor Sarvith Sebastian Sebastien Serenarth Serge Sergerien Sernays Serrien Severin Silas Simine Sirion Socucius Solumor Sorais Soran Sosil Spencer Staubin Stefan Stelvene Stenwick Stephen Stephenn Stephile Sternis Stibbons Stral Strastnoc Stromm Styriche Sunel Suriel Sutler Sylvain Syndelius Taig Tamien Telfour Tetra Tevenot Theo Theobald Theodore Theomund Theophile Theranis Therich Therron Thetrard Theyo Thibauld Thibault Thibaut Thibierry Thibret Thierric Thierry Thomas Thomase Thorley Tildus Timeo Timmon Timothee Tolwin Tom Topheric Torvic Tourvic Traelius Treves Trierre Trystan Tryste Tsiniuc Turenn Tuthul Tynan Tyree Ulrich Uraccen Urfon Usquebald Usquenot Utheccan Vachel Vaford Valcent Valentois Vallis Vance Varaine Vardan Varnis Vaurice Velan Velian Ven Vencobert Verdrey Verel Verick Verney Veronard Verrik Vertrand Vic Vicente Vicmond Victraud Vierry Vignac Vilhim Vilum Vincebald Vincein Vincent Virgeraud Virgile Vontan Vorthag Vyctor Vyrois Warrane Weylin Wilkes Willem William Wuhkusto Wylon Wynn Xandier Xavippe Yanis Ylbert Ylbore Ylvandre Yncien Yngwie Yugene Yves Zacharie Zackael Zavierry Zavour Zibaran
}

ship_names = {
    Abelle Adelais Adele Adelie Adeline Adelle Adiel Aditte Adrienne Aelynn Agarthe Agata Agathe Ajac Alainne Alana Alarice Ales Alexandra Alexia Alexine Alison Alix Allene Allice Allysin Aloin Alona Althene Alverine Alyenore Alyssa Alyze Ama Amarie Ambre Ambrelie Amelia Amelie Amora Anabelle Anabeth Anais Anastasie Andeleine Andree Andrya Angeline Angier Aniele Aniette Annabelle Annaline Annalise Annalysse Annarique Annaïg Anne Anne-Marie Annelette Annese Annyce Antoinetta Antys Anya Arabelle Arbene Arcineaux Ardeline Ardile Ardine Aren Ariane Arianna Arie Arielle Arienne Arlettie Arlie Armandine Armelle Arnaude Artura Arzhela Asciene Ashtah Asteria Astrid Astrimunde Aubrey Augustelle Augustina Augustine Aurane Aurelie Aurine Aurnie Aurore Aurorelle Aveberl Axelle Babette Babineaux Barbara Barbise Beatrice Beddi Belene Beliene Beline Belle Belline Bellucia Belya Berengere Bergi Bernadette Bernetta Bernice Bernique Berrice Bethany Biene Binlay Blanche Blynnie Bothela Bovkinna Brea Brela Brendou Brenlynne Breywenne Brigibeth Brunile Brunna Brunwyn Cairine Calesse Callia Callice Calysa Camille Candice Candile Capucine Carcette Carena Carine Carlier Carmyne Caroline Caronique Cassandre Catherine Caydeire Cayleigh Cecile Celarion Celence Celeste Celestine Celia Celiane Celice Celina Cerise Cesabelle Cesarelle Chana Chantale Chantisse Charlisse Charlotte Charloux Charmel Charmela Chatelle Chental Cherese Cheryline Christelle Ciara Cidathia Cienne Clairene Clara Clarelda Clarique Clarisse Claudelle Claudette Claudie Claudine Clotylda Clovine Coletta Colette Concordia Constance Coquina Corynne Cyndique Cyrille Dabienne Daighre Dame Darcielle Darene Daria Darya Delighre Delphine Delumna Demara Denille Denyse Derella Derelle Deryvyra Desmie Dessire Desyree Dhalana Diabelle Diane Dianette Didiane Dirdre Dominique Donella Dori Dorianne Dorothea Dorothella Dorothique Dorys Dovice Drienne Drusilla Dufrain Edana Edelinne Edeonore Edilitte Edona Edre Edwinna Edwyge Eesamelle Eirdre Elain Elara Elgenie Elia Elin Elisa Elise Elivette Ella Ellina Elodie Eloise Elona Elvira Elvyrie Elysette Emabeth Emeraude Emilie Emusette Endyra Ennia Enriquette Eola Erendette Erind Erisia Erith Erline Ernella Escalette Esdeline Eselde Esmie Estayne Estelle Estelline Estevie Etty Eubella Eudeline Eugenie Evangeline Evanine Eveline Evolitte Evveline Fabrelle Falette Falhut Falice Falisse Farlivere Fasele Fasile Felande Felycie Felyse Fianna Fiesque Finia Floriane Florine Florinna Florique Fortisa Franara Francine Frederique Fredevieve Frelausa Frelene Freyda Frieda Gabria Gabrialle Gabrielle Gaelle Gaelora Gaetane Galynne Ganise Genele Genevelle Genevret Geniette Genvieve Georgia Geralda Gerielle Germonde Gervaise Gessica Gette Gilbara Gine Ginette Gisele Glendora Gloria Grace Granette Grania Grigitte Grivette Guendeline Gulitte Gwen Gwenaelle Gwenifyr Gwynienne Gwynnifer Gwyssa Gyna Harbert Helainie Helane Helene Helenette Helese Heloise Helviane Helwyn Hendrice Heniele Henneque Henona Henriette Henrisa Heralda Hereld Hervemina Hester Hilaria Huguette Hulotte Icolana Ileana Ilise Ina Inawyn Ines Ingride Inirisi Iona Iraldine Irene Isabeau Isabelle Isabeth Isara Jacquebeth Jacqueline Janand Janavynn Janese Janeve Janille Janise Janne Janona Jasmine Javierre Jeanette Jeanne Jeannelle Jeannine Jeanylle Jeberilie Jehanne Jehannette Jenna Jo Joelle Jolie Josee Josienne Joslin Josseline Julienne Juline Julisa Jurisa Jusanne Jyllia Kaera Kaie Karnellas Katrine Kestral Ketrique Konia Krisandra Lacherie Laelette Laelyn Laetille Laetitia Lanarette Lanier Lantoinette Laranette Lariane Larynn Laudine Lauran Lauranne Lauravieve Laure Laurette Lea Leana Leila Leles Leonique Leonora Leontille Lerisa Lessa Leticia Lexi Lexille Lia Liane Lielle Liisan Lila Lilou Lily Limren Linane Linele Lionne Lirielle Lisanne Lisette Lisolda Livelle Lizabet Lleraya Lodys Lonel Lorene Loriel Louarde Louise Loulou Louna Luce Luceline Lucete Lucette Luciana Lucie Lucienne Lucille Lucynda Ludivine Lurgette Lydi Lyna Lynie Lysaux Lyse Lysse Lyze Mabilete Mabrel Mabrelle Madena Madenn Madisone Maelle Maelrisse Maelys Magali Mahlene Malielle Maline Malvina Malyna Manone Maranique Marayna Marcele Marcella Marcelle Marcellyne Marcelyn Marciele Marelie Marelle Maretta Margaud Margaux Margerelle Margine Margot Margrette Marguerite Marian Marie Marielle Marien Marienne Mariette Marieve Marisette Marlene Marquerite Martha Marthe Marthine Martine Martinne Maryse Masalinie Mathelle Mathilde Mathilie Matilda Matilde Maurrie Maxelle Maxille Maxime Maxine Maya Mayla Medya Melanie Melie Melina Melisande Melita Melodie Melynie Mena Merielle Mervilda Michel Michele Michelia Michelle Michou Milie Mimou Minerva Minette Minone Miquela Mira Mirabelle Miramel Miranda Miroleine Mitanne Mizou Mochveda Modhna Molly Morgane Morrigh Mortine Moumou Muazzaz Muiri Muriel Murielle Mylenne Myriame Nadine Nahlia Nana Nanette Nanoyra Nathalye Naudet Nemarc Nemic Neomi Nessa Nicolene Nicoline Ninette Noebelle Noemi Noemie Nonenamwen Norine Normina Nurese Nuresse Nyna Nyomie Nyrona Oceane Odette Odyle Ofelia Olivia Olivie Olyna Olyve Ondrisa Opel Ophelia Orguerite Oriane Orice Osanna Osianne Otha Ouida Pabla Parisse Pepi Petrille Phebe Philippa Phoebe Phylgaux Pierette Pierielle Pierlette Piernette Pierrie Pietine Prolyssa Prudence Pyline Pyn Pyppe Quillet Quirin Rachel Raelyn Raelynn Raelynne Rebecca Regina Regine Reine Reinette Reliana Relie Remelie Renardine Reyna Reynelle Reynine Rhealt Rhiada Rianciene Riane Rianne Rielle Rinelle Rochelle Rokrya Romaire Ronela Ronerelie Ronyssa Rosaldine Rosalia Rosalie Rosalind Rosalyn Rosamonde Rosamund Roselle Rosette Rosine Roulena Roumiet Roxanne Roxy Rozenn Rozette Ryva Sabina Sabine Sabinette Sabrine Sabyssa Sachine Sandire Sandrine Sara Saravith Savinie Segolene Seline Senna Seraphyne Serine Severine Shaelle Shalia Shilia Shillin Shorrin Sibellec Simone Sirone Sorcha Sorine Sosara Sosia Sovelle Stephange Stephie Surane Suriel Susane Sybille Sybilline Sylvie Synette Tabakah Taern Talara Thais Thayer Theonique Theophilia Thonine Thylvie Tilelle Tremelle Tuecille Tyrrya Uaile Ursanne Ursuline Urvie Urvien Valarie Valaunce Valentina Valentine Valentique Valeriane Valerie Valerine Valessa Valyrie Vanisande Varisse Vaudrie Velica Vendi Verene Veroine Veronica Veronique Versien Victoire Victrice Vienne Vimy Vincelle Violette Vireche Virene Virgile Visanne Vistra Vitache Vivian Vivien Vivienne Vivonne Voada Vyctarine Vyctorelle Vyctoria Vylie Xandria Yasmine Ygerne Ylanie Yolande Ysabel Ysabeth Ysanne Ysarne Ysausa Yseline Yurta Yvara Yvayne Yveline Yvelle Yveque Yvon Zeli Zelie Zephyrine Zinadia Zinedine Zizou Zoe Zoellene Zouzou Zozubeth Zylle Zyssa
}

army_names = {
    "Army of $PROVINCE$"
}

fleet_names = {
    "Fleet of $PROVINCE$"
}