graphical_culture = latingfx

color = { 36 176 71 }

revolutionary_colors = { 8 16 8}


historical_idea_groups = {
}

historical_units = {
}

monarch_names = {
    "Zakysor #0" = 10
    "Zerlec #0" = 10
    "Aalezos #0" = 10
    "Aroc #0" = 10
    "Tudaarin #0" = 10
    "Dulros #0" = 10
    "Kaahlec #0" = 10
    "Lysteth #0" = 10
    "Vredraonir #0" = 10
    "Kaomrar #0" = 10
    "Menhadeth #0" = 10
    "Remaasok #0" = 10
    "Tykisok #0" = 10
    "Ridravin #0" = 10
    "Nhudren #0" = 10
    "Gumrok #0" = 10
    "Bauvmith #0" = 10
    "Nirlyloth #0" = 10
    "Runhyrac #0" = 10
    "Vinhylak #0" = 10
    "Ihrasek #0" = 10
    "Rukec #0" = 10
    "Nharmok #0" = 10
    "Zurduzok #0" = 10
    "Yhin #0" = 10
    "Nuvnizo #0" = 10
    "Dadrades #0" = 10
    "Nauhrimak #0" = 10
    "Haonuvic #0" = 10
    "Tirlaasir #0" = 10
    "Herlir #0" = 10
    "Ralreloc #0" = 10
    "Dastith #0" = 10
    "Letan #0" = 10
    "Vrakir #0" = 10
    "Halaanis #0" = 10
    "Demralis #0" = 10
    "Gahlaras #0" = 10
    "Gikamik #0" = 10
    "Runhath #0" = 10
    "Amedoc #0" = 10
    "Zyrdusor #0" = 10
    "Kalrin #0" = 10
    "Vauleso #0" = 10
    "Nhekhedin #0" = 10
    "Kynhesac #0" = 10
    "Dauhrak #0" = 10
    "Rardoc #0" = 10
    "Hyker #0" = 10
    "Vrurlauleth #0" = 10
    "Vrustimek #0" = 10
    "Taaner #0" = 10
    "Ytas #0" = 10
    "Naanuzar #0" = 10
    "Bakumoth #0" = 10
    "Gukhedas #0" = 10
    "Virdanath #0" = 10
    "Larduve #0" = 10
    "Bardek #0" = 10
    "Hynhaolen #0" = 10
    "Myhros #0" = 10
    "Vaulic #0" = 10
    "Taatysoth #0" = 10
    "Gilraoles #0" = 10
    "Vrilak #0" = 10
    "Naonhaudes #0" = 10
    "Haukos #0" = 10
    "Gaohen #0" = 10
    "Zunhe #0" = 10
    "Tamedir #0" = 10
    "Lukaazon #0" = 10
    "Nuvner #0" = 10
    "Desylis #0" = 10
    "Daolo #0" = 10
    "Vredraudin #0" = 10
    "Ludec #0" = 10
    "Muvmec #0" = 10
    "Likoth #0" = 10
    "Malrasoc #0" = 10
    "Hetok #0" = 10
    "Shahaulec #0" = 10
    "Nirdoc #0" = 10
    "Dyrmec #0" = 10
    "Vristidok #0" = 10
    "Vurmesoth #0" = 10
    "Nestith #0" = 10
    "Nhystareth #0" = 10
    "Riralath #0" = 10
    "Idith #0" = 10
    "Tylak #0" = 10
    "Gakaazin #0" = 10
    "Nhihreseth #0" = 10
    "Lyrmerek #0" = 10
    "Tadak #0" = 10
    "Naamaulec #0" = 10
    "Vaorylan #0" = 10
    "Shelren #0" = 10
    "Tirleros #0" = 10
    "Zevmin #0" = 10
    "Tirdor #0" = 10

    "Datohuv #0" = -10
    "Resa #0" = -10
    "Oman #0" = -10
    "Zathi #0" = -10
    "Nemehul #0" = -10
    "Atholur #0" = -10
    "Sarul #0" = -10
    "Nennabu #0" = -10
    "Mahodae #0" = -10
    "Dennae #0" = -10
    "Homin #0" = -10
    "Zonemaer #0" = -10
    "Ronah #0" = -10
    "Soshemeh #0" = -10
    "Ranni #0" = -10
    "Sole #0" = -10
    "Disseh #0" = -10
    "Hiherev #0" = -10
    "Reshoha #0" = -10
    "Ithamav #0" = -10
    "Eshebir #0" = -10
    "Osibin #0" = -10
    "Emah #0" = -10
    "Isur #0" = -10
    "Zeli #0" = -10
    "Sovi #0" = -10
    "Selav #0" = -10
    "Linne #0" = -10
    "Mimohu #0" = -10
    "Vallal #0" = -10
    "Lotemu #0" = -10
    "Dannota #0" = -10
    "Hotedi #0" = -10
    "Lonnev #0" = -10
    "Lerrimiv #0" = -10
    "Teni #0" = -10
    "Norri #0" = -10
    "Dennida #0" = -10
    "Terenu #0" = -10
    "Horremel #0" = -10
    "Nimoner #0" = -10
    "Ilirah #0" = -10
    "Zahoti #0" = -10
    "Oshan #0" = -10
    "Heva #0" = -10
    "Ollatuv #0" = -10
    "Milaer #0" = -10
    "Varin #0" = -10
    "Zollehin #0" = -10
    "Dossehen #0" = -10
    "Zeveduv #0" = -10
    "Allalaer #0" = -10
    "Hella #0" = -10
    "Mannu #0" = -10
    "Nathael #0" = -10
    "Levadaeh #0" = -10
    "Sarri #0" = -10
    "Zosev #0" = -10
    "Lirimiv #0" = -10
    "Omidiv #0" = -10
    "Emin #0" = -10
    "Tazamaev #0" = -10
    "Havu #0" = -10
    "Mazan #0" = -10
    "Rovamu #0" = -10
    "Iran #0" = -10
    "Masehur #0" = -10
    "Resi #0" = -10
    "Lihareh #0" = -10
    "Nizae #0" = -10
    "Dirrinuh #0" = -10
    "Satohar #0" = -10
    "Vonal #0" = -10
    "Nomuh #0" = -10
    "Tome #0" = -10
    "Ossonel #0" = -10
    "Lassoba #0" = -10
    "Doshir #0" = -10
    "Ellur #0" = -10
    "Zassun #0" = -10
    "Viladuh #0" = -10
    "Essar #0" = -10
    "Sonev #0" = -10
    "Ashodev #0" = -10
    "Retobil #0" = -10
    "Vena #0" = -10
    "Romale #0" = -10
    "Demer #0" = -10
    "Issaeh #0" = -10
    "Hosir #0" = -10
    "Izaev #0" = -10
    "Dame #0" = -10
    "Vohu #0" = -10
    "Lashavun #0" = -10
    "Lethadu #0" = -10
    "Talih #0" = -10
    "Dezone #0" = -10
    "Orratul #0" = -10
    "Serrive #0" = -10
    "Mothal #0" = -10
}

leader_names = {
    Zakysor Zerlec Aalezos Aroc Tudaarin Dulros Kaahlec Lysteth Vredraonir Kaomrar Menhadeth Remaasok Tykisok Ridravin Nhudren Gumrok Bauvmith Nirlyloth Runhyrac Vinhylak Ihrasek Rukec Nharmok Zurduzok Yhin Nuvnizo Dadrades Nauhrimak Haonuvic Tirlaasir Herlir Ralreloc Dastith Letan Vrakir Halaanis Demralis Gahlaras Gikamik Runhath Amedoc Zyrdusor Kalrin Vauleso Nhekhedin Kynhesac Dauhrak Rardoc Hyker Vrurlauleth Vrustimek Taaner Ytas Naanuzar Bakumoth Gukhedas Virdanath Larduve Bardek Hynhaolen Myhros Vaulic Taatysoth Gilraoles Vrilak Naonhaudes Haukos Gaohen Zunhe Tamedir Lukaazon Nuvner Desylis Daolo Vredraudin Ludec Muvmec Likoth Malrasoc Hetok Shahaulec Nirdoc Dyrmec Vristidok Vurmesoth Nestith Nhystareth Riralath Idith Tylak Gakaazin Nhihreseth Lyrmerek Tadak Naamaulec Vaorylan Shelren Tirleros Zevmin Tirdor
}

ship_names = {
    Datohuv Resa Oman Zathi Nemehul Atholur Sarul Nennabu Mahodae Dennae Homin Zonemaer Ronah Soshemeh Ranni Sole Disseh Hiherev Reshoha Ithamav Eshebir Osibin Emah Isur Zeli Sovi Selav Linne Mimohu Vallal Lotemu Dannota Hotedi Lonnev Lerrimiv Teni Norri Dennida Terenu Horremel Nimoner Ilirah Zahoti Oshan Heva Ollatuv Milaer Varin Zollehin Dossehen Zeveduv Allalaer Hella Mannu Nathael Levadaeh Sarri Zosev Lirimiv Omidiv Emin Tazamaev Havu Mazan Rovamu Iran Masehur Resi Lihareh Nizae Dirrinuh Satohar Vonal Nomuh Tome Ossonel Lassoba Doshir Ellur Zassun Viladuh Essar Sonev Ashodev Retobil Vena Romale Demer Issaeh Hosir Izaev Dame Vohu Lashavun Lethadu Talih Dezone Orratul Serrive Mothal
}

army_names = {
    "Army of $PROVINCE$"
}

fleet_names = {
    "Fleet of $PROVINCE$"
}