graphical_culture = africangfx

color = { 201 108 45 }

revolutionary_colors = { 15 2 10}


historical_idea_groups = {
}

historical_units = {
}

monarch_names = {
    "Zark #0" = 10
    "Bakhu #0" = 10
    "Nalavirk #0" = 10
    "Krogaabad #0" = 10
    "Zundadull #0" = 10
    "Goldrait #0" = 10
    "Hizzovul #0" = 10
    "Tosh #0" = 10
    "Dazungat #0" = 10
    "Croadror #0" = 10
    "Bozraik #0" = 10
    "Zelgrorg #0" = 10
    "Subrark #0" = 10
    "Loltrod #0" = 10
    "Badzuuth #0" = 10
    "Hus #0" = 10
    "Tork #0" = 10
    "Haudhozaat #0" = 10
    "Him #0" = 10
    "Crir #0" = 10
    "Ligonil #0" = 10
    "Sar #0" = 10
    "Ozzoth #0" = 10
    "Thesh #0" = 10
    "Lostras #0" = 10
    "Zirs #0" = 10
    "Istaanirs #0" = 10
    "Urunvaut #0" = 10
    "Sodog #0" = 10
    "Ungrin #0" = 10
    "Bokturm #0" = 10
    "Banvid #0" = 10
    "Kodherg #0" = 10
    "Drazri #0" = 10
    "Gnundad #0" = 10
    "Hraizzos #0" = 10
    "Hiarm #0" = 10
    "Thudhid #0" = 10
    "Crat #0" = 10
    "Dezvosh #0" = 10
    "Man #0" = 10
    "Graakhon #0" = 10
    "Lazvrat #0" = 10
    "Trudharm #0" = 10
    "Gningurk #0" = 10
    "Adhazith #0" = 10
    "Zisdot #0" = 10
    "Khoguvos #0" = 10
    "Throlraars #0" = 10
    "Corvach #0" = 10
    "Bristirm #0" = 10
    "Kukdor #0" = 10
    "Berobrur #0" = 10
    "Drigubrul #0" = 10
    "Khibazzorm #0" = 10
    "Leltrig #0" = 10
    "Muzrirs #0" = 10
    "Dendrigaak #0" = 10
    "Khuugal #0" = 10
    "Cevaid #0" = 10
    "Gnigorm #0" = 10
    "Griazuurag #0" = 10
    "Neraibors #0" = 10
    "Cit #0" = 10
    "Dregdadhum #0" = 10
    "Kestinia #0" = 10
    "Hreltrod #0" = 10
    "Luul #0" = 10
    "Ozidzi #0" = 10
    "Edzianin #0" = 10
    "Threstresh #0" = 10
    "Ubigo #0" = 10
    "Crograrm #0" = 10
    "Gork #0" = 10
    "Kholl #0" = 10
    "Orvos #0" = 10
    "Cruzzerol #0" = 10
    "Thrika #0" = 10
    "Khatrur #0" = 10
    "Khakderaull #0" = 10
    "Thiazrad #0" = 10
    "Cubrach #0" = 10
    "Mars #0" = 10
    "Lot #0" = 10
    "Mith #0" = 10
    "Kheziarvair #0" = 10
    "Khastra #0" = 10
    "Cilgru #0" = 10
    "Undros #0" = 10
    "Ders #0" = 10
    "Dakdadas #0" = 10
    "Zall #0" = 10
    "Horvush #0" = 10
    "Crerdron #0" = 10
    "Kradrar #0" = 10
    "Hogders #0" = 10
    "Gosdiad #0" = 10
    "Kharogesh #0" = 10
    "Devers #0" = 10
    "Adzad #0" = 10

    "Kidre #0" = -10
    "Gun #0" = -10
    "Rhun #0" = -10
    "Shagarga #0" = -10
    "Ganlo #0" = -10
    "Igetu #0" = -10
    "Aitu #0" = -10
    "Dal #0" = -10
    "Vuzanco #0" = -10
    "Hash #0" = -10
    "Volli #0" = -10
    "Kish #0" = -10
    "Isimlouth #0" = -10
    "Win #0" = -10
    "Bramraibo #0" = -10
    "Tocayzra #0" = -10
    "Zaghimou #0" = -10
    "Orlay #0" = -10
    "Wabrox #0" = -10
    "Sharlah #0" = -10
    "Ilra #0" = -10
    "Raysrouvon #0" = -10
    "Gaslai #0" = -10
    "Ira #0" = -10
    "Nuth #0" = -10
    "Panoth #0" = -10
    "Nalra #0" = -10
    "Denini #0" = -10
    "Kex #0" = -10
    "Sutadri #0" = -10
    "Hesh #0" = -10
    "Rhedrouran #0" = -10
    "Brigho #0" = -10
    "Ohgesa #0" = -10
    "Iljkola #0" = -10
    "Daicri #0" = -10
    "Ottosh #0" = -10
    "Benaljkesh #0" = -10
    "Shorlu #0" = -10
    "Kattash #0" = -10
    "Thanocu #0" = -10
    "Vugla #0" = -10
    "Cazrugoth #0" = -10
    "Hiljko #0" = -10
    "Ouva #0" = -10
    "Rosri #0" = -10
    "Bramun #0" = -10
    "Fith #0" = -10
    "Ferin #0" = -10
    "Zule #0" = -10
    "Fosi #0" = -10
    "Cuth #0" = -10
    "Ibulte #0" = -10
    "Bohgah #0" = -10
    "Cighal #0" = -10
    "Dil #0" = -10
    "Isibro #0" = -10
    "Usox #0" = -10
    "Rhaynlux #0" = -10
    "Guhro #0" = -10
    "Oghame #0" = -10
    "Simlax #0" = -10
    "Alto #0" = -10
    "Shuzusray #0" = -10
    "Rheth #0" = -10
    "Ivru #0" = -10
    "Egli #0" = -10
    "Nuhraba #0" = -10
    "Kin #0" = -10
    "Cedli #0" = -10
    "Rhotozo #0" = -10
    "Ocro #0" = -10
    "Pelta #0" = -10
    "Mosh #0" = -10
    "Ollu #0" = -10
    "Outex #0" = -10
    "Nel #0" = -10
    "Higli #0" = -10
    "Wilno #0" = -10
    "Rholna #0" = -10
    "Sih #0" = -10
    "Gayl #0" = -10
    "Dath #0" = -10
    "Iljkou #0" = -10
    "Same #0" = -10
    "Rhuglu #0" = -10
    "Olnigi #0" = -10
    "Tocrai #0" = -10
    "Zanil #0" = -10
    "Hax #0" = -10
    "Taglagu #0" = -10
    "Tholjkou #0" = -10
    "Vol #0" = -10
    "Kohkasi #0" = -10
    "Nuneva #0" = -10
    "Rhollemith #0" = -10
    "Cex #0" = -10
    "Benca #0" = -10
    "Wirlosh #0" = -10
    "Vusleri #0" = -10
}

leader_names = {
    Zark Bakhu Nalavirk Krogaabad Zundadull Goldrait Hizzovul Tosh Dazungat Croadror Bozraik Zelgrorg Subrark Loltrod Badzuuth Hus Tork Haudhozaat Him Crir Ligonil Sar Ozzoth Thesh Lostras Zirs Istaanirs Urunvaut Sodog Ungrin Bokturm Banvid Kodherg Drazri Gnundad Hraizzos Hiarm Thudhid Crat Dezvosh Man Graakhon Lazvrat Trudharm Gningurk Adhazith Zisdot Khoguvos Throlraars Corvach Bristirm Kukdor Berobrur Drigubrul Khibazzorm Leltrig Muzrirs Dendrigaak Khuugal Cevaid Gnigorm Griazuurag Neraibors Cit Dregdadhum Kestinia Hreltrod Luul Ozidzi Edzianin Threstresh Ubigo Crograrm Gork Kholl Orvos Cruzzerol Thrika Khatrur Khakderaull Thiazrad Cubrach Mars Lot Mith Kheziarvair Khastra Cilgru Undros Ders Dakdadas Zall Horvush Crerdron Kradrar Hogders Gosdiad Kharogesh Devers Adzad
}

ship_names = {
    Kidre Gun Rhun Shagarga Ganlo Igetu Aitu Dal Vuzanco Hash Volli Kish Isimlouth Win Bramraibo Tocayzra Zaghimou Orlay Wabrox Sharlah Ilra Raysrouvon Gaslai Ira Nuth Panoth Nalra Denini Kex Sutadri Hesh Rhedrouran Brigho Ohgesa Iljkola Daicri Ottosh Benaljkesh Shorlu Kattash Thanocu Vugla Cazrugoth Hiljko Ouva Rosri Bramun Fith Ferin Zule Fosi Cuth Ibulte Bohgah Cighal Dil Isibro Usox Rhaynlux Guhro Oghame Simlax Alto Shuzusray Rheth Ivru Egli Nuhraba Kin Cedli Rhotozo Ocro Pelta Mosh Ollu Outex Nel Higli Wilno Rholna Sih Gayl Dath Iljkou Same Rhuglu Olnigi Tocrai Zanil Hax Taglagu Tholjkou Vol Kohkasi Nuneva Rhollemith Cex Benca Wirlosh Vusleri
}

army_names = {
    "Army of $PROVINCE$"
}

fleet_names = {
    "Fleet of $PROVINCE$"
}