graphical_culture = westerngfx

color = { 255 145 0 }

revolutionary_colors = { 8 13 0}


historical_idea_groups = {
}

historical_units = {
}

monarch_names = {
    "Vylon #0" = 10
    "Ohmvyce #0" = 10
    "Lohrrenar #0" = 10
    "Colorad #0" = 10
    "Thalneth #0" = 10
    "Yhrrel #0" = 10
    "Urannear #0" = 10
    "Dyntaran #0" = 10
    "Sallyx #0" = 10
    "Joranlead #0" = 10
    "Suranan #0" = 10
    "Nyrtar #0" = 10
    "Iarylan #0" = 10
    "Wraxon #0" = 10
    "Eorynad #0" = 10
    "Garanlan #0" = 10
    "Kranrel #0" = 10
    "Qrinnar #0" = 10
    "Colel #0" = 10
    "Lareth #0" = 10
    "Ylrahn #0" = 10
    "Azerel #0" = 10
    "Wraxyx #0" = 10
    "Zahrnyx #0" = 10
    "Inorlynx #0" = 10
    "Toryth #0" = 10
    "Jaroriad #0" = 10
    "Iarvahr #0" = 10
    "Dynirad #0" = 10
    "Lanarrenar #0" = 10
    "Laran #0" = 10
    "Dracaris #0" = 10
    "Praxvahr #0" = 10
    "Rharied #0" = 10
    "Praxaxis #0" = 10
    "Caranel #0" = 10
    "Mahrigar #0" = 10
    "Lanarorad #0" = 10
    "Braxlyx #0" = 10
    "Braxlax #0" = 10
    "Ohmorad #0" = 10
    "Pamnex #0" = 10
    "Yhrvile #0" = 10
    "Kuronaris #0" = 10
    "Xahrnyx #0" = 10
    "Kranliar #0" = 10
    "Fornerrith #0" = 10
    "Ohmaer #0" = 10
    "Zahrnex #0" = 10
    "Saloth #0" = 10
    "Brenilan #0" = 10
    "Yhrsahr #0" = 10
    "Jhorvix #0" = 10
    "Najix #0" = 10
    "Mahrryd #0" = 10
    "Zohnyth #0" = 10
    "Crynlynx #0" = 10
    "Braxneth #0" = 10
    "Inorvahr #0" = 10
    "Fyzelon #0" = 10
    "Zaelihr #0" = 10
    "Rizarniran #0" = 10
    "Joraner #0" = 10
    "Najyx #0" = 10
    "Qahrnex #0" = 10
    "Maranilan #0" = 10
    "Salex #0" = 10
    "Ryztar #0" = 10
    "Rharovan #0" = 10
    "Ezrinaris #0" = 10
    "Xalsahr #0" = 10
    "Eranoriad #0" = 10
    "Grullax #0" = 10
    "Phiroriad #0" = 10
    "Hyirneth #0" = 10
    "Fharyxir #0" = 10
    "Dyntiran #0" = 10
    "Colerrith #0" = 10
    "Iaryd #0" = 10
    "Gnarvile #0" = 10
    "Dracniran #0" = 10
    "Jarlarin #0" = 10
    "Fyzied #0" = 10
    "Larsahr #0" = 10
    "Iarsan #0" = 10
    "Dharyx #0" = 10
    "Wraxox #0" = 10
    "Igaryxir #0" = 10
    "Borenorin #0" = 10
    "Vohroth #0" = 10
    "Xinear #0" = 10
    "Dyntar #0" = 10
    "Zahraxis #0" = 10
    "Najtrax #0" = 10
    "Xintrax #0" = 10
    "Urtiran #0" = 10
    "Unoranin #0" = 10
    "Lanarixan #0" = 10

    "Zrixira #0" = -10
    "Aezaya #0" = -10
    "Ortyse #0" = -10
    "Tinaith #0" = -10
    "Harellenne #0" = -10
    "Orinevera #0" = -10
    "Charneth #0" = -10
    "Keloris #0" = -10
    "Tryxana #0" = -10
    "Thelyla #0" = -10
    "Krynyra #0" = -10
    "Phisthine #0" = -10
    "Yrelyra #0" = -10
    "Ohiraith #0" = -10
    "Zarinoris #0" = -10
    "Ohiryxih #0" = -10
    "Grynera #0" = -10
    "Shynixi #0" = -10
    "Berinona #0" = -10
    "Jilriane #0" = -10
    "Glyselin #0" = -10
    "Sharryss #0" = -10
    "Uhryera #0" = -10
    "Xenyera #0" = -10
    "Daemrelle #0" = -10
    "Dhyseli #0" = -10
    "Dhysaith #0" = -10
    "Ristyse #0" = -10
    "Xislyss #0" = -10
    "Vheslenne #0" = -10
    "Phistia #0" = -10
    "Bwynanya #0" = -10
    "Prisora #0" = -10
    "Usinorin #0" = -10
    "Ohirrya #0" = -10
    "Xensyss #0" = -10
    "Tryxlith #0" = -10
    "Catlyn #0" = -10
    "Wylinesh #0" = -10
    "Azaerney #0" = -10
    "Shareth #0" = -10
    "Xylney #0" = -10
    "Lilysh #0" = -10
    "Carileth #0" = -10
    "Orinith #0" = -10
    "Qyrvynia #0" = -10
    "Qyriana #0" = -10
    "Winess #0" = -10
    "Cahrvyra #0" = -10
    "Meridesha #0" = -10
    "Cahrnore #0" = -10
    "Ohirlith #0" = -10
    "Qhesrelle #0" = -10
    "Sarnore #0" = -10
    "Orlia #0" = -10
    "Cahraela #0" = -10
    "Irinynore #0" = -10
    "Ynisnys #0" = -10
    "Bwynvyra #0" = -10
    "Phisvienne #0" = -10
    "Lilesh #0" = -10
    "Orelin #0" = -10
    "Drenvielle #0" = -10
    "Dhyssea #0" = -10
    "Gryneli #0" = -10
    "Nessysha #0" = -10
    "Lilvia #0" = -10
    "Ryrtyse #0" = -10
    "Ohirvyn #0" = -10
    "Xisoth #0" = -10
    "Lilieth #0" = -10
    "Glysvyra #0" = -10
    "Meridnore #0" = -10
    "Charanya #0" = -10
    "Wylinelin #0" = -10
    "Zelltarish #0" = -10
    "Meztia #0" = -10
    "Shirinnessa #0" = -10
    "Cattia #0" = -10
    "Meridriane #0" = -10
    "Vylneth #0" = -10
    "Mhyrvyn #0" = -10
    "Carilyss #0" = -10
    "Kelixis #0" = -10
    "Shylea #0" = -10
    "Vylysh #0" = -10
    "Jaenesh #0" = -10
    "Cahrielle #0" = -10
    "Mezrahne #0" = -10
    "Brizlea #0" = -10
    "Ohirana #0" = -10
    "Aeztarish #0" = -10
    "Prislyn #0" = -10
    "Harelvyra #0" = -10
    "Ysernila #0" = -10
    "Vhesnila #0" = -10
    "Cahrysha #0" = -10
    "Orless #0" = -10
    "Iphisysha #0" = -10
}

leader_names = {
    Vylon Ohmvyce Lohrrenar Colorad Thalneth Yhrrel Urannear Dyntaran Sallyx Joranlead Suranan Nyrtar Iarylan Wraxon Eorynad Garanlan Kranrel Qrinnar Colel Lareth Ylrahn Azerel Wraxyx Zahrnyx Inorlynx Toryth Jaroriad Iarvahr Dynirad Lanarrenar Laran Dracaris Praxvahr Rharied Praxaxis Caranel Mahrigar Lanarorad Braxlyx Braxlax Ohmorad Pamnex Yhrvile Kuronaris Xahrnyx Kranliar Fornerrith Ohmaer Zahrnex Saloth Brenilan Yhrsahr Jhorvix Najix Mahrryd Zohnyth Crynlynx Braxneth Inorvahr Fyzelon Zaelihr Rizarniran Joraner Najyx Qahrnex Maranilan Salex Ryztar Rharovan Ezrinaris Xalsahr Eranoriad Grullax Phiroriad Hyirneth Fharyxir Dyntiran Colerrith Iaryd Gnarvile Dracniran Jarlarin Fyzied Larsahr Iarsan Dharyx Wraxox Igaryxir Borenorin Vohroth Xinear Dyntar Zahraxis Najtrax Xintrax Urtiran Unoranin Lanarixan
}

ship_names = {
    Zrixira Aezaya Ortyse Tinaith Harellenne Orinevera Charneth Keloris Tryxana Thelyla Krynyra Phisthine Yrelyra Ohiraith Zarinoris Ohiryxih Grynera Shynixi Berinona Jilriane Glyselin Sharryss Uhryera Xenyera Daemrelle Dhyseli Dhysaith Ristyse Xislyss Vheslenne Phistia Bwynanya Prisora Usinorin Ohirrya Xensyss Tryxlith Catlyn Wylinesh Azaerney Shareth Xylney Lilysh Carileth Orinith Qyrvynia Qyriana Winess Cahrvyra Meridesha Cahrnore Ohirlith Qhesrelle Sarnore Orlia Cahraela Irinynore Ynisnys Bwynvyra Phisvienne Lilesh Orelin Drenvielle Dhyssea Gryneli Nessysha Lilvia Ryrtyse Ohirvyn Xisoth Lilieth Glysvyra Meridnore Charanya Wylinelin Zelltarish Meztia Shirinnessa Cattia Meridriane Vylneth Mhyrvyn Carilyss Kelixis Shylea Vylysh Jaenesh Cahrielle Mezrahne Brizlea Ohirana Aeztarish Prislyn Harelvyra Ysernila Vhesnila Cahrysha Orless Iphisysha
}

army_names = {
    "Army of $PROVINCE$"
}

fleet_names = {
    "Fleet of $PROVINCE$"
}