graphical_culture = mongolgfx

color = { 12 107 18 }

revolutionary_colors = { 13 10 4}


historical_idea_groups = {
}

historical_units = {
}

monarch_names = {
    "Melvistul #0" = 10
    "Mabrilkin #0" = 10
    "Zamrencam #0" = 10
    "Daveged #0" = 10
    "Dalrulbal #0" = 10
    "Lugrurved #0" = 10
    "Unnekran #0" = 10
    "Zonilbal #0" = 10
    "Vulrincam #0" = 10
    "Naglestas #0" = 10
    "Vanonval #0" = 10
    "Zagunceam #0" = 10
    "Evarled #0" = 10
    "Hublogus #0" = 10
    "Vondinveam #0" = 10
    "Yavalkan #0" = 10
    "Zalervid #0" = 10
    "Gagrurviad #0" = 10
    "Almoncan #0" = 10
    "Hugloldin #0" = 10
    "Amroldan #0" = 10
    "Landoncam #0" = 10
    "Alinden #0" = 10
    "Galmelbias #0" = 10
    "Geborvam #0" = 10
    "Vongurdel #0" = 10
    "Gamrascen #0" = 10
    "Kandinked #0" = 10
    "Dondabris #0" = 10
    "Naglirgid #0" = 10
    "Nezurgin #0" = 10
    "Yegusned #0" = 10
    "Lungaknam #0" = 10
    "Zulvurlis #0" = 10
    "Laglirnul #0" = 10
    "Vemroknun #0" = 10
    "Zuvinkal #0" = 10
    "Velmebrim #0" = 10
    "Zoblustas #0" = 10
    "Yabrusceam #0" = 10
    "Egerlel #0" = 10
    "Galmesteas #0" = 10
    "Zunnoknus #0" = 10
    "Kandurdem #0" = 10
    "Habagean #0" = 10
    "Razarnaam #0" = 10
    "Lavuscin #0" = 10
    "Begnegead #0" = 10
    "Gabestim #0" = 10
    "Zegroncean #0" = 10
    "Egrarvis #0" = 10
    "Rabrolbis #0" = 10
    "Lozaldias #0" = 10
    "Lulvencul #0" = 10
    "Naglorgaal #0" = 10
    "Babrinvum #0" = 10
    "Mazuldul #0" = 10
    "Yugrigal #0" = 10
    "Evelbal #0" = 10
    "Vadrundul #0" = 10
    "Yonnebas #0" = 10
    "Gagrunvad #0" = 10
    "Alvorvis #0" = 10
    "Valruldal #0" = 10
    "Alvestis #0" = 10
    "Zognishum #0" = 10
    "Annirdim #0" = 10
    "Zannirdad #0" = 10
    "Rabunvam #0" = 10
    "Agrurlan #0" = 10
    "Neglibad #0" = 10
    "Huziscud #0" = 10
    "Gabisnil #0" = 10
    "Vamigun #0" = 10
    "Dunneshum #0" = 10
    "Alvirnan #0" = 10
    "Volnolbal #0" = 10
    "Obrirnan #0" = 10
    "Ovegud #0" = 10
    "Odroshim #0" = 10
    "Adoncan #0" = 10
    "Ralmalkum #0" = 10
    "Romrurvias #0" = 10
    "Vannuknen #0" = 10
    "Gabligrum #0" = 10
    "Ralrakral #0" = 10
    "Kogrukneam #0" = 10
    "Gumrogis #0" = 10
    "Dablusned #0" = 10
    "Yamirgad #0" = 10
    "Ulvirlem #0" = 10
    "Bovukrun #0" = 10
    "Kalvoshas #0" = 10
    "Vegrendas #0" = 10
    "Bongordud #0" = 10
    "Mebrerdum #0" = 10
    "Hadurdas #0" = 10
    "Ulergis #0" = 10
    "Adribum #0" = 10
    "Kelmerdas #0" = 10

    "Avrisla #0" = -10
    "Vozeshi #0" = -10
    "Sorirle #0" = -10
    "Fazzopin #0" = -10
    "Livrehnat #0" = -10
    "Morlactos #0" = -10
    "Mavlishen #0" = -10
    "Arignel #0" = -10
    "Foldogne #0" = -10
    "Virvannon #0" = -10
    "Vilneslel #0" = -10
    "Felahlot #0" = -10
    "Lerimmoh #0" = -10
    "Hizzahla #0" = -10
    "Fazindo #0" = -10
    "Lecoslon #0" = -10
    "Chilrignon #0" = -10
    "Sindorlo #0" = -10
    "Larlorve #0" = -10
    "Farrando #0" = -10
    "Endarvah #0" = -10
    "Zhilvalo #0" = -10
    "Ozrines #0" = -10
    "Irviva #0" = -10
    "Eldesol #0" = -10
    "Naznahna #0" = -10
    "Zhamnomol #0" = -10
    "Sondova #0" = -10
    "Emozoh #0" = -10
    "Vinrages #0" = -10
    "Varinnon #0" = -10
    "Shonvalmo #0" = -10
    "Elvongal #0" = -10
    "Ferrores #0" = -10
    "Zhalvenoh #0" = -10
    "Fevimil #0" = -10
    "Chanvorla #0" = -10
    "Filnagno #0" = -10
    "Vizrilas #0" = -10
    "Zhinrictos #0" = -10
    "Helvarli #0" = -10
    "Lozagi #0" = -10
    "Shinrihnel #0" = -10
    "Navrolmah #0" = -10
    "Chalrivot #0" = -10
    "Verlecta #0" = -10
    "Fazrevat #0" = -10
    "Lazrangot #0" = -10
    "Vilrohni #0" = -10
    "Chizrono #0" = -10
    "Alnictis #0" = -10
    "Larvihnel #0" = -10
    "Chovlocto #0" = -10
    "Hamendin #0" = -10
    "Lafrepa #0" = -10
    "Inzarvoh #0" = -10
    "Lamnishos #0" = -10
    "Somaslah #0" = -10
    "Irapo #0" = -10
    "Zhavrovol #0" = -10
    "Chillonnah #0" = -10
    "Norvazos #0" = -10
    "Fizrehnos #0" = -10
    "Hanvictol #0" = -10
    "Nivlivah #0" = -10
    "Hafnogno #0" = -10
    "Zhevrognot #0" = -10
    "Zolvarloh #0" = -10
    "Nanzondan #0" = -10
    "Ilnohnal #0" = -10
    "Shanvavas #0" = -10
    "Maprogoh #0" = -10
    "Silnommo #0" = -10
    "Nizrorot #0" = -10
    "Nerromma #0" = -10
    "Ervohna #0" = -10
    "Izzinnes #0" = -10
    "Haneroh #0" = -10
    "Lofnima #0" = -10
    "Filnapas #0" = -10
    "Zhifrorin #0" = -10
    "Hendolmol #0" = -10
    "Chirrevet #0" = -10
    "Zomactin #0" = -10
    "Ocigal #0" = -10
    "Foldohlas #0" = -10
    "Izrocton #0" = -10
    "Shindannoh #0" = -10
    "Arvevan #0" = -10
    "Nepremol #0" = -10
    "Nedrishes #0" = -10
    "Lonvazol #0" = -10
    "Inzozon #0" = -10
    "Ivlihno #0" = -10
    "Zhondoma #0" = -10
    "Zharrile #0" = -10
    "Zonzihnat #0" = -10
    "Nervagnoh #0" = -10
    "Melnira #0" = -10
    "Inahnit #0" = -10
}

leader_names = {
    Melvistul Mabrilkin Zamrencam Daveged Dalrulbal Lugrurved Unnekran Zonilbal Vulrincam Naglestas Vanonval Zagunceam Evarled Hublogus Vondinveam Yavalkan Zalervid Gagrurviad Almoncan Hugloldin Amroldan Landoncam Alinden Galmelbias Geborvam Vongurdel Gamrascen Kandinked Dondabris Naglirgid Nezurgin Yegusned Lungaknam Zulvurlis Laglirnul Vemroknun Zuvinkal Velmebrim Zoblustas Yabrusceam Egerlel Galmesteas Zunnoknus Kandurdem Habagean Razarnaam Lavuscin Begnegead Gabestim Zegroncean Egrarvis Rabrolbis Lozaldias Lulvencul Naglorgaal Babrinvum Mazuldul Yugrigal Evelbal Vadrundul Yonnebas Gagrunvad Alvorvis Valruldal Alvestis Zognishum Annirdim Zannirdad Rabunvam Agrurlan Neglibad Huziscud Gabisnil Vamigun Dunneshum Alvirnan Volnolbal Obrirnan Ovegud Odroshim Adoncan Ralmalkum Romrurvias Vannuknen Gabligrum Ralrakral Kogrukneam Gumrogis Dablusned Yamirgad Ulvirlem Bovukrun Kalvoshas Vegrendas Bongordud Mebrerdum Hadurdas Ulergis Adribum Kelmerdas
}

ship_names = {
    Avrisla Vozeshi Sorirle Fazzopin Livrehnat Morlactos Mavlishen Arignel Foldogne Virvannon Vilneslel Felahlot Lerimmoh Hizzahla Fazindo Lecoslon Chilrignon Sindorlo Larlorve Farrando Endarvah Zhilvalo Ozrines Irviva Eldesol Naznahna Zhamnomol Sondova Emozoh Vinrages Varinnon Shonvalmo Elvongal Ferrores Zhalvenoh Fevimil Chanvorla Filnagno Vizrilas Zhinrictos Helvarli Lozagi Shinrihnel Navrolmah Chalrivot Verlecta Fazrevat Lazrangot Vilrohni Chizrono Alnictis Larvihnel Chovlocto Hamendin Lafrepa Inzarvoh Lamnishos Somaslah Irapo Zhavrovol Chillonnah Norvazos Fizrehnos Hanvictol Nivlivah Hafnogno Zhevrognot Zolvarloh Nanzondan Ilnohnal Shanvavas Maprogoh Silnommo Nizrorot Nerromma Ervohna Izzinnes Haneroh Lofnima Filnapas Zhifrorin Hendolmol Chirrevet Zomactin Ocigal Foldohlas Izrocton Shindannoh Arvevan Nepremol Nedrishes Lonvazol Inzozon Ivlihno Zhondoma Zharrile Zonzihnat Nervagnoh Melnira Inahnit
}

army_names = {
    "Army of $PROVINCE$"
}

fleet_names = {
    "Fleet of $PROVINCE$"
}