graphical_culture = mongolgfx

color = { 19 107 101 }

revolutionary_colors = { 11 14 1}


historical_idea_groups = {
}

historical_units = {
}

monarch_names = {
    "Deesmal #0" = 10
    "Finremth #0" = 10
    "Rhanwall #0" = 10
    "Tewam #0" = 10
    "Foermeskr #0" = 10
    "Bryngeemir #0" = 10
    "Rurkonneir #0" = 10
    "Segald #0" = 10
    "Bretgolak #0" = 10
    "Stetmak #0" = 10
    "Jetmenl #0" = 10
    "Ratmam #0" = 10
    "Told #0" = 10
    "Fudemth #0" = 10
    "Ferleld #0" = 10
    "Tosgril #0" = 10
    "Rhasnaskr #0" = 10
    "Dusnanl #0" = 10
    "Rholl #0" = 10
    "Gugnorr #0" = 10
    "Dorkalg #0" = 10
    "Hoksild #0" = 10
    "Tilgeskr #0" = 10
    "Sisgamth #0" = 10
    "Boechyrom #0" = 10
    "Holam #0" = 10
    "Stegnennith #0" = 10
    "Rhenwath #0" = 10
    "Kleelim #0" = 10
    "Sudinl #0" = 10
    "Rondirek #0" = 10
    "Bor #0" = 10
    "Jalsgolein #0" = 10
    "Stegath #0" = 10
    "Gechem #0" = 10
    "Stindurilg #0" = 10
    "Rhilg #0" = 10
    "Roewallom #0" = 10
    "Keewogik #0" = 10
    "Klolsgonl #0" = 10
    "Frelsgel #0" = 10
    "Brelskald #0" = 10
    "Brungolg #0" = 10
    "Frargil #0" = 10
    "Storgath #0" = 10
    "Kosner #0" = 10
    "Kligild #0" = 10
    "Vukniak #0" = 10
    "Thelbell #0" = 10
    "Feld #0" = 10
    "Sungiaskr #0" = 10
    "Frowunnirr #0" = 10
    "Fosmil #0" = 10
    "Skitgerr #0" = 10
    "Gilsganl #0" = 10
    "Thirmoskr #0" = 10
    "Tiwon #0" = 10
    "Kosnorr #0" = 10
    "Bralg #0" = 10
    "Frurramth #0" = 10
    "Gol #0" = 10
    "Keld #0" = 10
    "Rhyrrerik #0" = 10
    "Frechom #0" = 10
    "Folsgold #0" = 10
    "Skendeinl #0" = 10
    "Rotgild #0" = 10
    "Kirkom #0" = 10
    "Valben #0" = 10
    "Sirlannen #0" = 10
    "Dyrulleim #0" = 10
    "Dilg #0" = 10
    "Skoetgogam #0" = 10
    "Kurmok #0" = 10
    "Stisgreskr #0" = 10
    "Dasgron #0" = 10
    "Skylskak #0" = 10
    "Delsgoll #0" = 10
    "Dormam #0" = 10
    "Delorr #0" = 10
    "Klytmor #0" = 10
    "Steedeth #0" = 10
    "Mesmannath #0" = 10
    "Bolbein #0" = 10
    "Finwoskr #0" = 10
    "Jochin #0" = 10
    "Rerlok #0" = 10
    "Feegnerr #0" = 10
    "Moegianl #0" = 10
    "Thangianl #0" = 10
    "Kutgild #0" = 10
    "Tirmonmoll #0" = 10
    "Tusgrirr #0" = 10
    "Frem #0" = 10
    "Brundeskr #0" = 10
    "Thugnom #0" = 10
    "Budek #0" = 10
    "Vilskemild #0" = 10
    "Skechilg #0" = 10
    "Rotmalleskr #0" = 10

    "Vudmuldr #0" = -10
    "Skolnuf #0" = -10
    "Brinhal #0" = -10
    "Sogrur #0" = -10
    "Thrivedraldr #0" = -10
    "Fragdrudrer #0" = -10
    "Morvenend #0" = -10
    "Brotiedr #0" = -10
    "Vif #0" = -10
    "Vunheldys #0" = -10
    "Kamen #0" = -10
    "Hudynd #0" = -10
    "Sogjudrildr #0" = -10
    "Hadrehyldr #0" = -10
    "Heyrmin #0" = -10
    "Hleirjin #0" = -10
    "Hleingrenyl #0" = -10
    "Modmeldil #0" = -10
    "Hlateyldus #0" = -10
    "Hlihuldan #0" = -10
    "Hormeld #0" = -10
    "Frethold #0" = -10
    "Rulur #0" = -10
    "Kadref #0" = -10
    "Geildif #0" = -10
    "Sves #0" = -10
    "Gorjold #0" = -10
    "Hjeijes #0" = -10
    "Kehaldoldr #0" = -10
    "Vodrold #0" = -10
    "Hledrind #0" = -10
    "Hlalmadrun #0" = -10
    "Gagrer #0" = -10
    "Godehedr #0" = -10
    "Svadrinlind #0" = -10
    "Brodrunlyn #0" = -10
    "Sothes #0" = -10
    "Gildaldr #0" = -10
    "Svugjis #0" = -10
    "Veydef #0" = -10
    "Hrovel #0" = -10
    "Veladrys #0" = -10
    "Heylrianlor #0" = -10
    "Homyld #0" = -10
    "Hres #0" = -10
    "Hrialmuhon #0" = -10
    "Bruleihof #0" = -10
    "Thudubyldr #0" = -10
    "Thedrildr #0" = -10
    "Geirvobond #0" = -10
    "Hitys #0" = -10
    "Hjudr #0" = -10
    "Frildiafol #0" = -10
    "Hjir #0" = -10
    "Thimis #0" = -10
    "Hlogren #0" = -10
    "Vogeyfioldr #0" = -10
    "Gendodr #0" = -10
    "Kiaheldir #0" = -10
    "Valdubild #0" = -10
    "Rolrifodr #0" = -10
    "Thol #0" = -10
    "Hrodruldaf #0" = -10
    "Kuvinludr #0" = -10
    "Threidiodr #0" = -10
    "Korveldr #0" = -10
    "Breyld #0" = -10
    "Thelmyn #0" = -10
    "Svedryl #0" = -10
    "Magdrond #0" = -10
    "Geldr #0" = -10
    "Hagrudr #0" = -10
    "Frugdronluldr #0" = -10
    "Thrialder #0" = -10
    "Skodnild #0" = -10
    "Hjialdr #0" = -10
    "Mogibin #0" = -10
    "Fruveld #0" = -10
    "Skolnil #0" = -10
    "Salyld #0" = -10
    "Freldohiof #0" = -10
    "Thovohadr #0" = -10
    "Hreythond #0" = -10
    "Ridyl #0" = -10
    "Thilrif #0" = -10
    "Surjafald #0" = -10
    "Hregjaf #0" = -10
    "Kigrildr #0" = -10
    "Hjemuld #0" = -10
    "Hjangris #0" = -10
    "Briguf #0" = -10
    "Radr #0" = -10
    "Hlolmof #0" = -10
    "Hrund #0" = -10
    "Svednun #0" = -10
    "Gorvar #0" = -10
    "Heirubaf #0" = -10
    "Sarynd #0" = -10
    "Tholnofeldr #0" = -10
    "Frodmeldof #0" = -10
}

leader_names = {
    Deesmal Finremth Rhanwall Tewam Foermeskr Bryngeemir Rurkonneir Segald Bretgolak Stetmak Jetmenl Ratmam Told Fudemth Ferleld Tosgril Rhasnaskr Dusnanl Rholl Gugnorr Dorkalg Hoksild Tilgeskr Sisgamth Boechyrom Holam Stegnennith Rhenwath Kleelim Sudinl Rondirek Bor Jalsgolein Stegath Gechem Stindurilg Rhilg Roewallom Keewogik Klolsgonl Frelsgel Brelskald Brungolg Frargil Storgath Kosner Kligild Vukniak Thelbell Feld Sungiaskr Frowunnirr Fosmil Skitgerr Gilsganl Thirmoskr Tiwon Kosnorr Bralg Frurramth Gol Keld Rhyrrerik Frechom Folsgold Skendeinl Rotgild Kirkom Valben Sirlannen Dyrulleim Dilg Skoetgogam Kurmok Stisgreskr Dasgron Skylskak Delsgoll Dormam Delorr Klytmor Steedeth Mesmannath Bolbein Finwoskr Jochin Rerlok Feegnerr Moegianl Thangianl Kutgild Tirmonmoll Tusgrirr Frem Brundeskr Thugnom Budek Vilskemild Skechilg Rotmalleskr
}

ship_names = {
    Vudmuldr Skolnuf Brinhal Sogrur Thrivedraldr Fragdrudrer Morvenend Brotiedr Vif Vunheldys Kamen Hudynd Sogjudrildr Hadrehyldr Heyrmin Hleirjin Hleingrenyl Modmeldil Hlateyldus Hlihuldan Hormeld Frethold Rulur Kadref Geildif Sves Gorjold Hjeijes Kehaldoldr Vodrold Hledrind Hlalmadrun Gagrer Godehedr Svadrinlind Brodrunlyn Sothes Gildaldr Svugjis Veydef Hrovel Veladrys Heylrianlor Homyld Hres Hrialmuhon Bruleihof Thudubyldr Thedrildr Geirvobond Hitys Hjudr Frildiafol Hjir Thimis Hlogren Vogeyfioldr Gendodr Kiaheldir Valdubild Rolrifodr Thol Hrodruldaf Kuvinludr Threidiodr Korveldr Breyld Thelmyn Svedryl Magdrond Geldr Hagrudr Frugdronluldr Thrialder Skodnild Hjialdr Mogibin Fruveld Skolnil Salyld Freldohiof Thovohadr Hreythond Ridyl Thilrif Surjafald Hregjaf Kigrildr Hjemuld Hjangris Briguf Radr Hlolmof Hrund Svednun Gorvar Heirubaf Sarynd Tholnofeldr Frodmeldof
}

army_names = {
    "Army of $PROVINCE$"
}

fleet_names = {
    "Fleet of $PROVINCE$"
}