graphical_culture = westerngfx

color = { 228 147 27 }

revolutionary_colors = { 9 8 11}


historical_idea_groups = {
}

historical_units = {
}

monarch_names = {
    "Quowin #0" = 10
    "Fenjor #0" = 10
    "Jarfarin #0" = 10
    "Lorastina #0" = 10
    "Stenyeras #0" = 10
    "Grelee #0" = 10
    "Frandorr #0" = 10
    "Olafir #0" = 10
    "Galered #0" = 10
    "Umefaren #0" = 10
    "Donred #0" = 10
    "Grexina #0" = 10
    "Quorune #0" = 10
    "Zyllee #0" = 10
    "Jarthorn #0" = 10
    "Ravacan #0" = 10
    "Tyrtael #0" = 10
    "Iansatra #0" = 10
    "Quored #0" = 10
    "Trabanise #0" = 10
    "Sarlisar #0" = 10
    "Inadan #0" = 10
    "Corfin #0" = 10
    "Xilcan #0" = 10
    "Ingduil #0" = 10
    "Beikas #0" = 10
    "Nicparin #0" = 10
    "Kelkas #0" = 10
    "Alxiron #0" = 10
    "Faezorwyn #0" = 10
    "Franlaeron #0" = 10
    "Xilhorn #0" = 10
    "Stephtorin #0" = 10
    "Mirawynn #0" = 10
    "Jefmeron #0" = 10
    "Umdorr #0" = 10
    "Jamekath #0" = 10
    "Keynan #0" = 10
    "Nicfinas #0" = 10
    "Nerivaris #0" = 10
    "Saladriel #0" = 10
    "Iarpeiros #0" = 10
    "Rodnan #0" = 10
    "Umevaris #0" = 10
    "Remluin #0" = 10
    "Kriscyne #0" = 10
    "Faraalath #0" = 10
    "Petrora #0" = 10
    "Malcutorin #0" = 10
    "Ralogwyn #0" = 10
    "Mikrynnon #0" = 10
    "Qindove #0" = 10
    "Tracoril #0" = 10
    "Heiphyra #0" = 10
    "Ivodar #0" = 10
    "Zylran #0" = 10
    "Nilvendor #0" = 10
    "Faepetor #0" = 10
    "Balthor #0" = 10
    "Marlyn #0" = 10
    "Adexian #0" = 10
    "Herrieth #0" = 10
    "Salvoril #0" = 10
    "Zumkalyn #0" = 10
    "Quonor #0" = 10
    "Moryarus #0" = 10
    "Nilwarith #0" = 10
    "Zinmyar #0" = 10
    "Isemfinas #0" = 10
    "Holapetor #0" = 10
    "Gablinar #0" = 10
    "Reykian #0" = 10
    "Gralion #0" = 10
    "Trisynore #0" = 10
    "Tolamar #0" = 10
    "Eiltris #0" = 10
    "Gabverel #0" = 10
    "Omalynn #0" = 10
    "Reynos #0" = 10
    "Traralei #0" = 10
    "Lamlaeron #0" = 10
    "Magstina #0" = 10
    "Hanlael #0" = 10
    "Inasalor #0" = 10
    "Victar #0" = 10
    "Keakian #0" = 10
    "Halen #0" = 10
    "Erqen #0" = 10
    "Gabqinor #0" = 10
    "Shapetor #0" = 10
    "Havekoris #0" = 10
    "Glynven #0" = 10
    "Corladon #0" = 10
    "Wynlar #0" = 10
    "Yorron #0" = 10
    "Holavaris #0" = 10
    "Clernor #0" = 10
    "Iarxalim #0" = 10
    "Xanis #0" = 10
    "Farris #0" = 10

    "Teflana #0" = -10
    "Daemenor #0" = -10
    "Suslynn #0" = -10
    "Fennorin #0" = -10
    "Hesula #0" = -10
    "Mirayarus #0" = -10
    "Gisyra #0" = -10
    "Olazumin #0" = -10
    "Syllaema #0" = -10
    "Eilmenor #0" = -10
    "Edsyra #0" = -10
    "Bisys #0" = -10
    "Jendris #0" = -10
    "Umexidor #0" = -10
    "Heilleth #0" = -10
    "Mordan #0" = -10
    "Ylllivren #0" = -10
    "Quilana #0" = -10
    "Zellynn #0" = -10
    "Omaneiros #0" = -10
    "Yvrue #0" = -10
    "Kearo #0" = -10
    "Garaine #0" = -10
    "Bixidor #0" = -10
    "Elyenoel #0" = -10
    "Faepeiros #0" = -10
    "Seralee #0" = -10
    "Miaven #0" = -10
    "Adnalue #0" = -10
    "Yinran #0" = -10
    "Jeslaevar #0" = -10
    "Elahana #0" = -10
    "Jacreene #0" = -10
    "Keylee #0" = -10
    "Melilitia #0" = -10
    "Morlyn #0" = -10
    "Nerivis #0" = -10
    "Morven #0" = -10
    "Elyengalyn #0" = -10
    "Miamys #0" = -10
    "Kyslaema #0" = -10
    "Aexina #0" = -10
    "Irohophe #0" = -10
    "Ralothyra #0" = -10
    "Vicviel #0" = -10
    "Morren #0" = -10
    "Greheira #0" = -10
    "Lianorin #0" = -10
    "Krishera #0" = -10
    "Farel #0" = -10
    "Mirlesse #0" = -10
    "Phivaris #0" = -10
    "Harsevel #0" = -10
    "Rotumal #0" = -10
    "Navara #0" = -10
    "Joro #0" = -10
    "Elysnarra #0" = -10
    "Qiydark #0" = -10
    "Jehdelia #0" = -10
    "Cardan #0" = -10
    "Xyrsarda #0" = -10
    "Lugella #0" = -10
    "Saeldalar #0" = -10
    "Ulaqirelle #0" = -10
    "Alutrana #0" = -10
    "Omakian #0" = -10
    "Reslone #0" = -10
    "Phinelis #0" = -10
    "Athelya #0" = -10
    "Phisys #0" = -10
    "Genliana #0" = -10
    "Brydi #0" = -10
    "Yesdove #0" = -10
    "Wranpeiros #0" = -10
    "Hawhere #0" = -10
    "Genmaris #0" = -10
    "Wolnesia #0" = -10
    "Herynore #0" = -10
    "Isshee #0" = -10
    "Iarwenys #0" = -10
    "Hegexipha #0" = -10
    "Luran #0" = -10
    "Tyllartha #0" = -10
    "Omavaris #0" = -10
    "Quesevel #0" = -10
    "Yinrora #0" = -10
    "Ibphenee #0" = -10
    "Gilwraek #0" = -10
    "Jenrith #0" = -10
    "Sylwarin #0" = -10
    "Aellarel #0" = -10
    "Elamaris #0" = -10
    "Venphira #0" = -10
    "Faeceran #0" = -10
    "Thefrika #0" = -10
    "Keaquinal #0" = -10
    "Aluphira #0" = -10
    "Xilthyra #0" = -10
    "Alubrae #0" = -10
    "Daerora #0" = -10
}

leader_names = {
    Quowin Fenjor Jarfarin Lorastina Stenyeras Grelee Frandorr Olafir Galered Umefaren Donred Grexina Quorune Zyllee Jarthorn Ravacan Tyrtael Iansatra Quored Trabanise Sarlisar Inadan Corfin Xilcan Ingduil Beikas Nicparin Kelkas Alxiron Faezorwyn Franlaeron Xilhorn Stephtorin Mirawynn Jefmeron Umdorr Jamekath Keynan Nicfinas Nerivaris Saladriel Iarpeiros Rodnan Umevaris Remluin Kriscyne Faraalath Petrora Malcutorin Ralogwyn Mikrynnon Qindove Tracoril Heiphyra Ivodar Zylran Nilvendor Faepetor Balthor Marlyn Adexian Herrieth Salvoril Zumkalyn Quonor Moryarus Nilwarith Zinmyar Isemfinas Holapetor Gablinar Reykian Gralion Trisynore Tolamar Eiltris Gabverel Omalynn Reynos Traralei Lamlaeron Magstina Hanlael Inasalor Victar Keakian Halen Erqen Gabqinor Shapetor Havekoris Glynven Corladon Wynlar Yorron Holavaris Clernor Iarxalim Xanis Farris
}

ship_names = {
    Teflana Daemenor Suslynn Fennorin Hesula Mirayarus Gisyra Olazumin Syllaema Eilmenor Edsyra Bisys Jendris Umexidor Heilleth Mordan Ylllivren Quilana Zellynn Omaneiros Yvrue Kearo Garaine Bixidor Elyenoel Faepeiros Seralee Miaven Adnalue Yinran Jeslaevar Elahana Jacreene Keylee Melilitia Morlyn Nerivis Morven Elyengalyn Miamys Kyslaema Aexina Irohophe Ralothyra Vicviel Morren Greheira Lianorin Krishera Farel Mirlesse Phivaris Harsevel Rotumal Navara Joro Elysnarra Qiydark Jehdelia Cardan Xyrsarda Lugella Saeldalar Ulaqirelle Alutrana Omakian Reslone Phinelis Athelya Phisys Genliana Brydi Yesdove Wranpeiros Hawhere Genmaris Wolnesia Herynore Isshee Iarwenys Hegexipha Luran Tyllartha Omavaris Quesevel Yinrora Ibphenee Gilwraek Jenrith Sylwarin Aellarel Elamaris Venphira Faeceran Thefrika Keaquinal Aluphira Xilthyra Alubrae Daerora
}

army_names = {
    "Army of $PROVINCE$"
}

fleet_names = {
    "Fleet of $PROVINCE$"
}