graphical_culture = thaigfx

color = { 140 181 191 }

revolutionary_colors = { 7 8 9}


historical_idea_groups = {
}

historical_units = {
}

monarch_names = {
    "Ab'jhad #0" = 10
    "Abadurr #0" = 10
    "Abal-jo #0" = 10
    "Abizag #0" = 10
    "Abiznaz #0" = 10
    "Abizzaka #0" = 10
    "Aburapli #0" = 10
    "Aburzin #0" = 10
    "Adahni #0" = 10
    "Adainat #0" = 10
    "Adainji #0" = 10
    "Adainril #0" = 10
    "Adainurr #0" = 10
    "Adaishir #0" = 10
    "Adibazal #0" = 10
    "Adiblargo #0" = 10
    "Adineta #0" = 10
    "Adubaer-sa #0" = 10
    "Adubid #0" = 10
    "Adusaar #0" = 10
    "Adusharu #0" = 10
    "Ahainar-jo #0" = 10
    "Ahirkin #0" = 10
    "Ahirunz #0" = 10
    "Ahmanaz #0" = 10
    "Ahmanra #0" = 10
    "Airal #0" = 10
    "Aishar-sa #0" = 10
    "Ak'an #0" = 10
    "Ak'saz #0" = 10
    "Akakhmar #0" = 10
    "Akkhuz-ri #0" = 10
    "Akkuz #0" = 10
    "Akrah #0" = 10
    "Akumjhargo #0" = 10
    "Alathur #0" = 10
    "Amajhan #0" = 10
    "Amarbak #0" = 10
    "Amargon #0" = 10
    "Amartash #0" = 10
    "Amsha #0" = 10
    "Amu #0" = 10
    "Anat #0" = 10
    "Andal-ma #0" = 10
    "Aneshi #0" = 10
    "Anil-do #0" = 10
    "Anjiir #0" = 10
    "Aranak #0" = 10
    "Arbhu-ra #0" = 10
    "Arbhuz #0" = 10
    "Arbim #0" = 10
    "Ariashurr #0" = 10
    "Arisho #0" = 10
    "Arolluz #0" = 10
    "Aroz'lai #0" = 10
    "Arresh #0" = 10
    "Arukhaz #0" = 10
    "Arum-Khal #0" = 10
    "Arusha #0" = 10
    "Asal-jo #0" = 10
    "Asaldak #0" = 10
    "Asalkin #0" = 10
    "Asazeh #0" = 10
    "Ashalha #0" = 10
    "Ashalra #0" = 10
    "Athask #0" = 10
    "Atirr #0" = 10
    "Azalil #0" = 10
    "Azarati #0" = 10
    "Azargo #0" = 10
    "Azazi #0" = 10
    "Azbiasur #0" = 10
    "Azbishan #0" = 10
    "Azbishaz #0" = 10
    "Azbisnor #0" = 10
    "Azdanati #0" = 10
    "Azdanten #0" = 10
    "Azelbar #0" = 10
    "Azezik #0" = 10
    "Azezin #0" = 10
    "Azimaz #0" = 10
    "Azimsun #0" = 10
    "Azin #0" = 10
    "Azin-jo #0" = 10
    "Azramdu #0" = 10
    "Azrid #0" = 10
    "Azsu #0" = 10
    "Azurdat #0" = 10
    "Azzaril #0" = 10
    "Baa'jhan #0" = 10
    "Baezad-jo #0" = 10
    "Bahluk #0" = 10
    "Bahzdal #0" = 10
    "Baizad #0" = 10
    "Bakamaiq #0" = 10
    "Bakhati #0" = 10
    "Bakhig #0" = 10
    "Bakhig-ja #0" = 10
    "Bakhum #0" = 10
    "Balag #0" = 10
    "Balku #0" = 10
    "Bamak #0" = 10
    "Barros #0" = 10
    "Bashshi-ra #0" = 10
    "Bazhar #0" = 10
    "Berantin #0" = 10
    "Bezjhan #0" = 10
    "Bezur #0" = 10
    "Bhakargo #0" = 10
    "Bihargo #0" = 10
    "Bilam #0" = 10
    "Birakh-do #0" = 10
    "Birkhu #0" = 10
    "Birun #0" = 10
    "Bizahad #0" = 10
    "Bizahen #0" = 10
    "Bizaku #0" = 10
    "Bizalar #0" = 10
    "Bizdar #0" = 10
    "Bizurr #0" = 10
    "Bizuruna #0" = 10
    "Bulag #0" = 10
    "Bunul #0" = 10
    "Burakgum #0" = 10
    "Buzul #0" = 10
    "Cherjhad #0" = 10
    "Chezan #0" = 10
    "Chirrdazi #0" = 10
    "Dablir #0" = 10
    "Dagaril-dro #0" = 10
    "Dahldar #0" = 10
    "Dahnkin-do #0" = 10
    "Dak'radhi #0" = 10
    "Dalac #0" = 10
    "Dalag-dar #0" = 10
    "Dalffer #0" = 10
    "Dalsa #0" = 10
    "Darak #0" = 10
    "Darkhu #0" = 10
    "Darsho #0" = 10
    "Dathtesh #0" = 10
    "Dazash #0" = 10
    "Dazul-ja #0" = 10
    "Dazur #0" = 10
    "Dhanim #0" = 10
    "Dhanji #0" = 10
    "Dharo #0" = 10
    "Didakah #0" = 10
    "Dirsherr #0" = 10
    "Do'mazir #0" = 10
    "Drasji #0" = 10
    "Dro'zakar #0" = 10
    "Dro-Dara #0" = 10
    "Duharr #0" = 10
    "Dulan #0" = 10
    "Dular #0" = 10
    "Dulini #0" = 10
    "Duzal #0" = 10
    "Duzal-ja #0" = 10
    "Duzhargo #0" = 10
    "Duzkier #0" = 10
    "Eilun #0" = 10
    "Eldazo #0" = 10
    "Elhirr #0" = 10
    "Eljhan #0" = 10
    "Elthar #0" = 10
    "Eludin #0" = 10
    "Eluzard #0" = 10
    "Elzhar #0" = 10
    "Enak #0" = 10
    "Enik-ja #0" = 10
    "Eraral-dro #0" = 10
    "Esalo #0" = 10
    "Esan #0" = 10
    "Esshri-dar #0" = 10
    "Ethad-sa #0" = 10
    "Ezri #0" = 10
    "Ezudiwa #0" = 10
    "Ezzag #0" = 10
    "Fa'alar #0" = 10
    "Fa'dran #0" = 10
    "Fa'ren-dar #0" = 10
    "Fa'tabe #0" = 10
    "Fa'zin #0" = 10
    "Fahurr #0" = 10
    "Famazar #0" = 10
    "Fareh #0" = 10
    "Farit #0" = 10
    "Farul #0" = 10
    "Fasso #0" = 10
    "Fazaddu #0" = 10
    "Feduzdal #0" = 10
    "Feldarr #0" = 10
    "Feluz #0" = 10
    "Fez'skar #0" = 10
    "Fezdal #0" = 10
    "Fezez #0" = 10
    "Feziri #0" = 10
    "Fezzam #0" = 10
    "Fimaz-ra #0" = 10
    "Flozah-no #0" = 10
    "Ghadar #0" = 10
    "Ghadffer #0" = 10
    "Ghaldu #0" = 10
    "Ghalri #0" = 10
    "Ghalsu #0" = 10
    "Ghalzaz #0" = 10
    "Gharesh-ri #0" = 10
    "Gohjin-jo #0" = 10
    "Grishka #0" = 10
    "Habais #0" = 10
    "Hadalun #0" = 10
    "Hadam-do #0" = 10
    "Hadamlur #0" = 10
    "Hadamnargo #0" = 10
    "Hadamo #0" = 10
    "Hadaz #0" = 10
    "Haduras #0" = 10
    "Haibak #0" = 10
    "Haibarr #0" = 10
    "Haibzur #0" = 10
    "Hainab #0" = 10
    "Hainat #0" = 10
    "Hairan #0" = 10
    "Halakakuz #0" = 10
    "Halakalal #0" = 10
    "Halako #0" = 10
    "Halaral #0" = 10
    "Halash #0" = 10
    "Halinad #0" = 10
    "Halinargo #0" = 10
    "Halinjirr #0" = 10
    "Halinuk #0" = 10
    "Hamansu #0" = 10
    "Hamiral #0" = 10
    "Hamiran-do #0" = 10
    "Hamirjirr #0" = 10
    "Hamsanam #0" = 10
    "Hamus #0" = 10
    "Hanillal #0" = 10
    "Hanilzur #0" = 10
    "Hantharr #0" = 10
    "Haraddal #0" = 10
    "Harashur #0" = 10
    "Harzad #0" = 10
    "Harzdak #0" = 10
    "Hassa-ja #0" = 10
    "Hassrid #0" = 10
    "Hazad #0" = 10
    "Hazak #0" = 10
    "Hazazhur #0" = 10
    "Hazazi #0" = 10
    "Hazaznaz #0" = 10
    "Hemakar #0" = 10
    "Hilan #0" = 10
    "Hillaz #0" = 10
    "Himalaz #0" = 10
    "Himalirr-dar #0" = 10
    "Himalzur #0" = 10
    "Himathati #0" = 10
    "Hinirlit #0" = 10
    "Hirish #0" = 10
    "Hizdak #0" = 10
    "Hizhikar #0" = 10
    "Hizurrdo #0" = 10
    "Hulzar #0" = 10
    "Hunal #0" = 10
    "Hurkhu #0" = 10
    "Hursh #0" = 10
    "Hurzarr #0" = 10
    "Hurzhar #0" = 10
    "Hurzjhad #0" = 10
    "Huthak #0" = 10
    "Huzdargo #0" = 10
    "Huzzin #0" = 10
    "Iduthal #0" = 10
    "Ilagurr #0" = 10
    "Imeretto #0" = 10
    "Inalzhargo #0" = 10
    "Inalzin #0" = 10
    "Indal #0" = 10
    "Indalhur #0" = 10
    "Indalzahr #0" = 10
    "Indur-sa #0" = 10
    "Inisargo #0" = 10
    "Inisashu-jo #0" = 10
    "Inishez #0" = 10
    "Inishzhar #0" = 10
    "Iragahr #0" = 10
    "Irgazaar #0" = 10
    "Irgazdul #0" = 10
    "Irgun #0" = 10
    "Isadati #0" = 10
    "Ishu #0" = 10
    "Itzi-da #0" = 10
    "Izabid #0" = 10
    "Izandar #0" = 10
    "Izanden #0" = 10
    "Izandskar #0" = 10
    "Izaniran #0" = 10
    "Izanji #0" = 10
    "Iziran #0" = 10
    "Izishir #0" = 10
    "J'baanluk #0" = 10
    "J'baanu #0" = 10
    "J'barza #0" = 10
    "J'darit #0" = 10
    "J'darzi #0" = 10
    "J'dathal #0" = 10
    "J'dazh #0" = 10
    "J'Eeja #0" = 10
    "J'ghaim #0" = 10
    "J'ghanar #0" = 10
    "J'Hassi #0" = 10
    "J'kur #0" = 10
    "J'luk #0" = 10
    "J'margo #0" = 10
    "J'saad #0" = 10
    "J'zagh #0" = 10
    "J'zaraer #0" = 10
    "J'zidluk #0" = 10
    "J'zuraar #0" = 10
    "J'zurud #0" = 10
    "Ja'zinki #0" = 10
    "Jahlar #0" = 10
    "Jairan #0" = 10
    "Jalan #0" = 10
    "Jarakh #0" = 10
    "Jaram #0" = 10
    "Jarka #0" = 10
    "Jaruk #0" = 10
    "Jathim #0" = 10
    "Jherahn #0" = 10
    "Jherak #0" = 10
    "Jilan-dar #0" = 10
    "Jinninji-ri #0" = 10
    "Jiren-dar #0" = 10
    "Jobai #0" = 10
    "Jora-ri #0" = 10
    "Jul-dar #0" = 10
    "Jurak-dar #0" = 10
    "Juz-do #0" = 10
    "Kagadur #0" = 10
    "Kagazmar #0" = 10
    "Kagun #0" = 10
    "Kalgur #0" = 10
    "Kalim-ja #0" = 10
    "Kamjo #0" = 10
    "Kamu #0" = 10
    "Kankhu #0" = 10
    "Kanniz #0" = 10
    "Kanoo-sa #0" = 10
    "Kanrel #0" = 10
    "Kansur-jo #0" = 10
    "Kanzin #0" = 10
    "Kargand #0" = 10
    "Kargik #0" = 10
    "Kargiz #0" = 10
    "Kargnargo #0" = 10
    "Karpu-sa #0" = 10
    "Karzik #0" = 10
    "Karzskar #0" = 10
    "Kasan #0" = 10
    "Kashraska #0" = 10
    "Kaszo #0" = 10
    "Katinal #0" = 10
    "Kaushjhargo #0" = 10
    "Kaushur #0" = 10
    "Kazafar #0" = 10
    "Kazahn #0" = 10
    "Kazbur #0" = 10
    "Keeaz #0" = 10
    "Keshazh #0" = 10
    "Keshjo #0" = 10
    "Keshlar #0" = 10
    "Khad #0" = 10
    "Khakidan #0" = 10
    "Khalin-jo #0" = 10
    "Kharad #0" = 10
    "Kharez #0" = 10
    "Khariz-ja #0" = 10
    "Kharjan #0" = 10
    "Khasar-dro #0" = 10
    "Khasda #0" = 10
    "Kheriwa #0" = 10
    "Khunzar-ri #0" = 10
    "Khunzjo #0" = 10
    "Khunzum #0" = 10
    "Khuzig #0" = 10
    "Kigum-dar #0" = 10
    "Kikurr #0" = 10
    "Kinaro #0" = 10
    "Kirrdul #0" = 10
    "Kirrsi #0" = 10
    "Kirun #0" = 10
    "Kithiriz #0" = 10
    "Kiturr #0" = 10
    "Kizmar #0" = 10
    "Kizrue #0" = 10
    "Korabi #0" = 10
    "Kul-ja #0" = 10
    "Kulan-dro #0" = 10
    "Kuldargo #0" = 10
    "Kumurr #0" = 10
    "Kunaar #0" = 10
    "Kundurr #0" = 10
    "Kunerr-jo #0" = 10
    "Kuralit #0" = 10
    "Kurnamu-do #0" = 10
    "Kurnasiran #0" = 10
    "Kusirnaz-dar #0" = 10
    "Kuzo #0" = 10
    "Lakjo #0" = 10
    "Laknar #0" = 10
    "Lakurr-ra #0" = 10
    "Lanbaar #0" = 10
    "Lankin #0" = 10
    "Lansur #0" = 10
    "Laurri #0" = 10
    "Lharahad #0" = 10
    "Lharlis #0" = 10
    "Linhir #0" = 10
    "Linihar #0" = 10
    "Linihi #0" = 10
    "Lojaku #0" = 10
    "Lufras #0" = 10
    "M'aiq #0" = 10
    "M'desbar #0" = 10
    "M'harra #0" = 10
    "M'jaddha #0" = 10
    "M'nashaar #0" = 10
    "M'zum #0" = 10
    "Ma'jha-dro #0" = 10
    "Ma'jhad #0" = 10
    "Ma'jidid #0" = 10
    "Mabit #0" = 10
    "Mabkir #0" = 10
    "Madarbhu #0" = 10
    "Maelen #0" = 10
    "Maesar #0" = 10
    "Magarak #0" = 10
    "Magundim #0" = 10
    "Maguzak #0" = 10
    "Maguzas #0" = 10
    "Mahargo #0" = 10
    "Mahazza #0" = 10
    "Mahirr #0" = 10
    "Mahur #0" = 10
    "Makam #0" = 10
    "Makid-ja #0" = 10
    "Makkhzahr #0" = 10
    "Makmargo #0" = 10
    "Maladdak #0" = 10
    "Maladdiq #0" = 10
    "Malahbu #0" = 10
    "Malathan #0" = 10
    "Malathum #0" = 10
    "Malihaz-do #0" = 10
    "Malirzzaka #0" = 10
    "Malisu #0" = 10
    "Malizaz #0" = 10
    "Malizluz #0" = 10
    "Malkish #0" = 10
    "Manadzur #0" = 10
    "Manasi #0" = 10
    "Mani #0" = 10
    "Maniz #0" = 10
    "Manradh #0" = 10
    "Manuk #0" = 10
    "Marafi #0" = 10
    "Marakar #0" = 10
    "Marnub #0" = 10
    "Marzak #0" = 10
    "Marzula-jo #0" = 10
    "Masrabal-dro #0" = 10
    "Mathad #0" = 10
    "Mathal #0" = 10
    "Mazag #0" = 10
    "Mazalish #0" = 10
    "Mazar #0" = 10
    "Mazdurr #0" = 10
    "Mazha #0" = 10
    "Mazil-jo #0" = 10
    "Mazilbin #0" = 10
    "Mazirul #0" = 10
    "Mazirzin #0" = 10
    "Mazou-dar #0" = 10
    "Mazram #0" = 10
    "Mazuk #0" = 10
    "Mazurr #0" = 10
    "Meashuri #0" = 10
    "Mehdir #0" = 10
    "Mezha-dro #0" = 10
    "Miczen #0" = 10
    "Mikarash #0" = 10
    "Mikarur #0" = 10
    "Milaggul #0" = 10
    "Mim #0" = 10
    "Minal #0" = 10
    "Minbazal #0" = 10
    "Minshak #0" = 10
    "Mirarbinat #0" = 10
    "Mirarkier #0" = 10
    "Mirarro #0" = 10
    "Misanir #0" = 10
    "Misapan #0" = 10
    "Misar #0" = 10
    "Mishdu #0" = 10
    "Mishzin #0" = 10
    "Mizaraben #0" = 10
    "Mizarati #0" = 10
    "Mizarbuk #0" = 10
    "Mizarjirr #0" = 10
    "Mizarr #0" = 10
    "Mizashur #0" = 10
    "Mizibir #0" = 10
    "Mizibuk #0" = 10
    "Mizul #0" = 10
    "Mizzik #0" = 10
    "Mo'khu #0" = 10
    "Mohkhu #0" = 10
    "Mohsaz #0" = 10
    "Moj-argo #0" = 10
    "Mojakuz #0" = 10
    "Mojaluz #0" = 10
    "Mojha #0" = 10
    "Mojzin #0" = 10
    "Monamjo #0" = 10
    "Mulabez #0" = 10
    "Mulabus #0" = 10
    "Mulabzag #0" = 10
    "Mulamin #0" = 10
    "Mulamurr #0" = 10
    "Munalur #0" = 10
    "Munanir #0" = 10
    "Munuri #0" = 10
    "Munyat #0" = 10
    "Muram #0" = 10
    "Muramskar #0" = 10
    "Murdan #0" = 10
    "Muriman #0" = 10
    "Murimdak #0" = 10
    "Muruddal #0" = 10
    "Muslabeh #0" = 10
    "Muslabliz #0" = 10
    "Muzur #0" = 10
    "Muzzi #0" = 10
    "Na'jhargo #0" = 10
    "Na'ruzz #0" = 10
    "Nabal-dar #0" = 10
    "Naburr #0" = 10
    "Nadara #0" = 10
    "Nagaddu #0" = 10
    "Nakiri #0" = 10
    "Nakjhan #0" = 10
    "Nakkhu #0" = 10
    "Nakmargo #0" = 10
    "Nakra #0" = 10
    "Nanaglar #0" = 10
    "Nanahargo #0" = 10
    "Nansiska #0" = 10
    "Naraku #0" = 10
    "Narbhulad-do #0" = 10
    "Narkir #0" = 10
    "Narluz #0" = 10
    "Narril #0" = 10
    "Nasimar #0" = 10
    "Nasir #0" = 10
    "Nazdar #0" = 10
    "Nezashun #0" = 10
    "Nezhad #0" = 10
    "Nibihu #0" = 10
    "Nirajlar #0" = 10
    "Nishzo #0" = 10
    "Nizil-dar #0" = 10
    "Nuhar #0" = 10
    "Nulk #0" = 10
    "Nur #0" = 10
    "Nur-dro #0" = 10
    "Nurad #0" = 10
    "Nurud #0" = 10
    "Nurzo #0" = 10
    "Nuzhi #0" = 10
    "Nuziwa #0" = 10
    "Nuzon #0" = 10
    "Nuzuk #0" = 10
    "Oblan #0" = 10
    "Ohamatur #0" = 10
    "Ojik #0" = 10
    "Omrasha #0" = 10
    "Omu-dar #0" = 10
    "Pacrooti #0" = 10
    "Palka #0" = 10
    "Palkun #0" = 10
    "Palmur-dra #0" = 10
    "Panizir #0" = 10
    "Pillazh #0" = 10
    "Pinar #0" = 10
    "Pinirrerr #0" = 10
    "Pinumar #0" = 10
    "Pinumur #0" = 10
    "Purcy #0" = 10
    "Puzhbar-jo #0" = 10
    "Qa'jahd #0" = 10
    "Qa'tesh #0" = 10
    "Qanliz #0" = 10
    "Ra'darri #0" = 10
    "Ra'Habasi #0" = 10
    "Ra'jhad #0" = 10
    "Ra'kardru #0" = 10
    "Ra'khajin #0" = 10
    "Ra'ri #0" = 10
    "Ra-shadda #0" = 10
    "Rabamak #0" = 10
    "Rabamjhad #0" = 10
    "Raban #0" = 10
    "Radah #0" = 10
    "Radash-dar #0" = 10
    "Raebanji #0" = 10
    "Ragariz #0" = 10
    "Rahti #0" = 10
    "Rainazh #0" = 10
    "Rajarkir #0" = 10
    "Rakazsa #0" = 10
    "Rakazuz #0" = 10
    "Rakgul #0" = 10
    "Rakhad #0" = 10
    "Rakhhi #0" = 10
    "Rakhzargo #0" = 10
    "Rakzzin #0" = 10
    "Ralkash-dar #0" = 10
    "Ralkluz #0" = 10
    "Ranul #0" = 10
    "Ranza #0" = 10
    "Rathsaz #0" = 10
    "Rathul-do #0" = 10
    "Ravius #0" = 10
    "Ravzo-dar #0" = 10
    "Raynan #0" = 10
    "Razigad #0" = 10
    "Razum-dar #0" = 10
    "Razur #0" = 10
    "Rehan #0" = 10
    "Ren-dro #0" = 10
    "Renaku #0" = 10
    "Renzaiq #0" = 10
    "Renzir #0" = 10
    "Rezirjhan #0" = 10
    "Ri'Atahrashi #0" = 10
    "Ri'darakuz #0" = 10
    "Ri'hirr #0" = 10
    "Ri'shalur #0" = 10
    "Ri'zaadzin #0" = 10
    "Ribazh #0" = 10
    "Ribazhur #0" = 10
    "Rid-Thar-ri'Datta #0" = 10
    "Rihahaz #0" = 10
    "Rinam #0" = 10
    "Rinambar #0" = 10
    "Rinami #0" = 10
    "Rinbu #0" = 10
    "Runik #0" = 10
    "Runji #0" = 10
    "Runtash #0" = 10
    "S'jash #0" = 10
    "S'kinrai #0" = 10
    "S'rabbi #0" = 10
    "S'rashi #0" = 10
    "S'rathzo #0" = 10
    "S'vanez #0" = 10
    "S'virzum #0" = 10
    "S'zaram #0" = 10
    "Sa'dir #0" = 10
    "Sabanurr #0" = 10
    "Sabashhad #0" = 10
    "Sabashur-dar #0" = 10
    "Sabra #0" = 10
    "Saenssar #0" = 10
    "Safik #0" = 10
    "Safir #0" = 10
    "Sahalu #0" = 10
    "Sahar #0" = 10
    "Sahaz #0" = 10
    "Sahban #0" = 10
    "Sakjhera #0" = 10
    "Salk #0" = 10
    "Salkalar #0" = 10
    "Salku #0" = 10
    "Sallit #0" = 10
    "Sallum #0" = 10
    "Sallunas #0" = 10
    "Samamar #0" = 10
    "Samardan #0" = 10
    "Samari #0" = 10
    "Sanarskar #0" = 10
    "Sanaz-dro #0" = 10
    "Sandu #0" = 10
    "Sansen-do #0" = 10
    "Sanuzh #0" = 10
    "Sanzagh #0" = 10
    "Sanzan-dar #0" = 10
    "Saparr #0" = 10
    "Sarazi #0" = 10
    "Sattah #0" = 10
    "Satuhaz #0" = 10
    "Savar #0" = 10
    "Savfer #0" = 10
    "Saviwa #0" = 10
    "Semusa #0" = 10
    "Senadon #0" = 10
    "Senun #0" = 10
    "Serarbar #0" = 10
    "Shaasharr #0" = 10
    "Shaashuz #0" = 10
    "Shajamah-ja #0" = 10
    "Shakara #0" = 10
    "Shalapaar #0" = 10
    "Shalirr #0" = 10
    "Shalubar #0" = 10
    "Shamal #0" = 10
    "Shamuniz #0" = 10
    "Shan-ra #0" = 10
    "Shando-ri #0" = 10
    "Shansi-sa #0" = 10
    "Shantin #0" = 10
    "Shapal-jo #0" = 10
    "Sharad #0" = 10
    "Sharaddargo #0" = 10
    "Sharazka #0" = 10
    "Sharazzur #0" = 10
    "Sharjo #0" = 10
    "Sharsheh #0" = 10
    "Sharul #0" = 10
    "Shavnargo #0" = 10
    "Shazar #0" = 10
    "Shelad #0" = 10
    "Shelzaka #0" = 10
    "Shikruz #0" = 10
    "Shiladur #0" = 10
    "Shiluk #0" = 10
    "Shiniraer #0" = 10
    "Shinizahr #0" = 10
    "Shintah #0" = 10
    "Shirnama #0" = 10
    "Sholas-do #0" = 10
    "Sholbiri #0" = 10
    "Sholmargo #0" = 10
    "Shulargo #0" = 10
    "Shumishun #0" = 10
    "Shuzaad #0" = 10
    "Shuzul #0" = 10
    "Sibud-ja #0" = 10
    "Sigul-jo #0" = 10
    "Silat #0" = 10
    "Silhu-jo #0" = 10
    "Sind #0" = 10
    "Sinin-sa #0" = 10
    "Sinud #0" = 10
    "Srozom #0" = 10
    "Subid #0" = 10
    "Suhr #0" = 10
    "Sumantharr #0" = 10
    "Tabil #0" = 10
    "Tadhargo #0" = 10
    "Tagin #0" = 10
    "Tahar-dar #0" = 10
    "Tahuda #0" = 10
    "Tajahir #0" = 10
    "Takaman #0" = 10
    "Takanasur #0" = 10
    "Takanazh #0" = 10
    "Takanradh #0" = 10
    "Tamanat #0" = 10
    "Tamruz #0" = 10
    "Tamshur #0" = 10
    "Tand #0" = 10
    "Tarak #0" = 10
    "Tarazdarr #0" = 10
    "Tarazur #0" = 10
    "Tarazuril #0" = 10
    "Tarlar #0" = 10
    "Tasam-ri #0" = 10
    "Tashdu #0" = 10
    "Tasheer #0" = 10
    "Tashmin #0" = 10
    "Tashpir #0" = 10
    "Tazzhid #0" = 10
    "Thalar #0" = 10
    "Thannar #0" = 10
    "Tiburr #0" = 10
    "Tishi #0" = 10
    "Todrick #0" = 10
    "Tsin'roh #0" = 10
    "Tubidan #0" = 10
    "Tulashurr #0" = 10
    "Tullar-dra #0" = 10
    "Turan #0" = 10
    "Turo #0" = 10
    "Turshan-dar #0" = 10
    "Turuk #0" = 10
    "Tuzil-dro #0" = 10
    "Ubrarig #0" = 10
    "Ubraz #0" = 10
    "Udoro #0" = 10
    "Ulabael #0" = 10
    "Ulibaz #0" = 10
    "Ulularr #0" = 10
    "Ululmalit #0" = 10
    "Unnur #0" = 10
    "Urjen #0" = 10
    "Uzarnaym #0" = 10
    "Uzarrur #0" = 10
    "Uzernurr #0" = 10
    "Uzrum #0" = 10
    "Uzurnarr #0" = 10
    "Vabin-ja #0" = 10
    "Valam #0" = 10
    "Valirr #0" = 10
    "Vashai #0" = 10
    "Vashpar #0" = 10
    "Vijari #0" = 10
    "Vijari-ma #0" = 10
    "Wadaril #0" = 10
    "Wadarkier #0" = 10
    "Whickmuz #0" = 10
    "Yaharati #0" = 10
    "Yan #0" = 10
    "Yanabir-ja #0" = 10
    "Yanalir #0" = 10
    "Yandzir #0" = 10
    "Yandzum #0" = 10
    "Yashinzhi #0" = 10
    "Yazhin #0" = 10
    "Yazhin-dar #0" = 10
    "Yenadar #0" = 10
    "Yenar #0" = 10
    "Za'ji #0" = 10
    "Zababi #0" = 10
    "Zaban #0" = 10
    "Zaban-ma #0" = 10
    "Zabaseh #0" = 10
    "Zabashlargo #0" = 10
    "Zabka #0" = 10
    "Zabluk #0" = 10
    "Zabzhar #0" = 10
    "Zaddo #0" = 10
    "Zadrahd #0" = 10
    "Zadraska #0" = 10
    "Zahalar #0" = 10
    "Zaham #0" = 10
    "Zahdarr #0" = 10
    "Zakbar #0" = 10
    "Zal-sa #0" = 10
    "Zalkir #0" = 10
    "Zamarak #0" = 10
    "Zamhirr #0" = 10
    "Zan #0" = 10
    "Zan'hi #0" = 10
    "Zandal #0" = 10
    "Zandur #0" = 10
    "Zantan #0" = 10
    "Zaorir #0" = 10
    "Zarbi'dahuz #0" = 10
    "Zarbidan #0" = 10
    "Zarbidiran #0" = 10
    "Zargal #0" = 10
    "Zargha #0" = 10
    "Zarkier #0" = 10
    "Zarziri #0" = 10
    "Zayan #0" = 10
    "Zaydak #0" = 10
    "Zayhba #0" = 10
    "Zebiden-jo #0" = 10
    "Zemiran #0" = 10
    "Zemirum #0" = 10
    "Zhaaruis #0" = 10
    "Zhaj'hassa #0" = 10
    "Zharahn #0" = 10
    "Zhibaral #0" = 10
    "Zhiranaz #0" = 10
    "Zhiraz #0" = 10
    "Ziakar #0" = 10
    "Zibam #0" = 10
    "Zidal #0" = 10
    "Zihlran #0" = 10
    "Zino #0" = 10
    "Zoadran #0" = 10
    "Zur #0" = 10
    "Zurnash #0" = 10
    "Zurro-dar #0" = 10
    "Zurso #0" = 10
    "Zuzik #0" = 10

    "Abadai #0" = -10
    "Abadusa #0" = -10
    "Abahrimaya #0" = -10
    "Abandarra-la #0" = -10
    "Abazbi #0" = -10
    "Abelaya #0" = -10
    "Abenil #0" = -10
    "Abernura #0" = -10
    "Abernura-dra #0" = -10
    "Abhadali #0" = -10
    "Abizah #0" = -10
    "Abuana #0" = -10
    "Adabibi #0" = -10
    "Adajadhi #0" = -10
    "Adalamusa #0" = -10
    "Adara'hai #0" = -10
    "Adhabi #0" = -10
    "Adharama-ri #0" = -10
    "Aba-daro #0" = -10
    "Adhimba #0" = -10
    "Adrabassi #0" = -10
    "Adusa-daro #0" = -10
    "Aelif #0" = -10
    "Afehaba #0" = -10
    "Ahainaz-daro #0" = -10
    "Ahaktha #0" = -10
    "Ahirneriba #0" = -10
    "Ahmuna-la #0" = -10
    "Aihrima #0" = -10
    "Airavi #0" = -10
    "Airdeoza #0" = -10
    "Aireh #0" = -10
    "Aisarbana #0" = -10
    "Aitrabhi #0" = -10
    "Akethi #0" = -10
    "Almira #0" = -10
    "Amarri #0" = -10
    "Amizha #0" = -10
    "Anahbi #0" = -10
    "Anala #0" = -10
    "Anali #0" = -10
    "Anbi #0" = -10
    "Andarri #0" = -10
    "Anisha #0" = -10
    "Arainaz #0" = -10
    "Araitha #0" = -10
    "Arimaia #0" = -10
    "Arrivaza #0" = -10
    "Arrunirai #0" = -10
    "Aruda #0" = -10
    "Arumarr-dro #0" = -10
    "Ashalki #0" = -10
    "Atahba #0" = -10
    "Athadda #0" = -10
    "Atharra #0" = -10
    "Aza #0" = -10
    "Azahrr #0" = -10
    "Azartah #0" = -10
    "Azbi-ra #0" = -10
    "Azdazi #0" = -10
    "Azena #0" = -10
    "Azeriba #0" = -10
    "Aznabi #0" = -10
    "Aznara #0" = -10
    "Azreshilla #0" = -10
    "Azshira #0" = -10
    "Azum #0" = -10
    "Azuni #0" = -10
    "Azuruna #0" = -10
    "Baimarri #0" = -10
    "Bakkhara #0" = -10
    "Balga #0" = -10
    "Banji #0" = -10
    "Banobani #0" = -10
    "Barnibi #0" = -10
    "Bataba #0" = -10
    "Bayya #0" = -10
    "Bazali #0" = -10
    "Bazri #0" = -10
    "Bebbia #0" = -10
    "Berani #0" = -10
    "Berriza #0" = -10
    "Beshari #0" = -10
    "Bezeni #0" = -10
    "Bezera #0" = -10
    "Bilunna #0" = -10
    "Bindabi #0" = -10
    "Binsora-la #0" = -10
    "Birai #0" = -10
    "Bishaba #0" = -10
    "Bishanti #0" = -10
    "Bishu #0" = -10
    "Taia #0" = -10
    "Bisussah #0" = -10
    "Biya-daro #0" = -10
    "Bizinda #0" = -10
    "Budanja #0" = -10
    "Buhani #0" = -10
    "Burana #0" = -10
    "Butaba #0" = -10
    "Buzinda #0" = -10
    "Cashia #0" = -10
    "Caska #0" = -10
    "Chinjarsi #0" = -10
    "Chirba #0" = -10
    "Chirrhari #0" = -10
    "Chirsusah #0" = -10
    "Chizbari #0" = -10
    "Chrimarbina #0" = -10
    "Daahin #0" = -10
    "Dabani #0" = -10
    "Dadazi #0" = -10
    "Dagila #0" = -10
    "Dahari #0" = -10
    "Dahjarsi #0" = -10
    "Dahzini #0" = -10
    "Daibiza #0" = -10
    "Daifa #0" = -10
    "Daiharri #0" = -10
    "Daini #0" = -10
    "Dajarri #0" = -10
    "Dakharri #0" = -10
    "Dar'ava #0" = -10
    "Darali #0" = -10
    "Dazjhera #0" = -10
    "Dazreso-jo #0" = -10
    "Dazshi #0" = -10
    "Debaasi #0" = -10
    "Dehdri #0" = -10
    "Dehnarra #0" = -10
    "Demusa #0" = -10
    "Dethadda #0" = -10
    "Dhanril #0" = -10
    "Dimarra #0" = -10
    "Dor'haja #0" = -10
    "Dorahin #0" = -10
    "Dordura #0" = -10
    "Dorharai #0" = -10
    "Dorkrivva #0" = -10
    "Dortabi #0" = -10
    "Dorzara #0" = -10
    "Dorzarra #0" = -10
    "Dulaya #0" = -10
    "Dunurra #0" = -10
    "Durrali #0" = -10
    "Duzi #0" = -10
    "Duzuni #0" = -10
    "Efoh-dra #0" = -10
    "Ehtayah #0" = -10
    "Eilara #0" = -10
    "Ejukki #0" = -10
    "Elamusa #0" = -10
    "Elazura #0" = -10
    "Elenabi #0" = -10
    "Elusara-la #0" = -10
    "Elzak #0" = -10
    "Enarri #0" = -10
    "Ensa-ko #0" = -10
    "Ensi #0" = -10
    "Erdama #0" = -10
    "Ernabi #0" = -10
    "Erranza #0" = -10
    "Erunirai #0" = -10
    "Eshaba #0" = -10
    "Eshah #0" = -10
    "Eshmini-ma #0" = -10
    "Evani #0" = -10
    "Ezabi #0" = -10
    "Ezipa #0" = -10
    "Ezreba #0" = -10
    "Fabasi #0" = -10
    "Fada #0" = -10
    "Fada-daro #0" = -10
    "Fadama #0" = -10
    "Fahana #0" = -10
    "Fahirri #0" = -10
    "Falana #0" = -10
    "Farniri #0" = -10
    "Fayna #0" = -10
    "Fedura #0" = -10
    "Fegarra #0" = -10
    "Fehdni #0" = -10
    "Felamusa #0" = -10
    "Felari #0" = -10
    "Felira #0" = -10
    "Feluni #0" = -10
    "Ferhara #0" = -10
    "Ferna #0" = -10
    "Feziya-ko #0" = -10
    "Fezreba #0" = -10
    "Fihada #0" = -10
    "Fijirra #0" = -10
    "Filadi #0" = -10
    "Finnah #0" = -10
    "Frestinda #0" = -10
    "Hahakil #0" = -10
    "Haheiba #0" = -10
    "Hahnissi #0" = -10
    "Haina-daro #0" = -10
    "Halani #0" = -10
    "Halitazi-dra #0" = -10
    "Hamira #0" = -10
    "Hamirra #0" = -10
    "Hanali #0" = -10
    "Hani #0" = -10
    "Hanubina-ko #0" = -10
    "Hariba #0" = -10
    "Harrani #0" = -10
    "Hashuri-daro #0" = -10
    "Hasra #0" = -10
    "Hatiha #0" = -10
    "Hayya #0" = -10
    "Hazari #0" = -10
    "Heathre #0" = -10
    "Hebasi #0" = -10
    "Hedani #0" = -10
    "Hehayda #0" = -10
    "Heleni #0" = -10
    "Henirai #0" = -10
    "Hensora #0" = -10
    "Hezura #0" = -10
    "Hihainaz #0" = -10
    "Himalla #0" = -10
    "Himathaku #0" = -10
    "Hinsora #0" = -10
    "Hiyaza #0" = -10
    "Hizala #0" = -10
    "Hizuni #0" = -10
    "Huddima #0" = -10
    "Hulinda-la #0" = -10
    "Igarri #0" = -10
    "Ilanadzeh #0" = -10
    "Ilanjarsi #0" = -10
    "Ilara #0" = -10
    "Ilarana #0" = -10
    "Ildani #0" = -10
    "Ilekama #0" = -10
    "Ilemaka #0" = -10
    "Inama #0" = -10
    "Iraya #0" = -10
    "Irkki #0" = -10
    "Irnadza #0" = -10
    "Irrki #0" = -10
    "Irsusah #0" = -10
    "Iruzda #0" = -10
    "Irzaba #0" = -10
    "Ishalga #0" = -10
    "Izjadi #0" = -10
    "Izza #0" = -10
    "J'baashli #0" = -10
    "J'Reeza #0" = -10
    "Ja'darri #0" = -10
    "Jainda #0" = -10
    "Jalamya #0" = -10
    "Janessa #0" = -10
    "Javinda #0" = -10
    "Jerazzi #0" = -10
    "Jilarga #0" = -10
    "Jiluza #0" = -10
    "Jimila #0" = -10
    "Jiyya #0" = -10
    "Jo'isi #0" = -10
    "Juisa #0" = -10
    "Juluda-daro #0" = -10
    "Jurairia #0" = -10
    "Jurana #0" = -10
    "Juranda-ra #0" = -10
    "Jurni #0" = -10
    "Ka'ishka #0" = -10
    "Kaasha #0" = -10
    "Kada #0" = -10
    "Kadalura #0" = -10
    "Kadhassi #0" = -10
    "Kahada #0" = -10
    "Kahiri #0" = -10
    "Kala #0" = -10
    "Kalari #0" = -10
    "Kalarra #0" = -10
    "Kamunara #0" = -10
    "Karina #0" = -10
    "Kasafia #0" = -10
    "Kashapi #0" = -10
    "Kauzanabi-jo #0" = -10
    "Kazargi #0" = -10
    "Kazarri #0" = -10
    "Kazdi #0" = -10
    "Kazirra #0" = -10
    "Kazra #0" = -10
    "Kazrala #0" = -10
    "Khaba #0" = -10
    "Khaiffi #0" = -10
    "Khalajo #0" = -10
    "Khalama #0" = -10
    "Khali #0" = -10
    "Khalima #0" = -10
    "Khamasha #0" = -10
    "Khamira #0" = -10
    "Khana #0" = -10
    "Khanni #0" = -10
    "Khara-ko #0" = -10
    "Khasabi #0" = -10
    "Khaygi #0" = -10
    "Khayradani #0" = -10
    "Khezuli #0" = -10
    "Khilbirra #0" = -10
    "Khilena-ka #0" = -10
    "Khilenaba #0" = -10
    "Khina #0" = -10
    "Khishmina #0" = -10
    "Khizuna #0" = -10
    "Khuhari #0" = -10
    "Khurga #0" = -10
    "Khurra #0" = -10
    "Khuzi #0" = -10
    "Kiasha #0" = -10
    "Kibibi #0" = -10
    "Kidara #0" = -10
    "Kideya #0" = -10
    "Kihrasha #0" = -10
    "Kiseravi #0" = -10
    "Kishima #0" = -10
    "Kiza #0" = -10
    "Kubiba-ma #0" = -10
    "Kuhari #0" = -10
    "Kulira #0" = -10
    "Kunamu-la #0" = -10
    "Kunira-daro #0" = -10
    "Kurdi #0" = -10
    "Kurshara-daro #0" = -10
    "Kurzatha #0" = -10
    "Kurzni #0" = -10
    "Kuzashi #0" = -10
    "Kuzda #0" = -10
    "Kuzrni #0" = -10
    "Kuzulaza #0" = -10
    "Lahini #0" = -10
    "Lalimeh #0" = -10
    "Lamanu #0" = -10
    "Lanasi #0" = -10
    "Laurri #0" = -10
    "Lazami #0" = -10
    "Lezu #0" = -10
    "Lizifha #0" = -10
    "Lusha #0" = -10
    "Lyrrsazhi #0" = -10
    "Madashara #0" = -10
    "Maedura #0" = -10
    "Maedarri #0" = -10
    "Maezalaya #0" = -10
    "Maezi #0" = -10
    "Maffri #0" = -10
    "Magdi #0" = -10
    "Mahazi #0" = -10
    "Mahrima #0" = -10
    "Maila #0" = -10
    "Majadhi-ka #0" = -10
    "Majdi #0" = -10
    "Malazu #0" = -10
    "Malbirra #0" = -10
    "Malira #0" = -10
    "Mamaea #0" = -10
    "Manabi #0" = -10
    "Manarni-la #0" = -10
    "Mansa #0" = -10
    "Mara'dahni #0" = -10
    "Marali #0" = -10
    "Marami #0" = -10
    "Mararanza #0" = -10
    "Marasadra #0" = -10
    "Marashi #0" = -10
    "Marazira #0" = -10
    "Marekki #0" = -10
    "Marra'var #0" = -10
    "Masarha #0" = -10
    "Mashawi #0" = -10
    "Masura-dra #0" = -10
    "Matani #0" = -10
    "Matbia #0" = -10
    "Mathi #0" = -10
    "Mazduni-daro #0" = -10
    "Mazu #0" = -10
    "Mazza-Mirri #0" = -10
    "Medarzia #0" = -10
    "Melae #0" = -10
    "Merani #0" = -10
    "Merani-dra #0" = -10
    "Mherisha #0" = -10
    "Mideyah #0" = -10
    "Migarra #0" = -10
    "Miglah #0" = -10
    "Milaya #0" = -10
    "Milira #0" = -10
    "Mina-diir #0" = -10
    "Miniza #0" = -10
    "Minrizi #0" = -10
    "Minurrun #0" = -10
    "Minurta #0" = -10
    "Mirani #0" = -10
    "Miranibi #0" = -10
    "Mirari #0" = -10
    "Mirudda #0" = -10
    "Mizahabi #0" = -10
    "Mizbina #0" = -10
    "Mizrali #0" = -10
    "Mobiba #0" = -10
    "Mubayda #0" = -10
    "Mulama #0" = -10
    "Munaea #0" = -10
    "Munili #0" = -10
    "Mura #0" = -10
    "Muzuli #0" = -10
    "Naballi #0" = -10
    "Nabdi #0" = -10
    "Nabiha #0" = -10
    "Nabina-ko #0" = -10
    "Nabira #0" = -10
    "Nadahi #0" = -10
    "Nadama #0" = -10
    "Nadara #0" = -10
    "Nagarra #0" = -10
    "Nahdahni #0" = -10
    "Nahrevii #0" = -10
    "Naiba #0" = -10
    "Naihana #0" = -10
    "Nakala #0" = -10
    "Nala-do #0" = -10
    "Nalimeh #0" = -10
    "Naluza #0" = -10
    "Namu #0" = -10
    "Naradai #0" = -10
    "Naradani #0" = -10
    "Naragara #0" = -10
    "Narahni #0" = -10
    "Narama-ko #0" = -10
    "Narazbiri #0" = -10
    "Narazda #0" = -10
    "Narazreshi #0" = -10
    "Narguli #0" = -10
    "Narrama #0" = -10
    "Naruza #0" = -10
    "Narzura #0" = -10
    "Natrada #0" = -10
    "Nayya #0" = -10
    "Nazala #0" = -10
    "Nirahni #0" = -10
    "Nirai #0" = -10
    "Nirshala #0" = -10
    "Nirshanti #0" = -10
    "Nisaazda #0" = -10
    "Nisuzi #0" = -10
    "Nubani #0" = -10
    "Nudabibi #0" = -10
    "Nuhunza #0" = -10
    "Nuifa #0" = -10
    "Nulaga #0" = -10
    "Nuledhi #0" = -10
    "Nulla #0" = -10
    "Numaia #0" = -10
    "Numara #0" = -10
    "Nurisipa #0" = -10
    "Nurra #0" = -10
    "Nusana #0" = -10
    "Nuthanda #0" = -10
    "Nuzalu #0" = -10
    "Odaini #0" = -10
    "Ohama #0" = -10
    "Onsari #0" = -10
    "Oonama #0" = -10
    "Paadeza #0" = -10
    "Paaniir #0" = -10
    "Paathi #0" = -10
    "Paawelaya #0" = -10
    "Pabazi #0" = -10
    "Pafirra #0" = -10
    "Pahba-dra #0" = -10
    "Pahleena #0" = -10
    "Pajmina #0" = -10
    "Pakethi #0" = -10
    "Palami #0" = -10
    "Pamaea #0" = -10
    "Pamunara #0" = -10
    "Panisa #0" = -10
    "Pathi #0" = -10
    "Payisha #0" = -10
    "Pinirai #0" = -10
    "Pirharri #0" = -10
    "Pirjmina #0" = -10
    "Pirlasa #0" = -10
    "Puhnara #0" = -10
    "Pulaya #0" = -10
    "Pulemu #0" = -10
    "Pulu #0" = -10
    "Punabi #0" = -10
    "Punala #0" = -10
    "Punamu #0" = -10
    "Punirai #0" = -10
    "Punzala #0" = -10
    "Purah #0" = -10
    "Purani #0" = -10
    "Purari #0" = -10
    "Qa'jhirr #0" = -10
    "Rabbah #0" = -10
    "Rabeba #0" = -10
    "Rabiza #0" = -10
    "Raedazi #0" = -10
    "Raehsi #0" = -10
    "Raeififeh #0" = -10
    "Raerabhi #0" = -10
    "Raezargi #0" = -10
    "Rahiba #0" = -10
    "Raiffi #0" = -10
    "Rakalu-daro #0" = -10
    "Rakkhiza #0" = -10
    "Ranabi #0" = -10
    "Ranabia #0" = -10
    "Ranja #0" = -10
    "Ras'jaba #0" = -10
    "Rashiha #0" = -10
    "Rayfa #0" = -10
    "Razashi #0" = -10
    "Ra'zaym #0" = -10
    "Razila #0" = -10
    "Rejmina #0" = -10
    "Rhani #0" = -10
    "Riba #0" = -10
    "Ribhuki #0" = -10
    "Rideza #0" = -10
    "Ridkhassi #0" = -10
    "Riharai #0" = -10
    "Rihiri #0" = -10
    "Rihnissi #0" = -10
    "Rilasu #0" = -10
    "Rilbirri #0" = -10
    "Ririna #0" = -10
    "Roznali #0" = -10
    "Sabani #0" = -10
    "Sabarapa #0" = -10
    "Sabibi #0" = -10
    "Sadaifa #0" = -10
    "Sadara-do #0" = -10
    "Sagara #0" = -10
    "Sahira-daro #0" = -10
    "Saifa #0" = -10
    "Saizeh #0" = -10
    "Salezu #0" = -10
    "Salita-ko #0" = -10
    "Samaea-do #0" = -10
    "Samati #0" = -10
    "Samati-ko #0" = -10
    "Samsu #0" = -10
    "Sanabi #0" = -10
    "Sanobani #0" = -10
    "Sanua-la #0" = -10
    "Sapila #0" = -10
    "Sarirna #0" = -10
    "Sarnibi #0" = -10
    "Sashawi #0" = -10
    "Sattaiq #0" = -10
    "Satarri #0" = -10
    "Sayya #0" = -10
    "Saziza #0" = -10
    "Sebazi #0" = -10
    "Sedarra #0" = -10
    "Sedeza #0" = -10
    "Sehana #0" = -10
    "Sena-daro #0" = -10
    "Senamu-daro #0" = -10
    "Sepaea #0" = -10
    "Serabhi #0" = -10
    "Sereyne #0" = -10
    "Serunira #0" = -10
    "Seurri #0" = -10
    "Sezali #0" = -10
    "Sezdi-dra #0" = -10
    "Sezera #0" = -10
    "Sha'ad #0" = -10
    "Shabani #0" = -10
    "Shadazi #0" = -10
    "Shadeya #0" = -10
    "Shadura #0" = -10
    "Shadya #0" = -10
    "Shalani #0" = -10
    "Shalar #0" = -10
    "Shamaea #0" = -10
    "Shamara-ma #0" = -10
    "Shamiri #0" = -10
    "Shandi #0" = -10
    "Shara #0" = -10
    "Sharrasti #0" = -10
    "Shashara #0" = -10
    "Shasirba #0" = -10
    "Shasuna-ja #0" = -10
    "Shausa #0" = -10
    "Shawia #0" = -10
    "Shazah #0" = -10
    "Shazari #0" = -10
    "Shazbael #0" = -10
    "Shiba-dra #0" = -10
    "Shideya #0" = -10
    "Shilaya #0" = -10
    "Shilli #0" = -10
    "Shimsamu #0" = -10
    "Shirai-ma #0" = -10
    "Shirran #0" = -10
    "Shisuri #0" = -10
    "Shodara #0" = -10
    "Shoddhiran #0" = -10
    "Shodura #0" = -10
    "Shohazi #0" = -10
    "Shomuzi #0" = -10
    "Shonsora #0" = -10
    "Shoshmina #0" = -10
    "Shumiri #0" = -10
    "Shuni-daro #0" = -10
    "Shurami-dra #0" = -10
    "Shuva #0" = -10
    "Shuzarta #0" = -10
    "Shuzera #0" = -10
    "Shuzirri #0" = -10
    "Shuzura #0" = -10
    "Sibati-dara #0" = -10
    "Sidura #0" = -10
    "Sihada #0" = -10
    "Sihara #0" = -10
    "Silezu #0" = -10
    "Silurra #0" = -10
    "Siluza #0" = -10
    "Sindabi #0" = -10
    "Sithasa #0" = -10
    "Sizbael #0" = -10
    "Sizenza #0" = -10
    "Sobabe #0" = -10
    "Sobani #0" = -10
    "Sudashara #0" = -10
    "Suhdahni #0" = -10
    "Sulema #0" = -10
    "Sumaea #0" = -10
    "Suni #0" = -10
    "Surasha #0" = -10
    "Surdu #0" = -10
    "Suzabi #0" = -10
    "Suzali #0" = -10
    "Tadali #0" = -10
    "Tadari #0" = -10
    "Taffisi #0" = -10
    "Tahadi #0" = -10
    "Tahaibba #0" = -10
    "Tahara #0" = -10
    "Tahari #0" = -10
    "Tahayda #0" = -10
    "Tajirri #0" = -10
    "Takhiri #0" = -10
    "Tamaya #0" = -10
    "Tamu #0" = -10
    "Taranbari-daro #0" = -10
    "Taranza #0" = -10
    "Taseena #0" = -10
    "Tashishi #0" = -10
    "Tasisa #0" = -10
    "Tasnasi #0" = -10
    "Tazadra #0" = -10
    "Tazia #0" = -10
    "Tebeba #0" = -10
    "Tebhuki #0" = -10
    "Teifi #0" = -10
    "Tenobi #0" = -10
    "Tesusah #0" = -10
    "Thabazi #0" = -10
    "Thadanja #0" = -10
    "Thadarra #0" = -10
    "Thadharanji #0" = -10
    "Thaeduna #0" = -10
    "Thahala #0" = -10
    "Thahiri #0" = -10
    "Thajukki #0" = -10
    "Thalara #0" = -10
    "Thalbaza #0" = -10
    "Thalinfar #0" = -10
    "Thamaia #0" = -10
    "Thamisashi #0" = -10
    "Thanala #0" = -10
    "Thathali #0" = -10
    "Thazahrr #0" = -10
    "Tinti #0" = -10
    "Tirusa #0" = -10
    "Tiseini-ka #0" = -10
    "Tohiba #0" = -10
    "Tsaba #0" = -10
    "Tsamabi #0" = -10
    "Tsamara #0" = -10
    "Tsanji #0" = -10
    "Tsaraba #0" = -10
    "Tsarali #0" = -10
    "Tsazii #0" = -10
    "Tsazrebi #0" = -10
    "Tsazura #0" = -10
    "Tsigara #0" = -10
    "Tsigila #0" = -10
    "Tsirami #0" = -10
    "Tsirina #0" = -10
    "Tsradarri #0" = -10
    "Tsrarranza #0" = -10
    "Tu'heiba #0" = -10
    "Tubabi #0" = -10
    "Tuhada #0" = -10
    "Tuharrii #0" = -10
    "Tukhari #0" = -10
    "Tulira #0" = -10
    "Tumira #0" = -10
    "Tunasi #0" = -10
    "Tunsanti #0" = -10
    "Turami #0" = -10
    "Turap'su #0" = -10
    "Udamaji #0" = -10
    "Udanta #0" = -10
    "Uhiratu #0" = -10
    "Umisashi #0" = -10
    "Unishi #0" = -10
    "Unjasi #0" = -10
    "Urbani #0" = -10
    "Urbinna #0" = -10
    "Urdaam #0" = -10
    "Urifa #0" = -10
    "Urilumezi #0" = -10
    "Urizali #0" = -10
    "Urjukka #0" = -10
    "Urjurra #0" = -10
    "Urzashi #0" = -10
    "Uzipa #0" = -10
    "Vabashi #0" = -10
    "Vahara #0" = -10
    "Vahazi #0" = -10
    "Vaifa #0" = -10
    "Valashi #0" = -10
    "Vanraja #0" = -10
    "Varisipa #0" = -10
    "Vasanha #0" = -10
    "Vath'ira #0" = -10
    "Vazbi #0" = -10
    "Vinbaza #0" = -10
    "Vykosa #0" = -10
    "Watzhi #0" = -10
    "Yabizah #0" = -10
    "Yaduna #0" = -10
    "Yahba #0" = -10
    "Yahirai #0" = -10
    "Yahiri #0" = -10
    "Yamaea #0" = -10
    "Yamanu-ko #0" = -10
    "Yana #0" = -10
    "Yanadzi-jo #0" = -10
    "Yanata #0" = -10
    "Yaniburr #0" = -10
    "Yansora #0" = -10
    "Yansun #0" = -10
    "Yanu-ma #0" = -10
    "Yasana #0" = -10
    "Yazita #0" = -10
    "Yenabi #0" = -10
    "Yubika #0" = -10
    "Yudashara #0" = -10
    "Yunala #0" = -10
    "Yuramla #0" = -10
    "Yushiha #0" = -10
    "Yutahbah #0" = -10
    "Zabani #0" = -10
    "Zabdi #0" = -10
    "Zabhi #0" = -10
    "Zadai #0" = -10
    "Zadala #0" = -10
    "Zadaza #0" = -10
    "Zadazi #0" = -10
    "Zadeva #0" = -10
    "Zaeri #0" = -10
    "Zahanabi #0" = -10
    "Zaharai #0" = -10
    "Zahari #0" = -10
    "Zahba #0" = -10
    "Zaheida #0" = -10
    "Zahra #0" = -10
    "Zaiba #0" = -10
    "Zaimira #0" = -10
    "Zaina #0" = -10
    "Zainabaza #0" = -10
    "Zainjhad #0" = -10
    "Zairan #0" = -10
    "Zairuni #0" = -10
    "Zaisashi #0" = -10
    "Zaizami #0" = -10
    "Zajinni #0" = -10
    "Zalapu #0" = -10
    "Zalar-do #0" = -10
    "Zalasu #0" = -10
    "Zalayza #0" = -10
    "Zalema #0" = -10
    "Zalinra #0" = -10
    "Zalirra #0" = -10
    "Zalmimi #0" = -10
    "Zalsheem #0" = -10
    "Zalurrah #0" = -10
    "Zansora #0" = -10
    "Zara #0" = -10
    "Zarri #0" = -10
    "Zashanti #0" = -10
    "Zashawi #0" = -10
    "Zav'i #0" = -10
    "Zayansora #0" = -10
    "Zayaza #0" = -10
    "Zaydi #0" = -10
    "Zayrah #0" = -10
    "Zayreba #0" = -10
    "Zayri #0" = -10
    "Zayshara #0" = -10
    "Zazaahni #0" = -10
    "Zazabhuki #0" = -10
    "Zazalah #0" = -10
    "Zazanisa #0" = -10
    "Zazarghi #0" = -10
    "Zazarni #0" = -10
    "Zebabi #0" = -10
    "Zebatba-ko #0" = -10
    "Zebba #0" = -10
    "Zemmarga #0" = -10
    "Zenira #0" = -10
    "Zeria #0" = -10
    "Zeriba #0" = -10
    "Zessura #0" = -10
    "Zetisha #0" = -10
    "Zhininda #0" = -10
    "Zibakka #0" = -10
    "Zirani #0" = -10
    "Zithana #0" = -10
    "Zithiri #0" = -10
    "Zukhara-daro #0" = -10
    "Zunala #0" = -10
    "Zurana #0" = -10
    "Zurka #0" = -10
}

leader_names = {
    Ab'jhad Abadurr Abal-jo Abizag Abiznaz Abizzaka Aburapli Aburzin Adahni Adainat Adainji Adainril Adainurr Adaishir Adibazal Adiblargo Adineta Adubaer-sa Adubid Adusaar Adusharu Ahainar-jo Ahirkin Ahirunz Ahmanaz Ahmanra Airal Aishar-sa Ak'an Ak'saz Akakhmar Akkhuz-ri Akkuz Akrah Akumjhargo Alathur Amajhan Amarbak Amargon Amartash Amsha Amu Anat Andal-ma Aneshi Anil-do Anjiir Aranak Arbhu-ra Arbhuz Arbim Ariashurr Arisho Arolluz Aroz'lai Arresh Arukhaz Arum-Khal Arusha Asal-jo Asaldak Asalkin Asazeh Ashalha Ashalra Athask Atirr Azalil Azarati Azargo Azazi Azbiasur Azbishan Azbishaz Azbisnor Azdanati Azdanten Azelbar Azezik Azezin Azimaz Azimsun Azin Azin-jo Azramdu Azrid Azsu Azurdat Azzaril Baa'jhan Baezad-jo Bahluk Bahzdal Baizad Bakamaiq Bakhati Bakhig Bakhig-ja Bakhum Balag Balku Bamak Barros Bashshi-ra Bazhar Berantin Bezjhan Bezur Bhakargo Bihargo Bilam Birakh-do Birkhu Birun Bizahad Bizahen Bizaku Bizalar Bizdar Bizurr Bizuruna Bulag Bunul Burakgum Buzul Cherjhad Chezan Chirrdazi Dablir Dagaril-dro Dahldar Dahnkin-do Dak'radhi Dalac Dalag-dar Dalffer Dalsa Darak Darkhu Darsho Dathtesh Dazash Dazul-ja Dazur Dhanim Dhanji Dharo Didakah Dirsherr Do'mazir Drasji Dro'zakar Dro-Dara Duharr Dulan Dular Dulini Duzal Duzal-ja Duzhargo Duzkier Eilun Eldazo Elhirr Eljhan Elthar Eludin Eluzard Elzhar Enak Enik-ja Eraral-dro Esalo Esan Esshri-dar Ethad-sa Ezri Ezudiwa Ezzag Fa'alar Fa'dran Fa'ren-dar Fa'tabe Fa'zin Fahurr Famazar Fareh Farit Farul Fasso Fazaddu Feduzdal Feldarr Feluz Fez'skar Fezdal Fezez Feziri Fezzam Fimaz-ra Flozah-no Ghadar Ghadffer Ghaldu Ghalri Ghalsu Ghalzaz Gharesh-ri Gohjin-jo Grishka Habais Hadalun Hadam-do Hadamlur Hadamnargo Hadamo Hadaz Haduras Haibak Haibarr Haibzur Hainab Hainat Hairan Halakakuz Halakalal Halako Halaral Halash Halinad Halinargo Halinjirr Halinuk Hamansu Hamiral Hamiran-do Hamirjirr Hamsanam Hamus Hanillal Hanilzur Hantharr Haraddal Harashur Harzad Harzdak Hassa-ja Hassrid Hazad Hazak Hazazhur Hazazi Hazaznaz Hemakar Hilan Hillaz Himalaz Himalirr-dar Himalzur Himathati Hinirlit Hirish Hizdak Hizhikar Hizurrdo Hulzar Hunal Hurkhu Hursh Hurzarr Hurzhar Hurzjhad Huthak Huzdargo Huzzin Iduthal Ilagurr Imeretto Inalzhargo Inalzin Indal Indalhur Indalzahr Indur-sa Inisargo Inisashu-jo Inishez Inishzhar Iragahr Irgazaar Irgazdul Irgun Isadati Ishu Itzi-da Izabid Izandar Izanden Izandskar Izaniran Izanji Iziran Izishir J'baanluk J'baanu J'barza J'darit J'darzi J'dathal J'dazh J'Eeja J'ghaim J'ghanar J'Hassi J'kur J'luk J'margo J'saad J'zagh J'zaraer J'zidluk J'zuraar J'zurud Ja'zinki Jahlar Jairan Jalan Jarakh Jaram Jarka Jaruk Jathim Jherahn Jherak Jilan-dar Jinninji-ri Jiren-dar Jobai Jora-ri Jul-dar Jurak-dar Juz-do Kagadur Kagazmar Kagun Kalgur Kalim-ja Kamjo Kamu Kankhu Kanniz Kanoo-sa Kanrel Kansur-jo Kanzin Kargand Kargik Kargiz Kargnargo Karpu-sa Karzik Karzskar Kasan Kashraska Kaszo Katinal Kaushjhargo Kaushur Kazafar Kazahn Kazbur Keeaz Keshazh Keshjo Keshlar Khad Khakidan Khalin-jo Kharad Kharez Khariz-ja Kharjan Khasar-dro Khasda Kheriwa Khunzar-ri Khunzjo Khunzum Khuzig Kigum-dar Kikurr Kinaro Kirrdul Kirrsi Kirun Kithiriz Kiturr Kizmar Kizrue Korabi Kul-ja Kulan-dro Kuldargo Kumurr Kunaar Kundurr Kunerr-jo Kuralit Kurnamu-do Kurnasiran Kusirnaz-dar Kuzo Lakjo Laknar Lakurr-ra Lanbaar Lankin Lansur Laurri Lharahad Lharlis Linhir Linihar Linihi Lojaku Lufras M'aiq M'desbar M'harra M'jaddha M'nashaar M'zum Ma'jha-dro Ma'jhad Ma'jidid Mabit Mabkir Madarbhu Maelen Maesar Magarak Magundim Maguzak Maguzas Mahargo Mahazza Mahirr Mahur Makam Makid-ja Makkhzahr Makmargo Maladdak Maladdiq Malahbu Malathan Malathum Malihaz-do Malirzzaka Malisu Malizaz Malizluz Malkish Manadzur Manasi Mani Maniz Manradh Manuk Marafi Marakar Marnub Marzak Marzula-jo Masrabal-dro Mathad Mathal Mazag Mazalish Mazar Mazdurr Mazha Mazil-jo Mazilbin Mazirul Mazirzin Mazou-dar Mazram Mazuk Mazurr Meashuri Mehdir Mezha-dro Miczen Mikarash Mikarur Milaggul Mim Minal Minbazal Minshak Mirarbinat Mirarkier Mirarro Misanir Misapan Misar Mishdu Mishzin Mizaraben Mizarati Mizarbuk Mizarjirr Mizarr Mizashur Mizibir Mizibuk Mizul Mizzik Mo'khu Mohkhu Mohsaz Moj-argo Mojakuz Mojaluz Mojha Mojzin Monamjo Mulabez Mulabus Mulabzag Mulamin Mulamurr Munalur Munanir Munuri Munyat Muram Muramskar Murdan Muriman Murimdak Muruddal Muslabeh Muslabliz Muzur Muzzi Na'jhargo Na'ruzz Nabal-dar Naburr Nadara Nagaddu Nakiri Nakjhan Nakkhu Nakmargo Nakra Nanaglar Nanahargo Nansiska Naraku Narbhulad-do Narkir Narluz Narril Nasimar Nasir Nazdar Nezashun Nezhad Nibihu Nirajlar Nishzo Nizil-dar Nuhar Nulk Nur Nur-dro Nurad Nurud Nurzo Nuzhi Nuziwa Nuzon Nuzuk Oblan Ohamatur Ojik Omrasha Omu-dar Pacrooti Palka Palkun Palmur-dra Panizir Pillazh Pinar Pinirrerr Pinumar Pinumur Purcy Puzhbar-jo Qa'jahd Qa'tesh Qanliz Ra'darri Ra'Habasi Ra'jhad Ra'kardru Ra'khajin Ra'ri Ra-shadda Rabamak Rabamjhad Raban Radah Radash-dar Raebanji Ragariz Rahti Rainazh Rajarkir Rakazsa Rakazuz Rakgul Rakhad Rakhhi Rakhzargo Rakzzin Ralkash-dar Ralkluz Ranul Ranza Rathsaz Rathul-do Ravius Ravzo-dar Raynan Razigad Razum-dar Razur Rehan Ren-dro Renaku Renzaiq Renzir Rezirjhan Ri'Atahrashi Ri'darakuz Ri'hirr Ri'shalur Ri'zaadzin Ribazh Ribazhur Rid-Thar-ri'Datta Rihahaz Rinam Rinambar Rinami Rinbu Runik Runji Runtash S'jash S'kinrai S'rabbi S'rashi S'rathzo S'vanez S'virzum S'zaram Sa'dir Sabanurr Sabashhad Sabashur-dar Sabra Saenssar Safik Safir Sahalu Sahar Sahaz Sahban Sakjhera Salk Salkalar Salku Sallit Sallum Sallunas Samamar Samardan Samari Sanarskar Sanaz-dro Sandu Sansen-do Sanuzh Sanzagh Sanzan-dar Saparr Sarazi Sattah Satuhaz Savar Savfer Saviwa Semusa Senadon Senun Serarbar Shaasharr Shaashuz Shajamah-ja Shakara Shalapaar Shalirr Shalubar Shamal Shamuniz Shan-ra Shando-ri Shansi-sa Shantin Shapal-jo Sharad Sharaddargo Sharazka Sharazzur Sharjo Sharsheh Sharul Shavnargo Shazar Shelad Shelzaka Shikruz Shiladur Shiluk Shiniraer Shinizahr Shintah Shirnama Sholas-do Sholbiri Sholmargo Shulargo Shumishun Shuzaad Shuzul Sibud-ja Sigul-jo Silat Silhu-jo Sind Sinin-sa Sinud Srozom Subid Suhr Sumantharr Tabil Tadhargo Tagin Tahar-dar Tahuda Tajahir Takaman Takanasur Takanazh Takanradh Tamanat Tamruz Tamshur Tand Tarak Tarazdarr Tarazur Tarazuril Tarlar Tasam-ri Tashdu Tasheer Tashmin Tashpir Tazzhid Thalar Thannar Tiburr Tishi Todrick Tsin'roh Tubidan Tulashurr Tullar-dra Turan Turo Turshan-dar Turuk Tuzil-dro Ubrarig Ubraz Udoro Ulabael Ulibaz Ulularr Ululmalit Unnur Urjen Uzarnaym Uzarrur Uzernurr Uzrum Uzurnarr Vabin-ja Valam Valirr Vashai Vashpar Vijari Vijari-ma Wadaril Wadarkier Whickmuz Yaharati Yan Yanabir-ja Yanalir Yandzir Yandzum Yashinzhi Yazhin Yazhin-dar Yenadar Yenar Za'ji Zababi Zaban Zaban-ma Zabaseh Zabashlargo Zabka Zabluk Zabzhar Zaddo Zadrahd Zadraska Zahalar Zaham Zahdarr Zakbar Zal-sa Zalkir Zamarak Zamhirr Zan Zan'hi Zandal Zandur Zantan Zaorir Zarbi'dahuz Zarbidan Zarbidiran Zargal Zargha Zarkier Zarziri Zayan Zaydak Zayhba Zebiden-jo Zemiran Zemirum Zhaaruis Zhaj'hassa Zharahn Zhibaral Zhiranaz Zhiraz Ziakar Zibam Zidal Zihlran Zino Zoadran Zur Zurnash Zurro-dar Zurso Zuzik
}

ship_names = {
    Abadai Abadusa Abahrimaya Abandarra-la Abazbi Abelaya Abenil Abernura Abernura-dra Abhadali Abizah Abuana Adabibi Adajadhi Adalamusa Adara'hai Adhabi Adharama-ri Aba-daro Adhimba Adrabassi Adusa-daro Aelif Afehaba Ahainaz-daro Ahaktha Ahirneriba Ahmuna-la Aihrima Airavi Airdeoza Aireh Aisarbana Aitrabhi Akethi Almira Amarri Amizha Anahbi Anala Anali Anbi Andarri Anisha Arainaz Araitha Arimaia Arrivaza Arrunirai Aruda Arumarr-dro Ashalki Atahba Athadda Atharra Aza Azahrr Azartah Azbi-ra Azdazi Azena Azeriba Aznabi Aznara Azreshilla Azshira Azum Azuni Azuruna Baimarri Bakkhara Balga Banji Banobani Barnibi Bataba Bayya Bazali Bazri Bebbia Berani Berriza Beshari Bezeni Bezera Bilunna Bindabi Binsora-la Birai Bishaba Bishanti Bishu Taia Bisussah Biya-daro Bizinda Budanja Buhani Burana Butaba Buzinda Cashia Caska Chinjarsi Chirba Chirrhari Chirsusah Chizbari Chrimarbina Daahin Dabani Dadazi Dagila Dahari Dahjarsi Dahzini Daibiza Daifa Daiharri Daini Dajarri Dakharri Dar'ava Darali Dazjhera Dazreso-jo Dazshi Debaasi Dehdri Dehnarra Demusa Dethadda Dhanril Dimarra Dor'haja Dorahin Dordura Dorharai Dorkrivva Dortabi Dorzara Dorzarra Dulaya Dunurra Durrali Duzi Duzuni Efoh-dra Ehtayah Eilara Ejukki Elamusa Elazura Elenabi Elusara-la Elzak Enarri Ensa-ko Ensi Erdama Ernabi Erranza Erunirai Eshaba Eshah Eshmini-ma Evani Ezabi Ezipa Ezreba Fabasi Fada Fada-daro Fadama Fahana Fahirri Falana Farniri Fayna Fedura Fegarra Fehdni Felamusa Felari Felira Feluni Ferhara Ferna Feziya-ko Fezreba Fihada Fijirra Filadi Finnah Frestinda Hahakil Haheiba Hahnissi Haina-daro Halani Halitazi-dra Hamira Hamirra Hanali Hani Hanubina-ko Hariba Harrani Hashuri-daro Hasra Hatiha Hayya Hazari Heathre Hebasi Hedani Hehayda Heleni Henirai Hensora Hezura Hihainaz Himalla Himathaku Hinsora Hiyaza Hizala Hizuni Huddima Hulinda-la Igarri Ilanadzeh Ilanjarsi Ilara Ilarana Ildani Ilekama Ilemaka Inama Iraya Irkki Irnadza Irrki Irsusah Iruzda Irzaba Ishalga Izjadi Izza J'baashli J'Reeza Ja'darri Jainda Jalamya Janessa Javinda Jerazzi Jilarga Jiluza Jimila Jiyya Jo'isi Juisa Juluda-daro Jurairia Jurana Juranda-ra Jurni Ka'ishka Kaasha Kada Kadalura Kadhassi Kahada Kahiri Kala Kalari Kalarra Kamunara Karina Kasafia Kashapi Kauzanabi-jo Kazargi Kazarri Kazdi Kazirra Kazra Kazrala Khaba Khaiffi Khalajo Khalama Khali Khalima Khamasha Khamira Khana Khanni Khara-ko Khasabi Khaygi Khayradani Khezuli Khilbirra Khilena-ka Khilenaba Khina Khishmina Khizuna Khuhari Khurga Khurra Khuzi Kiasha Kibibi Kidara Kideya Kihrasha Kiseravi Kishima Kiza Kubiba-ma Kuhari Kulira Kunamu-la Kunira-daro Kurdi Kurshara-daro Kurzatha Kurzni Kuzashi Kuzda Kuzrni Kuzulaza Lahini Lalimeh Lamanu Lanasi Laurri Lazami Lezu Lizifha Lusha Lyrrsazhi Madashara Maedura Maedarri Maezalaya Maezi Maffri Magdi Mahazi Mahrima Maila Majadhi-ka Majdi Malazu Malbirra Malira Mamaea Manabi Manarni-la Mansa Mara'dahni Marali Marami Mararanza Marasadra Marashi Marazira Marekki Marra'var Masarha Mashawi Masura-dra Matani Matbia Mathi Mazduni-daro Mazu Mazza-Mirri Medarzia Melae Merani Merani-dra Mherisha Mideyah Migarra Miglah Milaya Milira Mina-diir Miniza Minrizi Minurrun Minurta Mirani Miranibi Mirari Mirudda Mizahabi Mizbina Mizrali Mobiba Mubayda Mulama Munaea Munili Mura Muzuli Naballi Nabdi Nabiha Nabina-ko Nabira Nadahi Nadama Nadara Nagarra Nahdahni Nahrevii Naiba Naihana Nakala Nala-do Nalimeh Naluza Namu Naradai Naradani Naragara Narahni Narama-ko Narazbiri Narazda Narazreshi Narguli Narrama Naruza Narzura Natrada Nayya Nazala Nirahni Nirai Nirshala Nirshanti Nisaazda Nisuzi Nubani Nudabibi Nuhunza Nuifa Nulaga Nuledhi Nulla Numaia Numara Nurisipa Nurra Nusana Nuthanda Nuzalu Odaini Ohama Onsari Oonama Paadeza Paaniir Paathi Paawelaya Pabazi Pafirra Pahba-dra Pahleena Pajmina Pakethi Palami Pamaea Pamunara Panisa Pathi Payisha Pinirai Pirharri Pirjmina Pirlasa Puhnara Pulaya Pulemu Pulu Punabi Punala Punamu Punirai Punzala Purah Purani Purari Qa'jhirr Rabbah Rabeba Rabiza Raedazi Raehsi Raeififeh Raerabhi Raezargi Rahiba Raiffi Rakalu-daro Rakkhiza Ranabi Ranabia Ranja Ras'jaba Rashiha Rayfa Razashi Ra'zaym Razila Rejmina Rhani Riba Ribhuki Rideza Ridkhassi Riharai Rihiri Rihnissi Rilasu Rilbirri Ririna Roznali Sabani Sabarapa Sabibi Sadaifa Sadara-do Sagara Sahira-daro Saifa Saizeh Salezu Salita-ko Samaea-do Samati Samati-ko Samsu Sanabi Sanobani Sanua-la Sapila Sarirna Sarnibi Sashawi Sattaiq Satarri Sayya Saziza Sebazi Sedarra Sedeza Sehana Sena-daro Senamu-daro Sepaea Serabhi Sereyne Serunira Seurri Sezali Sezdi-dra Sezera Sha'ad Shabani Shadazi Shadeya Shadura Shadya Shalani Shalar Shamaea Shamara-ma Shamiri Shandi Shara Sharrasti Shashara Shasirba Shasuna-ja Shausa Shawia Shazah Shazari Shazbael Shiba-dra Shideya Shilaya Shilli Shimsamu Shirai-ma Shirran Shisuri Shodara Shoddhiran Shodura Shohazi Shomuzi Shonsora Shoshmina Shumiri Shuni-daro Shurami-dra Shuva Shuzarta Shuzera Shuzirri Shuzura Sibati-dara Sidura Sihada Sihara Silezu Silurra Siluza Sindabi Sithasa Sizbael Sizenza Sobabe Sobani Sudashara Suhdahni Sulema Sumaea Suni Surasha Surdu Suzabi Suzali Tadali Tadari Taffisi Tahadi Tahaibba Tahara Tahari Tahayda Tajirri Takhiri Tamaya Tamu Taranbari-daro Taranza Taseena Tashishi Tasisa Tasnasi Tazadra Tazia Tebeba Tebhuki Teifi Tenobi Tesusah Thabazi Thadanja Thadarra Thadharanji Thaeduna Thahala Thahiri Thajukki Thalara Thalbaza Thalinfar Thamaia Thamisashi Thanala Thathali Thazahrr Tinti Tirusa Tiseini-ka Tohiba Tsaba Tsamabi Tsamara Tsanji Tsaraba Tsarali Tsazii Tsazrebi Tsazura Tsigara Tsigila Tsirami Tsirina Tsradarri Tsrarranza Tu'heiba Tubabi Tuhada Tuharrii Tukhari Tulira Tumira Tunasi Tunsanti Turami Turap'su Udamaji Udanta Uhiratu Umisashi Unishi Unjasi Urbani Urbinna Urdaam Urifa Urilumezi Urizali Urjukka Urjurra Urzashi Uzipa Vabashi Vahara Vahazi Vaifa Valashi Vanraja Varisipa Vasanha Vath'ira Vazbi Vinbaza Vykosa Watzhi Yabizah Yaduna Yahba Yahirai Yahiri Yamaea Yamanu-ko Yana Yanadzi-jo Yanata Yaniburr Yansora Yansun Yanu-ma Yasana Yazita Yenabi Yubika Yudashara Yunala Yuramla Yushiha Yutahbah Zabani Zabdi Zabhi Zadai Zadala Zadaza Zadazi Zadeva Zaeri Zahanabi Zaharai Zahari Zahba Zaheida Zahra Zaiba Zaimira Zaina Zainabaza Zainjhad Zairan Zairuni Zaisashi Zaizami Zajinni Zalapu Zalar-do Zalasu Zalayza Zalema Zalinra Zalirra Zalmimi Zalsheem Zalurrah Zansora Zara Zarri Zashanti Zashawi Zav'i Zayansora Zayaza Zaydi Zayrah Zayreba Zayri Zayshara Zazaahni Zazabhuki Zazalah Zazanisa Zazarghi Zazarni Zebabi Zebatba-ko Zebba Zemmarga Zenira Zeria Zeriba Zessura Zetisha Zhininda Zibakka Zirani Zithana Zithiri Zukhara-daro Zunala Zurana Zurka
}

army_names = {
    "Army of $PROVINCE$"
}

fleet_names = {
    "Fleet of $PROVINCE$"
}