graphical_culture = muslimgfx

color = { 240 240 240 }

revolutionary_colors = { 15 8 5}


historical_idea_groups = {
}

historical_units = {
}

monarch_names = {
    "A'tor #0" = 10
    "Aaban #0" = 10
    "Abadarun #0" = 10
    "Abal #0" = 10
    "Abanal #0" = 10
    "Abanilu #0" = 10
    "Abazadar #0" = 10
    "Abdahel #0" = 10
    "Abdul-Mujib #0" = 10
    "Abdussah #0" = 10
    "Abelazar #0" = 10
    "Abir #0" = 10
    "Abnajah #0" = 10
    "Abradun #0" = 10
    "Abri #0" = 10
    "Abrunul #0" = 10
    "Achel #0" = 10
    "Achelir #0" = 10
    "Adajan #0" = 10
    "Adal #0" = 10
    "Adar #0" = 10
    "Adayyul #0" = 10
    "Adenar #0" = 10
    "Adit #0" = 10
    "Admunayil #0" = 10
    "Adrazan #0" = 10
    "Adruzan #0" = 10
    "Afa-Saryat #0" = 10
    "Afelir #0" = 10
    "Afshar #0" = 10
    "Afwa #0" = 10
    "Agalir #0" = 10
    "Agha #0" = 10
    "Ahad #0" = 10
    "Ahdan #0" = 10
    "Ahiza #0" = 10
    "Ahmadduh #0" = 10
    "Ahmaron #0" = 10
    "Ahmat #0" = 10
    "Ahmih #0" = 10
    "Ahobi #0" = 10
    "Ahram #0" = 10
    "Ahtar #0" = 10
    "Ahuziq #0" = 10
    "Aizar #0" = 10
    "Akamon #0" = 10
    "Akhbar #0" = 10
    "Alahir #0" = 10
    "Alasan #0" = 10
    "Alburz #0" = 10
    "Alesan #0" = 10
    "Algredhen #0" = 10
    "Alkar #0" = 10
    "Almur #0" = 10
    "Alonzo #0" = 10
    "Alqadarun #0" = 10
    "Alqar #0" = 10
    "Alusaron #0" = 10
    "Am-Shadal #0" = 10
    "Amahnin #0" = 10
    "Amal #0" = 10
    "Amarz #0" = 10
    "Amir #0" = 10
    "Amjeesh #0" = 10
    "Amjhad #0" = 10
    "Amlith #0" = 10
    "Amozhgar #0" = 10
    "Amren #0" = 10
    "Anal'a #0" = 10
    "Andrin #0" = 10
    "Anjan #0" = 10
    "Anyaq #0" = 10
    "Arahn #0" = 10
    "Ardeshir #0" = 10
    "Arfan #0" = 10
    "Arfedar #0" = 10
    "Armand #0" = 10
    "Armin #0" = 10
    "Arthago #0" = 10
    "Asadel #0" = 10
    "Ashadr #0" = 10
    "Ashahdr #0" = 10
    "Ashatir #0" = 10
    "Ashtad #0" = 10
    "Asjaila #0" = 10
    "Asmalah #0" = 10
    "At'avar #0" = 10
    "Ataf #0" = 10
    "Atal #0" = 10
    "Athon #0" = 10
    "Atif #0" = 10
    "Attazal #0" = 10
    "Avidius #0" = 10
    "Avik #0" = 10
    "Awanan #0" = 10
    "Ayusni #0" = 10
    "Azad #0" = 10
    "Azah #0" = 10
    "Azani #0" = 10
    "Azanir #0" = 10
    "Azeel #0" = 10
    "Azei #0" = 10
    "Azzada #0" = 10
    "Azzadal #0" = 10
    "Azzan #0" = 10
    "Babhaq #0" = 10
    "Bahadur #0" = 10
    "Bahalzim #0" = 10
    "Bahbiq #0" = 10
    "Bahir #0" = 10
    "Bahram #0" = 10
    "Bail #0" = 10
    "Balabar #0" = 10
    "Balanvir #0" = 10
    "Balarik #0" = 10
    "Bamalen #0" = 10
    "Baral #0" = 10
    "Bardun #0" = 10
    "Barrus #0" = 10
    "Barun #0" = 10
    "Basil #0" = 10
    "Basir #0" = 10
    "Basri #0" = 10
    "Baurus #0" = 10
    "Behrzharah #0" = 10
    "Behsheed #0" = 10
    "Behshusaron #0" = 10
    "Benzoq #0" = 10
    "Bhos #0" = 10
    "Bhosek #0" = 10
    "Bhosim #0" = 10
    "Birahn #0" = 10
    "Bizazan #0" = 10
    "Bizhan #0" = 10
    "Bodani #0" = 10
    "Bodean #0" = 10
    "Boldekh #0" = 10
    "Boldon #0" = 10
    "Borasad #0" = 10
    "Borissean #0" = 10
    "Borosir #0" = 10
    "Brand #0" = 10
    "Brennan #0" = 10
    "Brenuin #0" = 10
    "Burh #0" = 10
    "Burhan #0" = 10
    "Camaron #0" = 10
    "Camas #0" = 10
    "Carrod #0" = 10
    "Cartos #0" = 10
    "Caseh #0" = 10
    "Casimir #0" = 10
    "Casnar #0" = 10
    "Caspar #0" = 10
    "Chark #0" = 10
    "Chrelm #0" = 10
    "Cirroc #0" = 10
    "Cluson #0" = 10
    "Corwin #0" = 10
    "Coyle #0" = 10
    "Curnard #0" = 10
    "Currod #0" = 10
    "Curtis #0" = 10
    "Cyrion #0" = 10
    "Cyrus #0" = 10
    "Dadarh #0" = 10
    "Dajan #0" = 10
    "Dajeh #0" = 10
    "Dalamar #0" = 10
    "Damar #0" = 10
    "Damien #0" = 10
    "Daracy #0" = 10
    "Darewan #0" = 10
    "Darius #0" = 10
    "Daron #0" = 10
    "Darwaz #0" = 10
    "Darwesh #0" = 10
    "Darwish #0" = 10
    "Degmeq #0" = 10
    "Dehanar #0" = 10
    "Delmar #0" = 10
    "Delmasir #0" = 10
    "Demetrius #0" = 10
    "Derik #0" = 10
    "Destri #0" = 10
    "Dhakir #0" = 10
    "Dhul #0" = 10
    "Dhulavir #0" = 10
    "Dhulimdin #0" = 10
    "Dihoq #0" = 10
    "Din #0" = 10
    "Dinawan #0" = 10
    "Dinmar #0" = 10
    "Dinok #0" = 10
    "Divad #0" = 10
    "Domalen #0" = 10
    "Domar #0" = 10
    "Dometri #0" = 10
    "Dorian #0" = 10
    "Dortodd #0" = 10
    "Dozheem #0" = 10
    "Dozhim #0" = 10
    "Draguar #0" = 10
    "Duadeen #0" = 10
    "Dudley #0" = 10
    "Ebadnar #0" = 10
    "Eban #0" = 10
    "Ebdoh #0" = 10
    "Ebrayd #0" = 10
    "Ebzahd #0" = 10
    "Ehlimah #0" = 10
    "Ehrib #0" = 10
    "Ehsan #0" = 10
    "Ehshaz #0" = 10
    "Ehwat #0" = 10
    "Ehwenzh #0" = 10
    "Eil #0" = 10
    "Eilram #0" = 10
    "Elburj #0" = 10
    "Emahd #0" = 10
    "Emson #0" = 10
    "Endavar #0" = 10
    "Endehm #0" = 10
    "Endon #0" = 10
    "Enis #0" = 10
    "Ennah #0" = 10
    "Enneh #0" = 10
    "Ennis #0" = 10
    "Enzamir #0" = 10
    "Erdelan #0" = 10
    "Ernele #0" = 10
    "Ernest #0" = 10
    "Erno #0" = 10
    "Eshir #0" = 10
    "Eshraf #0" = 10
    "Eshundir #0" = 10
    "Esmaeel #0" = 10
    "Eustache #0" = 10
    "Fabien #0" = 10
    "Fadeel #0" = 10
    "Fahad #0" = 10
    "Fahara'jad #0" = 10
    "Fahrazadar #0" = 10
    "Fahruz #0" = 10
    "Fahrzuzh #0" = 10
    "Fairuz #0" = 10
    "Fakimall #0" = 10
    "Falion #0" = 10
    "Farasad #0" = 10
    "Farmin #0" = 10
    "Farrokh #0" = 10
    "Farsheed #0" = 10
    "Farvad #0" = 10
    "Fathi #0" = 10
    "Favis #0" = 10
    "Fawazz #0" = 10
    "Fawzi #0" = 10
    "Feraj #0" = 10
    "Ferhad #0" = 10
    "Fermadnar #0" = 10
    "Fermouzh #0" = 10
    "Fermudh #0" = 10
    "Fertab #0" = 10
    "Ferzend #0" = 10
    "Fihada #0" = 10
    "Fintias #0" = 10
    "Firas #0" = 10
    "Firhesan #0" = 10
    "Firir #0" = 10
    "Firouz #0" = 10
    "Franal #0" = 10
    "Frandar #0" = 10
    "Frink #0" = 10
    "Gabir #0" = 10
    "Gagni #0" = 10
    "Gaiden #0" = 10
    "Gancolm #0" = 10
    "Garrebh #0" = 10
    "Garry #0" = 10
    "Ghaffar #0" = 10
    "Ghani #0" = 10
    "Ghaninad #0" = 10
    "Gheermoh #0" = 10
    "Gherneem #0" = 10
    "Ghininath #0" = 10
    "Ghiradar #0" = 10
    "Ghiyath #0" = 10
    "Gibal #0" = 10
    "Gibeth #0" = 10
    "Gidan #0" = 10
    "Gilzir #0" = 10
    "Gilzurjj #0" = 10
    "Gimranal #0" = 10
    "Ginal #0" = 10
    "Ginrazan #0" = 10
    "Giran #0" = 10
    "Githil #0" = 10
    "Glanlian #0" = 10
    "Glannison #0" = 10
    "Gogan #0" = 10
    "Gonnison #0" = 10
    "Gor #0" = 10
    "Gourdeez #0" = 10
    "Gourdudh #0" = 10
    "Govan #0" = 10
    "Greban #0" = 10
    "Greklith #0" = 10
    "Gudarz #0" = 10
    "Guibor #0" = 10
    "Gwath #0" = 10
    "Hadir #0" = 10
    "Hadoon #0" = 10
    "Haekwon #0" = 10
    "Haerdun #0" = 10
    "Hafizah #0" = 10
    "Hahdavir #0" = 10
    "Hahdemir #0" = 10
    "Hahdoh #0" = 10
    "Hahnin #0" = 10
    "Haidar #0" = 10
    "Hakam #0" = 10
    "Hakan #0" = 10
    "Halam #0" = 10
    "Halder #0" = 10
    "Haldesan #0" = 10
    "Haldyn #0" = 10
    "Hallan #0" = 10
    "Hallin #0" = 10
    "Hamill #0" = 10
    "Hamza #0" = 10
    "Hannat #0" = 10
    "Haqmir #0" = 10
    "Harfiza #0" = 10
    "Harim #0" = 10
    "Harimal #0" = 10
    "Harukar #0" = 10
    "Hasell #0" = 10
    "Hasib #0" = 10
    "Hasid #0" = 10
    "Hasilium #0" = 10
    "Hasmani #0" = 10
    "Hassan #0" = 10
    "Hassariq #0" = 10
    "Hasuq #0" = 10
    "Hawar #0" = 10
    "Hawarman #0" = 10
    "Hayazzin #0" = 10
    "Haydelqub #0" = 10
    "Hayle #0" = 10
    "Haytham #0" = 10
    "Haythehdi #0" = 10
    "Hedayat #0" = 10
    "Helkhar #0" = 10
    "Hezhan #0" = 10
    "Hickim #0" = 10
    "Hifa #0" = 10
    "Hillemir #0" = 10
    "Hillod #0" = 10
    "Hinald #0" = 10
    "Hinhad #0" = 10
    "Hinther #0" = 10
    "Hinzuur #0" = 10
    "Hisal #0" = 10
    "Hisham #0" = 10
    "Hiwanan #0" = 10
    "Hlaureg #0" = 10
    "Hodana #0" = 10
    "Hodrah #0" = 10
    "Hosni #0" = 10
    "Hossid #0" = 10
    "Hubalajad #0" = 10
    "Hubod #0" = 10
    "Hurien #0" = 10
    "Husni #0" = 10
    "Ian #0" = 10
    "Ibrazh #0" = 10
    "Ihdar #0" = 10
    "Ihlqub #0" = 10
    "Ikran #0" = 10
    "Ilden #0" = 10
    "Ilwan #0" = 10
    "Iminda #0" = 10
    "Imradi #0" = 10
    "Imrahasah #0" = 10
    "Imrazan #0" = 10
    "Imrazon #0" = 10
    "Imre #0" = 10
    "Imzadda #0" = 10
    "Inala #0" = 10
    "Iraj #0" = 10
    "Irvalam #0" = 10
    "Irwad #0" = 10
    "Iscan #0" = 10
    "Islaf #0" = 10
    "Islaif #0" = 10
    "Isleif #0" = 10
    "Israhal #0" = 10
    "Isran #0" = 10
    "Issal #0" = 10
    "Istah #0" = 10
    "Izbemir #0" = 10
    "Izrunath #0" = 10
    "Jaganvir #0" = 10
    "Jagnas #0" = 10
    "Jahan #0" = 10
    "Jahannif #0" = 10
    "Jahhudah #0" = 10
    "Jahsul #0" = 10
    "Jair #0" = 10
    "Jairry #0" = 10
    "Jakir #0" = 10
    "Jalad #0" = 10
    "Jalbert #0" = 10
    "Jaleel #0" = 10
    "Jalid #0" = 10
    "Jamadin #0" = 10
    "Jambi #0" = 10
    "Jamshid #0" = 10
    "Jarrod #0" = 10
    "Jart #0" = 10
    "Jathlanie #0" = 10
    "Javid #0" = 10
    "Jawan #0" = 10
    "Jawanan #0" = 10
    "Jayeed #0" = 10
    "Jaylim #0" = 10
    "Jehrait #0" = 10
    "Jehratir #0" = 10
    "Jehrz #0" = 10
    "Jeirahd #0" = 10
    "Jelanan #0" = 10
    "Jeleen #0" = 10
    "Jelin #0" = 10
    "Jengar #0" = 10
    "Jerissean #0" = 10
    "Jhiinval #0" = 10
    "Jibril #0" = 10
    "Jim #0" = 10
    "Jine #0" = 10
    "Jireq #0" = 10
    "Jomer #0" = 10
    "Jon #0" = 10
    "Jonis #0" = 10
    "Joroh #0" = 10
    "Jucal #0" = 10
    "Juncan #0" = 10
    "K'avar #0" = 10
    "Kahen #0" = 10
    "Kai #0" = 10
    "Kalad #0" = 10
    "Kalam #0" = 10
    "Kalbukar #0" = 10
    "Kalbuur #0" = 10
    "Kalig #0" = 10
    "Kalind #0" = 10
    "Kalith #0" = 10
    "Kalmasir #0" = 10
    "Kalmen #0" = 10
    "Kalmuzan #0" = 10
    "Kalorter #0" = 10
    "Kalrarj #0" = 10
    "Kalrzud #0" = 10
    "Kalvyn #0" = 10
    "Kaman #0" = 10
    "Kamandi #0" = 10
    "Kambathir #0" = 10
    "Kamdemad #0" = 10
    "Kamid #0" = 10
    "Kamiran #0" = 10
    "Kamrazan #0" = 10
    "Kamzehdi #0" = 10
    "Kamzith #0" = 10
    "Kardudir #0" = 10
    "Kardyn #0" = 10
    "Karif #0" = 10
    "Karrod #0" = 10
    "Karun #0" = 10
    "Kasal #0" = 10
    "Kassim #0" = 10
    "Kathalir #0" = 10
    "Kathil #0" = 10
    "Kathz #0" = 10
    "Kavdarubel #0" = 10
    "Kaveed #0" = 10
    "Kavrahmn #0" = 10
    "Kavsharz #0" = 10
    "Kavzind #0" = 10
    "Kavzodd #0" = 10
    "Kayam #0" = 10
    "Kayd #0" = 10
    "Kaye #0" = 10
    "Kaymatu #0" = 10
    "Kellen #0" = 10
    "Kelvyn #0" = 10
    "Kematu #0" = 10
    "Kemaz #0" = 10
    "Kewan #0" = 10
    "Khab #0" = 10
    "Khabzuur #0" = 10
    "Khadshadnar #0" = 10
    "Khadzalar #0" = 10
    "Khafiz #0" = 10
    "Khafnir #0" = 10
    "Khafzajah #0" = 10
    "Khambua #0" = 10
    "Khammo #0" = 10
    "Khamzar #0" = 10
    "Kharbeff #0" = 10
    "Khavid #0" = 10
    "Khayr #0" = 10
    "Khemd #0" = 10
    "Khemshur #0" = 10
    "Khemzarq #0" = 10
    "Khnanya #0" = 10
    "Khorajah #0" = 10
    "Khorbzr #0" = 10
    "Khorshad #0" = 10
    "Khosren #0" = 10
    "Khubfumir #0" = 10
    "Khubzyat #0" = 10
    "Khudriran #0" = 10
    "Kiarash #0" = 10
    "Killon #0" = 10
    "Kinther #0" = 10
    "Kintsel #0" = 10
    "Kithald #0" = 10
    "Kithlan #0" = 10
    "Kokab #0" = 10
    "Kotaro #0" = 10
    "Kottiq #0" = 10
    "Kourazir #0" = 10
    "Kouros #0" = 10
    "Lakene #0" = 10
    "Lakhim #0" = 10
    "Lakuzh #0" = 10
    "Lanald #0" = 10
    "Lanelan #0" = 10
    "Lanrian #0" = 10
    "Lantoine #0" = 10
    "Laqshua #0" = 10
    "Latelan #0" = 10
    "Lathahim #0" = 10
    "Lathdahan #0" = 10
    "Lathdanvir #0" = 10
    "Lathdur #0" = 10
    "Lathon #0" = 10
    "Latif #0" = 10
    "Lebat #0" = 10
    "Lesley #0" = 10
    "Lewand #0" = 10
    "Lhotun #0" = 10
    "Lidebras #0" = 10
    "Lidenar #0" = 10
    "Limark #0" = 10
    "Limdathir #0" = 10
    "Lithok #0" = 10
    "Lomaron #0" = 10
    "Loqman #0" = 10
    "Luqman #0" = 10
    "Machael #0" = 10
    "Machouz #0" = 10
    "Maeel #0" = 10
    "Mahadal #0" = 10
    "Mahawan #0" = 10
    "Mahbood #0" = 10
    "Mahbub #0" = 10
    "Mahimdin #0" = 10
    "Mahjid #0" = 10
    "Mahrahdr #0" = 10
    "Maiko #0" = 10
    "Majb #0" = 10
    "Majdazh #0" = 10
    "Majhoub #0" = 10
    "Majid #0" = 10
    "Makdodd #0" = 10
    "Makhayh #0" = 10
    "Makrakah #0" = 10
    "Maleel #0" = 10
    "Malik #0" = 10
    "Malumah #0" = 10
    "Mamhua #0" = 10
    "Mamir #0" = 10
    "Mamireh #0" = 10
    "Mani #0" = 10
    "Mansour #0" = 10
    "Maradem #0" = 10
    "Maramal #0" = 10
    "Mare #0" = 10
    "Mareh #0" = 10
    "Marghrub #0" = 10
    "Marimah #0" = 10
    "Marodeen #0" = 10
    "Marsim #0" = 10
    "Maruf #0" = 10
    "Masbayat #0" = 10
    "Masbeshir #0" = 10
    "Masdath #0" = 10
    "Mathalzayan #0" = 10
    "Mathon #0" = 10
    "Maujad #0" = 10
    "Mazada #0" = 10
    "Mazaluhad #0" = 10
    "Mazar #0" = 10
    "Mazdaq #0" = 10
    "Mazhuz #0" = 10
    "Maziar #0" = 10
    "Mazra #0" = 10
    "Mazrahil #0" = 10
    "Mazzeb #0" = 10
    "Mehdbeq #0" = 10
    "Mehdze #0" = 10
    "Mehrab #0" = 10
    "Mehraq #0" = 10
    "Mehrzad #0" = 10
    "Meriq #0" = 10
    "Merric #0" = 10
    "Meshouz #0" = 10
    "Midrarj #0" = 10
    "Midras #0" = 10
    "Midrasud #0" = 10
    "Miharaz #0" = 10
    "Mihrif #0" = 10
    "Mihufeh #0" = 10
    "Mirasal #0" = 10
    "Mirdamir #0" = 10
    "Mirzad #0" = 10
    "Mirzid #0" = 10
    "Mizbawaz #0" = 10
    "Mizdabih #0" = 10
    "Mizhan #0" = 10
    "Mizibarun #0" = 10
    "Monar #0" = 10
    "Monat #0" = 10
    "Muahdi #0" = 10
    "Muazel #0" = 10
    "Mubdanath #0" = 10
    "Mubdi #0" = 10
    "Mubshabar #0" = 10
    "Muhay #0" = 10
    "Mujwadeen #0" = 10
    "Mukhul #0" = 10
    "Mulham #0" = 10
    "Mureesh #0" = 10
    "Muruuna #0" = 10
    "Mushgah #0" = 10
    "Myame #0" = 10
    "Nabar #0" = 10
    "Nabdanir #0" = 10
    "Nabeenam #0" = 10
    "Nachael #0" = 10
    "Nadar #0" = 10
    "Nadim #0" = 10
    "Nadshanam #0" = 10
    "Naeed #0" = 10
    "Naeem #0" = 10
    "Nahassar #0" = 10
    "Nahroon #0" = 10
    "Nahzhem #0" = 10
    "Naim #0" = 10
    "Najan #0" = 10
    "Najar #0" = 10
    "Namasur #0" = 10
    "Nammadin #0" = 10
    "Namman #0" = 10
    "Nammokh #0" = 10
    "Namvar #0" = 10
    "Nandanath #0" = 10
    "Nandim #0" = 10
    "Nanimir #0" = 10
    "Nannithon #0" = 10
    "Nanshiq #0" = 10
    "Naruk #0" = 10
    "Narzasir #0" = 10
    "Nasdokh #0" = 10
    "Naseiran #0" = 10
    "Naveed #0" = 10
    "Navid #0" = 10
    "Nayvond #0" = 10
    "Nazd #0" = 10
    "Nazeem #0" = 10
    "Nazhin #0" = 10
    "Nazir #0" = 10
    "Nazz #0" = 10
    "Nazzim #0" = 10
    "Nebezh #0" = 10
    "Nebhavar #0" = 10
    "Nebuin #0" = 10
    "Nebzez #0" = 10
    "Nebzezir #0" = 10
    "Neeneban #0" = 10
    "Neville #0" = 10
    "Neviral #0" = 10
    "Nezirawan #0" = 10
    "Nibar #0" = 10
    "Nilthin #0" = 10
    "Nimir #0" = 10
    "Nimirazan #0" = 10
    "Nimshat #0" = 10
    "Nistacey #0" = 10
    "Nizayhan #0" = 10
    "Nizran #0" = 10
    "Noshzandar #0" = 10
    "Nudbahil #0" = 10
    "Nudeelar #0" = 10
    "Nuzadal #0" = 10
    "Nuzbawir #0" = 10
    "Nuzud #0" = 10
    "Oanyin #0" = 10
    "Ohlim #0" = 10
    "Ohrmarz #0" = 10
    "Ohrmaz #0" = 10
    "Onwyn #0" = 10
    "Orinthal #0" = 10
    "Orrin #0" = 10
    "Orrun #0" = 10
    "Owyn #0" = 10
    "Owynok #0" = 10
    "Ozalan #0" = 10
    "Padrul #0" = 10
    "Paldeen #0" = 10
    "Paldezh #0" = 10
    "Parham #0" = 10
    "Paulin #0" = 10
    "Pawalar #0" = 10
    "Payedar #0" = 10
    "Pehrash #0" = 10
    "Pelamar #0" = 10
    "Penald #0" = 10
    "Pennet #0" = 10
    "Perah #0" = 10
    "Peyman #0" = 10
    "Pharad #0" = 10
    "Pharbadan #0" = 10
    "Pharethil #0" = 10
    "Pharik #0" = 10
    "Phazar #0" = 10
    "Phazor #0" = 10
    "Phintias #0" = 10
    "Pierjean #0" = 10
    "Pinnald #0" = 10
    "Pitof #0" = 10
    "Praldyn #0" = 10
    "Pranak #0" = 10
    "Pranal #0" = 10
    "Prnell #0" = 10
    "Provlith #0" = 10
    "Pyke #0" = 10
    "Qabin #0" = 10
    "Qadim #0" = 10
    "Qadr #0" = 10
    "Qadulir #0" = 10
    "Qamar #0" = 10
    "Qamedim #0" = 10
    "Qariar #0" = 10
    "Qasim #0" = 10
    "Qasr #0" = 10
    "Qasrin #0" = 10
    "Qavus #0" = 10
    "Qelwez #0" = 10
    "Qesem #0" = 10
    "Qiaran #0" = 10
    "Qubad #0" = 10
    "Qumih #0" = 10
    "Qusan #0" = 10
    "Raand #0" = 10
    "Rabbu #0" = 10
    "Raccan #0" = 10
    "Rada #0" = 10
    "Radan #0" = 10
    "Radisud #0" = 10
    "Rahaliz #0" = 10
    "Rahannal #0" = 10
    "Rahim #0" = 10
    "Raifa #0" = 10
    "Raig #0" = 10
    "Rajdah #0" = 10
    "Rajelar #0" = 10
    "Rajesh #0" = 10
    "Rajmahar #0" = 10
    "Rajmer #0" = 10
    "Rakiin #0" = 10
    "Ralu #0" = 10
    "Rama #0" = 10
    "Ramad #0" = 10
    "Ramadad #0" = 10
    "Ramand #0" = 10
    "Ramati #0" = 10
    "Raminad #0" = 10
    "Ramza #0" = 10
    "Rasul #0" = 10
    "Ratib #0" = 10
    "Rawan #0" = 10
    "Rayyan #0" = 10
    "Razelan #0" = 10
    "Razhab #0" = 10
    "Razin #0" = 10
    "Razul #0" = 10
    "Razzamin #0" = 10
    "Razzaq #0" = 10
    "Relan #0" = 10
    "Rellian #0" = 10
    "Rellus #0" = 10
    "Renazh #0" = 10
    "Rensh #0" = 10
    "Rhabdanam #0" = 10
    "Rhadreel #0" = 10
    "Rhadshathir #0" = 10
    "Rhanald #0" = 10
    "Rhanbiq #0" = 10
    "Rhano #0" = 10
    "Rhanon #0" = 10
    "Rhanul #0" = 10
    "Rhemalu #0" = 10
    "Rihad #0" = 10
    "Rinina #0" = 10
    "Rislak #0" = 10
    "Rissinia #0" = 10
    "Robhemad #0" = 10
    "Robiwar #0" = 10
    "Roccan #0" = 10
    "Roderick #0" = 10
    "Rodoro #0" = 10
    "Rok'dun #0" = 10
    "Roshadon #0" = 10
    "Roshan #0" = 10
    "Runid #0" = 10
    "Ruslan #0" = 10
    "Sabal #0" = 10
    "Sabazh #0" = 10
    "Sabhell #0" = 10
    "Sabir #0" = 10
    "Sabur #0" = 10
    "Sadben #0" = 10
    "Sadeq #0" = 10
    "Sader #0" = 10
    "Sadzah #0" = 10
    "Sagabar #0" = 10
    "Sahabih #0" = 10
    "Sahadr #0" = 10
    "Sahayan #0" = 10
    "Sahil #0" = 10
    "Sahlar #0" = 10
    "Sahledir #0" = 10
    "Sahmar #0" = 10
    "Sahpur #0" = 10
    "Sai #0" = 10
    "Sakh #0" = 10
    "Salamal #0" = 10
    "Sali'ma #0" = 10
    "Salmaran #0" = 10
    "Salyar #0" = 10
    "Salyazh #0" = 10
    "Sameer #0" = 10
    "Samemad #0" = 10
    "Sameq #0" = 10
    "Samhudah #0" = 10
    "Samuur #0" = 10
    "Sargon #0" = 10
    "Sartaj #0" = 10
    "Saryeh #0" = 10
    "Sason #0" = 10
    "Seqbar #0" = 10
    "Seral #0" = 10
    "Serosh #0" = 10
    "Shabahz #0" = 10
    "Shabeh #0" = 10
    "Shabhehm #0" = 10
    "Shadhuzir #0" = 10
    "Shadr #0" = 10
    "Shahid #0" = 10
    "Shalan #0" = 10
    "Shalazad #0" = 10
    "Shalim #0" = 10
    "Shamar #0" = 10
    "Shameer #0" = 10
    "Shamir #0" = 10
    "Shammin #0" = 10
    "Shamn #0" = 10
    "Sharokeen #0" = 10
    "Sharz #0" = 10
    "Sharzahir #0" = 10
    "Shazeem #0" = 10
    "Shelden #0" = 10
    "Shellus #0" = 10
    "Shenk #0" = 10
    "Sihadid #0" = 10
    "Silasson #0" = 10
    "Siraj #0" = 10
    "Sivash #0" = 10
    "Skeevers #0" = 10
    "Sohrab #0" = 10
    "Sohraq #0" = 10
    "Sorhab #0" = 10
    "Sorian #0" = 10
    "Soscean #0" = 10
    "Stanet #0" = 10
    "Stanno #0" = 10
    "Stargel #0" = 10
    "Stenet #0" = 10
    "Sterdecan #0" = 10
    "Sternal #0" = 10
    "Sticey #0" = 10
    "Sud-Hareem #0" = 10
    "Sukelan #0" = 10
    "Sukhidir #0" = 10
    "Suram #0" = 10
    "Suramin #0" = 10
    "Syron #0" = 10
    "Tabar #0" = 10
    "Taheer #0" = 10
    "Taher #0" = 10
    "Tahur #0" = 10
    "Talan #0" = 10
    "Talian #0" = 10
    "Talib #0" = 10
    "Talrahal #0" = 10
    "Talumaseb #0" = 10
    "Taman #0" = 10
    "Tamandar #0" = 10
    "Tamarik #0" = 10
    "Tamij #0" = 10
    "Tamim #0" = 10
    "Tanek #0" = 10
    "Tarabar #0" = 10
    "Taranal #0" = 10
    "Taren #0" = 10
    "Tarish-Zi #0" = 10
    "Tarjal #0" = 10
    "Tavaid #0" = 10
    "Tawfiq #0" = 10
    "Tazhalar #0" = 10
    "Temen #0" = 10
    "Temir #0" = 10
    "Temzukar #0" = 10
    "Teqhan #0" = 10
    "Thadret #0" = 10
    "Thahisal #0" = 10
    "Thaik #0" = 10
    "Thaleft #0" = 10
    "Tharwab #0" = 10
    "Thassad #0" = 10
    "Thedret #0" = 10
    "Thedrus #0" = 10
    "Therdon #0" = 10
    "Thoda #0" = 10
    "Timen #0" = 10
    "Tohrad #0" = 10
    "Tohrz #0" = 10
    "Tohrzh #0" = 10
    "Tordaman #0" = 10
    "Torline #0" = 10
    "Torson #0" = 10
    "Tralan #0" = 10
    "Trasteve #0" = 10
    "Trayard #0" = 10
    "Trayvond #0" = 10
    "Trelan #0" = 10
    "Trithik #0" = 10
    "Turaman #0" = 10
    "Ubay #0" = 10
    "Ubhasad #0" = 10
    "Ubkhawan #0" = 10
    "Ubrabih #0" = 10
    "Udhush #0" = 10
    "Udwur #0" = 10
    "Ufa #0" = 10
    "Uhrih #0" = 10
    "Ulbazar #0" = 10
    "Uld #0" = 10
    "Uldedir #0" = 10
    "Umay #0" = 10
    "Umeen #0" = 10
    "Unar #0" = 10
    "Urbdawash #0" = 10
    "Uthmal #0" = 10
    "Uwafa #0" = 10
    "Vander #0" = 10
    "Varnado #0" = 10
    "Varnas #0" = 10
    "Varnedo #0" = 10
    "Varshab #0" = 10
    "Varuhl #0" = 10
    "Veraan #0" = 10
    "Vharer #0" = 10
    "Vhos #0" = 10
    "Vhosek #0" = 10
    "Vilamon #0" = 10
    "Virdyn #0" = 10
    "Vishaf #0" = 10
    "Voa #0" = 10
    "Volag #0" = 10
    "Wafasur #0" = 10
    "Wakan #0" = 10
    "Wakil #0" = 10
    "Walik #0" = 10
    "Wallace #0" = 10
    "Wallavir #0" = 10
    "Wallen #0" = 10
    "Waqayar #0" = 10
    "Waylamud #0" = 10
    "Waylas #0" = 10
    "Wayn #0" = 10
    "Wilbur #0" = 10
    "Wildur #0" = 10
    "Willet #0" = 10
    "Winral #0" = 10
    "Winson #0" = 10
    "Wisr-al-Maeen #0" = 10
    "Xakhwan #0" = 10
    "Xavier #0" = 10
    "Xhemgir #0" = 10
    "Yabhad #0" = 10
    "Yadhah #0" = 10
    "Yadugar #0" = 10
    "Yagdar #0" = 10
    "Yaghoub #0" = 10
    "Yahyif #0" = 10
    "Yanul #0" = 10
    "Yashamud #0" = 10
    "Yashar #0" = 10
    "Yashua #0" = 10
    "Yata #0" = 10
    "Yehkbiq #0" = 10
    "Yeqdah #0" = 10
    "Yncan #0" = 10
    "Yombira #0" = 10
    "Yonal #0" = 10
    "Yonul #0" = 10
    "Youss #0" = 10
    "Youssad #0" = 10
    "Yumanam #0" = 10
    "Yumaref #0" = 10
    "Yvander #0" = 10
    "Zabendan #0" = 10
    "Zabeth #0" = 10
    "Zafrik #0" = 10
    "Zagari #0" = 10
    "Zagrezh #0" = 10
    "Zahezub #0" = 10
    "Zakadar #0" = 10
    "Zakavit #0" = 10
    "Zakhal #0" = 10
    "Zakhaleh #0" = 10
    "Zakhin #0" = 10
    "Zalan #0" = 10
    "Zalbec #0" = 10
    "Zamnell #0" = 10
    "Zamyad #0" = 10
    "Zandim #0" = 10
    "Zanyar #0" = 10
    "Zartosht #0" = 10
    "Zawah #0" = 10
    "Zayouduf #0" = 10
    "Zenul #0" = 10
    "Zerdesht #0" = 10
    "Zerh #0" = 10
    "Zerzhan #0" = 10
    "Zhubin #0" = 10
    "Zihlijdel #0" = 10
    "Zilu #0" = 10
    "Zimar #0" = 10
    "Zir #0" = 10
    "Zirumir #0" = 10
    "Ziyad #0" = 10
    "Zuladr #0" = 10
    "Zulfan #0" = 10

    "Abadai #0" = -10
    "Abadi #0" = -10
    "Abannah #0" = -10
    "Abante #0" = -10
    "Abia #0" = -10
    "Abradih #0" = -10
    "Abrar #0" = -10
    "Adah #0" = -10
    "Adara #0" = -10
    "Adeena #0" = -10
    "Adelizza #0" = -10
    "Adiah #0" = -10
    "Adifa #0" = -10
    "Adima #0" = -10
    "Adinda #0" = -10
    "Aeedika #0" = -10
    "Afadi #0" = -10
    "Afareen #0" = -10
    "Afinah #0" = -10
    "Afineh #0" = -10
    "Afsar #0" = -10
    "Afzoon #0" = -10
    "Ahknara #0" = -10
    "Ahla #0" = -10
    "Ahlam #0" = -10
    "Ahnu #0" = -10
    "Ahriah #0" = -10
    "Ahya #0" = -10
    "Aideh #0" = -10
    "Aira #0" = -10
    "Airena #0" = -10
    "Aishah #0" = -10
    "Aishie #0" = -10
    "Akhita #0" = -10
    "Akorithi #0" = -10
    "Aleen #0" = -10
    "Alesah #0" = -10
    "Alida #0" = -10
    "Alinya #0" = -10
    "Althah #0" = -10
    "Althineh #0" = -10
    "Alusannah #0" = -10
    "Alzabeh #0" = -10
    "Amjad #0" = -10
    "Ancola #0" = -10
    "Angeira #0" = -10
    "Angelie #0" = -10
    "Anireh #0" = -10
    "Annique #0" = -10
    "Anora #0" = -10
    "Anwen #0" = -10
    "Aqabi #0" = -10
    "Arbella #0" = -10
    "Areshu #0" = -10
    "Ariana #0" = -10
    "Aribah #0" = -10
    "Ariya #0" = -10
    "Arjen #0" = -10
    "Ashanta #0" = -10
    "Ashiyana #0" = -10
    "Ashuna #0" = -10
    "Asiah #0" = -10
    "Atazha #0" = -10
    "Atefah #0" = -10
    "Ati #0" = -10
    "Atin #0" = -10
    "Atmah #0" = -10
    "Atusa #0" = -10
    "Aubatha #0" = -10
    "Aubk-i #0" = -10
    "Aureylah #0" = -10
    "Ayma #0" = -10
    "Azadiyeh #0" = -10
    "Azara #0" = -10
    "Azazh #0" = -10
    "Azeeda #0" = -10
    "Azita #0" = -10
    "Azoufah #0" = -10
    "Badri #0" = -10
    "Bahara #0" = -10
    "Bahrar #0" = -10
    "Bahree #0" = -10
    "Baileet #0" = -10
    "Bailiyya #0" = -10
    "Baimora #0" = -10
    "Balaith #0" = -10
    "Balan #0" = -10
    "Balina #0" = -10
    "Balqi #0" = -10
    "Banefshah #0" = -10
    "Bani #0" = -10
    "Barahar #0" = -10
    "Basila #0" = -10
    "Beerta #0" = -10
    "Benizir #0" = -10
    "Berea #0" = -10
    "Berfendeh #0" = -10
    "Beriana #0" = -10
    "Berwareh #0" = -10
    "Bezhefah #0" = -10
    "Bezhneh #0" = -10
    "Bilaira #0" = -10
    "Bilami #0" = -10
    "Blandine #0" = -10
    "Blubamka #0" = -10
    "Bolura #0" = -10
    "Boussa #0" = -10
    "Braith #0" = -10
    "Braithayidra #0" = -10
    "Branwadai #0" = -10
    "Branwen #0" = -10
    "Brazamah #0" = -10
    "Brazzia #0" = -10
    "Brazzideh #0" = -10
    "Brihana #0" = -10
    "Bruscilla #0" = -10
    "Buhata #0" = -10
    "Burahaira #0" = -10
    "Burwa #0" = -10
    "Caminda #0" = -10
    "Carmen #0" = -10
    "Casmen #0" = -10
    "Cattrice #0" = -10
    "Cegila #0" = -10
    "Chalone #0" = -10
    "Chanas #0" = -10
    "Chanel #0" = -10
    "Chanisa #0" = -10
    "Charvek-si #0" = -10
    "Cinnabar #0" = -10
    "Clarice #0" = -10
    "Clelian #0" = -10
    "Clesa #0" = -10
    "Clessia #0" = -10
    "Comira #0" = -10
    "Corda #0" = -10
    "Dahla #0" = -10
    "Dahlia #0" = -10
    "Dahnadreel #0" = -10
    "Dalama #0" = -10
    "Daleila #0" = -10
    "Damrina #0" = -10
    "Dandsa #0" = -10
    "Danefsha #0" = -10
    "Danouida #0" = -10
    "Dara #0" = -10
    "Dariah #0" = -10
    "Darima #0" = -10
    "Dasra #0" = -10
    "Davina #0" = -10
    "Delbar #0" = -10
    "Delia #0" = -10
    "Delkash #0" = -10
    "Delphine #0" = -10
    "Delphique #0" = -10
    "Delyna #0" = -10
    "Dersaja #0" = -10
    "Dersimeh #0" = -10
    "Dh'andsa #0" = -10
    "Dh'emka #0" = -10
    "Dhemeeta #0" = -10
    "Dhemireh #0" = -10
    "Dhola #0" = -10
    "Dholia #0" = -10
    "Diwa #0" = -10
    "Diwaneh #0" = -10
    "Doletta #0" = -10
    "Domayoun #0" = -10
    "Domba #0" = -10
    "Dombuza #0" = -10
    "Domia #0" = -10
    "Duhanina #0" = -10
    "Dulayna #0" = -10
    "Dulia #0" = -10
    "Dulian #0" = -10
    "Durdira #0" = -10
    "Durida #0" = -10
    "Durrinia #0" = -10
    "Ebarah #0" = -10
    "Ehteram #0" = -10
    "Eilina #0" = -10
    "Eletta #0" = -10
    "Ellashana #0" = -10
    "Elnaia #0" = -10
    "Elone #0" = -10
    "Eluza #0" = -10
    "Emmita #0" = -10
    "Emydal #0" = -10
    "Ena #0" = -10
    "Enaffir #0" = -10
    "Endiruin #0" = -10
    "Enie #0" = -10
    "Enjaadia #0" = -10
    "Enjine #0" = -10
    "Enna #0" = -10
    "Ennas #0" = -10
    "Eriana #0" = -10
    "Erla #0" = -10
    "Ernewazh #0" = -10
    "Ery #0" = -10
    "Esmada #0" = -10
    "Esmee #0" = -10
    "Esthirh #0" = -10
    "Evangeline #0" = -10
    "Fabienne #0" = -10
    "Fabrelle #0" = -10
    "Fada #0" = -10
    "Fadahal #0" = -10
    "Fadalia #0" = -10
    "Fadanah #0" = -10
    "Fadi #0" = -10
    "Fadiya #0" = -10
    "Fahdah #0" = -10
    "Fahima #0" = -10
    "Faleen #0" = -10
    "Faliara #0" = -10
    "Falisa #0" = -10
    "Falla #0" = -10
    "Fallarah #0" = -10
    "Falleh #0" = -10
    "Falorah #0" = -10
    "Faneh #0" = -10
    "Fanouda #0" = -10
    "Farama #0" = -10
    "Faribah #0" = -10
    "Farideh #0" = -10
    "Farrin #0" = -10
    "Farzaneh #0" = -10
    "Farzazha #0" = -10
    "Fasana #0" = -10
    "Favia #0" = -10
    "Fawzhah #0" = -10
    "Fawzi #0" = -10
    "Fayna #0" = -10
    "Feremuzh #0" = -10
    "Ferzhadiyeh #0" = -10
    "Ferzhela #0" = -10
    "Ferzhineh #0" = -10
    "Fezhruh #0" = -10
    "Fihrah #0" = -10
    "Finaha #0" = -10
    "Fireya #0" = -10
    "Fithia #0" = -10
    "Futuni #0" = -10
    "Gamati #0" = -10
    "Genalda #0" = -10
    "Gervaise #0" = -10
    "Ghadina #0" = -10
    "Ghadiya #0" = -10
    "Ghalada #0" = -10
    "Ghazafran #0" = -10
    "Ghazaleh #0" = -10
    "Ghazana #0" = -10
    "Gianon #0" = -10
    "Gibat #0" = -10
    "Gilame #0" = -10
    "Ginalir #0" = -10
    "Gisele #0" = -10
    "Glesa #0" = -10
    "Golbahr #0" = -10
    "Gonda #0" = -10
    "Goudadul #0" = -10
    "Guitah #0" = -10
    "Gulahveh #0" = -10
    "Gulisheh #0" = -10
    "Guliyeh #0" = -10
    "Gwen #0" = -10
    "Gwenefta #0" = -10
    "Gweneylah #0" = -10
    "Gwenna #0" = -10
    "Haballa #0" = -10
    "Habasah #0" = -10
    "Hadaileh #0" = -10
    "Hadi #0" = -10
    "Hadima #0" = -10
    "Hadineh #0" = -10
    "Hadonia #0" = -10
    "Hafayidra #0" = -10
    "Hafsa #0" = -10
    "Hafseta #0" = -10
    "Hafza #0" = -10
    "Hafzara #0" = -10
    "Haida #0" = -10
    "Haidarah #0" = -10
    "Haila #0" = -10
    "Hailibah #0" = -10
    "Hakruba #0" = -10
    "Halana #0" = -10
    "Halelah #0" = -10
    "Haliyya #0" = -10
    "Halora #0" = -10
    "Hamefsha #0" = -10
    "Hamika #0" = -10
    "Hanneh #0" = -10
    "Hanniel #0" = -10
    "Hara #0" = -10
    "Haruna #0" = -10
    "Haseta #0" = -10
    "Hatmarah #0" = -10
    "Hatmi #0" = -10
    "Hawafa #0" = -10
    "Hawnazh #0" = -10
    "Hayaia #0" = -10
    "Hayed #0" = -10
    "Hayideh #0" = -10
    "Hazanah #0" = -10
    "Hazihi #0" = -10
    "Hazzenie #0" = -10
    "Hazzi #0" = -10
    "Hecua #0" = -10
    "Heenarh #0" = -10
    "Hefassah #0" = -10
    "Hel #0" = -10
    "Helazh #0" = -10
    "Hervia #0" = -10
    "Hidabah #0" = -10
    "Hillid #0" = -10
    "Hiraira #0" = -10
    "Hironi #0" = -10
    "Hiroufar #0" = -10
    "Hisolda #0" = -10
    "Hitari #0" = -10
    "Hitoufah #0" = -10
    "Hiyyara #0" = -10
    "Homeira #0" = -10
    "Honai #0" = -10
    "Horayya #0" = -10
    "Huhtami #0" = -10
    "Hulela #0" = -10
    "Hulya #0" = -10
    "Huma #0" = -10
    "Hura #0" = -10
    "Hurisa #0" = -10
    "Husbifah #0" = -10
    "Husniya #0" = -10
    "Hussonia #0" = -10
    "Ianwas #0" = -10
    "Ibrula #0" = -10
    "Ila #0" = -10
    "Ilafa #0" = -10
    "Ileh #0" = -10
    "Ilkhas #0" = -10
    "Ilmaha #0" = -10
    "Iman #0" = -10
    "Imrubeth #0" = -10
    "Imtithah #0" = -10
    "Inaya #0" = -10
    "Inila #0" = -10
    "Ireh #0" = -10
    "Isaadiah #0" = -10
    "Isalde #0" = -10
    "Isbifa #0" = -10
    "Ishradireh #0" = -10
    "Isolde #0" = -10
    "Isramal #0" = -10
    "Iszara #0" = -10
    "Iszreena #0" = -10
    "Izdimah #0" = -10
    "Izdirah #0" = -10
    "Izdiya #0" = -10
    "Izirama #0" = -10
    "Izradi #0" = -10
    "Izzara #0" = -10
    "Izzayya #0" = -10
    "Jada #0" = -10
    "Jadisa #0" = -10
    "Jaeloreh #0" = -10
    "Jahayna #0" = -10
    "Jahhaira #0" = -10
    "Jahi #0" = -10
    "Jalaima #0" = -10
    "Jalienna #0" = -10
    "Jalinah #0" = -10
    "Jaline #0" = -10
    "Jamie #0" = -10
    "Jarina #0" = -10
    "Jarla #0" = -10
    "Jawna #0" = -10
    "Jayri #0" = -10
    "Jeanne #0" = -10
    "Jearl #0" = -10
    "Jessmyn #0" = -10
    "Jolda #0" = -10
    "Jonna #0" = -10
    "Josajeh #0" = -10
    "Jossai #0" = -10
    "Julia #0" = -10
    "Julupe #0" = -10
    "Junah #0" = -10
    "Juwan #0" = -10
    "Kabrahla #0" = -10
    "Kahaba #0" = -10
    "Kaleen #0" = -10
    "Kalia #0" = -10
    "Kaliyana #0" = -10
    "Kamika #0" = -10
    "Kanadiy #0" = -10
    "Kanet #0" = -10
    "Karayyah #0" = -10
    "Kareth #0" = -10
    "Karifa #0" = -10
    "Karlirah #0" = -10
    "Karra #0" = -10
    "Karriel #0" = -10
    "Kashia #0" = -10
    "Kasouda #0" = -10
    "Kasura #0" = -10
    "Katayoun #0" = -10
    "Kati #0" = -10
    "Katie #0" = -10
    "Kellalan #0" = -10
    "Kerah #0" = -10
    "Keylan #0" = -10
    "Keylja #0" = -10
    "Keyna #0" = -10
    "Khada #0" = -10
    "Khadiha #0" = -10
    "Khadora #0" = -10
    "Khalatah #0" = -10
    "Khalisah #0" = -10
    "Khareenyah #0" = -10
    "Khari #0" = -10
    "Khezibanh #0" = -10
    "Khojasta #0" = -10
    "Khojifa #0" = -10
    "Khorsheed #0" = -10
    "Khorshida #0" = -10
    "Khorshina #0" = -10
    "Kiara #0" = -10
    "Kiarallah #0" = -10
    "Kimiya #0" = -10
    "Kirginia #0" = -10
    "Koz #0" = -10
    "Kozelan #0" = -10
    "Krisandra #0" = -10
    "Ku'ah #0" = -10
    "Kusheesh #0" = -10
    "Kushi #0" = -10
    "Kushorithi #0" = -10
    "Laadia #0" = -10
    "Ladra #0" = -10
    "Lahafa #0" = -10
    "Lail #0" = -10
    "Laimi #0" = -10
    "Laire #0" = -10
    "Lakana #0" = -10
    "Lan'ah #0" = -10
    "Landa #0" = -10
    "Landalla #0" = -10
    "Landanta #0" = -10
    "Landefa #0" = -10
    "Lashana #0" = -10
    "Lashon #0" = -10
    "Laurel #0" = -10
    "Layameh #0" = -10
    "Layla #0" = -10
    "Leah #0" = -10
    "Leila #0" = -10
    "Leja #0" = -10
    "Lejefah #0" = -10
    "Lejesha #0" = -10
    "Lejka #0" = -10
    "Lendhya #0" = -10
    "Leneh #0" = -10
    "Lennima #0" = -10
    "Lesramal #0" = -10
    "Letta #0" = -10
    "Lette #0" = -10
    "Levaia #0" = -10
    "Lialanah #0" = -10
    "Lidyah #0" = -10
    "Lidyeilah #0" = -10
    "Lienne #0" = -10
    "Lihidar #0" = -10
    "Liliya #0" = -10
    "Lilyamah #0" = -10
    "Lilyameh #0" = -10
    "Lolann #0" = -10
    "Lorizheneh #0" = -10
    "Louda #0" = -10
    "Lu'ah #0" = -10
    "Luahna #0" = -10
    "Luala #0" = -10
    "Lurana #0" = -10
    "Madafa #0" = -10
    "Madaima #0" = -10
    "Madara #0" = -10
    "Madja #0" = -10
    "Madra #0" = -10
    "Maelona #0" = -10
    "Maereeda #0" = -10
    "Maeresha #0" = -10
    "Maggie #0" = -10
    "Mahasti #0" = -10
    "Mahata #0" = -10
    "Mahiba #0" = -10
    "Mahrokh #0" = -10
    "Mahtab #0" = -10
    "Mahuza #0" = -10
    "Maila #0" = -10
    "Maj #0" = -10
    "Maja #0" = -10
    "Majdawa #0" = -10
    "Majdeema #0" = -10
    "Majhasur #0" = -10
    "Makar #0" = -10
    "Makela #0" = -10
    "Malakeh #0" = -10
    "Malenah #0" = -10
    "Malexa #0" = -10
    "Maliah #0" = -10
    "Maliyah #0" = -10
    "Malizah #0" = -10
    "Mamidah #0" = -10
    "Mamiyeh #0" = -10
    "Manicky #0" = -10
    "Manidah #0" = -10
    "Manizheh #0" = -10
    "Manuush #0" = -10
    "Maraya #0" = -10
    "Marbilah #0" = -10
    "Marbita #0" = -10
    "Mardina #0" = -10
    "Mareesh #0" = -10
    "Margaydeh #0" = -10
    "Margonet #0" = -10
    "Mariah #0" = -10
    "Marie #0" = -10
    "Marubel #0" = -10
    "Marwa #0" = -10
    "Marzya #0" = -10
    "Masahir #0" = -10
    "Mashana #0" = -10
    "Masiyat #0" = -10
    "Masna #0" = -10
    "Mayra #0" = -10
    "Mehfa #0" = -10
    "Mehrafar #0" = -10
    "Mehrnaz #0" = -10
    "Mehry #0" = -10
    "Mehuna #0" = -10
    "Memyan #0" = -10
    "Memyireh #0" = -10
    "Midakah #0" = -10
    "Midyah #0" = -10
    "Mihayya #0" = -10
    "Mihiyya #0" = -10
    "Mihra #0" = -10
    "Mihrawa #0" = -10
    "Milta #0" = -10
    "Minerva #0" = -10
    "Miniel #0" = -10
    "Minuh #0" = -10
    "Mirina #0" = -10
    "Mirisa #0" = -10
    "Miriya #0" = -10
    "Mirva #0" = -10
    "Mizaida #0" = -10
    "Mizareh #0" = -10
    "Mizrayda #0" = -10
    "Monsashana #0" = -10
    "Monsayeh #0" = -10
    "Monsey #0" = -10
    "Monya #0" = -10
    "Morissa #0" = -10
    "Moyaltha #0" = -10
    "Mozhdeh #0" = -10
    "Mozhdinah #0" = -10
    "Mozhenie #0" = -10
    "Muazona #0" = -10
    "Muheh #0" = -10
    "Muhmeylah #0" = -10
    "Mulaha #0" = -10
    "Mulimah #0" = -10
    "Munya #0" = -10
    "Mura #0" = -10
    "Nabeenim #0" = -10
    "Nadafa #0" = -10
    "Nadira #0" = -10
    "Nadofah #0" = -10
    "Nadwa #0" = -10
    "Nadya #0" = -10
    "Nafefta #0" = -10
    "Nafobia #0" = -10
    "Nagluneh #0" = -10
    "Nahirah #0" = -10
    "Nahrina #0" = -10
    "Nahruzah #0" = -10
    "Nahsirih #0" = -10
    "Naifa #0" = -10
    "Naifineh #0" = -10
    "Nala #0" = -10
    "Nalannah #0" = -10
    "Naliara #0" = -10
    "Namasah #0" = -10
    "Namsah #0" = -10
    "Nanani #0" = -10
    "Nanine #0" = -10
    "Nanza #0" = -10
    "Narayun #0" = -10
    "Nari #0" = -10
    "Narine #0" = -10
    "Nasibin #0" = -10
    "Naslan #0" = -10
    "Nasmat #0" = -10
    "Navbizhar #0" = -10
    "Nayyer #0" = -10
    "Nazaneen #0" = -10
    "Nazila #0" = -10
    "Nazmi #0" = -10
    "Nazrajah #0" = -10
    "Neena #0" = -10
    "Neenia #0" = -10
    "Neesa #0" = -10
    "Neesha #0" = -10
    "Negheen #0" = -10
    "Nemina #0" = -10
    "Neminda #0" = -10
    "Nenwirah #0" = -10
    "Neshtat #0" = -10
    "Nesrin #0" = -10
    "Niha #0" = -10
    "Niloufar #0" = -10
    "Nilu #0" = -10
    "Nimaima #0" = -10
    "Nirifa #0" = -10
    "Niruzheh #0" = -10
    "Nisha #0" = -10
    "Nisira #0" = -10
    "Nithena #0" = -10
    "Nithleen #0" = -10
    "Niyaneh #0" = -10
    "Niyoush #0" = -10
    "Niyya #0" = -10
    "Noushafar #0" = -10
    "Noushin #0" = -10
    "Numaheh #0" = -10
    "Nuwarrah #0" = -10
    "Nuzah #0" = -10
    "Nuzara #0" = -10
    "Nuzhimeh #0" = -10
    "Nyronie #0" = -10
    "Oiarah #0" = -10
    "Olduzah #0" = -10
    "Olena #0" = -10
    "Olerah #0" = -10
    "Oleta #0" = -10
    "Orizira #0" = -10
    "Orkideh #0" = -10
    "Orlsheh #0" = -10
    "Oufa #0" = -10
    "Parastush #0" = -10
    "Parvaia #0" = -10
    "Parvana #0" = -10
    "Parvaneh #0" = -10
    "Parveeya #0" = -10
    "Patia #0" = -10
    "Pemenie #0" = -10
    "Penwe #0" = -10
    "Perinazh #0" = -10
    "Perizada #0" = -10
    "Perridah #0" = -10
    "Pharikeh #0" = -10
    "Punesheh #0" = -10
    "Qadeeda #0" = -10
    "Qadrima #0" = -10
    "Qanyin #0" = -10
    "Qara #0" = -10
    "Qarafa #0" = -10
    "Qasna #0" = -10
    "Qasneta #0" = -10
    "Qasnizara #0" = -10
    "Qawi #0" = -10
    "Qismah #0" = -10
    "Quarith #0" = -10
    "Qumreh #0" = -10
    "Qymala #0" = -10
    "Radhasa #0" = -10
    "Radwa #0" = -10
    "Radwet #0" = -10
    "Rahaja #0" = -10
    "Rahama #0" = -10
    "Rajdara #0" = -10
    "Ramahi #0" = -10
    "Ramana #0" = -10
    "Ramati #0" = -10
    "Ramina #0" = -10
    "Ramisa #0" = -10
    "Ramzasa #0" = -10
    "Ramziq #0" = -10
    "Ranarwa #0" = -10
    "Rania #0" = -10
    "Rasa #0" = -10
    "Rasaba #0" = -10
    "Rasasah #0" = -10
    "Rasha #0" = -10
    "Rashan #0" = -10
    "Rasheda #0" = -10
    "Rasheh #0" = -10
    "Rashihi #0" = -10
    "Rashmiya #0" = -10
    "Rasna #0" = -10
    "Rasofi #0" = -10
    "Rayya #0" = -10
    "Raza #0" = -10
    "Raziyya #0" = -10
    "Razoufa #0" = -10
    "Relinda #0" = -10
    "Rena #0" = -10
    "Rhiannon #0" = -10
    "Rhina #0" = -10
    "Riahl #0" = -10
    "Rida #0" = -10
    "Rienallah #0" = -10
    "Rienna #0" = -10
    "Rijja #0" = -10
    "Risay #0" = -10
    "Ritabeth #0" = -10
    "Rithleen #0" = -10
    "Rithussah #0" = -10
    "Riza #0" = -10
    "Rizma #0" = -10
    "Rochelle #0" = -10
    "Roheebah #0" = -10
    "Rohefa #0" = -10
    "Rohssan #0" = -10
    "Rohzika #0" = -10
    "Romefta #0" = -10
    "Romehdi #0" = -10
    "Rona #0" = -10
    "Roshinah #0" = -10
    "Roshinia #0" = -10
    "Roshouida #0" = -10
    "Rosmena #0" = -10
    "Rouda #0" = -10
    "Roudi #0" = -10
    "Rozhbeh #0" = -10
    "Rozza #0" = -10
    "Rudabeh #0" = -10
    "Runeh #0" = -10
    "Runnasah #0" = -10
    "Ryeshta #0" = -10
    "Saadia #0" = -10
    "Saadifa #0" = -10
    "Saban #0" = -10
    "Sabileh #0" = -10
    "Sabinette #0" = -10
    "Sabirah #0" = -10
    "Sabrilah #0" = -10
    "Safa #0" = -10
    "Saffir #0" = -10
    "Safia #0" = -10
    "Safiyeh #0" = -10
    "Saghar #0" = -10
    "Sahar #0" = -10
    "Sahba #0" = -10
    "Sahdabeh #0" = -10
    "Saheema #0" = -10
    "Sahima #0" = -10
    "Sahlafa #0" = -10
    "Saissana #0" = -10
    "Saissiana #0" = -10
    "Sajhadi #0" = -10
    "Sakaneth #0" = -10
    "Saliah #0" = -10
    "Salida #0" = -10
    "Salma #0" = -10
    "Samaha #0" = -10
    "Samawarah #0" = -10
    "Samayna #0" = -10
    "Samila #0" = -10
    "Samsi #0" = -10
    "Samya #0" = -10
    "Sanazh #0" = -10
    "Sandeire #0" = -10
    "Sariah #0" = -10
    "Sarinne #0" = -10
    "Sarveeyah #0" = -10
    "Sarvusna #0" = -10
    "Sasana #0" = -10
    "Satahra #0" = -10
    "Satrandra #0" = -10
    "Sayda #0" = -10
    "Sayma #0" = -10
    "Saymimah #0" = -10
    "Sefra #0" = -10
    "Sehlayeh #0" = -10
    "Sehmasah #0" = -10
    "Senyndie #0" = -10
    "Seren #0" = -10
    "Sermenh #0" = -10
    "Seyran #0" = -10
    "Shadeeta #0" = -10
    "Shadri #0" = -10
    "Shafaye #0" = -10
    "Shaffy #0" = -10
    "Shalafa #0" = -10
    "Shalayleh #0" = -10
    "Shamea #0" = -10
    "Shamone #0" = -10
    "Sharbashana #0" = -10
    "Shardaza #0" = -10
    "Shardie #0" = -10
    "Sharela #0" = -10
    "Sharideh #0" = -10
    "Sharikeh #0" = -10
    "Sharine #0" = -10
    "Sharyaddan #0" = -10
    "Shayaifa #0" = -10
    "Sheedeh #0" = -10
    "Shehrbah #0" = -10
    "Shelley #0" = -10
    "Shelmar #0" = -10
    "Sherina #0" = -10
    "Sherizar #0" = -10
    "Sherveen #0" = -10
    "Shiri #0" = -10
    "Shoukoufeh #0" = -10
    "Shuhasa #0" = -10
    "Sima #0" = -10
    "Sinfay #0" = -10
    "Sinia #0" = -10
    "Siona #0" = -10
    "Sionen #0" = -10
    "Sirali #0" = -10
    "Sorayeh #0" = -10
    "Sorme #0" = -10
    "Soteras #0" = -10
    "Strigidae #0" = -10
    "Sudi #0" = -10
    "Sudia #0" = -10
    "Suhsola #0" = -10
    "Sulesa #0" = -10
    "Sulima #0" = -10
    "Sulma #0" = -10
    "Sumariqah #0" = -10
    "Sundurah #0" = -10
    "Tafa #0" = -10
    "Tahirah #0" = -10
    "Tahla #0" = -10
    "Talia #0" = -10
    "Talumineh #0" = -10
    "Tamaima #0" = -10
    "Tamika #0" = -10
    "Tannazh #0" = -10
    "Tannida #0" = -10
    "Tanyanta #0" = -10
    "Tanyin #0" = -10
    "Taqiyat #0" = -10
    "Tarafa #0" = -10
    "Taranneh #0" = -10
    "Tarinah #0" = -10
    "Tariyeh #0" = -10
    "Tavia #0" = -10
    "Tavofi #0" = -10
    "Tavrina #0" = -10
    "Tavriya #0" = -10
    "Tavyelia #0" = -10
    "Tenvi #0" = -10
    "Tenville #0" = -10
    "Terina #0" = -10
    "Thalia #0" = -10
    "Tharayya #0" = -10
    "Tharlas #0" = -10
    "Thelmar #0" = -10
    "Thuyya #0" = -10
    "Tiela #0" = -10
    "Tierra #0" = -10
    "Tiria #0" = -10
    "Tirrassa #0" = -10
    "Tizah #0" = -10
    "Todwendy #0" = -10
    "Tomaka #0" = -10
    "Tonilia #0" = -10
    "Tonleen #0" = -10
    "Toubeh #0" = -10
    "Toura #0" = -10
    "Tourima #0" = -10
    "Trava #0" = -10
    "Travofia #0" = -10
    "Trevaia #0" = -10
    "Trevvy #0" = -10
    "Ubabmah #0" = -10
    "Ubdani #0" = -10
    "Ubra #0" = -10
    "Udazata #0" = -10
    "Umana #0" = -10
    "Umisarah #0" = -10
    "Uranonni #0" = -10
    "Ursyvyra #0" = -10
    "Usralia #0" = -10
    "Usraya #0" = -10
    "Vadeshta #0" = -10
    "Vandeh #0" = -10
    "Velaman #0" = -10
    "Vena #0" = -10
    "Waqar #0" = -10
    "Wardina #0" = -10
    "Wardiya #0" = -10
    "Whitka #0" = -10
    "Wiya #0" = -10
    "Xhemsheh #0" = -10
    "Yadilah #0" = -10
    "Yaeli #0" = -10
    "Yanajah #0" = -10
    "Yanath #0" = -10
    "Yarah #0" = -10
    "Yarana #0" = -10
    "Yardileh #0" = -10
    "Yasamaneh #0" = -10
    "Yeganeh #0" = -10
    "Yiralai #0" = -10
    "Yisareh #0" = -10
    "Yisra #0" = -10
    "Yisraza #0" = -10
    "Yisroufah #0" = -10
    "Zafira #0" = -10
    "Zahideh #0" = -10
    "Zahimah #0" = -10
    "Zahreh #0" = -10
    "Zainabah #0" = -10
    "Zairana #0" = -10
    "Zakazha #0" = -10
    "Zakma #0" = -10
    "Zakriah #0" = -10
    "Zalwa #0" = -10
    "Zarala #0" = -10
    "Zaria #0" = -10
    "Zarida #0" = -10
    "Zariya #0" = -10
    "Zarrineh #0" = -10
    "Zayya #0" = -10
    "Zeila #0" = -10
    "Zeira #0" = -10
    "Zell #0" = -10
    "Zeta #0" = -10
    "Zhileh #0" = -10
    "Zibeh #0" = -10
    "Zimaneh #0" = -10
    "Zineah #0" = -10
    "Zohreh #0" = -10
    "Zorafar #0" = -10
    "Zorallah #0" = -10
    "Zoufar #0" = -10
    "Zylle #0" = -10
}

leader_names = {
    A'tor Aaban Abadarun Abal Abanal Abanilu Abazadar Abdahel Abdul-Mujib Abdussah Abelazar Abir Abnajah Abradun Abri Abrunul Achel Achelir Adajan Adal Adar Adayyul Adenar Adit Admunayil Adrazan Adruzan Afa-Saryat Afelir Afshar Afwa Agalir Agha Ahad Ahdan Ahiza Ahmadduh Ahmaron Ahmat Ahmih Ahobi Ahram Ahtar Ahuziq Aizar Akamon Akhbar Alahir Alasan Alburz Alesan Algredhen Alkar Almur Alonzo Alqadarun Alqar Alusaron Am-Shadal Amahnin Amal Amarz Amir Amjeesh Amjhad Amlith Amozhgar Amren Anal'a Andrin Anjan Anyaq Arahn Ardeshir Arfan Arfedar Armand Armin Arthago Asadel Ashadr Ashahdr Ashatir Ashtad Asjaila Asmalah At'avar Ataf Atal Athon Atif Attazal Avidius Avik Awanan Ayusni Azad Azah Azani Azanir Azeel Azei Azzada Azzadal Azzan Babhaq Bahadur Bahalzim Bahbiq Bahir Bahram Bail Balabar Balanvir Balarik Bamalen Baral Bardun Barrus Barun Basil Basir Basri Baurus Behrzharah Behsheed Behshusaron Benzoq Bhos Bhosek Bhosim Birahn Bizazan Bizhan Bodani Bodean Boldekh Boldon Borasad Borissean Borosir Brand Brennan Brenuin Burh Burhan Camaron Camas Carrod Cartos Caseh Casimir Casnar Caspar Chark Chrelm Cirroc Cluson Corwin Coyle Curnard Currod Curtis Cyrion Cyrus Dadarh Dajan Dajeh Dalamar Damar Damien Daracy Darewan Darius Daron Darwaz Darwesh Darwish Degmeq Dehanar Delmar Delmasir Demetrius Derik Destri Dhakir Dhul Dhulavir Dhulimdin Dihoq Din Dinawan Dinmar Dinok Divad Domalen Domar Dometri Dorian Dortodd Dozheem Dozhim Draguar Duadeen Dudley Ebadnar Eban Ebdoh Ebrayd Ebzahd Ehlimah Ehrib Ehsan Ehshaz Ehwat Ehwenzh Eil Eilram Elburj Emahd Emson Endavar Endehm Endon Enis Ennah Enneh Ennis Enzamir Erdelan Ernele Ernest Erno Eshir Eshraf Eshundir Esmaeel Eustache Fabien Fadeel Fahad Fahara'jad Fahrazadar Fahruz Fahrzuzh Fairuz Fakimall Falion Farasad Farmin Farrokh Farsheed Farvad Fathi Favis Fawazz Fawzi Feraj Ferhad Fermadnar Fermouzh Fermudh Fertab Ferzend Fihada Fintias Firas Firhesan Firir Firouz Franal Frandar Frink Gabir Gagni Gaiden Gancolm Garrebh Garry Ghaffar Ghani Ghaninad Gheermoh Gherneem Ghininath Ghiradar Ghiyath Gibal Gibeth Gidan Gilzir Gilzurjj Gimranal Ginal Ginrazan Giran Githil Glanlian Glannison Gogan Gonnison Gor Gourdeez Gourdudh Govan Greban Greklith Gudarz Guibor Gwath Hadir Hadoon Haekwon Haerdun Hafizah Hahdavir Hahdemir Hahdoh Hahnin Haidar Hakam Hakan Halam Halder Haldesan Haldyn Hallan Hallin Hamill Hamza Hannat Haqmir Harfiza Harim Harimal Harukar Hasell Hasib Hasid Hasilium Hasmani Hassan Hassariq Hasuq Hawar Hawarman Hayazzin Haydelqub Hayle Haytham Haythehdi Hedayat Helkhar Hezhan Hickim Hifa Hillemir Hillod Hinald Hinhad Hinther Hinzuur Hisal Hisham Hiwanan Hlaureg Hodana Hodrah Hosni Hossid Hubalajad Hubod Hurien Husni Ian Ibrazh Ihdar Ihlqub Ikran Ilden Ilwan Iminda Imradi Imrahasah Imrazan Imrazon Imre Imzadda Inala Iraj Irvalam Irwad Iscan Islaf Islaif Isleif Israhal Isran Issal Istah Izbemir Izrunath Jaganvir Jagnas Jahan Jahannif Jahhudah Jahsul Jair Jairry Jakir Jalad Jalbert Jaleel Jalid Jamadin Jambi Jamshid Jarrod Jart Jathlanie Javid Jawan Jawanan Jayeed Jaylim Jehrait Jehratir Jehrz Jeirahd Jelanan Jeleen Jelin Jengar Jerissean Jhiinval Jibril Jim Jine Jireq Jomer Jon Jonis Joroh Jucal Juncan K'avar Kahen Kai Kalad Kalam Kalbukar Kalbuur Kalig Kalind Kalith Kalmasir Kalmen Kalmuzan Kalorter Kalrarj Kalrzud Kalvyn Kaman Kamandi Kambathir Kamdemad Kamid Kamiran Kamrazan Kamzehdi Kamzith Kardudir Kardyn Karif Karrod Karun Kasal Kassim Kathalir Kathil Kathz Kavdarubel Kaveed Kavrahmn Kavsharz Kavzind Kavzodd Kayam Kayd Kaye Kaymatu Kellen Kelvyn Kematu Kemaz Kewan Khab Khabzuur Khadshadnar Khadzalar Khafiz Khafnir Khafzajah Khambua Khammo Khamzar Kharbeff Khavid Khayr Khemd Khemshur Khemzarq Khnanya Khorajah Khorbzr Khorshad Khosren Khubfumir Khubzyat Khudriran Kiarash Killon Kinther Kintsel Kithald Kithlan Kokab Kotaro Kottiq Kourazir Kouros Lakene Lakhim Lakuzh Lanald Lanelan Lanrian Lantoine Laqshua Latelan Lathahim Lathdahan Lathdanvir Lathdur Lathon Latif Lebat Lesley Lewand Lhotun Lidebras Lidenar Limark Limdathir Lithok Lomaron Loqman Luqman Machael Machouz Maeel Mahadal Mahawan Mahbood Mahbub Mahimdin Mahjid Mahrahdr Maiko Majb Majdazh Majhoub Majid Makdodd Makhayh Makrakah Maleel Malik Malumah Mamhua Mamir Mamireh Mani Mansour Maradem Maramal Mare Mareh Marghrub Marimah Marodeen Marsim Maruf Masbayat Masbeshir Masdath Mathalzayan Mathon Maujad Mazada Mazaluhad Mazar Mazdaq Mazhuz Maziar Mazra Mazrahil Mazzeb Mehdbeq Mehdze Mehrab Mehraq Mehrzad Meriq Merric Meshouz Midrarj Midras Midrasud Miharaz Mihrif Mihufeh Mirasal Mirdamir Mirzad Mirzid Mizbawaz Mizdabih Mizhan Mizibarun Monar Monat Muahdi Muazel Mubdanath Mubdi Mubshabar Muhay Mujwadeen Mukhul Mulham Mureesh Muruuna Mushgah Myame Nabar Nabdanir Nabeenam Nachael Nadar Nadim Nadshanam Naeed Naeem Nahassar Nahroon Nahzhem Naim Najan Najar Namasur Nammadin Namman Nammokh Namvar Nandanath Nandim Nanimir Nannithon Nanshiq Naruk Narzasir Nasdokh Naseiran Naveed Navid Nayvond Nazd Nazeem Nazhin Nazir Nazz Nazzim Nebezh Nebhavar Nebuin Nebzez Nebzezir Neeneban Neville Neviral Nezirawan Nibar Nilthin Nimir Nimirazan Nimshat Nistacey Nizayhan Nizran Noshzandar Nudbahil Nudeelar Nuzadal Nuzbawir Nuzud Oanyin Ohlim Ohrmarz Ohrmaz Onwyn Orinthal Orrin Orrun Owyn Owynok Ozalan Padrul Paldeen Paldezh Parham Paulin Pawalar Payedar Pehrash Pelamar Penald Pennet Perah Peyman Pharad Pharbadan Pharethil Pharik Phazar Phazor Phintias Pierjean Pinnald Pitof Praldyn Pranak Pranal Prnell Provlith Pyke Qabin Qadim Qadr Qadulir Qamar Qamedim Qariar Qasim Qasr Qasrin Qavus Qelwez Qesem Qiaran Qubad Qumih Qusan Raand Rabbu Raccan Rada Radan Radisud Rahaliz Rahannal Rahim Raifa Raig Rajdah Rajelar Rajesh Rajmahar Rajmer Rakiin Ralu Rama Ramad Ramadad Ramand Ramati Raminad Ramza Rasul Ratib Rawan Rayyan Razelan Razhab Razin Razul Razzamin Razzaq Relan Rellian Rellus Renazh Rensh Rhabdanam Rhadreel Rhadshathir Rhanald Rhanbiq Rhano Rhanon Rhanul Rhemalu Rihad Rinina Rislak Rissinia Robhemad Robiwar Roccan Roderick Rodoro Rok'dun Roshadon Roshan Runid Ruslan Sabal Sabazh Sabhell Sabir Sabur Sadben Sadeq Sader Sadzah Sagabar Sahabih Sahadr Sahayan Sahil Sahlar Sahledir Sahmar Sahpur Sai Sakh Salamal Sali'ma Salmaran Salyar Salyazh Sameer Samemad Sameq Samhudah Samuur Sargon Sartaj Saryeh Sason Seqbar Seral Serosh Shabahz Shabeh Shabhehm Shadhuzir Shadr Shahid Shalan Shalazad Shalim Shamar Shameer Shamir Shammin Shamn Sharokeen Sharz Sharzahir Shazeem Shelden Shellus Shenk Sihadid Silasson Siraj Sivash Skeevers Sohrab Sohraq Sorhab Sorian Soscean Stanet Stanno Stargel Stenet Sterdecan Sternal Sticey Sud-Hareem Sukelan Sukhidir Suram Suramin Syron Tabar Taheer Taher Tahur Talan Talian Talib Talrahal Talumaseb Taman Tamandar Tamarik Tamij Tamim Tanek Tarabar Taranal Taren Tarish-Zi Tarjal Tavaid Tawfiq Tazhalar Temen Temir Temzukar Teqhan Thadret Thahisal Thaik Thaleft Tharwab Thassad Thedret Thedrus Therdon Thoda Timen Tohrad Tohrz Tohrzh Tordaman Torline Torson Tralan Trasteve Trayard Trayvond Trelan Trithik Turaman Ubay Ubhasad Ubkhawan Ubrabih Udhush Udwur Ufa Uhrih Ulbazar Uld Uldedir Umay Umeen Unar Urbdawash Uthmal Uwafa Vander Varnado Varnas Varnedo Varshab Varuhl Veraan Vharer Vhos Vhosek Vilamon Virdyn Vishaf Voa Volag Wafasur Wakan Wakil Walik Wallace Wallavir Wallen Waqayar Waylamud Waylas Wayn Wilbur Wildur Willet Winral Winson Wisr-al-Maeen Xakhwan Xavier Xhemgir Yabhad Yadhah Yadugar Yagdar Yaghoub Yahyif Yanul Yashamud Yashar Yashua Yata Yehkbiq Yeqdah Yncan Yombira Yonal Yonul Youss Youssad Yumanam Yumaref Yvander Zabendan Zabeth Zafrik Zagari Zagrezh Zahezub Zakadar Zakavit Zakhal Zakhaleh Zakhin Zalan Zalbec Zamnell Zamyad Zandim Zanyar Zartosht Zawah Zayouduf Zenul Zerdesht Zerh Zerzhan Zhubin Zihlijdel Zilu Zimar Zir Zirumir Ziyad Zuladr Zulfan
}

ship_names = {
    Abadai Abadi Abannah Abante Abia Abradih Abrar Adah Adara Adeena Adelizza Adiah Adifa Adima Adinda Aeedika Afadi Afareen Afinah Afineh Afsar Afzoon Ahknara Ahla Ahlam Ahnu Ahriah Ahya Aideh Aira Airena Aishah Aishie Akhita Akorithi Aleen Alesah Alida Alinya Althah Althineh Alusannah Alzabeh Amjad Ancola Angeira Angelie Anireh Annique Anora Anwen Aqabi Arbella Areshu Ariana Aribah Ariya Arjen Ashanta Ashiyana Ashuna Asiah Atazha Atefah Ati Atin Atmah Atusa Aubatha Aubk-i Aureylah Ayma Azadiyeh Azara Azazh Azeeda Azita Azoufah Badri Bahara Bahrar Bahree Baileet Bailiyya Baimora Balaith Balan Balina Balqi Banefshah Bani Barahar Basila Beerta Benizir Berea Berfendeh Beriana Berwareh Bezhefah Bezhneh Bilaira Bilami Blandine Blubamka Bolura Boussa Braith Braithayidra Branwadai Branwen Brazamah Brazzia Brazzideh Brihana Bruscilla Buhata Burahaira Burwa Caminda Carmen Casmen Cattrice Cegila Chalone Chanas Chanel Chanisa Charvek-si Cinnabar Clarice Clelian Clesa Clessia Comira Corda Dahla Dahlia Dahnadreel Dalama Daleila Damrina Dandsa Danefsha Danouida Dara Dariah Darima Dasra Davina Delbar Delia Delkash Delphine Delphique Delyna Dersaja Dersimeh Dh'andsa Dh'emka Dhemeeta Dhemireh Dhola Dholia Diwa Diwaneh Doletta Domayoun Domba Dombuza Domia Duhanina Dulayna Dulia Dulian Durdira Durida Durrinia Ebarah Ehteram Eilina Eletta Ellashana Elnaia Elone Eluza Emmita Emydal Ena Enaffir Endiruin Enie Enjaadia Enjine Enna Ennas Eriana Erla Ernewazh Ery Esmada Esmee Esthirh Evangeline Fabienne Fabrelle Fada Fadahal Fadalia Fadanah Fadi Fadiya Fahdah Fahima Faleen Faliara Falisa Falla Fallarah Falleh Falorah Faneh Fanouda Farama Faribah Farideh Farrin Farzaneh Farzazha Fasana Favia Fawzhah Fawzi Fayna Feremuzh Ferzhadiyeh Ferzhela Ferzhineh Fezhruh Fihrah Finaha Fireya Fithia Futuni Gamati Genalda Gervaise Ghadina Ghadiya Ghalada Ghazafran Ghazaleh Ghazana Gianon Gibat Gilame Ginalir Gisele Glesa Golbahr Gonda Goudadul Guitah Gulahveh Gulisheh Guliyeh Gwen Gwenefta Gweneylah Gwenna Haballa Habasah Hadaileh Hadi Hadima Hadineh Hadonia Hafayidra Hafsa Hafseta Hafza Hafzara Haida Haidarah Haila Hailibah Hakruba Halana Halelah Haliyya Halora Hamefsha Hamika Hanneh Hanniel Hara Haruna Haseta Hatmarah Hatmi Hawafa Hawnazh Hayaia Hayed Hayideh Hazanah Hazihi Hazzenie Hazzi Hecua Heenarh Hefassah Hel Helazh Hervia Hidabah Hillid Hiraira Hironi Hiroufar Hisolda Hitari Hitoufah Hiyyara Homeira Honai Horayya Huhtami Hulela Hulya Huma Hura Hurisa Husbifah Husniya Hussonia Ianwas Ibrula Ila Ilafa Ileh Ilkhas Ilmaha Iman Imrubeth Imtithah Inaya Inila Ireh Isaadiah Isalde Isbifa Ishradireh Isolde Isramal Iszara Iszreena Izdimah Izdirah Izdiya Izirama Izradi Izzara Izzayya Jada Jadisa Jaeloreh Jahayna Jahhaira Jahi Jalaima Jalienna Jalinah Jaline Jamie Jarina Jarla Jawna Jayri Jeanne Jearl Jessmyn Jolda Jonna Josajeh Jossai Julia Julupe Junah Juwan Kabrahla Kahaba Kaleen Kalia Kaliyana Kamika Kanadiy Kanet Karayyah Kareth Karifa Karlirah Karra Karriel Kashia Kasouda Kasura Katayoun Kati Katie Kellalan Kerah Keylan Keylja Keyna Khada Khadiha Khadora Khalatah Khalisah Khareenyah Khari Khezibanh Khojasta Khojifa Khorsheed Khorshida Khorshina Kiara Kiarallah Kimiya Kirginia Koz Kozelan Krisandra Ku'ah Kusheesh Kushi Kushorithi Laadia Ladra Lahafa Lail Laimi Laire Lakana Lan'ah Landa Landalla Landanta Landefa Lashana Lashon Laurel Layameh Layla Leah Leila Leja Lejefah Lejesha Lejka Lendhya Leneh Lennima Lesramal Letta Lette Levaia Lialanah Lidyah Lidyeilah Lienne Lihidar Liliya Lilyamah Lilyameh Lolann Lorizheneh Louda Lu'ah Luahna Luala Lurana Madafa Madaima Madara Madja Madra Maelona Maereeda Maeresha Maggie Mahasti Mahata Mahiba Mahrokh Mahtab Mahuza Maila Maj Maja Majdawa Majdeema Majhasur Makar Makela Malakeh Malenah Malexa Maliah Maliyah Malizah Mamidah Mamiyeh Manicky Manidah Manizheh Manuush Maraya Marbilah Marbita Mardina Mareesh Margaydeh Margonet Mariah Marie Marubel Marwa Marzya Masahir Mashana Masiyat Masna Mayra Mehfa Mehrafar Mehrnaz Mehry Mehuna Memyan Memyireh Midakah Midyah Mihayya Mihiyya Mihra Mihrawa Milta Minerva Miniel Minuh Mirina Mirisa Miriya Mirva Mizaida Mizareh Mizrayda Monsashana Monsayeh Monsey Monya Morissa Moyaltha Mozhdeh Mozhdinah Mozhenie Muazona Muheh Muhmeylah Mulaha Mulimah Munya Mura Nabeenim Nadafa Nadira Nadofah Nadwa Nadya Nafefta Nafobia Nagluneh Nahirah Nahrina Nahruzah Nahsirih Naifa Naifineh Nala Nalannah Naliara Namasah Namsah Nanani Nanine Nanza Narayun Nari Narine Nasibin Naslan Nasmat Navbizhar Nayyer Nazaneen Nazila Nazmi Nazrajah Neena Neenia Neesa Neesha Negheen Nemina Neminda Nenwirah Neshtat Nesrin Niha Niloufar Nilu Nimaima Nirifa Niruzheh Nisha Nisira Nithena Nithleen Niyaneh Niyoush Niyya Noushafar Noushin Numaheh Nuwarrah Nuzah Nuzara Nuzhimeh Nyronie Oiarah Olduzah Olena Olerah Oleta Orizira Orkideh Orlsheh Oufa Parastush Parvaia Parvana Parvaneh Parveeya Patia Pemenie Penwe Perinazh Perizada Perridah Pharikeh Punesheh Qadeeda Qadrima Qanyin Qara Qarafa Qasna Qasneta Qasnizara Qawi Qismah Quarith Qumreh Qymala Radhasa Radwa Radwet Rahaja Rahama Rajdara Ramahi Ramana Ramati Ramina Ramisa Ramzasa Ramziq Ranarwa Rania Rasa Rasaba Rasasah Rasha Rashan Rasheda Rasheh Rashihi Rashmiya Rasna Rasofi Rayya Raza Raziyya Razoufa Relinda Rena Rhiannon Rhina Riahl Rida Rienallah Rienna Rijja Risay Ritabeth Rithleen Rithussah Riza Rizma Rochelle Roheebah Rohefa Rohssan Rohzika Romefta Romehdi Rona Roshinah Roshinia Roshouida Rosmena Rouda Roudi Rozhbeh Rozza Rudabeh Runeh Runnasah Ryeshta Saadia Saadifa Saban Sabileh Sabinette Sabirah Sabrilah Safa Saffir Safia Safiyeh Saghar Sahar Sahba Sahdabeh Saheema Sahima Sahlafa Saissana Saissiana Sajhadi Sakaneth Saliah Salida Salma Samaha Samawarah Samayna Samila Samsi Samya Sanazh Sandeire Sariah Sarinne Sarveeyah Sarvusna Sasana Satahra Satrandra Sayda Sayma Saymimah Sefra Sehlayeh Sehmasah Senyndie Seren Sermenh Seyran Shadeeta Shadri Shafaye Shaffy Shalafa Shalayleh Shamea Shamone Sharbashana Shardaza Shardie Sharela Sharideh Sharikeh Sharine Sharyaddan Shayaifa Sheedeh Shehrbah Shelley Shelmar Sherina Sherizar Sherveen Shiri Shoukoufeh Shuhasa Sima Sinfay Sinia Siona Sionen Sirali Sorayeh Sorme Soteras Strigidae Sudi Sudia Suhsola Sulesa Sulima Sulma Sumariqah Sundurah Tafa Tahirah Tahla Talia Talumineh Tamaima Tamika Tannazh Tannida Tanyanta Tanyin Taqiyat Tarafa Taranneh Tarinah Tariyeh Tavia Tavofi Tavrina Tavriya Tavyelia Tenvi Tenville Terina Thalia Tharayya Tharlas Thelmar Thuyya Tiela Tierra Tiria Tirrassa Tizah Todwendy Tomaka Tonilia Tonleen Toubeh Toura Tourima Trava Travofia Trevaia Trevvy Ubabmah Ubdani Ubra Udazata Umana Umisarah Uranonni Ursyvyra Usralia Usraya Vadeshta Vandeh Velaman Vena Waqar Wardina Wardiya Whitka Wiya Xhemsheh Yadilah Yaeli Yanajah Yanath Yarah Yarana Yardileh Yasamaneh Yeganeh Yiralai Yisareh Yisra Yisraza Yisroufah Zafira Zahideh Zahimah Zahreh Zainabah Zairana Zakazha Zakma Zakriah Zalwa Zarala Zaria Zarida Zariya Zarrineh Zayya Zeila Zeira Zell Zeta Zhileh Zibeh Zimaneh Zineah Zohreh Zorafar Zorallah Zoufar Zylle
}

army_names = {
    "Army of $PROVINCE$"
}

fleet_names = {
    "Fleet of $PROVINCE$"
}