graphical_culture = southamericagfx

color = { 111 37 54 }

revolutionary_colors = { 10 4 12}


historical_idea_groups = {
}

historical_units = {
}

monarch_names = {
    "Phironos #0" = 10
    "Husytion #0" = 10
    "Hamis #0" = 10
    "Xoxytion #0" = 10
    "Chrumes #0" = 10
    "Xuxoeus #0" = 10
    "Mosonos #0" = 10
    "Hespyrus #0" = 10
    "Zixaeon #0" = 10
    "Kanthagos #0" = 10
    "Pheiadris #0" = 10
    "Theivanes #0" = 10
    "Phyvaumas #0" = 10
    "Kulcius #0" = 10
    "Phondris #0" = 10
    "Rerdys #0" = 10
    "Dontoeis #0" = 10
    "Kozos #0" = 10
    "Thodantos #0" = 10
    "Veuggiton #0" = 10
    "Kalos #0" = 10
    "Chonaon #0" = 10
    "Xosis #0" = 10
    "Kylaestus #0" = 10
    "Chonaeus #0" = 10
    "Hintes #0" = 10
    "Xuttates #0" = 10
    "Xavos #0" = 10
    "Voloeus #0" = 10
    "Chiggos #0" = 10
    "Diretheus #0" = 10
    "Dinaemon #0" = 10
    "Dylys #0" = 10
    "Phottibos #0" = 10
    "Hembrates #0" = 10
    "Rembrotus #0" = 10
    "Ruthotos #0" = 10
    "Thaxo #0" = 10
    "Sthises #0" = 10
    "Phores #0" = 10
    "Hembreas #0" = 10
    "Xespaeon #0" = 10
    "Haxetus #0" = 10
    "Vimion #0" = 10
    "Chezetheus #0" = 10
    "Cheggatos #0" = 10
    "Voxeidon #0" = 10
    "Kasoeus #0" = 10
    "Phignaeus #0" = 10
    "Sthezetheus #0" = 10
    "Sthamytion #0" = 10
    "Xomanos #0" = 10
    "Zeurdarus #0" = 10
    "Deisditon #0" = 10
    "Hodaios #0" = 10
    "Nozios #0" = 10
    "Chreusdaon #0" = 10
    "Choses #0" = 10
    "Chrostrerus #0" = 10
    "Vustrer #0" = 10
    "Kustaemon #0" = 10
    "Chasias #0" = 10
    "Rombras #0" = 10
    "Phyantaon #0" = 10
    "Hirous #0" = 10
    "Maxytion #0" = 10
    "Riamerion #0" = 10
    "Thenas #0" = 10
    "Chrirrer #0" = 10
    "Dethius #0" = 10
    "Sthesto #0" = 10
    "Ruthagos #0" = 10
    "Hevos #0" = 10
    "Hodnius #0" = 10
    "Thovaumas #0" = 10
    "Zestranes #0" = 10
    "Xisas #0" = 10
    "Xiragos #0" = 10
    "Viggeas #0" = 10
    "Phoranes #0" = 10
    "Madon #0" = 10
    "Pheistrion #0" = 10
    "Viggetus #0" = 10
    "Sthinton #0" = 10
    "Xaggius #0" = 10
    "Theldaeon #0" = 10
    "Nivytion #0" = 10
    "Midytion #0" = 10
    "Neurdeas #0" = 10
    "Phurloteus #0" = 10
    "Vorlos #0" = 10
    "Rolion #0" = 10
    "Vidaeus #0" = 10
    "Xaevaumas #0" = 10
    "Chroxus #0" = 10
    "Thaegnus #0" = 10
    "Donates #0" = 10
    "Venon #0" = 10
    "Dyzonos #0" = 10

    "Hunco #0" = -10
    "Dimia #0" = -10
    "Chruvo #0" = -10
    "Xusna #0" = -10
    "Thaly #0" = -10
    "Chryzontho #0" = -10
    "Phozire #0" = -10
    "Rendreira #0" = -10
    "Cheidespe #0" = -10
    "Xoludre #0" = -10
    "Hikte #0" = -10
    "Neurlo #0" = -10
    "Kakte #0" = -10
    "Myza #0" = -10
    "Chero #0" = -10
    "Rentheuro #0" = -10
    "Phamyne #0" = -10
    "Nestruse #0" = -10
    "Chreiattenia #0" = -10
    "Stholiadia #0" = -10
    "Rambro #0" = -10
    "Kode #0" = -10
    "Hale #0" = -10
    "Vadea #0" = -10
    "Nadro #0" = -10
    "Hinceny #0" = -10
    "Zyasdixa #0" = -10
    "Hedogna #0" = -10
    "Dirina #0" = -10
    "Durara #0" = -10
    "Veve #0" = -10
    "Thama #0" = -10
    "Konce #0" = -10
    "Chaso #0" = -10
    "Heuzia #0" = -10
    "Kaxusy #0" = -10
    "Veileurra #0" = -10
    "Chutholo #0" = -10
    "Rignevia #0" = -10
    "Chrirruxa #0" = -10
    "Huva #0" = -10
    "Zyadia #0" = -10
    "Hene #0" = -10
    "Didre #0" = -10
    "Zuvy #0" = -10
    "Despulo #0" = -10
    "Phittazia #0" = -10
    "Cheiamiva #0" = -10
    "Pholcane #0" = -10
    "Vemere #0" = -10
    "Hasdo #0" = -10
    "Thikta #0" = -10
    "Chrexa #0" = -10
    "Phomy #0" = -10
    "Chose #0" = -10
    "Chuvombra #0" = -10
    "Hurarro #0" = -10
    "Kaezalce #0" = -10
    "Haspuno #0" = -10
    "Vavomo #0" = -10
    "Zasa #0" = -10
    "Volo #0" = -10
    "Zeianthe #0" = -10
    "Theggy #0" = -10
    "Resto #0" = -10
    "Noktelea #0" = -10
    "Derreilo #0" = -10
    "Phovambrea #0" = -10
    "Sthencuxa #0" = -10
    "Denthaivea #0" = -10
    "Sthundry #0" = -10
    "Vima #0" = -10
    "Voze #0" = -10
    "Desne #0" = -10
    "Kelce #0" = -10
    "Honeiane #0" = -10
    "Therrazia #0" = -10
    "Thazistia #0" = -10
    "Thirlamo #0" = -10
    "Phegnire #0" = -10
    "Nila #0" = -10
    "Dusda #0" = -10
    "Miaza #0" = -10
    "Kole #0" = -10
    "Sthulea #0" = -10
    "Nistuse #0" = -10
    "Zusolco #0" = -10
    "Hevuve #0" = -10
    "Phaistuve #0" = -10
    "Delere #0" = -10
    "Phelo #0" = -10
    "Movo #0" = -10
    "Xeva #0" = -10
    "Choma #0" = -10
    "Mudny #0" = -10
    "Niavive #0" = -10
    "Sthancyxo #0" = -10
    "Chrunava #0" = -10
    "Xastrida #0" = -10
    "Mottodo #0" = -10
}

leader_names = {
    Phironos Husytion Hamis Xoxytion Chrumes Xuxoeus Mosonos Hespyrus Zixaeon Kanthagos Pheiadris Theivanes Phyvaumas Kulcius Phondris Rerdys Dontoeis Kozos Thodantos Veuggiton Kalos Chonaon Xosis Kylaestus Chonaeus Hintes Xuttates Xavos Voloeus Chiggos Diretheus Dinaemon Dylys Phottibos Hembrates Rembrotus Ruthotos Thaxo Sthises Phores Hembreas Xespaeon Haxetus Vimion Chezetheus Cheggatos Voxeidon Kasoeus Phignaeus Sthezetheus Sthamytion Xomanos Zeurdarus Deisditon Hodaios Nozios Chreusdaon Choses Chrostrerus Vustrer Kustaemon Chasias Rombras Phyantaon Hirous Maxytion Riamerion Thenas Chrirrer Dethius Sthesto Ruthagos Hevos Hodnius Thovaumas Zestranes Xisas Xiragos Viggeas Phoranes Madon Pheistrion Viggetus Sthinton Xaggius Theldaeon Nivytion Midytion Neurdeas Phurloteus Vorlos Rolion Vidaeus Xaevaumas Chroxus Thaegnus Donates Venon Dyzonos
}

ship_names = {
    Hunco Dimia Chruvo Xusna Thaly Chryzontho Phozire Rendreira Cheidespe Xoludre Hikte Neurlo Kakte Myza Chero Rentheuro Phamyne Nestruse Chreiattenia Stholiadia Rambro Kode Hale Vadea Nadro Hinceny Zyasdixa Hedogna Dirina Durara Veve Thama Konce Chaso Heuzia Kaxusy Veileurra Chutholo Rignevia Chrirruxa Huva Zyadia Hene Didre Zuvy Despulo Phittazia Cheiamiva Pholcane Vemere Hasdo Thikta Chrexa Phomy Chose Chuvombra Hurarro Kaezalce Haspuno Vavomo Zasa Volo Zeianthe Theggy Resto Noktelea Derreilo Phovambrea Sthencuxa Denthaivea Sthundry Vima Voze Desne Kelce Honeiane Therrazia Thazistia Thirlamo Phegnire Nila Dusda Miaza Kole Sthulea Nistuse Zusolco Hevuve Phaistuve Delere Phelo Movo Xeva Choma Mudny Niavive Sthancyxo Chrunava Xastrida Mottodo
}

army_names = {
    "Army of $PROVINCE$"
}

fleet_names = {
    "Fleet of $PROVINCE$"
}