graphical_culture = indiangfx

color = { 50 225 50 }

revolutionary_colors = { 8 15 15}


historical_idea_groups = {
}

historical_units = {
}

monarch_names = {
    "Elas #0" = 10
    "Shasvush #0" = 10
    "Ralut #0" = 10
    "Asvan #0" = 10
    "Yucabhan #0" = 10
    "Cajnirtus #0" = 10
    "Prabanut #0" = 10
    "Brirpeyir #0" = 10
    "Hejuhabhay #0" = 10
    "Ibhrarhuvyunt #0" = 10
    "Jorpet #0" = 10
    "Jushmad #0" = 10
    "Alus #0" = 10
    "Guhmas #0" = 10
    "Dajnobay #0" = 10
    "Debirhut #0" = 10
    "Ubhraken #0" = 10
    "Ravarhid #0" = 10
    "Dacurmivor #0" = 10
    "Kalgatyasthor #0" = 10
    "Rundod #0" = 10
    "Suju #0" = 10
    "Vushmus #0" = 10
    "Biskus #0" = 10
    "Udrarmush #0" = 10
    "Kakruptash #0" = 10
    "Argurhoy #0" = 10
    "Bgubhrakun #0" = 10
    "Armengiguy #0" = 10
    "Galanirmer #0" = 10
    "Rana #0" = 10
    "Kibhunt #0" = 10
    "Jobor #0" = 10
    "Rabud #0" = 10
    "Cetuhuy #0" = 10
    "Prarpusthey #0" = 10
    "Ejurtid #0" = 10
    "Yusvushin #0" = 10
    "Gubhrorhabad #0" = 10
    "Argarhabush #0" = 10
    "Dhajnay #0" = 10
    "Sakud #0" = 10
    "Ksijnay #0" = 10
    "Prithu #0" = 10
    "Mahmesthan #0" = 10
    "Ukayud #0" = 10
    "Puskarmosh #0" = 10
    "Mijnuvos #0" = 10
    "Oskirtunghid #0" = 10
    "Ihmoptibhunt #0" = 10
    "Carmar #0" = 10
    "Sovus #0" = 10
    "Aju #0" = 10
    "Hagnay #0" = 10
    "Prabhasthont #0" = 10
    "Ksushmuhunt #0" = 10
    "Dokusthod #0" = 10
    "Vuhmatay #0" = 10
    "Dhusvatyurman #0" = 10
    "Vakrubutyan #0" = 10
    "Prilger #0" = 10
    "Bana #0" = 10
    "Buttash #0" = 10
    "Dindut #0" = 10
    "Vakribho #0" = 10
    "Bgokushun #0" = 10
    "Kulgubuy #0" = 10
    "Tebhrota #0" = 10
    "Amahubhas #0" = 10
    "Nurposhrasthay #0" = 10
    "Ument #0" = 10
    "Korpun #0" = 10
    "Jasvan #0" = 10
    "Yulmint #0" = 10
    "Ubaptish #0" = 10
    "Randaban #0" = 10
    "Dormeved #0" = 10
    "Yegnabhe #0" = 10
    "Ebhuthyutod #0" = 10
    "Sarganusthash #0" = 10
    "Otus #0" = 10
    "Ksacish #0" = 10
    "Juthun #0" = 10
    "Rilgunt #0" = 10
    "Ksarmuyad #0" = 10
    "Bushmava #0" = 10
    "Anatyur #0" = 10
    "Udragush #0" = 10
    "Jagnartatyu #0" = 10
    "Bakarmortad #0" = 10
    "Pelar #0" = 10
    "Nibhrunt #0" = 10
    "Shitha #0" = 10
    "Shehant #0" = 10
    "Dhakuna #0" = 10
    "Nidruthyont #0" = 10
    "Vuhmatyid #0" = 10
    "Tutturmet #0" = 10
    "Dhajavyengha #0" = 10
    "Asvayathyos #0" = 10

    "Lilyi #0" = -10
    "Sibo #0" = -10
    "Mema #0" = -10
    "Ijo #0" = -10
    "Besmante #0" = -10
    "Sanupo #0" = -10
    "Devhargu #0" = -10
    "Katucye #0" = -10
    "Bhusmedveda #0" = -10
    "Shantothanda #0" = -10
    "Shinta #0" = -10
    "Dhasu #0" = -10
    "Bhidru #0" = -10
    "Vome #0" = -10
    "Dajasmi #0" = -10
    "Praptidi #0" = -10
    "Silyasma #0" = -10
    "Kontatsu #0" = -10
    "Redhrelyemu #0" = -10
    "Bubundayo #0" = -10
    "Ratha #0" = -10
    "Ita #0" = -10
    "Cama #0" = -10
    "Khupta #0" = -10
    "Sittidra #0" = -10
    "Ajaya #0" = -10
    "Bintabhe #0" = -10
    "Kimratha #0" = -10
    "Udhajerga #0" = -10
    "Gasicuna #0" = -10
    "Arga #0" = -10
    "Yusi #0" = -10
    "Soma #0" = -10
    "Khubju #0" = -10
    "Sitesa #0" = -10
    "Bilyuti #0" = -10
    "Untadvu #0" = -10
    "Bhingasmi #0" = -10
    "Ravathubhi #0" = -10
    "Lolabhanti #0" = -10
    "Aksa #0" = -10
    "Hade #0" = -10
    "Yilyi #0" = -10
    "Adi #0" = -10
    "Karkapa #0" = -10
    "Udhana #0" = -10
    "Kamayi #0" = -10
    "Singisna #0" = -10
    "Sholupiya #0" = -10
    "Raviptoca #0" = -10
    "Yadha #0" = -10
    "Kebhi #0" = -10
    "Bhanga #0" = -10
    "Epi #0" = -10
    "Hushusi #0" = -10
    "Burgave #0" = -10
    "Sadrerga #0" = -10
    "Armava #0" = -10
    "Nattanismo #0" = -10
    "Dhuliradhi #0" = -10
    "Varke #0" = -10
    "Vali #0" = -10
    "Batha #0" = -10
    "Bipe #0" = -10
    "Bermumbo #0" = -10
    "Bhilyusho #0" = -10
    "Abjili #0" = -10
    "Ulyande #0" = -10
    "Udvandhithe #0" = -10
    "Dhuntakadra #0" = -10
    "Iptu #0" = -10
    "Ata #0" = -10
    "Margu #0" = -10
    "Natta #0" = -10
    "Huttanda #0" = -10
    "Praniyi #0" = -10
    "Intebha #0" = -10
    "Cadhimba #0" = -10
    "Dedhumasma #0" = -10
    "Shusmabhelya #0" = -10
    "Vanu #0" = -10
    "Adu #0" = -10
    "Bharga #0" = -10
    "Sithu #0" = -10
    "Buhergi #0" = -10
    "Noryamba #0" = -10
    "Votipta #0" = -10
    "Khadhrongi #0" = -10
    "Sipindante #0" = -10
    "Yivatsidve #0" = -10
    "Linda #0" = -10
    "Gutti #0" = -10
    "Edu #0" = -10
    "Avha #0" = -10
    "Ipatra #0" = -10
    "Inithi #0" = -10
    "Eryinta #0" = -10
    "Dhivanda #0" = -10
    "Atraptundha #0" = -10
    "Argacesma #0" = -10
}

leader_names = {
    Elas Shasvush Ralut Asvan Yucabhan Cajnirtus Prabanut Brirpeyir Hejuhabhay Ibhrarhuvyunt Jorpet Jushmad Alus Guhmas Dajnobay Debirhut Ubhraken Ravarhid Dacurmivor Kalgatyasthor Rundod Suju Vushmus Biskus Udrarmush Kakruptash Argurhoy Bgubhrakun Armengiguy Galanirmer Rana Kibhunt Jobor Rabud Cetuhuy Prarpusthey Ejurtid Yusvushin Gubhrorhabad Argarhabush Dhajnay Sakud Ksijnay Prithu Mahmesthan Ukayud Puskarmosh Mijnuvos Oskirtunghid Ihmoptibhunt Carmar Sovus Aju Hagnay Prabhasthont Ksushmuhunt Dokusthod Vuhmatay Dhusvatyurman Vakrubutyan Prilger Bana Buttash Dindut Vakribho Bgokushun Kulgubuy Tebhrota Amahubhas Nurposhrasthay Ument Korpun Jasvan Yulmint Ubaptish Randaban Dormeved Yegnabhe Ebhuthyutod Sarganusthash Otus Ksacish Juthun Rilgunt Ksarmuyad Bushmava Anatyur Udragush Jagnartatyu Bakarmortad Pelar Nibhrunt Shitha Shehant Dhakuna Nidruthyont Vuhmatyid Tutturmet Dhajavyengha Asvayathyos
}

ship_names = {
    Lilyi Sibo Mema Ijo Besmante Sanupo Devhargu Katucye Bhusmedveda Shantothanda Shinta Dhasu Bhidru Vome Dajasmi Praptidi Silyasma Kontatsu Redhrelyemu Bubundayo Ratha Ita Cama Khupta Sittidra Ajaya Bintabhe Kimratha Udhajerga Gasicuna Arga Yusi Soma Khubju Sitesa Bilyuti Untadvu Bhingasmi Ravathubhi Lolabhanti Aksa Hade Yilyi Adi Karkapa Udhana Kamayi Singisna Sholupiya Raviptoca Yadha Kebhi Bhanga Epi Hushusi Burgave Sadrerga Armava Nattanismo Dhuliradhi Varke Vali Batha Bipe Bermumbo Bhilyusho Abjili Ulyande Udvandhithe Dhuntakadra Iptu Ata Margu Natta Huttanda Praniyi Intebha Cadhimba Dedhumasma Shusmabhelya Vanu Adu Bharga Sithu Buhergi Noryamba Votipta Khadhrongi Sipindante Yivatsidve Linda Gutti Edu Avha Ipatra Inithi Eryinta Dhivanda Atraptundha Argacesma
}

army_names = {
    "Army of $PROVINCE$"
}

fleet_names = {
    "Fleet of $PROVINCE$"
}