graphical_culture = mongolgfx

color = { 0 200 200 }

revolutionary_colors = { 6 16 6}


historical_idea_groups = {
}

historical_units = {
}

monarch_names = {
    "Nerevar #0" = 10
    "Ababael #0" = 10
    "Abassel #0" = 10
    "Abibaal #0" = 10
    "Abishpulu #0" = 10
    "Adairan #0" = 10
    "Adaishah #0" = 10
    "Addammus #0" = 10
    "Addarnat #0" = 10
    "Adibael #0" = 10
    "Ahasour #0" = 10
    "Ahaz #0" = 10
    "Ainab #0" = 10
    "Ainat #0" = 10
    "Anasour #0" = 10
    "Anit #0" = 10
    "Asha-Ammu #0" = 10
    "Ashibaal #0" = 10
    "Ashu-Ahhe #0" = 10
    "Ashuma-Nud #0" = 10
    "Ashur-Dan #0" = 10
    "Assaba-Bentus #0" = 10
    "Assallit #0" = 10
    "Assamanut #0" = 10
    "Assamma-Idan #0" = 10
    "Assantus #0" = 10
    "Assatlit #0" = 10
    "Assemmus #0" = 10
    "Assurdan #0" = 10
    "Balur #0" = 10
    "Beden #0" = 10
    "Conoon #0" = 10
    "Dakin #0" = 10
    "Dralas #0" = 10
    "Dun-Ilu #0" = 10
    "Dunsalipal #0" = 10
    "Dutadalk #0" = 10
    "Elibael #0" = 10
    "Emul-Ran #0" = 10
    "Erur-Dan #0" = 10
    "Esar-Don #0" = 10
    "Esib-Nummu #0" = 10
    "Hainab #0" = 10
    "Hairan #0" = 10
    "Han-Ammu #0" = 10
    "Hannat #0" = 10
    "Hassour #0" = 10
    "Hemus #0" = 10
    "Hentus #0" = 10
    "Hibaddar #0" = 10
    "Hinammu #0" = 10
    "Hirarend #0" = 10
    "Ibarnadad #0" = 10
    "Ibasour #0" = 10
    "Ilasour #0" = 10
    "Kanat #0" = 10
    "Kanit #0" = 10
    "Kanud #0" = 10
    "Kashtes #0" = 10
    "Kaushad #0" = 10
    "Kausi #0" = 10
    "Kind #0" = 10
    "Kitbael #0" = 10
    "Kummi-Namus #0" = 10
    "Kund #0" = 10
    "Lassour #0" = 10
    "Mabarrabael #0" = 10
    "Maesat #0" = 10
    "Mal #0" = 10
    "Malay #0" = 10
    "Mansilamat #0" = 10
    "Massarapal #0" = 10
    "Massour #0" = 10
    "Mibdinahaz #0" = 10
    "Minassour #0" = 10
    "Minisun #0" = 10
    "Minnibi #0" = 10
    "Musan #0" = 10
    "Mut #0" = 10
    "Nind #0" = 10
    "Ninimilk #0" = 10
    "Ninirrasour #0" = 10
    "Nirait #0" = 10
    "Nund #0" = 10
    "Odaishah #0" = 10
    "Ohibaal #0" = 10
    "Patababi #0" = 10
    "Patus #0" = 10
    "Pilun #0" = 10
    "Punibi #0" = 10
    "Ranabi #0" = 10
    "Sakin #0" = 10
    "Sakulerib #0" = 10
    "Sal #0" = 10
    "Salattanat #0" = 10
    "Salay #0" = 10
    "Salmat #0" = 10
    "Salmus #0" = 10
    "Sannit #0" = 10
    "Sargon #0" = 10
    "Seldus #0" = 10
    "Selk #0" = 10
    "Selkirnemus #0" = 10
    "Shabinbael #0" = 10
    "Shanat #0" = 10
    "Shanit #0" = 10
    "Shannat #0" = 10
    "Shanud #0" = 10
    "Shargon #0" = 10
    "Shilipuran #0" = 10
    "Shimsun #0" = 10
    "Shin #0" = 10
    "Shipal #0" = 10
    "Shirerib #0" = 10
    "Shullay #0" = 10
    "Subenend #0" = 10
    "Sul-Matuul #0" = 10
    "Talkin #0" = 10
    "Teshmus #0" = 10
    "Tibdan #0" = 10
    "Tinti #0" = 10
    "Tis #0" = 10
    "Truan #0" = 10
    "Tubilalk #0" = 10
    "Tussurradad #0" = 10
    "Ulabael #0" = 10
    "Ulath-Pal #0" = 10
    "Yahaz #0" = 10
    "Yakin #0" = 10
    "Yakum #0" = 10
    "Yan #0" = 10
    "Yanit #0" = 10
    "Yantus #0" = 10
    "Yapal #0" = 10
    "Yassour #0" = 10
    "Yeherradad #0" = 10
    "Yen #0" = 10
    "Yenammu #0" = 10
    "Zabamund #0" = 10
    "Zabarbael #0" = 10
    "Zainat #0" = 10
    "Zairan #0" = 10
    "Zalabelk #0" = 10
    "Zalit #0" = 10
    "Zallay #0" = 10
    "Zanat #0" = 10
    "Zanmulk #0" = 10
    "Zebba #0" = 10
    "Zebdusipal #0" = 10
    "Zelaku #0" = 10
    "Zelay #0" = 10
    "Zenabi #0" = 10
    "Zennammu #0" = 10

    "Addut-Lamanu #0" = -10
    "Adusamsi #0" = -10
    "Ahanabi #0" = -10
    "Ansu #0" = -10
    "Antu #0" = -10
    "Ashamanu #0" = -10
    "Asharapli #0" = -10
    "Ashumanu #0" = -10
    "Assamanu #0" = -10
    "Assi #0" = -10
    "Assimusa #0" = -10
    "Assirari #0" = -10
    "Assumanu #0" = -10
    "Benudni #0" = -10
    "Berapli #0" = -10
    "Dissu #0" = -10
    "Elitlaya #0" = -10
    "Elumabi #0" = -10
    "Hainab #0" = -10
    "Hairan #0" = -10
    "Hanarai #0" = -10
    "Hannabi #0" = -10
    "Hansi #0" = -10
    "Hinummu #0" = -10
    "Ibanammu #0" = -10
    "Kammu #0" = -10
    "Kausha #0" = -10
    "Kummu #0" = -10
    "Kurapli #0" = -10
    "Kushishi #0" = -10
    "Lanabi #0" = -10
    "Maela #0" = -10
    "Maeli #0" = -10
    "Mamusa #0" = -10
    "Manabi #0" = -10
    "Man-Ilu #0" = -10
    "Mi-Ilu #0" = -10
    "Midnabi #0" = -10
    "Milynea #0" = -10
    "Mimanu #0" = -10
    "Minabibi #0" = -10
    "Missamsi #0" = -10
    "Munbebi #0" = -10
    "Musa #0" = -10
    "Nammu #0" = -10
    "Nibani #0" = -10
    "Nirai #0" = -10
    "Peakstar #0" = -10
    "Pilu #0" = -10
    "Raishi #0" = -10
    "Rasamsi #0" = -10
    "Rawia #0" = -10
    "Sakiran #0" = -10
    "Samsi #0" = -10
    "Santinti #0" = -10
    "Seba #0" = -10
    "Sen #0" = -10
    "Senipu #0" = -10
    "Shali #0" = -10
    "Shallath-Piremus #0" = -10
    "Shinammu #0" = -10
    "Shishi #0" = -10
    "Shulki #0" = -10
    "Shullay #0" = -10
    "Sinnammu #0" = -10
    "Sonummu #0" = -10
    "Tashpi #0" = -10
    "Tissamsi #0" = -10
    "Tunipy #0" = -10
    "Tussi #0" = -10
    "Ulibabi #0" = -10
    "Ulisamsi #0" = -10
    "Urshamusa #0" = -10
    "Vabbar #0" = -10
    "Yan-Ahhe #0" = -10
    "Yanabani #0" = -10
    "Yanibi #0" = -10
    "Yenabi #0" = -10
    "Zaba #0" = -10
    "Zabi #0" = -10
    "Zanummu #0" = -10
    "Zennammu #0" = -10
    "Zula #0" = -10
}

leader_names = {
    Nerevar Ababael Abassel Abibaal Abishpulu Adairan Adaishah Addammus Addarnat Adibael Ahasour Ahaz Ainab Ainat Anasour Anit Asha-Ammu Ashibaal Ashu-Ahhe Ashuma-Nud Ashur-Dan Assaba-Bentus Assallit Assamanut Assamma-Idan Assantus Assatlit Assemmus Assurdan Balur Beden Conoon Dakin Dralas Dun-Ilu Dunsalipal Dutadalk Elibael Emul-Ran Erur-Dan Esar-Don Esib-Nummu Hainab Hairan Han-Ammu Hannat Hassour Hemus Hentus Hibaddar Hinammu Hirarend Ibarnadad Ibasour Ilasour Kanat Kanit Kanud Kashtes Kaushad Kausi Kind Kitbael Kummi-Namus Kund Lassour Mabarrabael Maesat Mal Malay Mansilamat Massarapal Massour Mibdinahaz Minassour Minisun Minnibi Musan Mut Nind Ninimilk Ninirrasour Nirait Nund Odaishah Ohibaal Patababi Patus Pilun Punibi Ranabi Sakin Sakulerib Sal Salattanat Salay Salmat Salmus Sannit Sargon Seldus Selk Selkirnemus Shabinbael Shanat Shanit Shannat Shanud Shargon Shilipuran Shimsun Shin Shipal Shirerib Shullay Subenend Sul-Matuul Talkin Teshmus Tibdan Tinti Tis Truan Tubilalk Tussurradad Ulabael Ulath-Pal Yahaz Yakin Yakum Yan Yanit Yantus Yapal Yassour Yeherradad Yen Yenammu Zabamund Zabarbael Zainat Zairan Zalabelk Zalit Zallay Zanat Zanmulk Zebba Zebdusipal Zelaku Zelay Zenabi Zennammu
}

ship_names = {
    Addut-Lamanu Adusamsi Ahanabi Ansu Antu Ashamanu Asharapli Ashumanu Assamanu Assi Assimusa Assirari Assumanu Benudni Berapli Dissu Elitlaya Elumabi Hainab Hairan Hanarai Hannabi Hansi Hinummu Ibanammu Kammu Kausha Kummu Kurapli Kushishi Lanabi Maela Maeli Mamusa Manabi Man-Ilu Mi-Ilu Midnabi Milynea Mimanu Minabibi Missamsi Munbebi Musa Nammu Nibani Nirai Peakstar Pilu Raishi Rasamsi Rawia Sakiran Samsi Santinti Seba Sen Senipu Shali Shallath-Piremus Shinammu Shishi Shulki Shullay Sinnammu Sonummu Tashpi Tissamsi Tunipy Tussi Ulibabi Ulisamsi Urshamusa Vabbar Yan-Ahhe Yanabani Yanibi Yenabi Zaba Zabi Zanummu Zennammu Zula
}

army_names = {
    "Army of $PROVINCE$"
}

fleet_names = {
    "Fleet of $PROVINCE$"
}