graphical_culture = africangfx

color = { 124 156 178 }

revolutionary_colors = { 2 10 4}


historical_idea_groups = {
}

historical_units = {
}

monarch_names = {
    "Aremus #0" = 10
    "Arzeus #0" = 10
    "Brajius #0" = 10
    "Brakod #0" = 10
    "Brigarak #0" = 10
    "Briryx #0" = 10
    "Daneus #0" = 10
    "Dhakud #0" = 10
    "Dritruk #0" = 10
    "Gnaras #0" = 10
    "Gnarnius #0" = 10
    "Gnarvis #0" = 10
    "Gnorag #0" = 10
    "Gnoteus #0" = 10
    "Gramier #0" = 10
    "Grasus #0" = 10
    "Grinax #0" = 10
    "Jamak #0" = 10
    "Jannuran #0" = 10
    "Jansius #0" = 10
    "Jazan #0" = 10
    "Jazus #0" = 10
    "Kanzan #0" = 10
    "Khugur #0" = 10
    "Konkiras #0" = 10
    "Kulvak #0" = 10
    "Mankiras #0" = 10
    "Manmud #0" = 10
    "Minkud #0" = 10
    "Minparak #0" = 10
    "Minreus #0" = 10
    "Minthur #0" = 10
    "Mintrak #0" = 10
    "Mohrprak #0" = 10
    "Momuk #0" = 10
    "Munfarak #0" = 10
    "Murdius #0" = 10
    "Murjius #0" = 10
    "Murkhus #0" = 10
    "Murtus #0" = 10
    "Nakius #0" = 10
    "Nigon #0" = 10
    "Nukhius #0" = 10
    "Nukurun #0" = 10
    "Nurvur #0" = 10
    "Parruk #0" = 10
    "Prusar #0" = 10
    "Pruthur #0" = 10
    "Pruvas #0" = 10
    "Rangrin #0" = 10
    "Rannag #0" = 10
    "Retneus #0" = 10
    "Rilmius #0" = 10
    "Rinuran #0" = 10
    "Rogur #0" = 10
    "Rukhus #0" = 10
    "Rutradak #0" = 10
    "Ruvur #0" = 10
    "Sirdus #0" = 10
    "Surduk #0" = 10
    "Survis #0" = 10
    "Syrkiras #0" = 10
    "Sysur #0" = 10
    "Tedor #0" = 10
    "Terus #0" = 10
    "Tinparak #0" = 10
    "Tuhrrakar #0" = 10
    "Tuhrvas #0" = 10
    "Tunjur #0" = 10
    "Tunras #0" = 10
    "Tydius #0" = 10
    "Tyrkhus #0" = 10
    "Vaphius #0" = 10
    "Vatak #0" = 10
    "Vrajius #0" = 10
    "Vrakud #0" = 10
    "Vranius #0" = 10
    "Wanbaruk #0" = 10
    "Wramier #0" = 10
    "Wrathur #0" = 10
    "Wribarun #0" = 10
    "Wrumus #0" = 10
    "Wurakar #0" = 10
    "Wyrnas #0" = 10
    "Wysur #0" = 10
    "Wyzius #0" = 10
    "Xanius #0" = 10
    "Xarad #0" = 10
    "Xavur #0" = 10
    "Xingrim #0" = 10
    "Xurgrak #0" = 10
    "Xurvis #0" = 10
    "Zannuk #0" = 10
    "Zannur #0" = 10
    "Zanprak #0" = 10
    "Zantruk #0" = 10
    "Zasus #0" = 10
    "Zunrad #0" = 10
    "Zurahg #0" = 10
    "Zyrnas #0" = 10

    "Aermel #0" = -10
    "Aerres #0" = -10
    "Anetia #0" = -10
    "Aneven #0" = -10
    "Blikea #0" = -10
    "Dephas #0" = -10
    "Dhifera #0" = -10
    "Drykohn #0" = -10
    "Geragen #0" = -10
    "Geraven #0" = -10
    "Gnabei #0" = -10
    "Gnaria #0" = -10
    "Gnerea #0" = -10
    "Gnerven #0" = -10
    "Gnerzana #0" = -10
    "Gramel #0" = -10
    "Grarea #0" = -10
    "Greden #0" = -10
    "Grenfrae #0" = -10
    "Helbura #0" = -10
    "Heldris #0" = -10
    "Hinbis #0" = -10
    "Jinrae #0" = -10
    "Kansesh #0" = -10
    "Kelnaga #0" = -10
    "Khakis #0" = -10
    "Konsis #0" = -10
    "Mehrfera #0" = -10
    "Mehrsien #0" = -10
    "Merah #0" = -10
    "Mereth #0" = -10
    "Minryl #0" = -10
    "Mirmien #0" = -10
    "Mohden #0" = -10
    "Mohjice #0" = -10
    "Molpea #0" = -10
    "Moltera #0" = -10
    "Nesbise #0" = -10
    "Nianess #0" = -10
    "Niates #0" = -10
    "Nonara #0" = -10
    "Phazera #0" = -10
    "Prekena #0" = -10
    "Presis #0" = -10
    "Priko #0" = -10
    "Rangara #0" = -10
    "Ranjia #0" = -10
    "Rehbes #0" = -10
    "Relnira #0" = -10
    "Reltin #0" = -10
    "Resdris #0" = -10
    "Rihlpea #0" = -10
    "Risia #0" = -10
    "Rofera #0" = -10
    "Sheja #0" = -10
    "Shyben #0" = -10
    "Shygara #0" = -10
    "Shykohn #0" = -10
    "Silmeth #0" = -10
    "Silreth #0" = -10
    "Silteus #0" = -10
    "Synmira #0" = -10
    "Synrya #0" = -10
    "Syrko #0" = -10
    "Syrzeph #0" = -10
    "Telgera #0" = -10
    "Telkira #0" = -10
    "Telzel #0" = -10
    "Tenpea #0" = -10
    "Tezera #0" = -10
    "Thesara #0" = -10
    "Traejia #0" = -10
    "Trihnes #0" = -10
    "Tyma #0" = -10
    "Tysia #0" = -10
    "Tyszia #0" = -10
    "Vamel #0" = -10
    "Vegres #0" = -10
    "Voben #0" = -10
    "Voryl #0" = -10
    "Vosesh #0" = -10
    "Vrekhis #0" = -10
    "Vrera #0" = -10
    "Vrydris #0" = -10
    "Vydira #0" = -10
    "Vylja #0" = -10
    "Vylneth #0" = -10
    "Vyteus #0" = -10
    "Waerkira #0" = -10
    "Wakhis #0" = -10
    "Wantren #0" = -10
    "Wremin #0" = -10
    "Wrephis #0" = -10
    "Wresen #0" = -10
    "Wrydia #0" = -10
    "Wymien #0" = -10
    "Wyssira #0" = -10
    "Xilniras #0" = -10
    "Xybur #0" = -10
    "Xyfera #0" = -10
    "Xykis #0" = -10
    "Zamara #0" = -10
    "Zammira #0" = -10
    "Zamran #0" = -10
    "Zamsira #0" = -10
    "Zannys #0" = -10
    "Zanresh #0" = -10
    "Zharea #0" = -10
    "Zygara #0" = -10
    "Zylsien #0" = -10
}

leader_names = {
    Aremus Arzeus Brajius Brakod Brigarak Briryx Daneus Dhakud Dritruk Gnaras Gnarnius Gnarvis Gnorag Gnoteus Gramier Grasus Grinax Jamak Jannuran Jansius Jazan Jazus Kanzan Khugur Konkiras Kulvak Mankiras Manmud Minkud Minparak Minreus Minthur Mintrak Mohrprak Momuk Munfarak Murdius Murjius Murkhus Murtus Nakius Nigon Nukhius Nukurun Nurvur Parruk Prusar Pruthur Pruvas Rangrin Rannag Retneus Rilmius Rinuran Rogur Rukhus Rutradak Ruvur Sirdus Surduk Survis Syrkiras Sysur Tedor Terus Tinparak Tuhrrakar Tuhrvas Tunjur Tunras Tydius Tyrkhus Vaphius Vatak Vrajius Vrakud Vranius Wanbaruk Wramier Wrathur Wribarun Wrumus Wurakar Wyrnas Wysur Wyzius Xanius Xarad Xavur Xingrim Xurgrak Xurvis Zannuk Zannur Zanprak Zantruk Zasus Zunrad Zurahg Zyrnas
}

ship_names = {
    Aermel Aerres Anetia Aneven Blikea Dephas Dhifera Drykohn Geragen Geraven Gnabei Gnaria Gnerea Gnerven Gnerzana Gramel Grarea Greden Grenfrae Helbura Heldris Hinbis Jinrae Kansesh Kelnaga Khakis Konsis Mehrfera Mehrsien Merah Mereth Minryl Mirmien Mohden Mohjice Molpea Moltera Nesbise Nianess Niates Nonara Phazera Prekena Presis Priko Rangara Ranjia Rehbes Relnira Reltin Resdris Rihlpea Risia Rofera Sheja Shyben Shygara Shykohn Silmeth Silreth Silteus Synmira Synrya Syrko Syrzeph Telgera Telkira Telzel Tenpea Tezera Thesara Traejia Trihnes Tyma Tysia Tyszia Vamel Vegres Voben Voryl Vosesh Vrekhis Vrera Vrydris Vydira Vylja Vylneth Vyteus Waerkira Wakhis Wantren Wremin Wrephis Wresen Wrydia Wymien Wyssira Xilniras Xybur Xyfera Xykis Zamara Zammira Zamran Zamsira Zannys Zanresh Zharea Zygara Zylsien
}

army_names = {
    "Army of $PROVINCE$"
}

fleet_names = {
    "Fleet of $PROVINCE$"
}