graphical_culture = easterngfx

color = { 245 105 105 }

revolutionary_colors = { 5 11 5}


historical_idea_groups = {
}

historical_units = {
}

monarch_names = {
    "Abbard #0" = 10
    "Adalmor #0" = 10
    "Adalvald #0" = 10
    "Addald #0" = 10
    "Adding #0" = 10
    "Addold #0" = 10
    "Addrald #0" = 10
    "Addvar #0" = 10
    "Addvild #0" = 10
    "Ade #0" = 10
    "Adelsar #0" = 10
    "Adjold #0" = 10
    "Admaer #0" = 10
    "Adord #0" = 10
    "Adpring #0" = 10
    "Adrimk #0" = 10
    "Adsilding #0" = 10
    "Advir #0" = 10
    "Aelf #0" = 10
    "Aelfhidil #0" = 10
    "Aenar #0" = 10
    "Aevar #0" = 10
    "Afneer #0" = 10
    "Agarmir #0" = 10
    "Agmaer #0" = 10
    "Agnar #0" = 10
    "Agning #0" = 10
    "Agvar #0" = 10
    "Akar #0" = 10
    "Akarn #0" = 10
    "Aklief #0" = 10
    "Akovor #0" = 10
    "Akvid #0" = 10
    "Aldaug #0" = 10
    "Aldferth #0" = 10
    "Alding #0" = 10
    "Aldis #0" = 10
    "Aldrig #0" = 10
    "Alfarinn #0" = 10
    "Alfarmuth #0" = 10
    "Alfbrand #0" = 10
    "Alfhedil #0" = 10
    "Alforunn #0" = 10
    "Alfund #0" = 10
    "Algar #0" = 10
    "Algot #0" = 10
    "Alldin #0" = 10
    "Allding #0" = 10
    "Allring #0" = 10
    "Alof #0" = 10
    "Alofheim #0" = 10
    "Alofnorr #0" = 10
    "Alohnorr #0" = 10
    "Alskar #0" = 10
    "Alvor #0" = 10
    "Alvring #0" = 10
    "Anders #0" = 10
    "Andrei #0" = 10
    "Andrelheim #0" = 10
    "Andrin #0" = 10
    "Andurs #0" = 10
    "Andwulf #0" = 10
    "Angbjar #0" = 10
    "Angmund #0" = 10
    "Angrenor #0" = 10
    "Angrestag #0" = 10
    "Angvid #0" = 10
    "Arctus #0" = 10
    "Areas #0" = 10
    "Arek #0" = 10
    "Argis #0" = 10
    "Arkas #0" = 10
    "Arkming #0" = 10
    "Arnbjorn #0" = 10
    "Arngeir #0" = 10
    "Arnskar #0" = 10
    "Aron #0" = 10
    "Arrald #0" = 10
    "Arvild #0" = 10
    "Asbjorn #0" = 10
    "Asgeir #0" = 10
    "Ashvorn #0" = 10
    "Aslfur #0" = 10
    "Asord #0" = 10
    "Assur #0" = 10
    "Asvorn #0" = 10
    "Atald #0" = 10
    "Atar #0" = 10
    "Aud #0" = 10
    "Audmund #0" = 10
    "Audrelheim #0" = 10
    "Aventus #0" = 10
    "Avulrund #0" = 10
    "Avulstein #0" = 10
    "Axdin #0" = 10
    "Axdred #0" = 10
    "Axrek #0" = 10
    "Badnir #0" = 10
    "Baissar #0" = 10
    "Balbus #0" = 10
    "Baldor #0" = 10
    "Balfring #0" = 10
    "Balgruuf #0" = 10
    "Balimund #0" = 10
    "Balmir #0" = 10
    "Banthor #0" = 10
    "Baradin #0" = 10
    "Barfel #0" = 10
    "Baric #0" = 10
    "Barid #0" = 10
    "Baring #0" = 10
    "Barirrid #0" = 10
    "Barj #0" = 10
    "Barknar #0" = 10
    "Baro #0" = 10
    "Barro #0" = 10
    "Baslod #0" = 10
    "Bassianus #0" = 10
    "Bathmar #0" = 10
    "Bathorgh #0" = 10
    "Bato #0" = 10
    "Batou #0" = 10
    "Baxard #0" = 10
    "Baxlof #0" = 10
    "Baxrold #0" = 10
    "Bedraflod #0" = 10
    "Bedrir #0" = 10
    "Beifja #0" = 10
    "Beinir #0" = 10
    "Beirand #0" = 10
    "Beirir #0" = 10
    "Belgrod #0" = 10
    "Belknar #0" = 10
    "Bellin #0" = 10
    "Belrand #0" = 10
    "Belrud #0" = 10
    "Benjor #0" = 10
    "Benkum #0" = 10
    "Benor #0" = 10
    "Berfar #0" = 10
    "Berj #0" = 10
    "Bermund #0" = 10
    "Bernt #0" = 10
    "Berrek #0" = 10
    "Bersi #0" = 10
    "Bervid #0" = 10
    "Birkir #0" = 10
    "Birstagg #0" = 10
    "Bittneld #0" = 10
    "Bjadmund #0" = 10
    "Bjalfi #0" = 10
    "Bjaron #0" = 10
    "Bjord #0" = 10
    "Bjorick #0" = 10
    "Bjorlam #0" = 10
    "Bjornen #0" = 10
    "Bjornolfr #0" = 10
    "Bjoruld #0" = 10
    "Bjorynolf #0" = 10
    "Bofesar #0" = 10
    "Bolgeir #0" = 10
    "Bolgen #0" = 10
    "Bolli #0" = 10
    "Bolund #0" = 10
    "Borald #0" = 10
    "Boren #0" = 10
    "Borfree #0" = 10
    "Borgas #0" = 10
    "Borgny #0" = 10
    "Borjs #0" = 10
    "Bormir #0" = 10
    "Borodin #0" = 10
    "Borri #0" = 10
    "Borvir #0" = 10
    "Boski #0" = 10
    "Botrir #0" = 10
    "Bottar #0" = 10
    "Bottdold #0" = 10
    "Bottild #0" = 10
    "Boward #0" = 10
    "Bragur #0" = 10
    "Brandling #0" = 10
    "Brandr #0" = 10
    "Brauti #0" = 10
    "Braxek #0" = 10
    "Bredin #0" = 10
    "Bredrek #0" = 10
    "Breff #0" = 10
    "Bren #0" = 10
    "Brend #0" = 10
    "Brendar #0" = 10
    "Brendngul #0" = 10
    "Briehl #0" = 10
    "Brill #0" = 10
    "Briring #0" = 10
    "Broki #0" = 10
    "Bron #0" = 10
    "Brond #0" = 10
    "Bronorr #0" = 10
    "Bronrod #0" = 10
    "Bronvid #0" = 10
    "Brunelf #0" = 10
    "Brunl #0" = 10
    "Brunog #0" = 10
    "Brunwulf #0" = 10
    "Brurid #0" = 10
    "Brus #0" = 10
    "Bryngrim #0" = 10
    "Brynjolf #0" = 10
    "Brynjolfr #0" = 10
    "Budolen #0" = 10
    "Bulfrek #0" = 10
    "Buram #0" = 10
    "Burd #0" = 10
    "Burdlam #0" = 10
    "Burdog #0" = 10
    "Burj #0" = 10
    "Burl #0" = 10
    "Buron #0" = 10
    "Calder #0" = 10
    "Carsten #0" = 10
    "Carth #0" = 10
    "Christer #0" = 10
    "Connor #0" = 10
    "Cord #0" = 10
    "Cristus #0" = 10
    "Dagard #0" = 10
    "Dagimar #0" = 10
    "Daglin #0" = 10
    "Dagnir #0" = 10
    "Dagrund #0" = 10
    "Dagur #0" = 10
    "Dagusil #0" = 10
    "Dahfnar #0" = 10
    "Dalen #0" = 10
    "Dar #0" = 10
    "Daric #0" = 10
    "Darj #0" = 10
    "Darynn #0" = 10
    "Dathman #0" = 10
    "Dedalor #0" = 10
    "Dengeir #0" = 10
    "Denskar #0" = 10
    "Deor #0" = 10
    "Derek #0" = 10
    "Deroct #0" = 10
    "Didywyr #0" = 10
    "Dogun #0" = 10
    "Drahff #0" = 10
    "Dralof #0" = 10
    "Drathak #0" = 10
    "Dratholar #0" = 10
    "Drendor #0" = 10
    "Drengr #0" = 10
    "Drennen #0" = 10
    "Droi #0" = 10
    "Drokagir #0" = 10
    "Drorunn #0" = 10
    "Dryngheid #0" = 10
    "Eboric #0" = 10
    "Eifbrir #0" = 10
    "Eifid #0" = 10
    "Eiman #0" = 10
    "Eimander #0" = 10
    "Eimar #0" = 10
    "Einarr #0" = 10
    "Einarth #0" = 10
    "Eislef #0" = 10
    "Eistaag #0" = 10
    "Eitar #0" = 10
    "Eldfyr #0" = 10
    "Eldjar #0" = 10
    "Eldrid #0" = 10
    "Elgrim #0" = 10
    "Elgryr #0" = 10
    "Elmus #0" = 10
    "Elsar #0" = 10
    "Embry #0" = 10
    "Emstagg #0" = 10
    "Engar #0" = 10
    "Engrod #0" = 10
    "Ennbjof #0" = 10
    "Eorlund #0" = 10
    "Ergnir #0" = 10
    "Erich #0" = 10
    "Erik #0" = 10
    "Erikar #0" = 10
    "Erikur #0" = 10
    "Erlendr #0" = 10
    "Erling #0" = 10
    "Erlnorr #0" = 10
    "Erning #0" = 10
    "Esbern #0" = 10
    "Esling #0" = 10
    "Euthar #0" = 10
    "Faer #0" = 10
    "Fafmeskr #0" = 10
    "Fafnir #0" = 10
    "Fafnyr #0" = 10
    "Faled #0" = 10
    "Falfinar #0" = 10
    "Falk #0" = 10
    "Falki #0" = 10
    "Falsorr #0" = 10
    "Fanar #0" = 10
    "Farengar #0" = 10
    "Fargurd #0" = 10
    "Farisel #0" = 10
    "Farkas #0" = 10
    "Farro #0" = 10
    "Felldir #0" = 10
    "Fenjor #0" = 10
    "Fenorfar #0" = 10
    "Fenrig #0" = 10
    "Fenrir #0" = 10
    "Fens #0" = 10
    "Filand #0" = 10
    "Fildgor #0" = 10
    "Filnjar #0" = 10
    "Fjar #0" = 10
    "Fjol #0" = 10
    "Fjorgeir #0" = 10
    "Fjori #0" = 10
    "Fjorrod #0" = 10
    "Fjotreid #0" = 10
    "Fjrokvar #0" = 10
    "Forbrand #0" = 10
    "Forstaag #0" = 10
    "Frahjan #0" = 10
    "Fraki #0" = 10
    "Frald #0" = 10
    "Frik #0" = 10
    "Frodnar #0" = 10
    "Frofnir #0" = 10
    "Froki #0" = 10
    "Frongeir #0" = 10
    "Fronjolf #0" = 10
    "Frorkand #0" = 10
    "Frorkmar #0" = 10
    "Frothar #0" = 10
    "Fruth #0" = 10
    "Fuldir #0" = 10
    "Fultheim #0" = 10
    "Fultknir #0" = 10
    "Gaddan #0" = 10
    "Gadodar #0" = 10
    "Gadof #0" = 10
    "Gakar #0" = 10
    "Gakurek #0" = 10
    "Galmar #0" = 10
    "Galthor #0" = 10
    "Gamirth #0" = 10
    "Gamwyn #0" = 10
    "Ganariss #0" = 10
    "Gandis #0" = 10
    "Ganeryk #0" = 10
    "Ganord #0" = 10
    "Gar #0" = 10
    "Gardalgar #0" = 10
    "Garding #0" = 10
    "Garm #0" = 10
    "Garmal #0" = 10
    "Garmar #0" = 10
    "Garthar #0" = 10
    "Garuk #0" = 10
    "Gathotar #0" = 10
    "Gauldur #0" = 10
    "Geford #0" = 10
    "Geilir #0" = 10
    "Geilund #0" = 10
    "Geimund #0" = 10
    "Geirlund #0" = 10
    "Geirmund #0" = 10
    "Gekurek #0" = 10
    "Gellir #0" = 10
    "Ger #0" = 10
    "Gerring #0" = 10
    "Gerrunn #0" = 10
    "Gesfur #0" = 10
    "Gestur #0" = 10
    "Gethmard #0" = 10
    "Ghain #0" = 10
    "Girgun #0" = 10
    "Girunn #0" = 10
    "Gisl #0" = 10
    "Gissur #0" = 10
    "Gjak #0" = 10
    "Gjakerth #0" = 10
    "Gjakil #0" = 10
    "Gjalder #0" = 10
    "Gjalrunn #0" = 10
    "Gjalund #0" = 10
    "Gjogni #0" = 10
    "Gjorring #0" = 10
    "Gjoson #0" = 10
    "Gjudir #0" = 10
    "Gjudusil #0" = 10
    "Gjuk #0" = 10
    "Gloth #0" = 10
    "Godrod #0" = 10
    "Gogondar #0" = 10
    "Gogrek #0" = 10
    "Gogrolf #0" = 10
    "Gogvir #0" = 10
    "Golldir #0" = 10
    "Gollgarth #0" = 10
    "Gomriss #0" = 10
    "Gomund #0" = 10
    "Gonnar #0" = 10
    "Goren #0" = 10
    "Gorm #0" = 10
    "Gort #0" = 10
    "Gortgryf #0" = 10
    "Gralnach #0" = 10
    "Graring #0" = 10
    "Gregor #0" = 10
    "Grimissar #0" = 10
    "Grimvar #0" = 10
    "Griskild #0" = 10
    "Griss #0" = 10
    "Grisvar #0" = 10
    "Grjotgaror #0" = 10
    "Groken #0" = 10
    "Gromjolf #0" = 10
    "Gromm #0" = 10
    "Grundskar #0" = 10
    "Grundvik #0" = 10
    "Grundwulf #0" = 10
    "Gud #0" = 10
    "Gudaric #0" = 10
    "Gudling #0" = 10
    "Gudomar #0" = 10
    "Gugnar #0" = 10
    "Gugnir #0" = 10
    "Gukimir #0" = 10
    "Gunar #0" = 10
    "Gunder #0" = 10
    "Gunding #0" = 10
    "Gundlar #0" = 10
    "Gungrim #0" = 10
    "Gunjar #0" = 10
    "Gunmar #0" = 10
    "Gunnar #0" = 10
    "Gunskjar #0" = 10
    "Gunthing #0" = 10
    "Guraf #0" = 10
    "Guram #0" = 10
    "Guri #0" = 10
    "Gurund #0" = 10
    "Guthrum #0" = 10
    "Haakon #0" = 10
    "Hadkyr #0" = 10
    "Hadmal #0" = 10
    "Hadmar #0" = 10
    "Hadrik #0" = 10
    "Hadring #0" = 10
    "Hadriss #0" = 10
    "Hadvar #0" = 10
    "Haening #0" = 10
    "Haesmar #0" = 10
    "Hafid #0" = 10
    "Hafnar #0" = 10
    "Hafric #0" = 10
    "Hagrad #0" = 10
    "Hajvarr #0" = 10
    "Hak #0" = 10
    "Hakar #0" = 10
    "Haki #0" = 10
    "Haknir #0" = 10
    "Hakon #0" = 10
    "Hakr #0" = 10
    "Halbarn #0" = 10
    "Hald #0" = 10
    "Haldric #0" = 10
    "Hallvaror #0" = 10
    "Halnir #0" = 10
    "Halof #0" = 10
    "Halskar #0" = 10
    "Halund #0" = 10
    "Halvar #0" = 10
    "Halyen #0" = 10
    "Hamar #0" = 10
    "Haming #0" = 10
    "Hamlof #0" = 10
    "Hamvir #0" = 10
    "Hans #0" = 10
    "Hanse #0" = 10
    "Harald #0" = 10
    "Haraldar #0" = 10
    "Hargar #0" = 10
    "Harik #0" = 10
    "Harkon #0" = 10
    "Harkskar #0" = 10
    "Harlaug #0" = 10
    "Harnald #0" = 10
    "Harnskar #0" = 10
    "Harnwulf #0" = 10
    "Harrald #0" = 10
    "Harvald #0" = 10
    "Harvni #0" = 10
    "Hasadif #0" = 10
    "Hatunn #0" = 10
    "Hauting #0" = 10
    "Hautt #0" = 10
    "Havilstein #0" = 10
    "Hectur #0" = 10
    "Heddic #0" = 10
    "Hedstagg #0" = 10
    "Hefadmir #0" = 10
    "Hegris #0" = 10
    "Heidmir #0" = 10
    "Heifnir #0" = 10
    "Heimdall #0" = 10
    "Heimskr #0" = 10
    "Heimvar #0" = 10
    "Heinlen #0" = 10
    "Heinrich #0" = 10
    "Helfana #0" = 10
    "Helthar #0" = 10
    "Helvard #0" = 10
    "Hemgar #0" = 10
    "Hemjak #0" = 10
    "Hemming #0" = 10
    "Henrigg #0" = 10
    "Henrik #0" = 10
    "Heratar #0" = 10
    "Herd #0" = 10
    "Hermeskr #0" = 10
    "Hermrek #0" = 10
    "Hern #0" = 10
    "Hernik #0" = 10
    "Hervod #0" = 10
    "Hewnon #0" = 10
    "Hialmor #0" = 10
    "Higil #0" = 10
    "Hil #0" = 10
    "Hildir #0" = 10
    "Hirnir #0" = 10
    "Hisin #0" = 10
    "Hjalfar #0" = 10
    "Hjalmer #0" = 10
    "Hjalti #0" = 10
    "Hjar #0" = 10
    "Hjarknir #0" = 10
    "Hjarkulf #0" = 10
    "Hjarl #0" = 10
    "Hjoag #0" = 10
    "Hjognar #0" = 10
    "Hjolard #0" = 10
    "Hjoldir #0" = 10
    "Hjolfrod #0" = 10
    "Hjolm #0" = 10
    "Hjord #0" = 10
    "Hjorik #0" = 10
    "Hjornskar #0" = 10
    "Hjorunn #0" = 10
    "Hjorvil #0" = 10
    "Hjrondir #0" = 10
    "Hjurring #0" = 10
    "Hjurrun #0" = 10
    "Hlar #0" = 10
    "Hlofgar #0" = 10
    "Hloggar #0" = 10
    "Hlogling #0" = 10
    "Hlora #0" = 10
    "Hlormar #0" = 10
    "Hoag #0" = 10
    "Hoagding #0" = 10
    "Hod #0" = 10
    "Hodlismod #0" = 10
    "Hodmar #0" = 10
    "Hofgrad #0" = 10
    "Hofgrir #0" = 10
    "Hogfinn #0" = 10
    "Hoggvir #0" = 10
    "Hogni #0" = 10
    "Hogondar #0" = 10
    "Hojard #0" = 10
    "Hoki #0" = 10
    "Hokmal #0" = 10
    "Hoknir #0" = 10
    "Hokurek #0" = 10
    "Hokusil #0" = 10
    "Holgeir #0" = 10
    "Holger #0" = 10
    "Holgrim #0" = 10
    "Holgunn #0" = 10
    "Holguss #0" = 10
    "Hollow-Leg #0" = 10
    "Holmar #0" = 10
    "Holsgar #0" = 10
    "Holsorr #0" = 10
    "Holstagg #0" = 10
    "Holvur #0" = 10
    "Hondulf #0" = 10
    "Honmund #0" = 10
    "Honrid #0" = 10
    "Honthjolf #0" = 10
    "Honththyr #0" = 10
    "Horgeir #0" = 10
    "Horik #0" = 10
    "Horkvir #0" = 10
    "Horm #0" = 10
    "Horstar #0" = 10
    "Hosgunn #0" = 10
    "Hraelgar #0" = 10
    "Hramdin #0" = 10
    "Hrantin #0" = 10
    "Hrargal #0" = 10
    "Hreilund #0" = 10
    "Hreinn #0" = 10
    "Hridi #0" = 10
    "Hrisskar #0" = 10
    "Hroar #0" = 10
    "Hrodmir #0" = 10
    "Hrodulf #0" = 10
    "Hrogar #0" = 10
    "Hroggar #0" = 10
    "Hroggi #0" = 10
    "Hroi #0" = 10
    "Hrol #0" = 10
    "Hroldar #0" = 10
    "Hrolfdir #0" = 10
    "Hrolfgald #0" = 10
    "Hrollod #0" = 10
    "Hrolmir #0" = 10
    "Hrolvar #0" = 10
    "Hrolvir #0" = 10
    "Hrondar #0" = 10
    "Hrongar #0" = 10
    "Hronolf #0" = 10
    "Hrordulf #0" = 10
    "Hrorgar #0" = 10
    "Hrormir #0" = 10
    "Hrothmund #0" = 10
    "Hrundi #0" = 10
    "Hrunvatr #0" = 10
    "Hugin #0" = 10
    "Hulgarth #0" = 10
    "Hunrand #0" = 10
    "Hunroor #0" = 10
    "Hurg #0" = 10
    "Hurnfing #0" = 10
    "Hurolf #0" = 10
    "Huroufar #0" = 10
    "Hylf #0" = 10
    "Idaug #0" = 10
    "Idlami #0" = 10
    "Idofrid #0" = 10
    "Idolaf #0" = 10
    "Iflin #0" = 10
    "Ifuss #0" = 10
    "Igeford #0" = 10
    "Iglund #0" = 10
    "Igmund #0" = 10
    "Ingjaldr #0" = 10
    "Ingmar #0" = 10
    "Innarrek #0" = 10
    "Inngyrr #0" = 10
    "Innraek #0" = 10
    "Irbjar #0" = 10
    "Irg #0" = 10
    "Irgnar #0" = 10
    "Irlof #0" = 10
    "Irnskar #0" = 10
    "Irroke #0" = 10
    "Irth #0" = 10
    "Irthak #0" = 10
    "Irthor #0" = 10
    "Isilr #0" = 10
    "Israk #0" = 10
    "Istar #0" = 10
    "Istler #0" = 10
    "Istlod #0" = 10
    "Itar #0" = 10
    "Itman #0" = 10
    "Ivandi #0" = 10
    "Iver #0" = 10
    "Jagyr #0" = 10
    "Jakalor #0" = 10
    "Jakaral #0" = 10
    "Jaknir #0" = 10
    "Jalmar #0" = 10
    "Jaluud #0" = 10
    "Jarning #0" = 10
    "Jayred #0" = 10
    "Jeek #0" = 10
    "Jegg #0" = 10
    "Jeggi #0" = 10
    "Jeggming #0" = 10
    "Jeggord #0" = 10
    "Jeggrich #0" = 10
    "Jegnorr #0" = 10
    "Jemaar #0" = 10
    "Jemalsorr #0" = 10
    "Jending #0" = 10
    "Jenssen #0" = 10
    "Jervar #0" = 10
    "Jesper #0" = 10
    "Jod #0" = 10
    "Jofarr #0" = 10
    "Jofnhild #0" = 10
    "Jofnir #0" = 10
    "Jofstrom #0" = 10
    "Jofthor #0" = 10
    "Jofvarr #0" = 10
    "Jofvid #0" = 10
    "Jokorn #0" = 10
    "Jolf #0" = 10
    "Jolgeir #0" = 10
    "Jollring #0" = 10
    "Jomarr #0" = 10
    "Jomathak #0" = 10
    "Jomund #0" = 10
    "Jon #0" = 10
    "Jonder #0" = 10
    "Joneif #0" = 10
    "Jonndir #0" = 10
    "Jorald #0" = 10
    "Jorck #0" = 10
    "Jorckleif #0" = 10
    "Jorckyld #0" = 10
    "Jordunn #0" = 10
    "Joreld #0" = 10
    "Jorg #0" = 10
    "Jorgen #0" = 10
    "Joric #0" = 10
    "Jorleif #0" = 10
    "Jorn #0" = 10
    "Jorundr #0" = 10
    "Jorunn #0" = 10
    "Jorygg #0" = 10
    "Jothorygg #0" = 10
    "Jurgar #0" = 10
    "Jurgen #0" = 10
    "Jyrik #0" = 10
    "Kadord #0" = 10
    "Kadstig #0" = 10
    "Kai #0" = 10
    "Kaild #0" = 10
    "Kailstig #0" = 10
    "Kaleb #0" = 10
    "Kalogar #0" = 10
    "Kalthar #0" = 10
    "Karl #0" = 10
    "Karsten #0" = 10
    "Keld #0" = 10
    "Kemirik #0" = 10
    "Kerthor #0" = 10
    "Kharc #0" = 10
    "Khord #0" = 10
    "Kibell #0" = 10
    "Kjakur #0" = 10
    "Kjal #0" = 10
    "Kjaluld #0" = 10
    "Kjar #0" = 10
    "Kjeld #0" = 10
    "Kjeldrel #0" = 10
    "Kjoric #0" = 10
    "Klaandi #0" = 10
    "Klaandor #0" = 10
    "Klause #0" = 10
    "Kleppr #0" = 10
    "Klimmek #0" = 10
    "Kluwe #0" = 10
    "Knarstygg #0" = 10
    "Knjakr #0" = 10
    "Knud #0" = 10
    "Knudikur #0" = 10
    "Knudvarr #0" = 10
    "Knurguri #0" = 10
    "Kodlak #0" = 10
    "Kodrir #0" = 10
    "Koli #0" = 10
    "Kor #0" = 10
    "Korir #0" = 10
    "Korsen #0" = 10
    "Korst #0" = 10
    "Kothheid #0" = 10
    "Kotholl #0" = 10
    "Kothon #0" = 10
    "Kott #0" = 10
    "Kottir #0" = 10
    "Kragar #0" = 10
    "Kragfarr #0" = 10
    "Kralald #0" = 10
    "Kraldar #0" = 10
    "Krath #0" = 10
    "Krathon #0" = 10
    "Kraval #0" = 10
    "Kunthar #0" = 10
    "Kust #0" = 10
    "Kuvar #0" = 10
    "Kvenel #0" = 10
    "Kyr #0" = 10
    "Kyrnil #0" = 10
    "Lanobert #0" = 10
    "Lars #0" = 10
    "Larsstar #0" = 10
    "Larthjar #0" = 10
    "Larthulf #0" = 10
    "Lassnr #0" = 10
    "Lathdar #0" = 10
    "Leifskjyr #0" = 10
    "Leifur #0" = 10
    "Leigelf #0" = 10
    "Lemkil #0" = 10
    "Lennald #0" = 10
    "Lennar #0" = 10
    "Lennarth #0" = 10
    "Lenne #0" = 10
    "Lenning #0" = 10
    "Littald #0" = 10
    "Littid #0" = 10
    "Littorn #0" = 10
    "Littrek #0" = 10
    "Littrel #0" = 10
    "Littvolk #0" = 10
    "Llewellyn #0" = 10
    "Loate #0" = 10
    "Lod #0" = 10
    "Loddvaar #0" = 10
    "Lodi #0" = 10
    "Lodiss #0" = 10
    "Lodorr #0" = 10
    "Lodunn #0" = 10
    "Lodvar #0" = 10
    "Logangar #0" = 10
    "Logod #0" = 10
    "Logof #0" = 10
    "Logorunn #0" = 10
    "Logorvild #0" = 10
    "Logrolf #0" = 10
    "Logvaar #0" = 10
    "Lokheim #0" = 10
    "Lokil #0" = 10
    "Lokir #0" = 10
    "Lokka #0" = 10
    "Lond #0" = 10
    "Longald #0" = 10
    "Longstig #0" = 10
    "Lorenz #0" = 10
    "Lorkmir #0" = 10
    "Lorod #0" = 10
    "Lortheim #0" = 10
    "Lothakar #0" = 10
    "Lothgar #0" = 10
    "Lothnarth #0" = 10
    "Lothson #0" = 10
    "Lund #0" = 10
    "Lungird #0" = 10
    "Lunk #0" = 10
    "Lyfskar #0" = 10
    "Lygrleid #0" = 10
    "Lynch #0" = 10
    "Lynoit #0" = 10
    "Maering #0" = 10
    "Maginar #0" = 10
    "Majni #0" = 10
    "Majoll #0" = 10
    "Majolrun #0" = 10
    "Majorn #0" = 10
    "Makoll #0" = 10
    "Malofar #0" = 10
    "Malsold #0" = 10
    "Malsorr #0" = 10
    "Malte #0" = 10
    "Manheim #0" = 10
    "Mantiarco #0" = 10
    "Manwe #0" = 10
    "Maraamun #0" = 10
    "Maraamur #0" = 10
    "Marald #0" = 10
    "Maralfar #0" = 10
    "Maralthon #0" = 10
    "Markus #0" = 10
    "Masord #0" = 10
    "Mathies #0" = 10
    "Mathmyar #0" = 10
    "Mathon #0" = 10
    "Mathondar #0" = 10
    "Mathor #0" = 10
    "Maul #0" = 10
    "Maulkyr #0" = 10
    "Meksim #0" = 10
    "Melril #0" = 10
    "Mendel #0" = 10
    "Menro #0" = 10
    "Merkyllian #0" = 10
    "Metilius #0" = 10
    "Mickal #0" = 10
    "Mikael #0" = 10
    "Mikfar #0" = 10
    "Mikrul #0" = 10
    "Miraak #0" = 10
    "Mjorn #0" = 10
    "Mjornys #0" = 10
    "Mogens #0" = 10
    "Molgrom #0" = 10
    "Mordrold #0" = 10
    "Mralki #0" = 10
    "Mryfwiil #0" = 10
    "Msirae #0" = 10
    "Narfar #0" = 10
    "Narfi #0" = 10
    "Narfild #0" = 10
    "Narir #0" = 10
    "Narirold #0" = 10
    "Narrald #0" = 10
    "Narrek #0" = 10
    "Nathon #0" = 10
    "Nedasilf #0" = 10
    "Neddrir #0" = 10
    "Nedrek #0" = 10
    "Nedrold #0" = 10
    "Nelgyrr #0" = 10
    "Nelkir #0" = 10
    "Nels #0" = 10
    "Newheim #0" = 10
    "Niels #0" = 10
    "Nielsar #0" = 10
    "Nielsold #0" = 10
    "Nielstig #0" = 10
    "Nikulas #0" = 10
    "Nikulund #0" = 10
    "Nils #0" = 10
    "Njial #0" = 10
    "Njordemar #0" = 10
    "Njordunn #0" = 10
    "Njorfar #0" = 10
    "Njorlund #0" = 10
    "Nodur #0" = 10
    "Nordahl #0" = 10
    "Norgred #0" = 10
    "Norring #0" = 10
    "Nudz #0" = 10
    "Nybder #0" = 10
    "Nystrom #0" = 10
    "Odar #0" = 10
    "Odfel #0" = 10
    "Odmi #0" = 10
    "Odunn #0" = 10
    "Oduvid #0" = 10
    "Oengul #0" = 10
    "Ogmann #0" = 10
    "Ogmir #0" = 10
    "Ogmund #0" = 10
    "Ogondar #0" = 10
    "Okulald #0" = 10
    "Okurek #0" = 10
    "Olaf #0" = 10
    "Olav #0" = 10
    "Olfand #0" = 10
    "Olffik #0" = 10
    "Olfrid #0" = 10
    "Olgus #0" = 10
    "Oljorn #0" = 10
    "Ollfar #0" = 10
    "Ollgord #0" = 10
    "Ollrod #0" = 10
    "Ollslid #0" = 10
    "Olmarinn #0" = 10
    "Olmgerd #0" = 10
    "Ongar #0" = 10
    "Onmi #0" = 10
    "Onmund #0" = 10
    "Ordun #0" = 10
    "Orgnar #0" = 10
    "Orgnolf #0" = 10
    "Ormheid #0" = 10
    "Ormvard #0" = 10
    "Orryn #0" = 10
    "Orstag #0" = 10
    "Ort #0" = 10
    "Orthjolf #0" = 10
    "Ortis #0" = 10
    "Ortvar #0" = 10
    "Oslaf #0" = 10
    "Otalich #0" = 10
    "Otalvor #0" = 10
    "Otroggar #0" = 10
    "Otrovor #0" = 10
    "Ottglund #0" = 10
    "Pactuld #0" = 10
    "Pactur #0" = 10
    "Pelf #0" = 10
    "Podalgar #0" = 10
    "Podunn #0" = 10
    "Pogmaan #0" = 10
    "Poguf #0" = 10
    "Povaren #0" = 10
    "Radd #0" = 10
    "Radwald #0" = 10
    "Raedir #0" = 10
    "Raerek #0" = 10
    "Raflod #0" = 10
    "Ragjar #0" = 10
    "Ragnar #0" = 10
    "Ragnor #0" = 10
    "Rakoslod #0" = 10
    "Ralduf #0" = 10
    "Ralgar #0" = 10
    "Ralof #0" = 10
    "Ramth #0" = 10
    "Ranmir #0" = 10
    "Rargal #0" = 10
    "Rarlmir #0" = 10
    "Reggr #0" = 10
    "Regner #0" = 10
    "Regold #0" = 10
    "Reinhardt #0" = 10
    "Reinud #0" = 10
    "Reistr #0" = 10
    "Reves #0" = 10
    "Rhorglund #0" = 10
    "Rhorlak #0" = 10
    "Rigel #0" = 10
    "Rigmor #0" = 10
    "Rigurt #0" = 10
    "Rigvar #0" = 10
    "Rikke #0" = 10
    "Risfid #0" = 10
    "Rissing #0" = 10
    "Riurik #0" = 10
    "Roeth #0" = 10
    "Rofli #0" = 10
    "Rogar #0" = 10
    "Rogas #0" = 10
    "Rogding #0" = 10
    "Rogen #0" = 10
    "Roggdvar #0" = 10
    "Roggi #0" = 10
    "Roggvar #0" = 10
    "Roggvir #0" = 10
    "Rogjoll #0" = 10
    "Rolf #0" = 10
    "Rolff #0" = 10
    "Rolgarel #0" = 10
    "Roliand #0" = 10
    "Roloda #0" = 10
    "Romord #0" = 10
    "Rorfid #0" = 10
    "Rorik #0" = 10
    "Rorlund #0" = 10
    "Rorngrek #0" = 10
    "Rorred #0" = 10
    "Rorthor #0" = 10
    "Roruld #0" = 10
    "Rorygg #0" = 10
    "Rundi #0" = 10
    "Runthor #0" = 10
    "Rustleif #0" = 10
    "Sabjorn #0" = 10
    "Sabjur #0" = 10
    "Sabonn #0" = 10
    "Saborm #0" = 10
    "Saerdor #0" = 10
    "Saergar #0" = 10
    "Saerhild #0" = 10
    "Saerlund #0" = 10
    "Saervild #0" = 10
    "Saetring #0" = 10
    "Safrid #0" = 10
    "Sahun #0" = 10
    "Sarjoll #0" = 10
    "Sarnir #0" = 10
    "Sattir #0" = 10
    "Savard #0" = 10
    "Selgaard #0" = 10
    "Serrin #0" = 10
    "Shalidor #0" = 10
    "Sibbi #0" = 10
    "Siddgeir #0" = 10
    "Sifknir #0" = 10
    "Sifmir #0" = 10
    "Sifnar #0" = 10
    "Sifvid #0" = 10
    "Sig #0" = 10
    "Sigaar #0" = 10
    "Sigar #0" = 10
    "Sigdis #0" = 10
    "Sigunn #0" = 10
    "Sigurd #0" = 10
    "Sigvatr #0" = 10
    "Sigyrr #0" = 10
    "Sild #0" = 10
    "Sinding #0" = 10
    "Sinmir #0" = 10
    "Sinos #0" = 10
    "Sirgar #0" = 10
    "Sirk #0" = 10
    "Sirkjorg #0" = 10
    "Sirkralf #0" = 10
    "Sittar #0" = 10
    "Sjarnfid #0" = 10
    "Sjoring #0" = 10
    "Sjorvar #0" = 10
    "Skaggi #0" = 10
    "Skalar #0" = 10
    "Skald #0" = 10
    "Skaldir #0" = 10
    "Skalf #0" = 10
    "Skardan #0" = 10
    "Skavwulf #0" = 10
    "Skegglund #0" = 10
    "Skeggr #0" = 10
    "Skjoldr #0" = 10
    "Skjor #0" = 10
    "Skjorlak #0" = 10
    "Skoref #0" = 10
    "Skorjan #0" = 10
    "Skorm #0" = 10
    "Skormknir #0" = 10
    "Skorvild #0" = 10
    "Skuli #0" = 10
    "Skulnar #0" = 10
    "Skulreid #0" = 10
    "Skulvar #0" = 10
    "Slafknir #0" = 10
    "Slodrig #0" = 10
    "Slonn #0" = 10
    "Snadir #0" = 10
    "Snaehild #0" = 10
    "Snar #0" = 10
    "Snarjolf #0" = 10
    "Snedbrir #0" = 10
    "Snilf #0" = 10
    "Snilling #0" = 10
    "Snorfin #0" = 10
    "Snorreid #0" = 10
    "Snorri #0" = 10
    "Snorrvild #0" = 10
    "Sober #0" = 10
    "Sogrlaf #0" = 10
    "Soin #0" = 10
    "Solaf #0" = 10
    "Sold #0" = 10
    "Sond #0" = 10
    "Songamdir #0" = 10
    "Sor #0" = 10
    "Sorben #0" = 10
    "Sorkvild #0" = 10
    "Sormund #0" = 10
    "Sormuth #0" = 10
    "Sorr #0" = 10
    "Sorri #0" = 10
    "Stalf #0" = 10
    "Stalfgrif #0" = 10
    "Stalkun #0" = 10
    "Star #0" = 10
    "Steidor #0" = 10
    "Steir #0" = 10
    "Steirod #0" = 10
    "Sten #0" = 10
    "Stenvadr #0" = 10
    "Stenvar #0" = 10
    "Stig #0" = 10
    "Storn #0" = 10
    "Strom #0" = 10
    "Stromgruf #0" = 10
    "Styrbjorn #0" = 10
    "Styrr #0" = 10
    "Sulrengar #0" = 10
    "Sulvar #0" = 10
    "Svaknir #0" = 10
    "Svalkmar #0" = 10
    "Svarkjar #0" = 10
    "Svein #0" = 10
    "Sven #0" = 10
    "Svenjar #0" = 10
    "Svenk #0" = 10
    "Svergor #0" = 10
    "Svog #0" = 10
    "Swyk #0" = 10
    "Talsgar #0" = 10
    "Talsold #0" = 10
    "Talsrel #0" = 10
    "Talsvar #0" = 10
    "Terr #0" = 10
    "Terrfyg #0" = 10
    "Thadgeir #0" = 10
    "Thadgen #0" = 10
    "Thadrig #0" = 10
    "Thaer #0" = 10
    "Thal #0" = 10
    "Thalin #0" = 10
    "Thaljorn #0" = 10
    "Thallik #0" = 10
    "Thalm #0" = 10
    "Thalrig #0" = 10
    "Thanethen #0" = 10
    "Tharsten #0" = 10
    "Thelen #0" = 10
    "Thelm #0" = 10
    "Thelman #0" = 10
    "Thian #0" = 10
    "Thjold #0" = 10
    "Thjollod #0" = 10
    "Thjordic #0" = 10
    "Thod #0" = 10
    "Thonar #0" = 10
    "Thonarcal #0" = 10
    "Thonengar #0" = 10
    "Thongar #0" = 10
    "Thongvor #0" = 10
    "Thonjolf #0" = 10
    "Thonnir #0" = 10
    "Thorald #0" = 10
    "Thorallod #0" = 10
    "Thoran #0" = 10
    "Thorbald #0" = 10
    "Thorbjolf #0" = 10
    "Thorek #0" = 10
    "Thorgar #0" = 10
    "Thoring #0" = 10
    "Thormoor #0" = 10
    "Thorormr #0" = 10
    "Thorulf #0" = 10
    "Thorvar #0" = 10
    "Thorygg #0" = 10
    "Thragnar #0" = 10
    "Thragof #0" = 10
    "Thralof #0" = 10
    "Threfr #0" = 10
    "Thrihild #0" = 10
    "Throknolf #0" = 10
    "Thromgar #0" = 10
    "Thromkjar #0" = 10
    "Thrud #0" = 10
    "Thrynn #0" = 10
    "Thulvald #0" = 10
    "Thunsel #0" = 10
    "Thurek #0" = 10
    "Tobias #0" = 10
    "Tolan #0" = 10
    "Tolfdir #0" = 10
    "Tolfwulf #0" = 10
    "Tolgan #0" = 10
    "Tolvor #0" = 10
    "Toralf #0" = 10
    "Torbal #0" = 10
    "Torbjorn #0" = 10
    "Torik #0" = 10
    "Tork #0" = 10
    "Torkalgar #0" = 10
    "Torkild #0" = 10
    "Torkming #0" = 10
    "Torolf #0" = 10
    "Torrold #0" = 10
    "Torsten #0" = 10
    "Torvar #0" = 10
    "Torygg #0" = 10
    "Tove #0" = 10
    "Tovjor #0" = 10
    "Treva #0" = 10
    "Trilf #0" = 10
    "Tsun #0" = 10
    "Tulgruff #0" = 10
    "Tulvar #0" = 10
    "Tulvur #0" = 10
    "Tun #0" = 10
    "Tymvaul #0" = 10
    "Tyr #0" = 10
    "Tysnal #0" = 10
    "Uche #0" = 10
    "Uggald #0" = 10
    "Uggissar #0" = 10
    "Uggonn #0" = 10
    "Uggurek #0" = 10
    "Ulfarr #0" = 10
    "Ulfberth #0" = 10
    "Ulfgar #0" = 10
    "Ulfgi #0" = 10
    "Ulfnor #0" = 10
    "Ulfr #0" = 10
    "Ulfric #0" = 10
    "Ulfslod #0" = 10
    "Ulligor #0" = 10
    "Ulov #0" = 10
    "Undbjolf #0" = 10
    "Undveld #0" = 10
    "Unmid #0" = 10
    "Unmidunn #0" = 10
    "Unmidvild #0" = 10
    "Unnvald #0" = 10
    "Urf #0" = 10
    "Urfing #0" = 10
    "Urgjal #0" = 10
    "Urik #0" = 10
    "Urlach #0" = 10
    "Vagakar #0" = 10
    "Vagar #0" = 10
    "Vaglof #0" = 10
    "Vagloson #0" = 10
    "Valbern #0" = 10
    "Valbet #0" = 10
    "Valbjorn #0" = 10
    "Vald #0" = 10
    "Valdar #0" = 10
    "Valdemar #0" = 10
    "Valdimar #0" = 10
    "Valding #0" = 10
    "Valdr #0" = 10
    "Valdur #0" = 10
    "Valeric #0" = 10
    "Valgeir #0" = 10
    "Vallric #0" = 10
    "Valund #0" = 10
    "Vanik #0" = 10
    "Vanskyr #0" = 10
    "Vanthongar #0" = 10
    "Vastaag #0" = 10
    "Vekel #0" = 10
    "Velfred #0" = 10
    "Verner #0" = 10
    "Vestalsgar #0" = 10
    "Vestord #0" = 10
    "Vestrek #0" = 10
    "Viddek #0" = 10
    "Viddgjaldir #0" = 10
    "Vidgrod #0" = 10
    "Viding #0" = 10
    "Vidkun #0" = 10
    "Vidrald #0" = 10
    "Vidstig #0" = 10
    "Vidusil #0" = 10
    "Vigard #0" = 10
    "Vigge #0" = 10
    "Vignar #0" = 10
    "Vigrod #0" = 10
    "Vigstrom #0" = 10
    "Vigunn #0" = 10
    "Vikord #0" = 10
    "Vilbjorn #0" = 10
    "Vilgis #0" = 10
    "Vilkas #0" = 10
    "Vilod #0" = 10
    "Vipir #0" = 10
    "Virgerd #0" = 10
    "Virk #0" = 10
    "Virkmund #0" = 10
    "Virkvild #0" = 10
    "Vkor #0" = 10
    "Vladolfr #0" = 10
    "Vofalgar #0" = 10
    "Vofing #0" = 10
    "Vofknir #0" = 10
    "Vol #0" = 10
    "Volharth #0" = 10
    "Volk #0" = 10
    "Volknar #0" = 10
    "Volmann #0" = 10
    "Vongvild #0" = 10
    "Vonlef #0" = 10
    "Vorenor #0" = 10
    "Vorstag #0" = 10
    "Votar #0" = 10
    "Vrage #0" = 10
    "Vuldurs #0" = 10
    "Vulwulf #0" = 10
    "Vundheim #0" = 10
    "Vurlop #0" = 10
    "Waren #0" = 10
    "Wickam #0" = 10
    "Widulf #0" = 10
    "Wilbern #0" = 10
    "Wilhelm #0" = 10
    "Wilhem #0" = 10
    "Wilminn #0" = 10
    "Wilmuth #0" = 10
    "Wilrek #0" = 10
    "Wilvor #0" = 10
    "Wisten #0" = 10
    "Woan #0" = 10
    "Woster #0" = 10
    "Wrath #0" = 10
    "Wulf #0" = 10
    "Wulfdis #0" = 10
    "Wulfgar #0" = 10
    "Wulfharth #0" = 10
    "Wulfmare #0" = 10
    "Wuunferth #0" = 10
    "Yavni #0" = 10
    "Ygbal #0" = 10
    "Yjarnn #0" = 10
    "Ylgar #0" = 10
    "Yll #0" = 10
    "Yllondar #0" = 10
    "Yngling #0" = 10
    "Yngnavar #0" = 10
    "Yngol #0" = 10
    "Yngold #0" = 10
    "Yngrel #0" = 10
    "Yngvar #0" = 10
    "Yngvid #0" = 10
    "Yraldar #0" = 10
    "Yringor #0" = 10
    "Yrsarald #0" = 10
    "Ysavild #0" = 10
    "Ysgramor #0" = 10
    "Ysgravald #0" = 10
    "Ysmir #0" = 10
    "Yust #0" = 10

    "Abelone #0" = -10
    "Adana #0" = -10
    "Adelhild #0" = -10
    "Adelil #0" = -10
    "Adisla #0" = -10
    "Adla #0" = -10
    "Aegilief #0" = -10
    "Aela #0" = -10
    "Aelakja #0" = -10
    "Aelm #0" = -10
    "Aera #0" = -10
    "Aerana #0" = -10
    "Aeri #0" = -10
    "Aeridi #0" = -10
    "Aeta #0" = -10
    "Afnhi #0" = -10
    "Agata #0" = -10
    "Agila #0" = -10
    "Agka #0" = -10
    "Agna #0" = -10
    "Agnedir #0" = -10
    "Agnenor #0" = -10
    "Agnete #0" = -10
    "Agni #0" = -10
    "Agnis #0" = -10
    "Airia #0" = -10
    "Ajorda #0" = -10
    "Alana #0" = -10
    "Aldi #0" = -10
    "Alea #0" = -10
    "Aleeka #0" = -10
    "Alfa #0" = -10
    "Alfhild #0" = -10
    "Alga #0" = -10
    "Algunda #0" = -10
    "Alhana #0" = -10
    "Alma #0" = -10
    "Alva #0" = -10
    "Alvide #0" = -10
    "Amandtea #0" = -10
    "Amifar #0" = -10
    "Amihild #0" = -10
    "Amitra #0" = -10
    "Amwyn #0" = -10
    "Anaka #0" = -10
    "Angetha #0" = -10
    "Angi #0" = -10
    "Anise #0" = -10
    "Anja #0" = -10
    "Anjolda #0" = -10
    "Anneke #0" = -10
    "Annekke #0" = -10
    "Anrunn #0" = -10
    "Anska #0" = -10
    "Araki #0" = -10
    "Arani #0" = -10
    "Areca #0" = -10
    "Argi #0" = -10
    "Ari #0" = -10
    "Arnhilda #0" = -10
    "Arva #0" = -10
    "Asfredda #0" = -10
    "Asga #0" = -10
    "Asgi #0" = -10
    "Asta #0" = -10
    "Astrid #0" = -10
    "Atli #0" = -10
    "Atodir #0" = -10
    "Attiri #0" = -10
    "Attiring #0" = -10
    "Attring #0" = -10
    "Aubykka #0" = -10
    "Auda #0" = -10
    "Aumfi #0" = -10
    "Aumsi #0" = -10
    "Autrae #0" = -10
    "Avwenn #0" = -10
    "Awyn #0" = -10
    "Axkiral #0" = -10
    "Axulfa #0" = -10
    "Balwyn #0" = -10
    "Barri #0" = -10
    "Beitild #0" = -10
    "Bekka #0" = -10
    "Bekwine #0" = -10
    "Belfrost #0" = -10
    "Belofa #0" = -10
    "Bemfola #0" = -10
    "Beovar #0" = -10
    "Bera #0" = -10
    "Berala #0" = -10
    "Bergitte #0" = -10
    "Bergljot #0" = -10
    "Bergritte #0" = -10
    "Beridi #0" = -10
    "Beritta #0" = -10
    "Berra #0" = -10
    "Betedir #0" = -10
    "Betrid #0" = -10
    "Birgitha #0" = -10
    "Birna #0" = -10
    "Bjartur #0" = -10
    "Bjertha #0" = -10
    "Bodil #0" = -10
    "Bolfrida #0" = -10
    "Bolfrosti #0" = -10
    "Bona #0" = -10
    "Bonafryd #0" = -10
    "Bonmund #0" = -10
    "Bonohild #0" = -10
    "Bonorvir #0" = -10
    "Bontilf #0" = -10
    "Bonwyn #0" = -10
    "Borahild #0" = -10
    "Borasa #0" = -10
    "Boti #0" = -10
    "Braning #0" = -10
    "Branir #0" = -10
    "Brannis #0" = -10
    "Brasteir #0" = -10
    "Brea #0" = -10
    "Brecir #0" = -10
    "Breda #0" = -10
    "Bree #0" = -10
    "Bresa #0" = -10
    "Brey #0" = -10
    "Breya #0" = -10
    "Brigette #0" = -10
    "Brima #0" = -10
    "Brimfja #0" = -10
    "Brina #0" = -10
    "Bringuna #0" = -10
    "Britte #0" = -10
    "Brittgerd #0" = -10
    "Brunka #0" = -10
    "Bryfar #0" = -10
    "Brygelva #0" = -10
    "Bryling #0" = -10
    "Bryring #0" = -10
    "Bujold #0" = -10
    "Burbet #0" = -10
    "Caretaker #0" = -10
    "Cathja #0" = -10
    "Chalda #0" = -10
    "Chalwyn #0" = -10
    "Dagbara #0" = -10
    "Dagny #0" = -10
    "Dagrunn #0" = -10
    "Dalitra #0" = -10
    "Daljari #0" = -10
    "Dalmidi #0" = -10
    "Daneem #0" = -10
    "Danica #0" = -10
    "Danrine #0" = -10
    "Deldwine #0" = -10
    "Delia #0" = -10
    "Deowyn #0" = -10
    "Didrika #0" = -10
    "Dorthe #0" = -10
    "Drifa #0" = -10
    "Drod #0" = -10
    "Drodda #0" = -10
    "Drosine #0" = -10
    "Droslynne #0" = -10
    "Drowyn #0" = -10
    "Edith #0" = -10
    "Edla #0" = -10
    "Eepa #0" = -10
    "Eerika #0" = -10
    "Eigma #0" = -10
    "Eila #0" = -10
    "Eilenda #0" = -10
    "Eiraki #0" = -10
    "Eirfa #0" = -10
    "Eirid #0" = -10
    "Eirma #0" = -10
    "Eiruki #0" = -10
    "Eirul #0" = -10
    "Eisa #0" = -10
    "Eitaki #0" = -10
    "Ekkhi #0" = -10
    "Elda #0" = -10
    "Elfbetta #0" = -10
    "Elfriede #0" = -10
    "Eling #0" = -10
    "Elisgunne #0" = -10
    "Elisif #0" = -10
    "Ellisif #0" = -10
    "Elpa #0" = -10
    "Else #0" = -10
    "Elsmira #0" = -10
    "Emfrid #0" = -10
    "Engling #0" = -10
    "Enlaf #0" = -10
    "Eoeilif #0" = -10
    "Eofel #0" = -10
    "Eoman #0" = -10
    "Eoram #0" = -10
    "Eorim #0" = -10
    "Erdi #0" = -10
    "Erekka #0" = -10
    "Eris #0" = -10
    "Erna #0" = -10
    "Euda #0" = -10
    "Evette #0" = -10
    "Evigna #0" = -10
    "Eydis #0" = -10
    "Eydreigga #0" = -10
    "Eydvi #0" = -10
    "Eyja #0" = -10
    "Faida #0" = -10
    "Fairynn #0" = -10
    "Faivera #0" = -10
    "Falaki #0" = -10
    "Faldar #0" = -10
    "Falethea #0" = -10
    "Falkyn #0" = -10
    "Falwyn #0" = -10
    "Fanari #0" = -10
    "Farvild #0" = -10
    "Fastred #0" = -10
    "Faylva #0" = -10
    "Feiri #0" = -10
    "Finna #0" = -10
    "Fjola #0" = -10
    "Fjora #0" = -10
    "Fjorda #0" = -10
    "Fjori #0" = -10
    "Fjoria #0" = -10
    "Fjorna #0" = -10
    "Fjorolfa #0" = -10
    "Fjotli #0" = -10
    "Fjotra #0" = -10
    "Fjurdora #0" = -10
    "Fortuna #0" = -10
    "Frabbi #0" = -10
    "Fralia #0" = -10
    "Franja #0" = -10
    "Frea #0" = -10
    "Freca #0" = -10
    "Fredo #0" = -10
    "Frehilde #0" = -10
    "Freida #0" = -10
    "Freigritte #0" = -10
    "Freir #0" = -10
    "Freki #0" = -10
    "Frena #0" = -10
    "Frera #0" = -10
    "Frerbild #0" = -10
    "Fresgil #0" = -10
    "Fresmara #0" = -10
    "Freydis #0" = -10
    "Frida #0" = -10
    "Fridda #0" = -10
    "Fridleif #0" = -10
    "Fridrethe #0" = -10
    "Fridrika #0" = -10
    "Friga #0" = -10
    "Frikkhild #0" = -10
    "Frilgeth #0" = -10
    "Frina #0" = -10
    "Frirhild #0" = -10
    "Frirvid #0" = -10
    "Froa #0" = -10
    "Froda #0" = -10
    "Frohilde #0" = -10
    "Fruki #0" = -10
    "Frunda #0" = -10
    "Fruvar #0" = -10
    "Fryfnhild #0" = -10
    "Frynga #0" = -10
    "Fryssa #0" = -10
    "Fugrete #0" = -10
    "Fura #0" = -10
    "Fyrulde #0" = -10
    "Gabbi #0" = -10
    "Gabbidi #0" = -10
    "Gamdir #0" = -10
    "Gamlunda #0" = -10
    "Garfrost #0" = -10
    "Garri #0" = -10
    "Garrimar #0" = -10
    "Garvilda #0" = -10
    "Geidir #0" = -10
    "Geinarre #0" = -10
    "Geirilda #0" = -10
    "Geirvarda #0" = -10
    "Gekunn #0" = -10
    "Gerda #0" = -10
    "Gerdur #0" = -10
    "Gertrun #0" = -10
    "Gisli #0" = -10
    "Gjaki #0" = -10
    "Gjarma #0" = -10
    "Gjarmal #0" = -10
    "Gjarmi #0" = -10
    "Gjarmiddi #0" = -10
    "Gordjar #0" = -10
    "Gormlaith #0" = -10
    "Greca #0" = -10
    "Greidil #0" = -10
    "Greily #0" = -10
    "Grelka #0" = -10
    "Grelod #0" = -10
    "Grerid #0" = -10
    "Greta #0" = -10
    "Grete #0" = -10
    "Gretga #0" = -10
    "Grethaa #0" = -10
    "Grethveta #0" = -10
    "Gretsine #0" = -10
    "Gretta #0" = -10
    "Greyf #0" = -10
    "Grida #0" = -10
    "Grigerda #0" = -10
    "Grosta #0" = -10
    "Grundi #0" = -10
    "Grunhere #0" = -10
    "Grunilda #0" = -10
    "Grunirra #0" = -10
    "Gukirmar #0" = -10
    "Guldir #0" = -10
    "Gulfa #0" = -10
    "Gulfreida #0" = -10
    "Gullveig #0" = -10
    "Gulvera #0" = -10
    "Gunneke #0" = -10
    "Gunnijira #0" = -10
    "Gunrietta #0" = -10
    "Gunthafur #0" = -10
    "Guridda #0" = -10
    "Gurilda #0" = -10
    "Guring #0" = -10
    "Gwendolyn #0" = -10
    "Gyda #0" = -10
    "Hadarre #0" = -10
    "Haelga #0" = -10
    "Haema #0" = -10
    "Hafjorg #0" = -10
    "Haki #0" = -10
    "Hakida #0" = -10
    "Hakra #0" = -10
    "Halbora #0" = -10
    "Haldwyn #0" = -10
    "Halfara #0" = -10
    "Hali #0" = -10
    "Hallfrida #0" = -10
    "Halmaera #0" = -10
    "Haltafi #0" = -10
    "Halva #0" = -10
    "Hama #0" = -10
    "Hamal #0" = -10
    "Hanana #0" = -10
    "Hanmaer #0" = -10
    "Hannir #0" = -10
    "Hannura #0" = -10
    "Haran #0" = -10
    "Hauti #0" = -10
    "Heddvild #0" = -10
    "Hedstild #0" = -10
    "Hefid #0" = -10
    "Heggidi #0" = -10
    "Heggvir #0" = -10
    "Heimunda #0" = -10
    "Hel #0" = -10
    "Hela #0" = -10
    "Helfhild #0" = -10
    "Helga #0" = -10
    "Helgana #0" = -10
    "Helgi #0" = -10
    "Helgird #0" = -10
    "Helgith #0" = -10
    "Helgreir #0" = -10
    "Helrytta #0" = -10
    "Helunda #0" = -10
    "Hengeki #0" = -10
    "Herdora #0" = -10
    "Hergarda #0" = -10
    "Herkja #0" = -10
    "Hermir #0" = -10
    "Hert #0" = -10
    "Hestla #0" = -10
    "Hidar #0" = -10
    "Hil #0" = -10
    "Hilde #0" = -10
    "Hildegard #0" = -10
    "Hildessa #0" = -10
    "Hilka #0" = -10
    "Hillevi #0" = -10
    "Hilund #0" = -10
    "Hilvira #0" = -10
    "Himarit #0" = -10
    "Himela #0" = -10
    "Hjaga #0" = -10
    "Hjagir #0" = -10
    "Hjagmoda #0" = -10
    "Hjalari #0" = -10
    "Hjalif #0" = -10
    "Hjara #0" = -10
    "Hjaralda #0" = -10
    "Hjarda #0" = -10
    "Hjarfi #0" = -10
    "Hjargredda #0" = -10
    "Hjelda #0" = -10
    "Hjolbel #0" = -10
    "Hjolfrodi #0" = -10
    "Hjolvara #0" = -10
    "Hjordis #0" = -10
    "Hjorga #0" = -10
    "Hjotild #0" = -10
    "Hjotra #0" = -10
    "Hlakana #0" = -10
    "Hloelott #0" = -10
    "Hloenor #0" = -10
    "Hlotild #0" = -10
    "Hoddreid #0" = -10
    "Hodyette #0" = -10
    "Hola #0" = -10
    "Holdilf #0" = -10
    "Holmgeira #0" = -10
    "Holsin #0" = -10
    "Horski #0" = -10
    "Hostia #0" = -10
    "Hraerfja #0" = -10
    "Hranasgi #0" = -10
    "Hranir #0" = -10
    "Hranura #0" = -10
    "Hrarlief #0" = -10
    "Hrasvard #0" = -10
    "Hrefgerda #0" = -10
    "Hrefna #0" = -10
    "Hreifryd #0" = -10
    "Hreirek #0" = -10
    "Hridi #0" = -10
    "Hroa #0" = -10
    "Hroi #0" = -10
    "Hroki #0" = -10
    "Hrolda #0" = -10
    "Hrordis #0" = -10
    "Hrorleid #0" = -10
    "Hrosaa #0" = -10
    "Hrosta #0" = -10
    "Hrotreid #0" = -10
    "Huki #0" = -10
    "Hulda #0" = -10
    "Huolde #0" = -10
    "Hyfta #0" = -10
    "Hyring #0" = -10
    "Hyunda #0" = -10
    "Iddra #0" = -10
    "Idela #0" = -10
    "Idesa #0" = -10
    "Idgrod #0" = -10
    "Idirfa #0" = -10
    "Idona #0" = -10
    "Idvir #0" = -10
    "Ig #0" = -10
    "Igeke #0" = -10
    "Igna #0" = -10
    "Ilfhild #0" = -10
    "Illdi #0" = -10
    "Imsin #0" = -10
    "Imwyn #0" = -10
    "Inga #0" = -10
    "Inge #0" = -10
    "Ingjard #0" = -10
    "Ingokning #0" = -10
    "Ingrid #0" = -10
    "Ingritha #0" = -10
    "Ingun #0" = -10
    "Innanir #0" = -10
    "Innbild #0" = -10
    "Innsold #0" = -10
    "Iona #0" = -10
    "Iosyl #0" = -10
    "Irgeikka #0" = -10
    "Irghild #0" = -10
    "Irgkya #0" = -10
    "Irgnir #0" = -10
    "Irna #0" = -10
    "Iroda #0" = -10
    "Isgeror #0" = -10
    "Isrudde #0" = -10
    "Itnette #0" = -10
    "Ittir #0" = -10
    "Ittirma #0" = -10
    "Jaddveig #0" = -10
    "Jadfari #0" = -10
    "Jadvar #0" = -10
    "Jaema #0" = -10
    "Jafelma #0" = -10
    "Jaflinna #0" = -10
    "Jafola #0" = -10
    "Jafrera #0" = -10
    "Jafrost #0" = -10
    "Jaga #0" = -10
    "Jakidi #0" = -10
    "Jakieikka #0" = -10
    "Jakild #0" = -10
    "Jakirfa #0" = -10
    "Jala #0" = -10
    "Jalarma #0" = -10
    "Jalrana #0" = -10
    "Janekke #0" = -10
    "Jardirr #0" = -10
    "Jareen #0" = -10
    "Jareki #0" = -10
    "Jaritra #0" = -10
    "Jarredda #0" = -10
    "Jensine #0" = -10
    "Jindra #0" = -10
    "Jodis #0" = -10
    "Jofgreida #0" = -10
    "Jofrior #0" = -10
    "Jolding #0" = -10
    "Jolinne #0" = -10
    "Jolridda #0" = -10
    "Jora #0" = -10
    "Joraamun #0" = -10
    "Jordis #0" = -10
    "Juda #0" = -10
    "Julni #0" = -10
    "Jyrwinn #0" = -10
    "Kar #0" = -10
    "Kara #0" = -10
    "Karalgar #0" = -10
    "Kari #0" = -10
    "Karita #0" = -10
    "Katilda #0" = -10
    "Katisha #0" = -10
    "Katja #0" = -10
    "Katla #0" = -10
    "Katria #0" = -10
    "Katti #0" = -10
    "Kelgerde #0" = -10
    "Kerig #0" = -10
    "Khala #0" = -10
    "Kili #0" = -10
    "Kirsten #0" = -10
    "Kjo #0" = -10
    "Kjolver #0" = -10
    "Knarri #0" = -10
    "Knumar #0" = -10
    "Knutrida #0" = -10
    "Kolfinna #0" = -10
    "Kora #0" = -10
    "Koralla #0" = -10
    "Korra #0" = -10
    "Koruni #0" = -10
    "Krastir #0" = -10
    "Kyrwyn #0" = -10
    "Lafka #0" = -10
    "Laila #0" = -10
    "Lami #0" = -10
    "Lareika #0" = -10
    "Larsa #0" = -10
    "Larula #0" = -10
    "Leid #0" = -10
    "Leiddrod #0" = -10
    "Leidela #0" = -10
    "Leidmir #0" = -10
    "Leifnar #0" = -10
    "Leifunda #0" = -10
    "Leimaer #0" = -10
    "Leofa #0" = -10
    "Liesl #0" = -10
    "Liezl #0" = -10
    "Lilija #0" = -10
    "Liljard #0" = -10
    "Lillith #0" = -10
    "Linlia #0" = -10
    "Linnea #0" = -10
    "Lis #0" = -10
    "Lisaa #0" = -10
    "Lisbet #0" = -10
    "Lisylde #0" = -10
    "Lorela #0" = -10
    "Loria #0" = -10
    "Lornor #0" = -10
    "Lothafi #0" = -10
    "Lydia #0" = -10
    "Lyn #0" = -10
    "Lynly #0" = -10
    "Lyris #0" = -10
    "Lyrvekka #0" = -10
    "Mabbritte #0" = -10
    "Mabjaarn #0" = -10
    "Macalla #0" = -10
    "Macke #0" = -10
    "Madleena #0" = -10
    "Madythe #0" = -10
    "Maela #0" = -10
    "Maeri #0" = -10
    "Maesa #0" = -10
    "Maeva #0" = -10
    "Maigarda #0" = -10
    "Malana #0" = -10
    "Malene #0" = -10
    "Malfa #0" = -10
    "Malma #0" = -10
    "Mareki #0" = -10
    "Maren #0" = -10
    "Marga #0" = -10
    "Margarte #0" = -10
    "Margot #0" = -10
    "Margret #0" = -10
    "Margretha #0" = -10
    "Marla #0" = -10
    "Matlara #0" = -10
    "Maveld #0" = -10
    "Maven #0" = -10
    "Maylde #0" = -10
    "Medild #0" = -10
    "Medveig #0" = -10
    "Megvarda #0" = -10
    "Meldagar #0" = -10
    "Meling #0" = -10
    "Melora #0" = -10
    "Mera #0" = -10
    "Merete #0" = -10
    "Merfa #0" = -10
    "Merfnovira #0" = -10
    "Merta #0" = -10
    "Mette #0" = -10
    "Minette #0" = -10
    "Mistja #0" = -10
    "Mjoll #0" = -10
    "Molana #0" = -10
    "Molla #0" = -10
    "Molura #0" = -10
    "Mornhilde #0" = -10
    "Morwen #0" = -10
    "Nadya #0" = -10
    "Naer #0" = -10
    "Narana #0" = -10
    "Narri #0" = -10
    "Narvilda #0" = -10
    "Nelfhild #0" = -10
    "Nelhilda #0" = -10
    "Nelmir #0" = -10
    "Nelmryn #0" = -10
    "Nettanir #0" = -10
    "Nette #0" = -10
    "Nettira #0" = -10
    "Nikaolde #0" = -10
    "Nikolvara #0" = -10
    "Nille #0" = -10
    "Nilsine #0" = -10
    "Njada #0" = -10
    "Norra #0" = -10
    "Nura #0" = -10
    "Nurnhilde #0" = -10
    "Obetta #0" = -10
    "Oda #0" = -10
    "Odana #0" = -10
    "Oddny #0" = -10
    "Odela #0" = -10
    "Odlynd #0" = -10
    "Odvar #0" = -10
    "Odvild #0" = -10
    "Ogra #0" = -10
    "Okkhild #0" = -10
    "Okula #0" = -10
    "Olava #0" = -10
    "Olda #0" = -10
    "Olfeigr #0" = -10
    "Olfina #0" = -10
    "Olfjarda #0" = -10
    "Olfrid #0" = -10
    "Olveidi #0" = -10
    "Olwenna #0" = -10
    "Ondi #0" = -10
    "Ophalia #0" = -10
    "Ophanta #0" = -10
    "Oranir #0" = -10
    "Oriella #0" = -10
    "Orla #0" = -10
    "Ormi #0" = -10
    "Orolo #0" = -10
    "Osanne #0" = -10
    "Othora #0" = -10
    "Othvild #0" = -10
    "Otried #0" = -10
    "Ottaesa #0" = -10
    "Pacta #0" = -10
    "Petrine #0" = -10
    "Raeirfa #0" = -10
    "Raena #0" = -10
    "Raerana #0" = -10
    "Raevild #0" = -10
    "Ragna #0" = -10
    "Ragria #0" = -10
    "Rakel #0" = -10
    "Raki #0" = -10
    "Rakiel #0" = -10
    "Rangela #0" = -10
    "Rannveig #0" = -10
    "Reja #0" = -10
    "Rena #0" = -10
    "Rennbjara #0" = -10
    "Rennilde #0" = -10
    "Renrytte #0" = -10
    "Resrytte #0" = -10
    "Restla #0" = -10
    "Reyda #0" = -10
    "Rigel #0" = -10
    "Rigmor #0" = -10
    "Rikke #0" = -10
    "Ringvild #0" = -10
    "Risi #0" = -10
    "Robjorn #0" = -10
    "Rogrydda #0" = -10
    "Roki #0" = -10
    "Rolara #0" = -10
    "Rolunda #0" = -10
    "Rona #0" = -10
    "Rosirma #0" = -10
    "Rosrytta #0" = -10
    "Rostlogi #0" = -10
    "Roxwinne #0" = -10
    "Rudagalfa #0" = -10
    "Rudgreid #0" = -10
    "Ruki #0" = -10
    "Runa #0" = -10
    "Runaki #0" = -10
    "Runehild #0" = -10
    "Sas #0" = -10
    "Sasbekke #0" = -10
    "Seirida #0" = -10
    "Selma #0" = -10
    "Serana #0" = -10
    "Sernea #0" = -10
    "Shana #0" = -10
    "Shannia #0" = -10
    "Shawna #0" = -10
    "Signy #0" = -10
    "Sigrid #0" = -10
    "Sigva #0" = -10
    "Silda #0" = -10
    "Siri #0" = -10
    "Siriaki #0" = -10
    "Sirimunda #0" = -10
    "Sirkidur #0" = -10
    "Sisrytta #0" = -10
    "Sissel #0" = -10
    "Sivgrete #0" = -10
    "Sivguna #0" = -10
    "Sjarakki #0" = -10
    "Sjarla #0" = -10
    "Skaldara #0" = -10
    "Skjor #0" = -10
    "Skjorta #0" = -10
    "Slatild #0" = -10
    "Slonanir #0" = -10
    "Slonn #0" = -10
    "Snaeke #0" = -10
    "Sofie #0" = -10
    "Sofnete #0" = -10
    "Soki #0" = -10
    "Solding #0" = -10
    "Songar #0" = -10
    "Songdis #0" = -10
    "Sonir #0" = -10
    "Sonje #0" = -10
    "Sonya #0" = -10
    "Soralfa #0" = -10
    "Sorga #0" = -10
    "Sorli #0" = -10
    "Sottilde #0" = -10
    "Steirid #0" = -10
    "Stodlod #0" = -10
    "Stodrir #0" = -10
    "Suretta #0" = -10
    "Susanna #0" = -10
    "Suwenna #0" = -10
    "Svana #0" = -10
    "Svanhildr #0" = -10
    "Svargret #0" = -10
    "Svari #0" = -10
    "Svaritra #0" = -10
    "Svarjarda #0" = -10
    "Svarlyn #0" = -10
    "Svenja #0" = -10
    "Svilda #0" = -10
    "Swangar #0" = -10
    "Swanhvir #0" = -10
    "Syl #0" = -10
    "Sylgja #0" = -10
    "Tekla #0" = -10
    "Tela #0" = -10
    "Temba #0" = -10
    "Temgrid #0" = -10
    "Thaena #0" = -10
    "Thalda #0" = -10
    "Thalestris #0" = -10
    "Thalwyn #0" = -10
    "Thastla #0" = -10
    "Thelfreca #0" = -10
    "Theofa #0" = -10
    "Thogana #0" = -10
    "Thoggrytte #0" = -10
    "Thondir #0" = -10
    "Thonja #0" = -10
    "Thonki #0" = -10
    "Thonlynn #0" = -10
    "Thoreki #0" = -10
    "Thorfa #0" = -10
    "Thorka #0" = -10
    "Thorkar #0" = -10
    "Thorwyn #0" = -10
    "Threki #0" = -10
    "Thronoda #0" = -10
    "Thunmund #0" = -10
    "Thvidi #0" = -10
    "Tidave #0" = -10
    "Tidbrosti #0" = -10
    "Tidvir #0" = -10
    "Tilde #0" = -10
    "Tillaki #0" = -10
    "Tillrani #0" = -10
    "Tilma #0" = -10
    "Tilwen #0" = -10
    "Tiredir #0" = -10
    "Tirlarnar #0" = -10
    "Tirora #0" = -10
    "Todimar #0" = -10
    "Toldi #0" = -10
    "Tolfalki #0" = -10
    "Tolfari #0" = -10
    "Tolgredda #0" = -10
    "Tolli #0" = -10
    "Tormir #0" = -10
    "Toryl #0" = -10
    "Tova #0" = -10
    "Tridi #0" = -10
    "Trigrid #0" = -10
    "Trihild #0" = -10
    "Triirma #0" = -10
    "Triwenna #0" = -10
    "Troki #0" = -10
    "Troulda #0" = -10
    "Trynhild #0" = -10
    "Tyrnea #0" = -10
    "Ulfrun #0" = -10
    "Ulfsild #0" = -10
    "Ulrika #0" = -10
    "Una #0" = -10
    "Ursine #0" = -10
    "Uthgerd #0" = -10
    "Vaerarre #0" = -10
    "Vaereid #0" = -10
    "Val #0" = -10
    "Valdia #0" = -10
    "Valerica #0" = -10
    "Valgritta #0" = -10
    "Valinka #0" = -10
    "Vaoldelf #0" = -10
    "Vareda #0" = -10
    "Varhilda #0" = -10
    "Vari #0" = -10
    "Veranir #0" = -10
    "Vibeke #0" = -10
    "Vidda #0" = -10
    "Vigdis #0" = -10
    "Vigwenn #0" = -10
    "Vigya #0" = -10
    "Viri #0" = -10
    "Virmar #0" = -10
    "Virngring #0" = -10
    "Viveka #0" = -10
    "Voddreid #0" = -10
    "Vori #0" = -10
    "Vothing #0" = -10
    "Vunhilde #0" = -10
    "Watha #0" = -10
    "Ygfa #0" = -10
    "Yiri #0" = -10
    "Yllolda #0" = -10
    "Yorda #0" = -10
    "Yrkvild #0" = -10
    "Yrna #0" = -10
    "Yrning #0" = -10
    "Yrsa #0" = -10
    "Yrssteir #0" = -10
    "Ysolda #0" = -10
    "Zaan #0" = -10
}

leader_names = {
    Abbard Adalmor Adalvald Addald Adding Addold Addrald Addvar Addvild Ade Adelsar Adjold Admaer Adord Adpring Adrimk Adsilding Advir Aelf Aelfhidil Aenar Aevar Afneer Agarmir Agmaer Agnar Agning Agvar Akar Akarn Aklief Akovor Akvid Aldaug Aldferth Alding Aldis Aldrig Alfarinn Alfarmuth Alfbrand Alfhedil Alforunn Alfund Algar Algot Alldin Allding Allring Alof Alofheim Alofnorr Alohnorr Alskar Alvor Alvring Anders Andrei Andrelheim Andrin Andurs Andwulf Angbjar Angmund Angrenor Angrestag Angvid Arctus Areas Arek Argis Arkas Arkming Arnbjorn Arngeir Arnskar Aron Arrald Arvild Asbjorn Asgeir Ashvorn Aslfur Asord Assur Asvorn Atald Atar Aud Audmund Audrelheim Aventus Avulrund Avulstein Axdin Axdred Axrek Badnir Baissar Balbus Baldor Balfring Balgruuf Balimund Balmir Banthor Baradin Barfel Baric Barid Baring Barirrid Barj Barknar Baro Barro Baslod Bassianus Bathmar Bathorgh Bato Batou Baxard Baxlof Baxrold Bedraflod Bedrir Beifja Beinir Beirand Beirir Belgrod Belknar Bellin Belrand Belrud Benjor Benkum Benor Berfar Berj Bermund Bernt Berrek Bersi Bervid Birkir Birstagg Bittneld Bjadmund Bjalfi Bjaron Bjord Bjorick Bjorlam Bjornen Bjornolfr Bjoruld Bjorynolf Bofesar Bolgeir Bolgen Bolli Bolund Borald Boren Borfree Borgas Borgny Borjs Bormir Borodin Borri Borvir Boski Botrir Bottar Bottdold Bottild Boward Bragur Brandling Brandr Brauti Braxek Bredin Bredrek Breff Bren Brend Brendar Brendngul Briehl Brill Briring Broki Bron Brond Bronorr Bronrod Bronvid Brunelf Brunl Brunog Brunwulf Brurid Brus Bryngrim Brynjolf Brynjolfr Budolen Bulfrek Buram Burd Burdlam Burdog Burj Burl Buron Calder Carsten Carth Christer Connor Cord Cristus Dagard Dagimar Daglin Dagnir Dagrund Dagur Dagusil Dahfnar Dalen Dar Daric Darj Darynn Dathman Dedalor Dengeir Denskar Deor Derek Deroct Didywyr Dogun Drahff Dralof Drathak Dratholar Drendor Drengr Drennen Droi Drokagir Drorunn Dryngheid Eboric Eifbrir Eifid Eiman Eimander Eimar Einarr Einarth Eislef Eistaag Eitar Eldfyr Eldjar Eldrid Elgrim Elgryr Elmus Elsar Embry Emstagg Engar Engrod Ennbjof Eorlund Ergnir Erich Erik Erikar Erikur Erlendr Erling Erlnorr Erning Esbern Esling Euthar Faer Fafmeskr Fafnir Fafnyr Faled Falfinar Falk Falki Falsorr Fanar Farengar Fargurd Farisel Farkas Farro Felldir Fenjor Fenorfar Fenrig Fenrir Fens Filand Fildgor Filnjar Fjar Fjol Fjorgeir Fjori Fjorrod Fjotreid Fjrokvar Forbrand Forstaag Frahjan Fraki Frald Frik Frodnar Frofnir Froki Frongeir Fronjolf Frorkand Frorkmar Frothar Fruth Fuldir Fultheim Fultknir Gaddan Gadodar Gadof Gakar Gakurek Galmar Galthor Gamirth Gamwyn Ganariss Gandis Ganeryk Ganord Gar Gardalgar Garding Garm Garmal Garmar Garthar Garuk Gathotar Gauldur Geford Geilir Geilund Geimund Geirlund Geirmund Gekurek Gellir Ger Gerring Gerrunn Gesfur Gestur Gethmard Ghain Girgun Girunn Gisl Gissur Gjak Gjakerth Gjakil Gjalder Gjalrunn Gjalund Gjogni Gjorring Gjoson Gjudir Gjudusil Gjuk Gloth Godrod Gogondar Gogrek Gogrolf Gogvir Golldir Gollgarth Gomriss Gomund Gonnar Goren Gorm Gort Gortgryf Gralnach Graring Gregor Grimissar Grimvar Griskild Griss Grisvar Grjotgaror Groken Gromjolf Gromm Grundskar Grundvik Grundwulf Gud Gudaric Gudling Gudomar Gugnar Gugnir Gukimir Gunar Gunder Gunding Gundlar Gungrim Gunjar Gunmar Gunnar Gunskjar Gunthing Guraf Guram Guri Gurund Guthrum Haakon Hadkyr Hadmal Hadmar Hadrik Hadring Hadriss Hadvar Haening Haesmar Hafid Hafnar Hafric Hagrad Hajvarr Hak Hakar Haki Haknir Hakon Hakr Halbarn Hald Haldric Hallvaror Halnir Halof Halskar Halund Halvar Halyen Hamar Haming Hamlof Hamvir Hans Hanse Harald Haraldar Hargar Harik Harkon Harkskar Harlaug Harnald Harnskar Harnwulf Harrald Harvald Harvni Hasadif Hatunn Hauting Hautt Havilstein Hectur Heddic Hedstagg Hefadmir Hegris Heidmir Heifnir Heimdall Heimskr Heimvar Heinlen Heinrich Helfana Helthar Helvard Hemgar Hemjak Hemming Henrigg Henrik Heratar Herd Hermeskr Hermrek Hern Hernik Hervod Hewnon Hialmor Higil Hil Hildir Hirnir Hisin Hjalfar Hjalmer Hjalti Hjar Hjarknir Hjarkulf Hjarl Hjoag Hjognar Hjolard Hjoldir Hjolfrod Hjolm Hjord Hjorik Hjornskar Hjorunn Hjorvil Hjrondir Hjurring Hjurrun Hlar Hlofgar Hloggar Hlogling Hlora Hlormar Hoag Hoagding Hod Hodlismod Hodmar Hofgrad Hofgrir Hogfinn Hoggvir Hogni Hogondar Hojard Hoki Hokmal Hoknir Hokurek Hokusil Holgeir Holger Holgrim Holgunn Holguss Hollow-Leg Holmar Holsgar Holsorr Holstagg Holvur Hondulf Honmund Honrid Honthjolf Honththyr Horgeir Horik Horkvir Horm Horstar Hosgunn Hraelgar Hramdin Hrantin Hrargal Hreilund Hreinn Hridi Hrisskar Hroar Hrodmir Hrodulf Hrogar Hroggar Hroggi Hroi Hrol Hroldar Hrolfdir Hrolfgald Hrollod Hrolmir Hrolvar Hrolvir Hrondar Hrongar Hronolf Hrordulf Hrorgar Hrormir Hrothmund Hrundi Hrunvatr Hugin Hulgarth Hunrand Hunroor Hurg Hurnfing Hurolf Huroufar Hylf Idaug Idlami Idofrid Idolaf Iflin Ifuss Igeford Iglund Igmund Ingjaldr Ingmar Innarrek Inngyrr Innraek Irbjar Irg Irgnar Irlof Irnskar Irroke Irth Irthak Irthor Isilr Israk Istar Istler Istlod Itar Itman Ivandi Iver Jagyr Jakalor Jakaral Jaknir Jalmar Jaluud Jarning Jayred Jeek Jegg Jeggi Jeggming Jeggord Jeggrich Jegnorr Jemaar Jemalsorr Jending Jenssen Jervar Jesper Jod Jofarr Jofnhild Jofnir Jofstrom Jofthor Jofvarr Jofvid Jokorn Jolf Jolgeir Jollring Jomarr Jomathak Jomund Jon Jonder Joneif Jonndir Jorald Jorck Jorckleif Jorckyld Jordunn Joreld Jorg Jorgen Joric Jorleif Jorn Jorundr Jorunn Jorygg Jothorygg Jurgar Jurgen Jyrik Kadord Kadstig Kai Kaild Kailstig Kaleb Kalogar Kalthar Karl Karsten Keld Kemirik Kerthor Kharc Khord Kibell Kjakur Kjal Kjaluld Kjar Kjeld Kjeldrel Kjoric Klaandi Klaandor Klause Kleppr Klimmek Kluwe Knarstygg Knjakr Knud Knudikur Knudvarr Knurguri Kodlak Kodrir Koli Kor Korir Korsen Korst Kothheid Kotholl Kothon Kott Kottir Kragar Kragfarr Kralald Kraldar Krath Krathon Kraval Kunthar Kust Kuvar Kvenel Kyr Kyrnil Lanobert Lars Larsstar Larthjar Larthulf Lassnr Lathdar Leifskjyr Leifur Leigelf Lemkil Lennald Lennar Lennarth Lenne Lenning Littald Littid Littorn Littrek Littrel Littvolk Llewellyn Loate Lod Loddvaar Lodi Lodiss Lodorr Lodunn Lodvar Logangar Logod Logof Logorunn Logorvild Logrolf Logvaar Lokheim Lokil Lokir Lokka Lond Longald Longstig Lorenz Lorkmir Lorod Lortheim Lothakar Lothgar Lothnarth Lothson Lund Lungird Lunk Lyfskar Lygrleid Lynch Lynoit Maering Maginar Majni Majoll Majolrun Majorn Makoll Malofar Malsold Malsorr Malte Manheim Mantiarco Manwe Maraamun Maraamur Marald Maralfar Maralthon Markus Masord Mathies Mathmyar Mathon Mathondar Mathor Maul Maulkyr Meksim Melril Mendel Menro Merkyllian Metilius Mickal Mikael Mikfar Mikrul Miraak Mjorn Mjornys Mogens Molgrom Mordrold Mralki Mryfwiil Msirae Narfar Narfi Narfild Narir Narirold Narrald Narrek Nathon Nedasilf Neddrir Nedrek Nedrold Nelgyrr Nelkir Nels Newheim Niels Nielsar Nielsold Nielstig Nikulas Nikulund Nils Njial Njordemar Njordunn Njorfar Njorlund Nodur Nordahl Norgred Norring Nudz Nybder Nystrom Odar Odfel Odmi Odunn Oduvid Oengul Ogmann Ogmir Ogmund Ogondar Okulald Okurek Olaf Olav Olfand Olffik Olfrid Olgus Oljorn Ollfar Ollgord Ollrod Ollslid Olmarinn Olmgerd Ongar Onmi Onmund Ordun Orgnar Orgnolf Ormheid Ormvard Orryn Orstag Ort Orthjolf Ortis Ortvar Oslaf Otalich Otalvor Otroggar Otrovor Ottglund Pactuld Pactur Pelf Podalgar Podunn Pogmaan Poguf Povaren Radd Radwald Raedir Raerek Raflod Ragjar Ragnar Ragnor Rakoslod Ralduf Ralgar Ralof Ramth Ranmir Rargal Rarlmir Reggr Regner Regold Reinhardt Reinud Reistr Reves Rhorglund Rhorlak Rigel Rigmor Rigurt Rigvar Rikke Risfid Rissing Riurik Roeth Rofli Rogar Rogas Rogding Rogen Roggdvar Roggi Roggvar Roggvir Rogjoll Rolf Rolff Rolgarel Roliand Roloda Romord Rorfid Rorik Rorlund Rorngrek Rorred Rorthor Roruld Rorygg Rundi Runthor Rustleif Sabjorn Sabjur Sabonn Saborm Saerdor Saergar Saerhild Saerlund Saervild Saetring Safrid Sahun Sarjoll Sarnir Sattir Savard Selgaard Serrin Shalidor Sibbi Siddgeir Sifknir Sifmir Sifnar Sifvid Sig Sigaar Sigar Sigdis Sigunn Sigurd Sigvatr Sigyrr Sild Sinding Sinmir Sinos Sirgar Sirk Sirkjorg Sirkralf Sittar Sjarnfid Sjoring Sjorvar Skaggi Skalar Skald Skaldir Skalf Skardan Skavwulf Skegglund Skeggr Skjoldr Skjor Skjorlak Skoref Skorjan Skorm Skormknir Skorvild Skuli Skulnar Skulreid Skulvar Slafknir Slodrig Slonn Snadir Snaehild Snar Snarjolf Snedbrir Snilf Snilling Snorfin Snorreid Snorri Snorrvild Sober Sogrlaf Soin Solaf Sold Sond Songamdir Sor Sorben Sorkvild Sormund Sormuth Sorr Sorri Stalf Stalfgrif Stalkun Star Steidor Steir Steirod Sten Stenvadr Stenvar Stig Storn Strom Stromgruf Styrbjorn Styrr Sulrengar Sulvar Svaknir Svalkmar Svarkjar Svein Sven Svenjar Svenk Svergor Svog Swyk Talsgar Talsold Talsrel Talsvar Terr Terrfyg Thadgeir Thadgen Thadrig Thaer Thal Thalin Thaljorn Thallik Thalm Thalrig Thanethen Tharsten Thelen Thelm Thelman Thian Thjold Thjollod Thjordic Thod Thonar Thonarcal Thonengar Thongar Thongvor Thonjolf Thonnir Thorald Thorallod Thoran Thorbald Thorbjolf Thorek Thorgar Thoring Thormoor Thorormr Thorulf Thorvar Thorygg Thragnar Thragof Thralof Threfr Thrihild Throknolf Thromgar Thromkjar Thrud Thrynn Thulvald Thunsel Thurek Tobias Tolan Tolfdir Tolfwulf Tolgan Tolvor Toralf Torbal Torbjorn Torik Tork Torkalgar Torkild Torkming Torolf Torrold Torsten Torvar Torygg Tove Tovjor Treva Trilf Tsun Tulgruff Tulvar Tulvur Tun Tymvaul Tyr Tysnal Uche Uggald Uggissar Uggonn Uggurek Ulfarr Ulfberth Ulfgar Ulfgi Ulfnor Ulfr Ulfric Ulfslod Ulligor Ulov Undbjolf Undveld Unmid Unmidunn Unmidvild Unnvald Urf Urfing Urgjal Urik Urlach Vagakar Vagar Vaglof Vagloson Valbern Valbet Valbjorn Vald Valdar Valdemar Valdimar Valding Valdr Valdur Valeric Valgeir Vallric Valund Vanik Vanskyr Vanthongar Vastaag Vekel Velfred Verner Vestalsgar Vestord Vestrek Viddek Viddgjaldir Vidgrod Viding Vidkun Vidrald Vidstig Vidusil Vigard Vigge Vignar Vigrod Vigstrom Vigunn Vikord Vilbjorn Vilgis Vilkas Vilod Vipir Virgerd Virk Virkmund Virkvild Vkor Vladolfr Vofalgar Vofing Vofknir Vol Volharth Volk Volknar Volmann Vongvild Vonlef Vorenor Vorstag Votar Vrage Vuldurs Vulwulf Vundheim Vurlop Waren Wickam Widulf Wilbern Wilhelm Wilhem Wilminn Wilmuth Wilrek Wilvor Wisten Woan Woster Wrath Wulf Wulfdis Wulfgar Wulfharth Wulfmare Wuunferth Yavni Ygbal Yjarnn Ylgar Yll Yllondar Yngling Yngnavar Yngol Yngold Yngrel Yngvar Yngvid Yraldar Yringor Yrsarald Ysavild Ysgramor Ysgravald Ysmir Yust
}

ship_names = {
    Abelone Adana Adelhild Adelil Adisla Adla Aegilief Aela Aelakja Aelm Aera Aerana Aeri Aeridi Aeta Afnhi Agata Agila Agka Agna Agnedir Agnenor Agnete Agni Agnis Airia Ajorda Alana Aldi Alea Aleeka Alfa Alfhild Alga Algunda Alhana Alma Alva Alvide Amandtea Amifar Amihild Amitra Amwyn Anaka Angetha Angi Anise Anja Anjolda Anneke Annekke Anrunn Anska Araki Arani Areca Argi Ari Arnhilda Arva Asfredda Asga Asgi Asta Astrid Atli Atodir Attiri Attiring Attring Aubykka Auda Aumfi Aumsi Autrae Avwenn Awyn Axkiral Axulfa Balwyn Barri Beitild Bekka Bekwine Belfrost Belofa Bemfola Beovar Bera Berala Bergitte Bergljot Bergritte Beridi Beritta Berra Betedir Betrid Birgitha Birna Bjartur Bjertha Bodil Bolfrida Bolfrosti Bona Bonafryd Bonmund Bonohild Bonorvir Bontilf Bonwyn Borahild Borasa Boti Braning Branir Brannis Brasteir Brea Brecir Breda Bree Bresa Brey Breya Brigette Brima Brimfja Brina Bringuna Britte Brittgerd Brunka Bryfar Brygelva Bryling Bryring Bujold Burbet Caretaker Cathja Chalda Chalwyn Dagbara Dagny Dagrunn Dalitra Daljari Dalmidi Daneem Danica Danrine Deldwine Delia Deowyn Didrika Dorthe Drifa Drod Drodda Drosine Droslynne Drowyn Edith Edla Eepa Eerika Eigma Eila Eilenda Eiraki Eirfa Eirid Eirma Eiruki Eirul Eisa Eitaki Ekkhi Elda Elfbetta Elfriede Eling Elisgunne Elisif Ellisif Elpa Else Elsmira Emfrid Engling Enlaf Eoeilif Eofel Eoman Eoram Eorim Erdi Erekka Eris Erna Euda Evette Evigna Eydis Eydreigga Eydvi Eyja Faida Fairynn Faivera Falaki Faldar Falethea Falkyn Falwyn Fanari Farvild Fastred Faylva Feiri Finna Fjola Fjora Fjorda Fjori Fjoria Fjorna Fjorolfa Fjotli Fjotra Fjurdora Fortuna Frabbi Fralia Franja Frea Freca Fredo Frehilde Freida Freigritte Freir Freki Frena Frera Frerbild Fresgil Fresmara Freydis Frida Fridda Fridleif Fridrethe Fridrika Friga Frikkhild Frilgeth Frina Frirhild Frirvid Froa Froda Frohilde Fruki Frunda Fruvar Fryfnhild Frynga Fryssa Fugrete Fura Fyrulde Gabbi Gabbidi Gamdir Gamlunda Garfrost Garri Garrimar Garvilda Geidir Geinarre Geirilda Geirvarda Gekunn Gerda Gerdur Gertrun Gisli Gjaki Gjarma Gjarmal Gjarmi Gjarmiddi Gordjar Gormlaith Greca Greidil Greily Grelka Grelod Grerid Greta Grete Gretga Grethaa Grethveta Gretsine Gretta Greyf Grida Grigerda Grosta Grundi Grunhere Grunilda Grunirra Gukirmar Guldir Gulfa Gulfreida Gullveig Gulvera Gunneke Gunnijira Gunrietta Gunthafur Guridda Gurilda Guring Gwendolyn Gyda Hadarre Haelga Haema Hafjorg Haki Hakida Hakra Halbora Haldwyn Halfara Hali Hallfrida Halmaera Haltafi Halva Hama Hamal Hanana Hanmaer Hannir Hannura Haran Hauti Heddvild Hedstild Hefid Heggidi Heggvir Heimunda Hel Hela Helfhild Helga Helgana Helgi Helgird Helgith Helgreir Helrytta Helunda Hengeki Herdora Hergarda Herkja Hermir Hert Hestla Hidar Hil Hilde Hildegard Hildessa Hilka Hillevi Hilund Hilvira Himarit Himela Hjaga Hjagir Hjagmoda Hjalari Hjalif Hjara Hjaralda Hjarda Hjarfi Hjargredda Hjelda Hjolbel Hjolfrodi Hjolvara Hjordis Hjorga Hjotild Hjotra Hlakana Hloelott Hloenor Hlotild Hoddreid Hodyette Hola Holdilf Holmgeira Holsin Horski Hostia Hraerfja Hranasgi Hranir Hranura Hrarlief Hrasvard Hrefgerda Hrefna Hreifryd Hreirek Hridi Hroa Hroi Hroki Hrolda Hrordis Hrorleid Hrosaa Hrosta Hrotreid Huki Hulda Huolde Hyfta Hyring Hyunda Iddra Idela Idesa Idgrod Idirfa Idona Idvir Ig Igeke Igna Ilfhild Illdi Imsin Imwyn Inga Inge Ingjard Ingokning Ingrid Ingritha Ingun Innanir Innbild Innsold Iona Iosyl Irgeikka Irghild Irgkya Irgnir Irna Iroda Isgeror Isrudde Itnette Ittir Ittirma Jaddveig Jadfari Jadvar Jaema Jafelma Jaflinna Jafola Jafrera Jafrost Jaga Jakidi Jakieikka Jakild Jakirfa Jala Jalarma Jalrana Janekke Jardirr Jareen Jareki Jaritra Jarredda Jensine Jindra Jodis Jofgreida Jofrior Jolding Jolinne Jolridda Jora Joraamun Jordis Juda Julni Jyrwinn Kar Kara Karalgar Kari Karita Katilda Katisha Katja Katla Katria Katti Kelgerde Kerig Khala Kili Kirsten Kjo Kjolver Knarri Knumar Knutrida Kolfinna Kora Koralla Korra Koruni Krastir Kyrwyn Lafka Laila Lami Lareika Larsa Larula Leid Leiddrod Leidela Leidmir Leifnar Leifunda Leimaer Leofa Liesl Liezl Lilija Liljard Lillith Linlia Linnea Lis Lisaa Lisbet Lisylde Lorela Loria Lornor Lothafi Lydia Lyn Lynly Lyris Lyrvekka Mabbritte Mabjaarn Macalla Macke Madleena Madythe Maela Maeri Maesa Maeva Maigarda Malana Malene Malfa Malma Mareki Maren Marga Margarte Margot Margret Margretha Marla Matlara Maveld Maven Maylde Medild Medveig Megvarda Meldagar Meling Melora Mera Merete Merfa Merfnovira Merta Mette Minette Mistja Mjoll Molana Molla Molura Mornhilde Morwen Nadya Naer Narana Narri Narvilda Nelfhild Nelhilda Nelmir Nelmryn Nettanir Nette Nettira Nikaolde Nikolvara Nille Nilsine Njada Norra Nura Nurnhilde Obetta Oda Odana Oddny Odela Odlynd Odvar Odvild Ogra Okkhild Okula Olava Olda Olfeigr Olfina Olfjarda Olfrid Olveidi Olwenna Ondi Ophalia Ophanta Oranir Oriella Orla Ormi Orolo Osanne Othora Othvild Otried Ottaesa Pacta Petrine Raeirfa Raena Raerana Raevild Ragna Ragria Rakel Raki Rakiel Rangela Rannveig Reja Rena Rennbjara Rennilde Renrytte Resrytte Restla Reyda Rigel Rigmor Rikke Ringvild Risi Robjorn Rogrydda Roki Rolara Rolunda Rona Rosirma Rosrytta Rostlogi Roxwinne Rudagalfa Rudgreid Ruki Runa Runaki Runehild Sas Sasbekke Seirida Selma Serana Sernea Shana Shannia Shawna Signy Sigrid Sigva Silda Siri Siriaki Sirimunda Sirkidur Sisrytta Sissel Sivgrete Sivguna Sjarakki Sjarla Skaldara Skjor Skjorta Slatild Slonanir Slonn Snaeke Sofie Sofnete Soki Solding Songar Songdis Sonir Sonje Sonya Soralfa Sorga Sorli Sottilde Steirid Stodlod Stodrir Suretta Susanna Suwenna Svana Svanhildr Svargret Svari Svaritra Svarjarda Svarlyn Svenja Svilda Swangar Swanhvir Syl Sylgja Tekla Tela Temba Temgrid Thaena Thalda Thalestris Thalwyn Thastla Thelfreca Theofa Thogana Thoggrytte Thondir Thonja Thonki Thonlynn Thoreki Thorfa Thorka Thorkar Thorwyn Threki Thronoda Thunmund Thvidi Tidave Tidbrosti Tidvir Tilde Tillaki Tillrani Tilma Tilwen Tiredir Tirlarnar Tirora Todimar Toldi Tolfalki Tolfari Tolgredda Tolli Tormir Toryl Tova Tridi Trigrid Trihild Triirma Triwenna Troki Troulda Trynhild Tyrnea Ulfrun Ulfsild Ulrika Una Ursine Uthgerd Vaerarre Vaereid Val Valdia Valerica Valgritta Valinka Vaoldelf Vareda Varhilda Vari Veranir Vibeke Vidda Vigdis Vigwenn Vigya Viri Virmar Virngring Viveka Voddreid Vori Vothing Vunhilde Watha Ygfa Yiri Yllolda Yorda Yrkvild Yrna Yrning Yrsa Yrssteir Ysolda Zaan
}

army_names = {
    "Army of $PROVINCE$"
}

fleet_names = {
    "Fleet of $PROVINCE$"
}