graphical_culture = persiangfx

color = { 0 70 140 }

revolutionary_colors = { 14 14 12}


historical_idea_groups = {
}

historical_units = {
}

monarch_names = {
    "Ihledchu #0" = 10
    "Batvar #0" = 10
    "Mhuzgar #0" = 10
    "Tarlatz #0" = 10
    "Davlar #0" = 10
    "Tromgunch #0" = 10
    "Dhamuard #0" = 10
    "Gzozchyn #0" = 10
    "Bzrazgar #0" = 10
    "Ychogrenz #0" = 10
    "Mhunac #0" = 10
    "Mzaglan #0" = 10
    "Ghaznak #0" = 10
    "Rafnyg #0" = 10
    "Tugradac #0" = 10
    "Chragrenz #0" = 10
    "Yhnazzefk #0" = 10
    "Bhazchyn #0" = 10
    "Sthomin #0" = 10
    "Inratarn #0" = 10
    "Ihlefuan #0" = 10
    "Czadlin #0" = 10
    "Tnarlac #0" = 10
    "Chrudras #0" = 10
    "Ralen #0" = 10
    "Brehron #0" = 10
    "Rkudit #0" = 10
    "Mzamrumhz #0" = 10
    "Bzraban #0" = 10
    "Asradzach #0" = 10
    "Chiuhld #0" = 10
    "Czavzyrn #0" = 10
    "Brazzedit #0" = 10
    "Tahron #0" = 10
    "Dzragvin #0" = 10
    "Jholzarf #0" = 10
    "Achygrac #0" = 10
    "Talchanf #0" = 10
    "Miban #0" = 10
    "Tadlin #0" = 10
    "Jlarerhunch #0" = 10
    "Ishevnorz #0" = 10
    "Grubond #0" = 10
    "Ynzarlatz #0" = 10
    "Jnathunch #0" = 10
    "Choatchatz #0" = 10
    "Yhnazdir #0" = 10
    "Snelarn #0" = 10
    "Klazgar #0" = 10
    "Djubchasz #0" = 10
    "Jhouvin #0" = 10
    "Chruhnch #0" = 10
    "Sthord #0" = 10
    "Ralarn #0" = 10
    "Nchyhrek #0" = 10
    "Tzedrunz #0" = 10
    "Goundam #0" = 10
    "Izvumratz #0" = 10
    "Ghafuan #0" = 10
    "Szogarn #0" = 10
    "Jhourlac #0" = 10
    "Tzenruz #0" = 10
    "Jnavraz #0" = 10
    "Chzetvar #0" = 10
    "Nebgar #0" = 10
    "Izvulzarf #0" = 10
    "Jrudit #0" = 10
    "Kolzarf #0" = 10
    "Rafk #0" = 10
    "Dzredras #0" = 10
    "Mchavin #0" = 10
    "Chzevragch #0" = 10
    "Cuohrek #0" = 10
    "Jragrenz #0" = 10
    "Klalzrak #0" = 10
    "Ychogarn #0" = 10
    "Ythamac #0" = 10
    "Crafrysz #0" = 10
    "Jlarenzgar #0" = 10
    "Inrarlakch #0" = 10
    "Chiuvnak #0" = 10
    "Choalchanf #0" = 10
    "Dark #0" = 10
    "Alnomratz #0" = 10
    "Rhzomrond #0" = 10
    "Mhanrazg #0" = 10
    "Tnadrak #0" = 10
    "Agahuanch #0" = 10
    "Churd #0" = 10
    "Alnodrunz #0" = 10
    "Irhadac #0" = 10
    "Ynzatarn #0" = 10
    "Nchynac #0" = 10
    "Chzemgunch #0" = 10
    "Nedac #0" = 10
    "Alnogwetch #0" = 10
    "Rhzorhunch #0" = 10
    "Grabnanch #0" = 10
    "Achyggo #0" = 10
    "Asrahuanch #0" = 10

    "Rlovrin #0" = -10
    "Mebchasz #0" = -10
    "Ioranrida #0" = -10
    "Jhonzcharn #0" = -10
    "Mlirtes #0" = -10
    "Carelchanf #0" = -10
    "Ararbira #0" = -10
    "Ksredlin #0" = -10
    "Gonwess #0" = -10
    "Jlethurzch #0" = -10
    "Byrahken #0" = -10
    "Snenard #0" = -10
    "Mlirloar #0" = -10
    "Grigarn #0" = -10
    "Blulnmer #0" = -10
    "Asradlin #0" = -10
    "Bluhzis #0" = -10
    "Snebchasz #0" = -10
    "Chrotwern #0" = -10
    "Nromgunch #0" = -10
    "Rlorlis #0" = -10
    "Nchuzalf #0" = -10
    "Drertes #0" = -10
    "Tchazchyn #0" = -10
    "Czoudrys #0" = -10
    "Ylregriln #0" = -10
    "Asranrynn #0" = -10
    "Cheglas #0" = -10
    "Szozchyn #0" = -10
    "Azsanwess #0" = -10
    "Choadzach #0" = -10
    "Krilnif #0" = -10
    "Izvutchatz #0" = -10
    "Cfradrys #0" = -10
    "Ilzeglan #0" = -10
    "Somzlin #0" = -10
    "Jhomrumhz #0" = -10
    "Shtrozril #0" = -10
    "Banrynn #0" = -10
    "Mravlara #0" = -10
    "Chzefrach #0" = -10
    "Kamzlin #0" = -10
    "Rhothurzch #0" = -10
    "Csilirda #0" = -10
    "Chzegrenz #0" = -10
    "Blunrida #0" = -10
    "Mrotchatz #0" = -10
    "Aravlen #0" = -10
    "Badzach #0" = -10
    "Bluvzal #0" = -10
    "Melchanf #0" = -10
    "Jozlen #0" = -10
    "Choahretz #0" = -10
    "Mrazlen #0" = -10
    "Gzovnorz #0" = -10
    "Yzrahrada #0" = -10
    "Ynzarlakch #0" = -10
    "Ithorves #0" = -10
    "Gzonrynn #0" = -10
    "Szoglynsh #0" = -10
    "Cfranhatch #0" = -10
    "Ksrefurn #0" = -10
    "Kridhis #0" = -10
    "Nrotchzan #0" = -10
    "Doudrys #0" = -10
    "Djuhnch #0" = -10
    "Doudhis #0" = -10
    "Jravarn #0" = -10
    "Shtrorlis #0" = -10
    "Krevzyrn #0" = -10
    "Mherbira #0" = -10
    "Mrobwarn #0" = -10
    "Sohner #0" = -10
    "Izvuvretch #0" = -10
    "Aknanwess #0" = -10
    "Ryumorn #0" = -10
    "Krincha #0" = -10
    "Nohnch #0" = -10
    "Damtrin #0" = -10
    "Yabaln #0" = -10
    "Ruerbira #0" = -10
    "Nhetchatz #0" = -10
    "Glibrina #0" = -10
    "Drunrynn #0" = -10
    "Ylrefwinn #0" = -10
    "Dzreglan #0" = -10
    "Jribwyr #0" = -10
    "Chzebchasz #0" = -10
    "Nhezril #0" = -10
    "Nromratz #0" = -10
    "Yzranrida #0" = -10
    "Asratchzan #0" = -10
    "Irdarlis #0" = -10
    "Tronruz #0" = -10
    "Azsamchin #0" = -10
    "Asramrumhz #0" = -10
    "Cheftris #0" = -10
    "Ychohnch #0" = -10
}

leader_names = {
    Ihledchu Batvar Mhuzgar Tarlatz Davlar Tromgunch Dhamuard Gzozchyn Bzrazgar Ychogrenz Mhunac Mzaglan Ghaznak Rafnyg Tugradac Chragrenz Yhnazzefk Bhazchyn Sthomin Inratarn Ihlefuan Czadlin Tnarlac Chrudras Ralen Brehron Rkudit Mzamrumhz Bzraban Asradzach Chiuhld Czavzyrn Brazzedit Tahron Dzragvin Jholzarf Achygrac Talchanf Miban Tadlin Jlarerhunch Ishevnorz Grubond Ynzarlatz Jnathunch Choatchatz Yhnazdir Snelarn Klazgar Djubchasz Jhouvin Chruhnch Sthord Ralarn Nchyhrek Tzedrunz Goundam Izvumratz Ghafuan Szogarn Jhourlac Tzenruz Jnavraz Chzetvar Nebgar Izvulzarf Jrudit Kolzarf Rafk Dzredras Mchavin Chzevragch Cuohrek Jragrenz Klalzrak Ychogarn Ythamac Crafrysz Jlarenzgar Inrarlakch Chiuvnak Choalchanf Dark Alnomratz Rhzomrond Mhanrazg Tnadrak Agahuanch Churd Alnodrunz Irhadac Ynzatarn Nchynac Chzemgunch Nedac Alnogwetch Rhzorhunch Grabnanch Achyggo Asrahuanch
}

ship_names = {
    Rlovrin Mebchasz Ioranrida Jhonzcharn Mlirtes Carelchanf Ararbira Ksredlin Gonwess Jlethurzch Byrahken Snenard Mlirloar Grigarn Blulnmer Asradlin Bluhzis Snebchasz Chrotwern Nromgunch Rlorlis Nchuzalf Drertes Tchazchyn Czoudrys Ylregriln Asranrynn Cheglas Szozchyn Azsanwess Choadzach Krilnif Izvutchatz Cfradrys Ilzeglan Somzlin Jhomrumhz Shtrozril Banrynn Mravlara Chzefrach Kamzlin Rhothurzch Csilirda Chzegrenz Blunrida Mrotchatz Aravlen Badzach Bluvzal Melchanf Jozlen Choahretz Mrazlen Gzovnorz Yzrahrada Ynzarlakch Ithorves Gzonrynn Szoglynsh Cfranhatch Ksrefurn Kridhis Nrotchzan Doudrys Djuhnch Doudhis Jravarn Shtrorlis Krevzyrn Mherbira Mrobwarn Sohner Izvuvretch Aknanwess Ryumorn Krincha Nohnch Damtrin Yabaln Ruerbira Nhetchatz Glibrina Drunrynn Ylrefwinn Dzreglan Jribwyr Chzebchasz Nhezril Nromratz Yzranrida Asratchzan Irdarlis Tronruz Azsamchin Asramrumhz Cheftris Ychohnch
}

army_names = {
    "Army of $PROVINCE$"
}

fleet_names = {
    "Fleet of $PROVINCE$"
}