graphical_culture = thaigfx

color = { 246 246 246 }

revolutionary_colors = { 14 12 15}


historical_idea_groups = {
}

historical_units = {
}

monarch_names = {
    "Kaz #0" = 10
    "Les #0" = 10
    "Par #0" = 10
    "Dustu #0" = 10
    "Fen #0" = 10
    "Thewud #0" = 10
    "Pan #0" = 10
    "Pihya #0" = 10
    "Gon #0" = 10
    "Sok #0" = 10
    "Krakug #0" = 10
    "Derreho #0" = 10
    "Voldar #0" = 10
    "Su #0" = 10
    "Ramoz #0" = 10
    "Pu #0" = 10
    "Qokug #0" = 10
    "Thom #0" = 10
    "Gaduyd #0" = 10
    "Suhorrur #0" = 10
    "Chaz #0" = 10
    "Livosu #0" = 10
    "Feg #0" = 10
    "Funded #0" = 10
    "Pad #0" = 10
    "Lun #0" = 10
    "Nuk #0" = 10
    "Fiestemo #0" = 10
    "Kev #0" = 10
    "Rowendurr #0" = 10
    "Fuzzaz #0" = 10
    "Tid #0" = 10
    "Ruldov #0" = 10
    "Thurr #0" = 10
    "Zohlad #0" = 10
    "Sen #0" = 10
    "Duhlan #0" = 10
    "Tho #0" = 10
    "Nahag #0" = 10
    "Biso #0" = 10
    "Mur #0" = 10
    "Kontessu #0" = 10
    "Krer #0" = 10
    "Bundrumu #0" = 10
    "Vag #0" = 10
    "Rolum #0" = 10
    "Kruyd #0" = 10
    "Sehondek #0" = 10
    "Quv #0" = 10
    "Kumolen #0" = 10
    "Qadun #0" = 10
    "Terterul #0" = 10
    "Pakhak #0" = 10
    "Demusdoor #0" = 10
    "Puhak #0" = 10
    "Sorove #0" = 10
    "Chekhav #0" = 10
    "Dos #0" = 10
    "Mekaz #0" = 10
    "Tusserr #0" = 10
    "Moyd #0" = 10
    "Dowyandu #0" = 10
    "Gur #0" = 10
    "Ti #0" = 10
    "Chav #0" = 10
    "Kusdere #0" = 10
    "Zud #0" = 10
    "Pon #0" = 10
    "Fon #0" = 10
    "De #0" = 10
    "Chehlon #0" = 10
    "Pek #0" = 10
    "Remoz #0" = 10
    "Ruvo #0" = 10
    "Rozzeg #0" = 10
    "Lundrus #0" = 10
    "Chuhleyd #0" = 10
    "Thur #0" = 10
    "Rondez #0" = 10
    "Piak #0" = 10
    "Fog #0" = 10
    "Ked #0" = 10
    "Krez #0" = 10
    "Pundem #0" = 10
    "Mag #0" = 10
    "Kontessoor #0" = 10
    "Ven #0" = 10
    "Lihya #0" = 10
    "Fov #0" = 10
    "Piruhus #0" = 10
    "Neyak #0" = 10
    "Tus #0" = 10
    "Dalnog #0" = 10
    "Den #0" = 10
    "Chadhak #0" = 10
    "Domdondrul #0" = 10
    "Gelnar #0" = 10
    "Tehuntu #0" = 10
    "Doknog #0" = 10
    "Fiandok #0" = 10

    "Gu #0" = -10
    "Dume #0" = -10
    "So #0" = -10
    "For #0" = -10
    "Qe #0" = -10
    "Susdevu #0" = -10
    "Chesu #0" = -10
    "Bim #0" = -10
    "Fovi #0" = -10
    "Sentyam #0" = -10
    "Nessis #0" = -10
    "Bororr #0" = -10
    "Shogi #0" = -10
    "Pin #0" = -10
    "Qecnymos #0" = -10
    "Lud #0" = -10
    "Fiyycnes #0" = -10
    "Pi #0" = -10
    "Qarcyseim #0" = -10
    "Settu #0" = -10
    "Win #0" = -10
    "Lissok #0" = -10
    "Cin #0" = -10
    "De #0" = -10
    "Ciar #0" = -10
    "Luhu #0" = -10
    "Karken #0" = -10
    "Thusdu #0" = -10
    "Susthae #0" = -10
    "Tiar #0" = -10
    "Drustho #0" = -10
    "Tehortes #0" = -10
    "Wolcor #0" = -10
    "Tilnen #0" = -10
    "Shrinetuk #0" = -10
    "Lisurr #0" = -10
    "Delolcok #0" = -10
    "Therr #0" = -10
    "Qusoky #0" = -10
    "Sieherr #0" = -10
    "Nu #0" = -10
    "Bo #0" = -10
    "Shu #0" = -10
    "Sierrosde #0" = -10
    "Chen #0" = -10
    "Tuwurtus #0" = -10
    "Dirskyts #0" = -10
    "Furesses #0" = -10
    "Nontrae #0" = -10
    "Lu #0" = -10
    "Curcu #0" = -10
    "Kumdem #0" = -10
    "Munok #0" = -10
    "Rilu #0" = -10
    "Sagecnar #0" = -10
    "Luwume #0" = -10
    "Wegichuk #0" = -10
    "Thuhelnum #0" = -10
    "Klirkugots #0" = -10
    "Dohortus #0" = -10
    "Sor #0" = -10
    "Dis #0" = -10
    "Kil #0" = -10
    "Sohemool #0" = -10
    "Lin #0" = -10
    "Lis #0" = -10
    "Qevor #0" = -10
    "Listus #0" = -10
    "Qachil #0" = -10
    "Se #0" = -10
    "Nuyul #0" = -10
    "Beme #0" = -10
    "Milin #0" = -10
    "Rusdevyal #0" = -10
    "Droryrko #0" = -10
    "Thud #0" = -10
    "Macmecnol #0" = -10
    "Sirendrurr #0" = -10
    "Gakuveets #0" = -10
    "Sovoosum #0" = -10
    "La #0" = -10
    "Somdok #0" = -10
    "Shreyl #0" = -10
    "Dur #0" = -10
    "Le #0" = -10
    "Chiantre #0" = -10
    "Luttesso #0" = -10
    "Shracmur #0" = -10
    "Fulnod #0" = -10
    "Shrugi #0" = -10
    "Tosdul #0" = -10
    "Neta #0" = -10
    "Dowentem #0" = -10
    "Dicnusthak #0" = -10
    "Dusturo #0" = -10
    "Cisaclol #0" = -10
    "Rile #0" = -10
    "Dochecmea #0" = -10
    "Ther #0" = -10
}

leader_names = {
    Kaz Les Par Dustu Fen Thewud Pan Pihya Gon Sok Krakug Derreho Voldar Su Ramoz Pu Qokug Thom Gaduyd Suhorrur Chaz Livosu Feg Funded Pad Lun Nuk Fiestemo Kev Rowendurr Fuzzaz Tid Ruldov Thurr Zohlad Sen Duhlan Tho Nahag Biso Mur Kontessu Krer Bundrumu Vag Rolum Kruyd Sehondek Quv Kumolen Qadun Terterul Pakhak Demusdoor Puhak Sorove Chekhav Dos Mekaz Tusserr Moyd Dowyandu Gur Ti Chav Kusdere Zud Pon Fon De Chehlon Pek Remoz Ruvo Rozzeg Lundrus Chuhleyd Thur Rondez Piak Fog Ked Krez Pundem Mag Kontessoor Ven Lihya Fov Piruhus Neyak Tus Dalnog Den Chadhak Domdondrul Gelnar Tehuntu Doknog Fiandok
}

ship_names = {
    Gu Dume So For Qe Susdevu Chesu Bim Fovi Sentyam Nessis Bororr Shogi Pin Qecnymos Lud Fiyycnes Pi Qarcyseim Settu Win Lissok Cin De Ciar Luhu Karken Thusdu Susthae Tiar Drustho Tehortes Wolcor Tilnen Shrinetuk Lisurr Delolcok Therr Qusoky Sieherr Nu Bo Shu Sierrosde Chen Tuwurtus Dirskyts Furesses Nontrae Lu Curcu Kumdem Munok Rilu Sagecnar Luwume Wegichuk Thuhelnum Klirkugots Dohortus Sor Dis Kil Sohemool Lin Lis Qevor Listus Qachil Se Nuyul Beme Milin Rusdevyal Droryrko Thud Macmecnol Sirendrurr Gakuveets Sovoosum La Somdok Shreyl Dur Le Chiantre Luttesso Shracmur Fulnod Shrugi Tosdul Neta Dowentem Dicnusthak Dusturo Cisaclol Rile Dochecmea Ther
}

army_names = {
    "Army of $PROVINCE$"
}

fleet_names = {
    "Fleet of $PROVINCE$"
}