graphical_culture = northamericagfx

color = { 212 145 21 }

revolutionary_colors = { 11 13 10}


historical_idea_groups = {
}

historical_units = {
}

monarch_names = {
    "Morull #0" = 10
    "Niti #0" = 10
    "Korrol #0" = 10
    "Loga #0" = 10
    "Roronk #0" = 10
    "Amall #0" = 10
    "Elo #0" = 10
    "Ejas #0" = 10
    "Iluk #0" = 10
    "Era #0" = 10
    "Bumi #0" = 10
    "Rimink #0" = 10
    "Lungo #0" = 10
    "Tissu #0" = 10
    "Maka #0" = 10
    "Co #0" = 10
    "Mo #0" = 10
    "Aja #0" = 10
    "Za #0" = 10
    "Uma #0" = 10
    "Tibalph #0" = 10
    "Rokunk #0" = 10
    "Karro #0" = 10
    "Laki #0" = 10
    "Kolos #0" = 10
    "Abom #0" = 10
    "Ocim #0" = 10
    "Ejok #0" = 10
    "Ro #0" = 10
    "Ru #0" = 10
    "Lassul #0" = 10
    "Raroll #0" = 10
    "Kirrank #0" = 10
    "Kako #0" = 10
    "Jarri #0" = 10
    "Iron #0" = 10
    "Do #0" = 10
    "Lok #0" = 10
    "Iko #0" = 10
    "Ilok #0" = 10
    "Kaba #0" = 10
    "Lako #0" = 10
    "Ratos #0" = 10
    "Amulph #0" = 10
    "Balalph #0" = 10
    "Uka #0" = 10
    "Odu #0" = 10
    "Iju #0" = 10
    "Amank #0" = 10
    "Eba #0" = 10
    "Kimah #0" = 10
    "Jatalph #0" = 10
    "Bamah #0" = 10
    "Nirro #0" = 10
    "Zorran #0" = 10
    "Oto #0" = 10
    "Ozam #0" = 10
    "Ana #0" = 10
    "Ako #0" = 10
    "Ma #0" = 10
    "Romi #0" = 10
    "Rirah #0" = 10
    "Dabam #0" = 10
    "Cama #0" = 10
    "Borrolph #0" = 10
    "Elom #0" = 10
    "Unu #0" = 10
    "Jis #0" = 10
    "Tus #0" = 10
    "Ilas #0" = 10
    "Nungah #0" = 10
    "Torun #0" = 10
    "Cikas #0" = 10
    "Tabo #0" = 10
    "Rugoh #0" = 10
    "Nok #0" = 10
    "Zoll #0" = 10
    "Eza #0" = 10
    "Ajulph #0" = 10
    "Ezon #0" = 10
    "Zorim #0" = 10
    "Marra #0" = 10
    "Catilph #0" = 10
    "Dazunk #0" = 10
    "Makonk #0" = 10
    "Cink #0" = 10
    "Ejonk #0" = 10
    "Elank #0" = 10
    "Itoll #0" = 10
    "Li #0" = 10
    "Zanga #0" = 10
    "Lugah #0" = 10
    "Mongank #0" = 10
    "Torrok #0" = 10
    "Bagom #0" = 10
    "Lolph #0" = 10
    "Ibull #0" = 10
    "Ra #0" = 10
    "Aco #0" = 10
    "Dos #0" = 10

    "Rinie #0" = -10
    "Hiphi #0" = -10
    "Rotris #0" = -10
    "Naldel #0" = -10
    "Cofil #0" = -10
    "Amel #0" = -10
    "Eniem #0" = -10
    "Oshis #0" = -10
    "Eshel #0" = -10
    "Oci #0" = -10
    "Caldia #0" = -10
    "Holdal #0" = -10
    "Mitrean #0" = -10
    "Nemi #0" = -10
    "Oria #0" = -10
    "Eti #0" = -10
    "Ophem #0" = -10
    "Ashe #0" = -10
    "Ihie #0" = -10
    "Iciesh #0" = -10
    "Reshi #0" = -10
    "Hise #0" = -10
    "Philam #0" = -10
    "Risias #0" = -10
    "Thone #0" = -10
    "Ashian #0" = -10
    "Acol #0" = -10
    "Imo #0" = -10
    "Efie #0" = -10
    "Ofie #0" = -10
    "Mola #0" = -10
    "Fimbi #0" = -10
    "Melen #0" = -10
    "Foshis #0" = -10
    "Phashiesh #0" = -10
    "Iceas #0" = -10
    "Othea #0" = -10
    "Esan #0" = -10
    "Ahia #0" = -10
    "Eha #0" = -10
    "Caphi #0" = -10
    "Sitreash #0" = -10
    "Shipath #0" = -10
    "Mipith #0" = -10
    "Phive #0" = -10
    "Arie #0" = -10
    "Oties #0" = -10
    "Oshe #0" = -10
    "Imeis #0" = -10
    "Ahi #0" = -10
    "Shatrei #0" = -10
    "Ropeas #0" = -10
    "Thasom #0" = -10
    "Thasias #0" = -10
    "Shophe #0" = -10
    "Ineth #0" = -10
    "Atie #0" = -10
    "Ocish #0" = -10
    "Isiath #0" = -10
    "Ahen #0" = -10
    "Tirea #0" = -10
    "Tereil #0" = -10
    "Casel #0" = -10
    "Hofie #0" = -10
    "Miphin #0" = -10
    "Ifith #0" = -10
    "Osa #0" = -10
    "Efeth #0" = -10
    "Ohei #0" = -10
    "Osheth #0" = -10
    "Phalde #0" = -10
    "Shelde #0" = -10
    "Coshesh #0" = -10
    "Hashie #0" = -10
    "Momes #0" = -10
    "Tifiash #0" = -10
    "Ocem #0" = -10
    "Otean #0" = -10
    "Athish #0" = -10
    "Ethie #0" = -10
    "Mapha #0" = -10
    "Phavash #0" = -10
    "Himia #0" = -10
    "Hiran #0" = -10
    "Fepis #0" = -10
    "Ethe #0" = -10
    "Asian #0" = -10
    "Ifea #0" = -10
    "Othal #0" = -10
    "Ephe #0" = -10
    "Fophi #0" = -10
    "Nildol #0" = -10
    "Namei #0" = -10
    "Tishath #0" = -10
    "Rimbos #0" = -10
    "Efa #0" = -10
    "Epha #0" = -10
    "Isin #0" = -10
    "Imon #0" = -10
    "Ashil #0" = -10
}

leader_names = {
    Morull Niti Korrol Loga Roronk Amall Elo Ejas Iluk Era Bumi Rimink Lungo Tissu Maka Co Mo Aja Za Uma Tibalph Rokunk Karro Laki Kolos Abom Ocim Ejok Ro Ru Lassul Raroll Kirrank Kako Jarri Iron Do Lok Iko Ilok Kaba Lako Ratos Amulph Balalph Uka Odu Iju Amank Eba Kimah Jatalph Bamah Nirro Zorran Oto Ozam Ana Ako Ma Romi Rirah Dabam Cama Borrolph Elom Unu Jis Tus Ilas Nungah Torun Cikas Tabo Rugoh Nok Zoll Eza Ajulph Ezon Zorim Marra Catilph Dazunk Makonk Cink Ejonk Elank Itoll Li Zanga Lugah Mongank Torrok Bagom Lolph Ibull Ra Aco Dos
}

ship_names = {
    Rinie Hiphi Rotris Naldel Cofil Amel Eniem Oshis Eshel Oci Caldia Holdal Mitrean Nemi Oria Eti Ophem Ashe Ihie Iciesh Reshi Hise Philam Risias Thone Ashian Acol Imo Efie Ofie Mola Fimbi Melen Foshis Phashiesh Iceas Othea Esan Ahia Eha Caphi Sitreash Shipath Mipith Phive Arie Oties Oshe Imeis Ahi Shatrei Ropeas Thasom Thasias Shophe Ineth Atie Ocish Isiath Ahen Tirea Tereil Casel Hofie Miphin Ifith Osa Efeth Ohei Osheth Phalde Shelde Coshesh Hashie Momes Tifiash Ocem Otean Athish Ethie Mapha Phavash Himia Hiran Fepis Ethe Asian Ifea Othal Ephe Fophi Nildol Namei Tishath Rimbos Efa Epha Isin Imon Ashil
}

army_names = {
    "Army of $PROVINCE$"
}

fleet_names = {
    "Fleet of $PROVINCE$"
}