graphical_culture = southamericagfx

color = { 130 19 60 }

revolutionary_colors = { 6 13 12}


historical_idea_groups = {
}

historical_units = {
}

monarch_names = {
    "Acamas #0" = 10
    "Achenum #0" = 10
    "Alwe #0" = 10
    "Aranlel #0" = 10
    "Ararcinlos #0" = 10
    "Arsamlel #0" = 10
    "Arsoth #0" = 10
    "Arstul #0" = 10
    "Arumondros #0" = 10
    "Aryaamo #0" = 10
    "Camandar #0" = 10
    "Carjykne #0" = 10
    "Carnum #0" = 10
    "Caryrparnil #0" = 10
    "Cecmeros #0" = 10
    "Cecnya #0" = 10
    "Cecrasnil #0" = 10
    "Chryinius #0" = 10
    "Chryloa #0" = 10
    "Cingulnya #0" = 10
    "Cinulisloa #0" = 10
    "Cinya #0" = 10
    "Ciyrdar #0" = 10
    "Colaadron #0" = 10
    "Coloirros #0" = 10
    "Culqraauloth #0" = 10
    "Daildor #0" = 10
    "Dairtil #0" = 10
    "Deswe #0" = 10
    "Eilgun #0" = 10
    "Eillinnya #0" = 10
    "Gulcarmemo #0" = 10
    "Heculoa #0" = 10
    "Hetnorlinmo #0" = 10
    "Heyrral #0" = 10
    "Ieardron #0" = 10
    "Ilarral #0" = 10
    "Ilral #0" = 10
    "Iphiculdar #0" = 10
    "Iphidamas #0" = 10
    "Iphilinmanius #0" = 10
    "Isanmetil #0" = 10
    "Isardor #0" = 10
    "Ischryros #0" = 10
    "Isculpandil #0" = 10
    "Isooniril #0" = 10
    "Isqraasar #0" = 10
    "Jahuuyetil #0" = 10
    "Jykion #0" = 10
    "Jykisvisdo #0" = 10
    "Jyklos #0" = 10
    "Jykoth #0" = 10
    "Jyktil #0" = 10
    "Laanhetmo #0" = 10
    "Laaviil #0" = 10
    "Ladesmerdo #0" = 10
    "Larnil #0" = 10
    "Laselel #0" = 10
    "Lerdaran #0" = 10
    "Lerneine #0" = 10
    "Linmalwe #0" = 10
    "Linsar #0" = 10
    "Linundil #0" = 10
    "Loqraacecdron #0" = 10
    "Lorlel #0" = 10
    "Lornendron #0" = 10
    "Malleroth #0" = 10
    "Mallinpansar #0" = 10
    "Manhetil #0" = 10
    "Mannum #0" = 10
    "Merlolos #0" = 10
    "Monmaldor #0" = 10
    "Monwe #0" = 10
    "Mudo #0" = 10
    "Neiral #0" = 10
    "Nenleroonoth #0" = 10
    "Ninordor #0" = 10
    "Nitil #0" = 10
    "Nordo #0" = 10
    "Norevalion #0" = 10
    "Normanyedil #0" = 10
    "Norrasdar #0" = 10
    "Noryaaius #0" = 10
    "Noryesar #0" = 10
    "Nurdron #0" = 10
    "Ohavislel #0" = 10
    "Ohmanil #0" = 10
    "Oonil #0" = 10
    "Oonnum #0" = 10
    "Orgnum #0" = 10
    "Panlaane #0" = 10
    "Pannenvissar #0" = 10
    "Parondo #0" = 10
    "Pelcodar #0" = 10
    "Pelius #0" = 10
    "Qraalel #0" = 10
    "Rassene #0" = 10
    "Rirlel #0" = 10
    "Roddar #0" = 10
    "Rodevsamnum #0" = 10
    "Rodisloa #0" = 10
    "Rodnurnum #0" = 10
    "Rodros #0" = 10
    "Sewe #0" = 10
    "Tyhewe #0" = 10
    "Tyisral #0" = 10
    "Uldor #0" = 10
    "Ulondil #0" = 10
    "Umhelel #0" = 10
    "Unandil #0" = 10
    "Ungun #0" = 10
    "Unmenmo #0" = 10
    "Unwe #0" = 10
    "Uueildor #0" = 10
    "Uulos #0" = 10
    "Uumernenil #0" = 10
    "Vagun #0" = 10
    "Valaran #0" = 10
    "Vayaatul #0" = 10
    "Viscarne #0" = 10
    "Viscultil #0" = 10
    "Vismonnennum #0" = 10
    "Yaacooth #0" = 10
    "Yaalaadar #0" = 10
    "Yealros #0" = 10
    "Yenormenya #0" = 10
    "Yrdron #0" = 10
    "Yrius #0" = 10

    "Cectyda #0" = -10
    "Chryseis #0" = -10
    "Cinurmion #0" = -10
    "Despina #0" = -10
    "Hetsha #0" = -10
    "Ilyria #0" = -10
    "Irinwe #0" = -10
    "Ismenida #0" = -10
    "Jahlasri #0" = -10
    "Neidir #0" = -10
    "Ohalorne #0" = -10
    "Panardil #0" = -10
    "Sameht #0" = -10
    "Terirwen #0" = -10
    "Umuor #0" = -10
    "Virindi #0" = -10
    "Yalorasse #0" = -10
    "Ieda #0" = -10
    "Arslone #0" = -10
    "Alleria #0" = -10
    "Unse #0" = -10
    "Isuneis #0" = -10
    "Cacarlermion #0" = -10
    "Ohlayrwen #0" = -10
    "Paror #0" = -10
    "Arcinviwen #0" = -10
    "Iriene #0" = -10
    "Oondir #0" = -10
    "Anarwen #0" = -10
    "Isnencamia #0" = -10
    "Jykgulmion #0" = -10
    "Arwen #0" = -10
    "Ondcareis #0" = -10
    "Arslana #0" = -10
    "Yryrna #0" = -10
    "Desohcana #0" = -10
    "Arpanculdir #0" = -10
    "Monneieis #0" = -10
    "Cararne #0" = -10
    "Irpelarssha #0" = -10
    "Chryiphidi #0" = -10
    "Pelrasanse #0" = -10
    "Ansri #0" = -10
    "Isarsnidir #0" = -10
    "Vilaroonmion #0" = -10
    "Lase #0" = -10
    "Ienurdil #0" = -10
    "Laarsri #0" = -10
    "Manmanse #0" = -10
    "Ulcoarssha #0" = -10
    "Chrylana #0" = -10
    "Chryrodor #0" = -10
    "Camyrda #0" = -10
    "Lordi #0" = -10
    "Acarsha #0" = -10
    "Ohasri #0" = -10
    "Vihetdir #0" = -10
    "Niohpelna #0" = -10
    "Arlarasse #0" = -10
    "Jahnidil #0" = -10
    "Lermonda #0" = -10
    "Norania #0" = -10
    "Locounna #0" = -10
    "Desparohasri #0" = -10
    "Chryda #0" = -10
    "Vimevismion #0" = -10
    "Roddi #0" = -10
    "Desheneior #0" = -10
    "Vaeht #0" = -10
    "Peldi #0" = -10
    "Panladil #0" = -10
    "Isda #0" = -10
    "Insri #0" = -10
    "Ircecsri #0" = -10
    "Parevdil #0" = -10
    "Ilciia #0" = -10
    "Pelwe #0" = -10
    "Ieeis #0" = -10
    "Inaneht #0" = -10
    "Rinyaondlindir #0" = -10
    "Unia #0" = -10
    "Neinendessri #0" = -10
    "Anpanne #0" = -10
    "Memanwen #0" = -10
    "Jykne #0" = -10
    "Guliesha #0" = -10
    "Cinqraasha #0" = -10
    "Anlaadil #0" = -10
    "Nise #0" = -10
    "Armalda #0" = -10
    "Caiphijahsha #0" = -10
    "Arsrodsri #0" = -10
    "Orgcarsri #0" = -10
    "Alnorevia #0" = -10
    "Gulsha #0" = -10
    "Cardir #0" = -10
    "Ohaevda #0" = -10
    "Desnorwen #0" = -10
    "Lermenwen #0" = -10
    "Pelaleht #0" = -10
    "Caorgia #0" = -10
    "Caruuda #0" = -10
    "Uuvasha #0" = -10
    "Panohalamion #0" = -10
    "Oharasyeda #0" = -10
    "Rodiraceht #0" = -10
    "Chrynorisse #0" = -10
    "Rodjahohawen #0" = -10
    "Iphirinyaor #0" = -10
    "Eiltylaeht #0" = -10
    "Samsamsha #0" = -10
    "Cichrymuwen #0" = -10
    "Orgloror #0" = -10
    "Eilse #0" = -10
    "Eilmion #0" = -10
    "Linda #0" = -10
    "Menmion #0" = -10
}

leader_names = {
    Acamas Achenum Alwe Aranlel Ararcinlos Arsamlel Arsoth Arstul Arumondros Aryaamo Camandar Carjykne Carnum Caryrparnil Cecmeros Cecnya Cecrasnil Chryinius Chryloa Cingulnya Cinulisloa Cinya Ciyrdar Colaadron Coloirros Culqraauloth Daildor Dairtil Deswe Eilgun Eillinnya Gulcarmemo Heculoa Hetnorlinmo Heyrral Ieardron Ilarral Ilral Iphiculdar Iphidamas Iphilinmanius Isanmetil Isardor Ischryros Isculpandil Isooniril Isqraasar Jahuuyetil Jykion Jykisvisdo Jyklos Jykoth Jyktil Laanhetmo Laaviil Ladesmerdo Larnil Laselel Lerdaran Lerneine Linmalwe Linsar Linundil Loqraacecdron Lorlel Lornendron Malleroth Mallinpansar Manhetil Mannum Merlolos Monmaldor Monwe Mudo Neiral Nenleroonoth Ninordor Nitil Nordo Norevalion Normanyedil Norrasdar Noryaaius Noryesar Nurdron Ohavislel Ohmanil Oonil Oonnum Orgnum Panlaane Pannenvissar Parondo Pelcodar Pelius Qraalel Rassene Rirlel Roddar Rodevsamnum Rodisloa Rodnurnum Rodros Sewe Tyhewe Tyisral Uldor Ulondil Umhelel Unandil Ungun Unmenmo Unwe Uueildor Uulos Uumernenil Vagun Valaran Vayaatul Viscarne Viscultil Vismonnennum Yaacooth Yaalaadar Yealros Yenormenya Yrdron Yrius
}

ship_names = {
    Cectyda Chryseis Cinurmion Despina Hetsha Ilyria Irinwe Ismenida Jahlasri Neidir Ohalorne Panardil Sameht Terirwen Umuor Virindi Yalorasse Ieda Arslone Alleria Unse Isuneis Cacarlermion Ohlayrwen Paror Arcinviwen Iriene Oondir Anarwen Isnencamia Jykgulmion Arwen Ondcareis Arslana Yryrna Desohcana Arpanculdir Monneieis Cararne Irpelarssha Chryiphidi Pelrasanse Ansri Isarsnidir Vilaroonmion Lase Ienurdil Laarsri Manmanse Ulcoarssha Chrylana Chryrodor Camyrda Lordi Acarsha Ohasri Vihetdir Niohpelna Arlarasse Jahnidil Lermonda Norania Locounna Desparohasri Chryda Vimevismion Roddi Desheneior Vaeht Peldi Panladil Isda Insri Ircecsri Parevdil Ilciia Pelwe Ieeis Inaneht Rinyaondlindir Unia Neinendessri Anpanne Memanwen Jykne Guliesha Cinqraasha Anlaadil Nise Armalda Caiphijahsha Arsrodsri Orgcarsri Alnorevia Gulsha Cardir Ohaevda Desnorwen Lermenwen Pelaleht Caorgia Caruuda Uuvasha Panohalamion Oharasyeda Rodiraceht Chrynorisse Rodjahohawen Iphirinyaor Eiltylaeht Samsamsha Cichrymuwen Orgloror Eilse Eilmion Linda Menmion
}

army_names = {
    "Army of $PROVINCE$"
}

fleet_names = {
    "Fleet of $PROVINCE$"
}