graphical_culture = persiangfx

color = { 24 146 138 }

revolutionary_colors = { 11 7 14}


historical_idea_groups = {
}

historical_units = {
}

monarch_names = {
    "Nerevar #0" = 10
    "Adaves #0" = 10
    "Adil #0" = 10
    "Adondasi #0" = 10
    "Adosi #0" = 10
    "Adren #0" = 10
    "Alam #0" = 10
    "Alanil #0" = 10
    "Aldam #0" = 10
    "Alds #0" = 10
    "Alms #0" = 10
    "Alnas #0" = 10
    "Alvan #0" = 10
    "Alven #0" = 10
    "Alvis #0" = 10
    "Alvor #0" = 10
    "Alvos #0" = 10
    "Alvur #0" = 10
    "Anas #0" = 10
    "Anden #0" = 10
    "Andril #0" = 10
    "Anel #0" = 10
    "Angaredhel #0" = 10
    "Aras #0" = 10
    "Arelvam #0" = 10
    "Aren #0" = 10
    "Arethan #0" = 10
    "Arnas #0" = 10
    "Aroa #0" = 10
    "Aron #0" = 10
    "Arsyn #0" = 10
    "Arven #0" = 10
    "Arver #0" = 10
    "Arvs #0" = 10
    "Arvyn #0" = 10
    "Aryon #0" = 10
    "Athal #0" = 10
    "Athanden #0" = 10
    "Athelyn #0" = 10
    "Ather #0" = 10
    "Athyn #0" = 10
    "Avron #0" = 10
    "Baladas #0" = 10
    "Balver #0" = 10
    "Balyn #0" = 10
    "Banden #0" = 10
    "Banor #0" = 10
    "Baren #0" = 10
    "Barusi #0" = 10
    "Bedal #0" = 10
    "Belas #0" = 10
    "Beldrose #0" = 10
    "Belos #0" = 10
    "Bels #0" = 10
    "Belvis #0" = 10
    "Benar #0" = 10
    "Beraren #0" = 10
    "Berel #0" = 10
    "Berela #0" = 10
    "Bertis #0" = 10
    "Bervaso #0" = 10
    "Bervyn #0" = 10
    "Bethes #0" = 10
    "Bevadar #0" = 10
    "Bildren #0" = 10
    "Bilen #0" = 10
    "Bilos #0" = 10
    "Birer #0" = 10
    "Bolayn #0" = 10
    "Boler #0" = 10
    "Bolnor #0" = 10
    "Bols #0" = 10
    "Bolvus #0" = 10
    "Bolvyn #0" = 10
    "Bolyn #0" = 10
    "Boryn #0" = 10
    "Bradil #0" = 10
    "Bralas #0" = 10
    "Bralen #0" = 10
    "Bralis #0" = 10
    "Bralyn #0" = 10
    "Brarayni #0" = 10
    "Bratheru #0" = 10
    "Brathus #0" = 10
    "Bravosi #0" = 10
    "Braynas #0" = 10
    "Brelar #0" = 10
    "Brelo #0" = 10
    "Brelyn #0" = 10
    "Brerama #0" = 10
    "Brethas #0" = 10
    "Breves #0" = 10
    "Breynis #0" = 10
    "Briras #0" = 10
    "Broder #0" = 10
    "Broris #0" = 10
    "Brothes #0" = 10
    "Dalam #0" = 10
    "Daldur #0" = 10
    "Dalin #0" = 10
    "Dalmil #0" = 10
    "Dalos #0" = 10
    "Dals #0" = 10
    "Dalvus #0" = 10
    "Danar #0" = 10
    "Dandras #0" = 10
    "Danel #0" = 10
    "Daral #0" = 10
    "Daras #0" = 10
    "Daren #0" = 10
    "Darns #0" = 10
    "Daroder #0" = 10
    "Dartis #0" = 10
    "Darvam #0" = 10
    "Daryn #0" = 10
    "Dather #0" = 10
    "Dathus #0" = 10
    "Davas #0" = 10
    "Davis #0" = 10
    "Davur #0" = 10
    "Daynes #0" = 10
    "Daynil #0" = 10
    "Dedaenc #0" = 10
    "Delmon #0" = 10
    "Delmus #0" = 10
    "Delvam #0" = 10
    "Deras #0" = 10
    "Dethresa #0" = 10
    "Deval #0" = 10
    "Devas #0" = 10
    "Dils #0" = 10
    "Dinor #0" = 10
    "Dirver #0" = 10
    "Divayth #0" = 10
    "Dolmyn #0" = 10
    "Dolyn #0" = 10
    "Dondos #0" = 10
    "Donus #0" = 10
    "Dovor #0" = 10
    "Dovres #0" = 10
    "Dralas #0" = 10
    "Drals #0" = 10
    "Dralval #0" = 10
    "Dram #0" = 10
    "Dramis #0" = 10
    "Drandryn #0" = 10
    "Dranos #0" = 10
    "Drarayne #0" = 10
    "Drarel #0" = 10
    "Draron #0" = 10
    "Drarus #0" = 10
    "Draryn #0" = 10
    "Drathyn #0" = 10
    "Dravasa #0" = 10
    "Dredase #0" = 10
    "Drelayn #0" = 10
    "Drelis #0" = 10
    "Drelse #0" = 10
    "Drerel #0" = 10
    "Dreynis #0" = 10
    "Dreynos #0" = 10
    "Dridas #0" = 10
    "Dridyn #0" = 10
    "Drinar #0" = 10
    "Drodos #0" = 10
    "Dronos #0" = 10
    "Drores #0" = 10
    "Drulvan #0" = 10
    "Duldrar #0" = 10
    "Dunel #0" = 10
    "Edd #0" = 10
    "Edras #0" = 10
    "Edril #0" = 10
    "Elam #0" = 10
    "Eldil #0" = 10
    "Eldrar #0" = 10
    "Elethus #0" = 10
    "Elms #0" = 10
    "Elo #0" = 10
    "Elvas #0" = 10
    "Elvil #0" = 10
    "Endar #0" = 10
    "Endris #0" = 10
    "Endryn #0" = 10
    "Endul #0" = 10
    "Erene #0" = 10
    "Erer #0" = 10
    "Ereven #0" = 10
    "Eris #0" = 10
    "Ernil #0" = 10
    "Erns #0" = 10
    "Ervas #0" = 10
    "Ethes #0" = 10
    "Ethys #0" = 10
    "Evo #0" = 10
    "Evos #0" = 10
    "Fadren #0" = 10
    "Falam #0" = 10
    "Falso #0" = 10
    "Falvel #0" = 10
    "Falvis #0" = 10
    "Farvam #0" = 10
    "Farvyn #0" = 10
    "Favas #0" = 10
    "Favel #0" = 10
    "Faven #0" = 10
    "Faver #0" = 10
    "Faves #0" = 10
    "Fedar #0" = 10
    "Felayn #0" = 10
    "Felen #0" = 10
    "Felisi #0" = 10
    "Felsen #0" = 10
    "Felvan #0" = 10
    "Felvos #0" = 10
    "Femer #0" = 10
    "Fendros #0" = 10
    "Fendryn #0" = 10
    "Feranos #0" = 10
    "Ferele #0" = 10
    "Feril #0" = 10
    "Feruren #0" = 10
    "Fervas #0" = 10
    "Fevris #0" = 10
    "Fevus #0" = 10
    "Fevyn #0" = 10
    "Folms #0" = 10
    "Folvys #0" = 10
    "Folyni #0" = 10
    "Fons #0" = 10
    "Fonus #0" = 10
    "Forven #0" = 10
    "Foryn #0" = 10
    "Fothas #0" = 10
    "Fothyna #0" = 10
    "Foves #0" = 10
    "Fovus #0" = 10
    "Gadayn #0" = 10
    "Gaelion #0" = 10
    "Galam #0" = 10
    "Galdres #0" = 10
    "Galen #0" = 10
    "Galis #0" = 10
    "Galmis #0" = 10
    "Galms #0" = 10
    "Gals #0" = 10
    "Gamin #0" = 10
    "Ganalyn #0" = 10
    "Ganus #0" = 10
    "Garer #0" = 10
    "Garisa #0" = 10
    "Garnas #0" = 10
    "Garvs #0" = 10
    "Garyn #0" = 10
    "Gathal #0" = 10
    "Gavas #0" = 10
    "Gavesu #0" = 10
    "Gavis #0" = 10
    "Gidar #0" = 10
    "Giden #0" = 10
    "Gilan #0" = 10
    "Gilmyn #0" = 10
    "Gilur #0" = 10
    "Gilvas #0" = 10
    "Gilyan #0" = 10
    "Gilyn #0" = 10
    "Gilyne #0" = 10
    "Gindas #0" = 10
    "Ginur #0" = 10
    "Giras #0" = 10
    "Giren #0" = 10
    "Giron #0" = 10
    "Giryn #0" = 10
    "Golar #0" = 10
    "Goldyn #0" = 10
    "Goler #0" = 10
    "Gols #0" = 10
    "Golven #0" = 10
    "Goras #0" = 10
    "Gordol #0" = 10
    "Goren #0" = 10
    "Goris #0" = 10
    "Goron #0" = 10
    "Gothren #0" = 10
    "Goval #0" = 10
    "Gragus #0" = 10
    "Gulmon #0" = 10
    "Guls #0" = 10
    "Guril #0" = 10
    "Helseth #0" = 10
    "Hlaren #0" = 10
    "Hlaroi #0" = 10
    "Hlenil #0" = 10
    "Hleras #0" = 10
    "Hloris #0" = 10
    "Hort #0" = 10
    "Idros #0" = 10
    "Ildos #0" = 10
    "Ilen #0" = 10
    "Ilet #0" = 10
    "Ilver #0" = 10
    "Iner #0" = 10
    "Irarak #0" = 10
    "Irer #0" = 10
    "Irver #0" = 10
    "Ivulen #0" = 10
    "Jiub #0" = 10
    "Llaals #0" = 10
    "Llanas #0" = 10
    "Llandras #0" = 10
    "Llandris #0" = 10
    "Llanel #0" = 10
    "Llarar #0" = 10
    "Llarel #0" = 10
    "Llaren #0" = 10
    "Llaro #0" = 10
    "Llavam #0" = 10
    "Lleran #0" = 10
    "Lleras #0" = 10
    "Lleris #0" = 10
    "Llero #0" = 10
    "Llether #0" = 10
    "Llevas #0" = 10
    "Llevel #0" = 10
    "Lliram #0" = 10
    "Lliros #0" = 10
    "Lliryn #0" = 10
    "Lloden #0" = 10
    "Llonas #0" = 10
    "Llondryn #0" = 10
    "Lloros #0" = 10
    "Llovyn #0" = 10
    "Madran #0" = 10
    "Madres #0" = 10
    "Madsu #0" = 10
    "Malar #0" = 10
    "Mallam #0" = 10
    "Mals #0" = 10
    "Manabi #0" = 10
    "Mandran #0" = 10
    "Mandur #0" = 10
    "Mandyn #0" = 10
    "Manel #0" = 10
    "Maner #0" = 10
    "Manolos #0" = 10
    "Marayn #0" = 10
    "Maros #0" = 10
    "Mastrius #0" = 10
    "Mathis #0" = 10
    "Mathyn #0" = 10
    "Mavis #0" = 10
    "Mavon #0" = 10
    "Mavus #0" = 10
    "Meder #0" = 10
    "Medyn #0" = 10
    "Melar #0" = 10
    "Melur #0" = 10
    "Menus #0" = 10
    "Meril #0" = 10
    "Mertis #0" = 10
    "Mertisi #0" = 10
    "Mervis #0" = 10
    "Mervs #0" = 10
    "Meryn #0" = 10
    "Methal #0" = 10
    "Methas #0" = 10
    "Mevel #0" = 10
    "Meven #0" = 10
    "Mevil #0" = 10
    "Midar #0" = 10
    "Milar #0" = 10
    "Mils #0" = 10
    "Milyn #0" = 10
    "Miner #0" = 10
    "Miron #0" = 10
    "Mirvon #0" = 10
    "Mivul #0" = 10
    "Mondros #0" = 10
    "Movis #0" = 10
    "Muvis #0" = 10
    "Nads #0" = 10
    "Nalis #0" = 10
    "Nalmen #0" = 10
    "Nalosi #0" = 10
    "Nals #0" = 10
    "Nalur #0" = 10
    "Naral #0" = 10
    "Naris #0" = 10
    "Nathyn #0" = 10
    "Navam #0" = 10
    "Navil #0" = 10
    "Neldris #0" = 10
    "Nelmil #0" = 10
    "Nelos #0" = 10
    "Neloth #0" = 10
    "Nels #0" = 10
    "Nelvon #0" = 10
    "Nelyn #0" = 10
    "Nerer #0" = 10
    "Nethyn #0" = 10
    "Nevil #0" = 10
    "Nevon #0" = 10
    "Nevos #0" = 10
    "Nevosi #0" = 10
    "Niden #0" = 10
    "Nilas #0" = 10
    "Nilos #0" = 10
    "Niras #0" = 10
    "Nivel #0" = 10
    "Nivos #0" = 10
    "Norus #0" = 10
    "Odral #0" = 10
    "Odron #0" = 10
    "Oisig #0" = 10
    "Ondar #0" = 10
    "Ondres #0" = 10
    "Orns #0" = 10
    "Orval #0" = 10
    "Orvas #0" = 10
    "Ovis #0" = 10
    "Ralam #0" = 10
    "Ralds #0" = 10
    "Ralmyn #0" = 10
    "Ralos #0" = 10
    "Ranes #0" = 10
    "Ranor #0" = 10
    "Rararyn #0" = 10
    "Raril #0" = 10
    "Raryn #0" = 10
    "Rathal #0" = 10
    "Raviso #0" = 10
    "Ravos #0" = 10
    "Raynilie #0" = 10
    "Relam #0" = 10
    "Relas #0" = 10
    "Relen #0" = 10
    "Relms #0" = 10
    "Rels #0" = 10
    "Relur #0" = 10
    "Relyn #0" = 10
    "Remas #0" = 10
    "Rernel #0" = 10
    "Reron #0" = 10
    "Rervam #0" = 10
    "Reynis #0" = 10
    "Rilas #0" = 10
    "Rilos #0" = 10
    "Rilver #0" = 10
    "Rindral #0" = 10
    "Rirnas #0" = 10
    "Rirns #0" = 10
    "Rivame #0" = 10
    "Rolis #0" = 10
    "Rols #0" = 10
    "Roner #0" = 10
    "Rothis #0" = 10
    "Rovone #0" = 10
    "Sadas #0" = 10
    "Sadryn #0" = 10
    "Salas #0" = 10
    "Salen #0" = 10
    "Salvas #0" = 10
    "Salver #0" = 10
    "Salyn #0" = 10
    "Sanvyn #0" = 10
    "Saras #0" = 10
    "Sarayn #0" = 10
    "Sarvil #0" = 10
    "Sarvur #0" = 10
    "Saryn #0" = 10
    "Sathas #0" = 10
    "Savor #0" = 10
    "Savure #0" = 10
    "Sedam #0" = 10
    "Sedrane #0" = 10
    "Seldus #0" = 10
    "Seler #0" = 10
    "Selman #0" = 10
    "Selmen #0" = 10
    "Selvil #0" = 10
    "Sendel #0" = 10
    "Sendus #0" = 10
    "Seras #0" = 10
    "Serer #0" = 10
    "Serul #0" = 10
    "Seryn #0" = 10
    "Sevilo #0" = 10
    "Shashev #0" = 10
    "Sodres #0" = 10
    "Sortis #0" = 10
    "Sovor #0" = 10
    "Stlennius #0" = 10
    "Sulen #0" = 10
    "Sulis #0" = 10
    "Sunel #0" = 10
    "Sur #0" = 10
    "Suryn #0" = 10
    "Suvryn #0" = 10
    "Svadstar #0" = 10
    "Tadas #0" = 10
    "Talms #0" = 10
    "Tandram #0" = 10
    "Tanel #0" = 10
    "Tanur #0" = 10
    "Tarar #0" = 10
    "Tarer #0" = 10
    "Taros #0" = 10
    "Tarvus #0" = 10
    "Tarvyn #0" = 10
    "Taves #0" = 10
    "Tedril #0" = 10
    "Tedryn #0" = 10
    "Tedur #0" = 10
    "Telis #0" = 10
    "Tels #0" = 10
    "Telvon #0" = 10
    "Temis #0" = 10
    "Tendren #0" = 10
    "Tendris #0" = 10
    "Tens #0" = 10
    "Terer #0" = 10
    "Teres #0" = 10
    "Teris #0" = 10
    "Tervur #0" = 10
    "Tevyn #0" = 10
    "Thadar #0" = 10
    "Thaden #0" = 10
    "Thanelen #0" = 10
    "Tharer #0" = 10
    "Thauraver #0" = 10
    "Theldyn #0" = 10
    "Thervam #0" = 10
    "Tholer #0" = 10
    "Thoryn #0" = 10
    "Threvul #0" = 10
    "Tidras #0" = 10
    "Tidros #0" = 10
    "Tinos #0" = 10
    "Tiram #0" = 10
    "Tiras #0" = 10
    "Tirer #0" = 10
    "Tirnur #0" = 10
    "Tirvel #0" = 10
    "Tivam #0" = 10
    "Toris #0" = 10
    "Tralas #0" = 10
    "Tralayn #0" = 10
    "Traven #0" = 10
    "Tredyn #0" = 10
    "Trelam #0" = 10
    "Trels #0" = 10
    "Trendrus #0" = 10
    "Treram #0" = 10
    "Treras #0" = 10
    "Trevyn #0" = 10
    "Trilam #0" = 10
    "Trivon #0" = 10
    "Tuls #0" = 10
    "Ultis #0" = 10
    "Ulves #0" = 10
    "Ulvil #0" = 10
    "Ulvon #0" = 10
    "Unel #0" = 10
    "Uradras #0" = 10
    "Ureval #0" = 10
    "Urnel #0" = 10
    "Urvel #0" = 10
    "Urven #0" = 10
    "Uryn #0" = 10
    "Uthrel #0" = 10
    "Uvele #0" = 10
    "Uvren #0" = 10
    "Vaden #0" = 10
    "Vanel #0" = 10
    "Vares #0" = 10
    "Varis #0" = 10
    "Varon #0" = 10
    "Varvur #0" = 10
    "Vatollia #0" = 10
    "Vaves #0" = 10
    "Vavran #0" = 10
    "Vedam #0" = 10
    "Vedran #0" = 10
    "Velis #0" = 10
    "Velms #0" = 10
    "Velyn #0" = 10
    "Veros #0" = 10
    "Vevos #0" = 10
    "Vevul #0" = 10
    "Vilval #0" = 10
    "Vilyn #0" = 10
    "Viras #0" = 10
    "Virvyn #0" = 10
    "Vobend #0" = 10
    "Vonden #0" = 10
    "Vonos #0" = 10
    "Vorar #0" = 10
    "Voruse #0" = 10
    "Vuvil #0" = 10

    "Adrusu #0" = -10
    "Alarvyne #0" = -10
    "Alavesa #0" = -10
    "Aldyne #0" = -10
    "Alenus #0" = -10
    "Aleri #0" = -10
    "Alfe #0" = -10
    "Almse #0" = -10
    "Almsi #0" = -10
    "Aloie #0" = -10
    "Alonisea #0" = -10
    "Alurue #0" = -10
    "Alvela #0" = -10
    "Alveno #0" = -10
    "Alvura #0" = -10
    "Alynu #0" = -10
    "Amili #0" = -10
    "Andalin #0" = -10
    "Andilo #0" = -10
    "Andilu #0" = -10
    "Ane #0" = -10
    "Angahran #0" = -10
    "Anis #0" = -10
    "Anise #0" = -10
    "Aralosea #0" = -10
    "Arara #0" = -10
    "Arns #0" = -10
    "Arnsa #0" = -10
    "Arnsi #0" = -10
    "Artisa #0" = -10
    "Arvama #0" = -10
    "Arvamea #0" = -10
    "Arvela #0" = -10
    "Arvso #0" = -10
    "Aryne #0" = -10
    "Aryni #0" = -10
    "Athesie #0" = -10
    "Avoni #0" = -10
    "Badala #0" = -10
    "Badama #0" = -10
    "Balen #0" = -10
    "Baleni #0" = -10
    "Balsa #0" = -10
    "Balynu #0" = -10
    "Barenziah #0" = -10
    "Bedenea #0" = -10
    "Bedynea #0" = -10
    "Beleru #0" = -10
    "Bevene #0" = -10
    "Beyte #0" = -10
    "Bidsi #0" = -10
    "Bilsa #0" = -10
    "Birama #0" = -10
    "Bivale #0" = -10
    "Boderi #0" = -10
    "Bodsa #0" = -10
    "Boldrisa #0" = -10
    "Bralsea #0" = -10
    "Brara #0" = -10
    "Bravora #0" = -10
    "Bredasu #0" = -10
    "Brelayne #0" = -10
    "Brelda #0" = -10
    "Brelyna #0" = -10
    "Brerayne #0" = -10
    "Brevasu #0" = -10
    "Brevosi #0" = -10
    "Brildraso #0" = -10
    "Brilnosu #0" = -10
    "Bronosa #0" = -10
    "Dalami #0" = -10
    "Dalnorea #0" = -10
    "Dalse #0" = -10
    "Dalyne #0" = -10
    "Danaronea #0" = -10
    "Danasi #0" = -10
    "Dandera #0" = -10
    "Dandynea #0" = -10
    "Danoso #0" = -10
    "Danso #0" = -10
    "Darane #0" = -10
    "Dareru #0" = -10
    "Daroso #0" = -10
    "Darvala #0" = -10
    "Darvame #0" = -10
    "Darvasa #0" = -10
    "Darvynea #0" = -10
    "Daynali #0" = -10
    "Daynas #0" = -10
    "Daynillo #0" = -10
    "Deldasa #0" = -10
    "Deldrise #0" = -10
    "Delmene #0" = -10
    "Delte #0" = -10
    "Delyna #0" = -10
    "Derar #0" = -10
    "Derayna #0" = -10
    "Dilami #0" = -10
    "Dileno #0" = -10
    "Dilvene #0" = -10
    "Dinara #0" = -10
    "Dinere #0" = -10
    "Dinuro #0" = -10
    "Diradeni #0" = -10
    "Dirara #0" = -10
    "Diren #0" = -10
    "Dolmesa #0" = -10
    "Dolsa #0" = -10
    "Dolvasie #0" = -10
    "Domesea #0" = -10
    "Dorisa #0" = -10
    "Dorynu #0" = -10
    "Dothasi #0" = -10
    "Dovrosi #0" = -10
    "Dralasa #0" = -10
    "Dralcea #0" = -10
    "Dralisi #0" = -10
    "Dralora #0" = -10
    "Dralosa #0" = -10
    "Dralsea #0" = -10
    "Draramu #0" = -10
    "Drarayne #0" = -10
    "Dratha #0" = -10
    "Dravynea #0" = -10
    "Dredyni #0" = -10
    "Drelasa #0" = -10
    "Drelyne #0" = -10
    "Drendrisa #0" = -10
    "Dreveni #0" = -10
    "Drilame #0" = -10
    "Driloru #0" = -10
    "Drireri #0" = -10
    "Drolora #0" = -10
    "Drorayni #0" = -10
    "Drulene #0" = -10
    "Drurile #0" = -10
    "Duldresi #0" = -10
    "Dulnea #0" = -10
    "Edryno #0" = -10
    "Eldrasea #0" = -10
    "Eldrilu #0" = -10
    "Elmera #0" = -10
    "Elmussa #0" = -10
    "Elvasea #0" = -10
    "Elynea #0" = -10
    "Elynu #0" = -10
    "Endase #0" = -10
    "Endroni #0" = -10
    "Eralane #0" = -10
    "Erirvase #0" = -10
    "Ernse #0" = -10
    "Ervesa #0" = -10
    "Ervona #0" = -10
    "Ervyna #0" = -10
    "Ethal #0" = -10
    "Ethasi #0" = -10
    "Evesa #0" = -10
    "Evilu #0" = -10
    "Fadase #0" = -10
    "Fadile #0" = -10
    "Falanu #0" = -10
    "Falena #0" = -10
    "Falura #0" = -10
    "Fanasa #0" = -10
    "Fanisea #0" = -10
    "Fanuse #0" = -10
    "Faral #0" = -10
    "Faralenu #0" = -10
    "Farare #0" = -10
    "Faras #0" = -10
    "Farena #0" = -10
    "Farusea #0" = -10
    "Fathasa #0" = -10
    "Fathusa #0" = -10
    "Favani #0" = -10
    "Favela #0" = -10
    "Favilea #0" = -10
    "Favise #0" = -10
    "Favona #0" = -10
    "Fedura #0" = -10
    "Feldrelo #0" = -10
    "Felisa #0" = -10
    "Felmena #0" = -10
    "Felsa #0" = -10
    "Felsu #0" = -10
    "Feralea #0" = -10
    "Ferise #0" = -10
    "Ferone #0" = -10
    "Fervsea #0" = -10
    "Ferynu #0" = -10
    "Fevasa #0" = -10
    "Fevila #0" = -10
    "Fieryra #0" = -10
    "Folsi #0" = -10
    "Folvalie #0" = -10
    "Fomesa #0" = -10
    "Fonari #0" = -10
    "Fonas #0" = -10
    "Forvse #0" = -10
    "Gadasu #0" = -10
    "Gadela #0" = -10
    "Gadyni #0" = -10
    "Galas #0" = -10
    "Galasa #0" = -10
    "Galdal #0" = -10
    "Galeri #0" = -10
    "Galero #0" = -10
    "Galore #0" = -10
    "Galsu #0" = -10
    "Galuro #0" = -10
    "Galvene #0" = -10
    "Galviso #0" = -10
    "Galyn #0" = -10
    "Gandela #0" = -10
    "Gandosa #0" = -10
    "Garalo #0" = -10
    "Garas #0" = -10
    "Garila #0" = -10
    "Garyne #0" = -10
    "Gilse #0" = -10
    "Ginadura #0" = -10
    "Gindrala #0" = -10
    "Girara #0" = -10
    "Girvani #0" = -10
    "Girynu #0" = -10
    "Golana #0" = -10
    "Golena #0" = -10
    "Golmerea #0" = -10
    "Golveso #0" = -10
    "Golvyni #0" = -10
    "Gomeso #0" = -10
    "Gorenea #0" = -10
    "Gorven #0" = -10
    "Guldrise #0" = -10
    "Gulena #0" = -10
    "Gulvilie #0" = -10
    "Gureryne #0" = -10
    "Haleneri #0" = -10
    "Hlavora #0" = -10
    "Hlendrisa #0" = -10
    "Hlevala #0" = -10
    "Hlireni #0" = -10
    "Hlodala #0" = -10
    "Idrenie #0" = -10
    "Idronea #0" = -10
    "Idroso #0" = -10
    "Idula #0" = -10
    "Ienasa #0" = -10
    "Ienase #0" = -10
    "Ienaso #0" = -10
    "Ilmeni #0" = -10
    "Ilmyna #0" = -10
    "Indrele #0" = -10
    "Inera #0" = -10
    "Irna #0" = -10
    "Irvama #0" = -10
    "Irvsie #0" = -10
    "Ivela #0" = -10
    "Iveri #0" = -10
    "Ivramie #0" = -10
    "Ivrosa #0" = -10
    "Lauravenya #0" = -10
    "Llaalamu #0" = -10
    "Llaalsa #0" = -10
    "Llandrale #0" = -10
    "Llandreri #0" = -10
    "Llarara #0" = -10
    "Llaros #0" = -10
    "Llarusea #0" = -10
    "Llathise #0" = -10
    "Llathyno #0" = -10
    "Llavane #0" = -10
    "Llavelea #0" = -10
    "Llavesa #0" = -10
    "Llaynasa #0" = -10
    "Lledsa #0" = -10
    "Lledsea #0" = -10
    "Llemisa #0" = -10
    "Llerusa #0" = -10
    "Llevana #0" = -10
    "Llirala #0" = -10
    "Llivas #0" = -10
    "Llondresa #0" = -10
    "Llorayna #0" = -10
    "Llunela #0" = -10
    "Madayna #0" = -10
    "Madaynu #0" = -10
    "Madrale #0" = -10
    "Madura #0" = -10
    "Malsa #0" = -10
    "Malven #0" = -10
    "Manara #0" = -10
    "Manse #0" = -10
    "Manwe #0" = -10
    "Maralie #0" = -10
    "Marasa #0" = -10
    "Maren #0" = -10
    "Marena #0" = -10
    "Marilia #0" = -10
    "Mathesa #0" = -10
    "Medila #0" = -10
    "Medresi #0" = -10
    "Melsu #0" = -10
    "Meluria #0" = -10
    "Melvona #0" = -10
    "Melvuli #0" = -10
    "Melvure #0" = -10
    "Meralyn #0" = -10
    "Methulu #0" = -10
    "Mevrenea #0" = -10
    "Mevure #0" = -10
    "Miara #0" = -10
    "Milara #0" = -10
    "Miluru #0" = -10
    "Milvela #0" = -10
    "Milvonu #0" = -10
    "Minasi #0" = -10
    "Mindeli #0" = -10
    "Miraso #0" = -10
    "Mirnelea #0" = -10
    "Mornsu #0" = -10
    "Moroni #0" = -10
    "Morusu #0" = -10
    "Movisa #0" = -10
    "Muldroni #0" = -10
    "Mulvisie #0" = -10
    "Mundrila #0" = -10
    "Muvrulea #0" = -10
    "Nadene #0" = -10
    "Nalami #0" = -10
    "Nalasa #0" = -10
    "Nalmila #0" = -10
    "Nalsie #0" = -10
    "Nalvilie #0" = -10
    "Nalvyna #0" = -10
    "Narese #0" = -10
    "Narile #0" = -10
    "Narisa #0" = -10
    "Nartise #0" = -10
    "Nathala #0" = -10
    "Nathyne #0" = -10
    "Nedeni #0" = -10
    "Nelmyne #0" = -10
    "Nelso #0" = -10
    "Nerile #0" = -10
    "Nervana #0" = -10
    "Nevama #0" = -10
    "Nevena #0" = -10
    "Nevrasa #0" = -10
    "Nevrila #0" = -10
    "Nevusa #0" = -10
    "Nidara #0" = -10
    "Nidryne #0" = -10
    "Nileno #0" = -10
    "Nilera #0" = -10
    "Nilvyn #0" = -10
    "Nina #0" = -10
    "Nirasa #0" = -10
    "Nireli #0" = -10
    "Noldrasi #0" = -10
    "Nothasea #0" = -10
    "Novrynea #0" = -10
    "Nuleno #0" = -10
    "Nurisea #0" = -10
    "Olvyne #0" = -10
    "Omesu #0" = -10
    "Orero #0" = -10
    "Orvona #0" = -10
    "Radene #0" = -10
    "Raldenu #0" = -10
    "Ranis #0" = -10
    "Ranosa #0" = -10
    "Rarusu #0" = -10
    "Rarvela #0" = -10
    "Rathyne #0" = -10
    "Ravani #0" = -10
    "Raven #0" = -10
    "Ravoso #0" = -10
    "Rayna #0" = -10
    "Raynasa #0" = -10
    "Raynila #0" = -10
    "Relamu #0" = -10
    "Relmerea #0" = -10
    "Relosa #0" = -10
    "Relvese #0" = -10
    "Remasa #0" = -10
    "Rerilie #0" = -10
    "Rerynea #0" = -10
    "Reynel #0" = -10
    "Ridena #0" = -10
    "Rilasi #0" = -10
    "Rilvase #0" = -10
    "Rinori #0" = -10
    "Riraynea #0" = -10
    "Rolasa #0" = -10
    "Runethyne #0" = -10
    "Ruthrisu #0" = -10
    "Ruvene #0" = -10
    "Sadal #0" = -10
    "Sadela #0" = -10
    "Salama #0" = -10
    "Salora #0" = -10
    "Salyni #0" = -10
    "Sanaso #0" = -10
    "Saruse #0" = -10
    "Sathasa #0" = -10
    "Satheri #0" = -10
    "Satyana #0" = -10
    "Savesea #0" = -10
    "Savile #0" = -10
    "Sedris #0" = -10
    "Sedyni #0" = -10
    "Selvura #0" = -10
    "Senise #0" = -10
    "Serila #0" = -10
    "Sernsi #0" = -10
    "Seryne #0" = -10
    "Sethesi #0" = -10
    "Sevame #0" = -10
    "Sevisa #0" = -10
    "Sevyni #0" = -10
    "Sodrara #0" = -10
    "Sondryn #0" = -10
    "Sorosi #0" = -10
    "Sovali #0" = -10
    "Sovisa #0" = -10
    "Suldreni #0" = -10
    "Tadara #0" = -10
    "Tadera #0" = -10
    "Talamu #0" = -10
    "Talare #0" = -10
    "Talmeni #0" = -10
    "Talmsa #0" = -10
    "Talsi #0" = -10
    "Taluri #0" = -10
    "Taluro #0" = -10
    "Tamira #0" = -10
    "Tanar #0" = -10
    "Tandasea #0" = -10
    "Tanisie #0" = -10
    "Tanusea #0" = -10
    "Tarani #0" = -10
    "Tavilu #0" = -10
    "Tavynu #0" = -10
    "Tedysa #0" = -10
    "Teleri #0" = -10
    "Telura #0" = -10
    "Tenaru #0" = -10
    "Tenisi #0" = -10
    "Terenu #0" = -10
    "Tereri #0" = -10
    "Teril #0" = -10
    "Teruise #0" = -10
    "Teryne #0" = -10
    "Thalurea #0" = -10
    "Thavere #0" = -10
    "Thelsa #0" = -10
    "Thelvamu #0" = -10
    "Therana #0" = -10
    "Thilse #0" = -10
    "Thovasi #0" = -10
    "Thurisea #0" = -10
    "Tilena #0" = -10
    "Tilore #0" = -10
    "Tinaso #0" = -10
    "Tirasie #0" = -10
    "Tirele #0" = -10
    "Tolmera #0" = -10
    "Tolvise #0" = -10
    "Tolvone #0" = -10
    "Tonas #0" = -10
    "Tonasi #0" = -10
    "Toranu #0" = -10
    "Torasa #0" = -10
    "Torosi #0" = -10
    "Traldrisa #0" = -10
    "Traynili #0" = -10
    "Tredere #0" = -10
    "Tremona #0" = -10
    "Trerayna #0" = -10
    "Trivura #0" = -10
    "Tumsa #0" = -10
    "Tunila #0" = -10
    "Tuvene #0" = -10
    "Tuvenie #0" = -10
    "Tuveso #0" = -10
    "Ulenea #0" = -10
    "Uleni #0" = -10
    "Ulmesi #0" = -10
    "Ulmiso #0" = -10
    "Ulvena #0" = -10
    "Ulveni #0" = -10
    "Ulyne #0" = -10
    "Ulyno #0" = -10
    "Unila #0" = -10
    "Urandile #0" = -10
    "Urene #0" = -10
    "Uresa #0" = -10
    "Ureso #0" = -10
    "Urtisa #0" = -10
    "Urtiso #0" = -10
    "Uryne #0" = -10
    "Uupse #0" = -10
    "Uvisea #0" = -10
    "Uvoo #0" = -10
    "Vadeni #0" = -10
    "Vadramea #0" = -10
    "Vadusa #0" = -10
    "Valveli #0" = -10
    "Valvesu #0" = -10
    "Valvosa #0" = -10
    "Valyne #0" = -10
    "Varasa #0" = -10
    "Varenu #0" = -10
    "Varona #0" = -10
    "Varvsa #0" = -10
    "Vaveli #0" = -10
    "Vedelea #0" = -10
    "Velanda #0" = -10
    "Velyna #0" = -10
    "Venasa #0" = -10
    "Vendrela #0" = -10
    "Verara #0" = -10
    "Vevrana #0" = -10
    "Vilvyni #0" = -10
    "Vindamea #0" = -10
    "Vindyne #0" = -10
    "Vireveri #0" = -10
    "Vivyne #0" = -10
    "Volene #0" = -10
    "Volmyni #0" = -10
    "Voneri #0" = -10
    "Vuldronu #0" = -10
    "Vulyne #0" = -10
}

leader_names = {
    Nerevar Adaves Adil Adondasi Adosi Adren Alam Alanil Aldam Alds Alms Alnas Alvan Alven Alvis Alvor Alvos Alvur Anas Anden Andril Anel Angaredhel Aras Arelvam Aren Arethan Arnas Aroa Aron Arsyn Arven Arver Arvs Arvyn Aryon Athal Athanden Athelyn Ather Athyn Avron Baladas Balver Balyn Banden Banor Baren Barusi Bedal Belas Beldrose Belos Bels Belvis Benar Beraren Berel Berela Bertis Bervaso Bervyn Bethes Bevadar Bildren Bilen Bilos Birer Bolayn Boler Bolnor Bols Bolvus Bolvyn Bolyn Boryn Bradil Bralas Bralen Bralis Bralyn Brarayni Bratheru Brathus Bravosi Braynas Brelar Brelo Brelyn Brerama Brethas Breves Breynis Briras Broder Broris Brothes Dalam Daldur Dalin Dalmil Dalos Dals Dalvus Danar Dandras Danel Daral Daras Daren Darns Daroder Dartis Darvam Daryn Dather Dathus Davas Davis Davur Daynes Daynil Dedaenc Delmon Delmus Delvam Deras Dethresa Deval Devas Dils Dinor Dirver Divayth Dolmyn Dolyn Dondos Donus Dovor Dovres Dralas Drals Dralval Dram Dramis Drandryn Dranos Drarayne Drarel Draron Drarus Draryn Drathyn Dravasa Dredase Drelayn Drelis Drelse Drerel Dreynis Dreynos Dridas Dridyn Drinar Drodos Dronos Drores Drulvan Duldrar Dunel Edd Edras Edril Elam Eldil Eldrar Elethus Elms Elo Elvas Elvil Endar Endris Endryn Endul Erene Erer Ereven Eris Ernil Erns Ervas Ethes Ethys Evo Evos Fadren Falam Falso Falvel Falvis Farvam Farvyn Favas Favel Faven Faver Faves Fedar Felayn Felen Felisi Felsen Felvan Felvos Femer Fendros Fendryn Feranos Ferele Feril Feruren Fervas Fevris Fevus Fevyn Folms Folvys Folyni Fons Fonus Forven Foryn Fothas Fothyna Foves Fovus Gadayn Gaelion Galam Galdres Galen Galis Galmis Galms Gals Gamin Ganalyn Ganus Garer Garisa Garnas Garvs Garyn Gathal Gavas Gavesu Gavis Gidar Giden Gilan Gilmyn Gilur Gilvas Gilyan Gilyn Gilyne Gindas Ginur Giras Giren Giron Giryn Golar Goldyn Goler Gols Golven Goras Gordol Goren Goris Goron Gothren Goval Gragus Gulmon Guls Guril Helseth Hlaren Hlaroi Hlenil Hleras Hloris Hort Idros Ildos Ilen Ilet Ilver Iner Irarak Irer Irver Ivulen Jiub Llaals Llanas Llandras Llandris Llanel Llarar Llarel Llaren Llaro Llavam Lleran Lleras Lleris Llero Llether Llevas Llevel Lliram Lliros Lliryn Lloden Llonas Llondryn Lloros Llovyn Madran Madres Madsu Malar Mallam Mals Manabi Mandran Mandur Mandyn Manel Maner Manolos Marayn Maros Mastrius Mathis Mathyn Mavis Mavon Mavus Meder Medyn Melar Melur Menus Meril Mertis Mertisi Mervis Mervs Meryn Methal Methas Mevel Meven Mevil Midar Milar Mils Milyn Miner Miron Mirvon Mivul Mondros Movis Muvis Nads Nalis Nalmen Nalosi Nals Nalur Naral Naris Nathyn Navam Navil Neldris Nelmil Nelos Neloth Nels Nelvon Nelyn Nerer Nethyn Nevil Nevon Nevos Nevosi Niden Nilas Nilos Niras Nivel Nivos Norus Odral Odron Oisig Ondar Ondres Orns Orval Orvas Ovis Ralam Ralds Ralmyn Ralos Ranes Ranor Rararyn Raril Raryn Rathal Raviso Ravos Raynilie Relam Relas Relen Relms Rels Relur Relyn Remas Rernel Reron Rervam Reynis Rilas Rilos Rilver Rindral Rirnas Rirns Rivame Rolis Rols Roner Rothis Rovone Sadas Sadryn Salas Salen Salvas Salver Salyn Sanvyn Saras Sarayn Sarvil Sarvur Saryn Sathas Savor Savure Sedam Sedrane Seldus Seler Selman Selmen Selvil Sendel Sendus Seras Serer Serul Seryn Sevilo Shashev Sodres Sortis Sovor Stlennius Sulen Sulis Sunel Sur Suryn Suvryn Svadstar Tadas Talms Tandram Tanel Tanur Tarar Tarer Taros Tarvus Tarvyn Taves Tedril Tedryn Tedur Telis Tels Telvon Temis Tendren Tendris Tens Terer Teres Teris Tervur Tevyn Thadar Thaden Thanelen Tharer Thauraver Theldyn Thervam Tholer Thoryn Threvul Tidras Tidros Tinos Tiram Tiras Tirer Tirnur Tirvel Tivam Toris Tralas Tralayn Traven Tredyn Trelam Trels Trendrus Treram Treras Trevyn Trilam Trivon Tuls Ultis Ulves Ulvil Ulvon Unel Uradras Ureval Urnel Urvel Urven Uryn Uthrel Uvele Uvren Vaden Vanel Vares Varis Varon Varvur Vatollia Vaves Vavran Vedam Vedran Velis Velms Velyn Veros Vevos Vevul Vilval Vilyn Viras Virvyn Vobend Vonden Vonos Vorar Voruse Vuvil
}

ship_names = {
    Adrusu Alarvyne Alavesa Aldyne Alenus Aleri Alfe Almse Almsi Aloie Alonisea Alurue Alvela Alveno Alvura Alynu Amili Andalin Andilo Andilu Ane Angahran Anis Anise Aralosea Arara Arns Arnsa Arnsi Artisa Arvama Arvamea Arvela Arvso Aryne Aryni Athesie Avoni Badala Badama Balen Baleni Balsa Balynu Barenziah Bedenea Bedynea Beleru Bevene Beyte Bidsi Bilsa Birama Bivale Boderi Bodsa Boldrisa Bralsea Brara Bravora Bredasu Brelayne Brelda Brelyna Brerayne Brevasu Brevosi Brildraso Brilnosu Bronosa Dalami Dalnorea Dalse Dalyne Danaronea Danasi Dandera Dandynea Danoso Danso Darane Dareru Daroso Darvala Darvame Darvasa Darvynea Daynali Daynas Daynillo Deldasa Deldrise Delmene Delte Delyna Derar Derayna Dilami Dileno Dilvene Dinara Dinere Dinuro Diradeni Dirara Diren Dolmesa Dolsa Dolvasie Domesea Dorisa Dorynu Dothasi Dovrosi Dralasa Dralcea Dralisi Dralora Dralosa Dralsea Draramu Drarayne Dratha Dravynea Dredyni Drelasa Drelyne Drendrisa Dreveni Drilame Driloru Drireri Drolora Drorayni Drulene Drurile Duldresi Dulnea Edryno Eldrasea Eldrilu Elmera Elmussa Elvasea Elynea Elynu Endase Endroni Eralane Erirvase Ernse Ervesa Ervona Ervyna Ethal Ethasi Evesa Evilu Fadase Fadile Falanu Falena Falura Fanasa Fanisea Fanuse Faral Faralenu Farare Faras Farena Farusea Fathasa Fathusa Favani Favela Favilea Favise Favona Fedura Feldrelo Felisa Felmena Felsa Felsu Feralea Ferise Ferone Fervsea Ferynu Fevasa Fevila Fieryra Folsi Folvalie Fomesa Fonari Fonas Forvse Gadasu Gadela Gadyni Galas Galasa Galdal Galeri Galero Galore Galsu Galuro Galvene Galviso Galyn Gandela Gandosa Garalo Garas Garila Garyne Gilse Ginadura Gindrala Girara Girvani Girynu Golana Golena Golmerea Golveso Golvyni Gomeso Gorenea Gorven Guldrise Gulena Gulvilie Gureryne Haleneri Hlavora Hlendrisa Hlevala Hlireni Hlodala Idrenie Idronea Idroso Idula Ienasa Ienase Ienaso Ilmeni Ilmyna Indrele Inera Irna Irvama Irvsie Ivela Iveri Ivramie Ivrosa Lauravenya Llaalamu Llaalsa Llandrale Llandreri Llarara Llaros Llarusea Llathise Llathyno Llavane Llavelea Llavesa Llaynasa Lledsa Lledsea Llemisa Llerusa Llevana Llirala Llivas Llondresa Llorayna Llunela Madayna Madaynu Madrale Madura Malsa Malven Manara Manse Manwe Maralie Marasa Maren Marena Marilia Mathesa Medila Medresi Melsu Meluria Melvona Melvuli Melvure Meralyn Methulu Mevrenea Mevure Miara Milara Miluru Milvela Milvonu Minasi Mindeli Miraso Mirnelea Mornsu Moroni Morusu Movisa Muldroni Mulvisie Mundrila Muvrulea Nadene Nalami Nalasa Nalmila Nalsie Nalvilie Nalvyna Narese Narile Narisa Nartise Nathala Nathyne Nedeni Nelmyne Nelso Nerile Nervana Nevama Nevena Nevrasa Nevrila Nevusa Nidara Nidryne Nileno Nilera Nilvyn Nina Nirasa Nireli Noldrasi Nothasea Novrynea Nuleno Nurisea Olvyne Omesu Orero Orvona Radene Raldenu Ranis Ranosa Rarusu Rarvela Rathyne Ravani Raven Ravoso Rayna Raynasa Raynila Relamu Relmerea Relosa Relvese Remasa Rerilie Rerynea Reynel Ridena Rilasi Rilvase Rinori Riraynea Rolasa Runethyne Ruthrisu Ruvene Sadal Sadela Salama Salora Salyni Sanaso Saruse Sathasa Satheri Satyana Savesea Savile Sedris Sedyni Selvura Senise Serila Sernsi Seryne Sethesi Sevame Sevisa Sevyni Sodrara Sondryn Sorosi Sovali Sovisa Suldreni Tadara Tadera Talamu Talare Talmeni Talmsa Talsi Taluri Taluro Tamira Tanar Tandasea Tanisie Tanusea Tarani Tavilu Tavynu Tedysa Teleri Telura Tenaru Tenisi Terenu Tereri Teril Teruise Teryne Thalurea Thavere Thelsa Thelvamu Therana Thilse Thovasi Thurisea Tilena Tilore Tinaso Tirasie Tirele Tolmera Tolvise Tolvone Tonas Tonasi Toranu Torasa Torosi Traldrisa Traynili Tredere Tremona Trerayna Trivura Tumsa Tunila Tuvene Tuvenie Tuveso Ulenea Uleni Ulmesi Ulmiso Ulvena Ulveni Ulyne Ulyno Unila Urandile Urene Uresa Ureso Urtisa Urtiso Uryne Uupse Uvisea Uvoo Vadeni Vadramea Vadusa Valveli Valvesu Valvosa Valyne Varasa Varenu Varona Varvsa Vaveli Vedelea Velanda Velyna Venasa Vendrela Verara Vevrana Vilvyni Vindamea Vindyne Vireveri Vivyne Volene Volmyni Voneri Vuldronu Vulyne
}

army_names = {
    "Army of $PROVINCE$"
}

fleet_names = {
    "Fleet of $PROVINCE$"
}