graphical_culture = turkishgfx

color = { 160 96 32 }

revolutionary_colors = { 9 14 2}


historical_idea_groups = {
}

historical_units = {
}

monarch_names = {
    "Aenthannir #0" = 10
    "Aesmer #0" = 10
    "Aesril #0" = 10
    "Aicaano #0" = 10
    "Aicantar #0" = 10
    "Aicessar #0" = 10
    "Ainaame #0" = 10
    "Alamar #0" = 10
    "Alarnon #0" = 10
    "Aldaril #0" = 10
    "Aldarnen #0" = 10
    "Alderdon #0" = 10
    "Aldimion #0" = 10
    "Aldolin #0" = 10
    "Aldotarel #0" = 10
    "Almion #0" = 10
    "Alrdorion #0" = 10
    "Alturco #0" = 10
    "Amaalmo #0" = 10
    "Amballicil #0" = 10
    "Ambalor #0" = 10
    "Ambaran #0" = 10
    "Ambucilion #0" = 10
    "Aminyon #0" = 10
    "Amuur #0" = 10
    "Amyril #0" = 10
    "Anarenen #0" = 10
    "Anarume #0" = 10
    "Ancalmo #0" = 10
    "Ancano #0" = 10
    "Ancarion #0" = 10
    "Ancarive #0" = 10
    "Ancelhros #0" = 10
    "Ancemen #0" = 10
    "Ancolcalion #0" = 10
    "Anconath #0" = 10
    "Ancotar #0" = 10
    "Andame #0" = 10
    "Anderferion #0" = 10
    "Andil #0" = 10
    "Andresalmo #0" = 10
    "Andulalion #0" = 10
    "Andur #0" = 10
    "Angalmo #0" = 10
    "Angamar #0" = 10
    "Angardil #0" = 10
    "Angedreth #0" = 10
    "Angiente #0" = 10
    "Anginil #0" = 10
    "Ango #0" = 10
    "Angolin #0" = 10
    "Angoril #0" = 10
    "Anirlo #0" = 10
    "Anquen #0" = 10
    "Antarandur #0" = 10
    "Antur #0" = 10
    "Anyon #0" = 10
    "Aonus #0" = 10
    "Aracar #0" = 10
    "Aralyon #0" = 10
    "Aranath #0" = 10
    "Arantar #0" = 10
    "Arartar #0" = 10
    "Arathel #0" = 10
    "Arcarin #0" = 10
    "Arcorion #0" = 10
    "Ardorin #0" = 10
    "Areldil #0" = 10
    "Areldur #0" = 10
    "Arelian #0" = 10
    "Arelmo #0" = 10
    "Arfanel #0" = 10
    "Arillas #0" = 10
    "Arindur #0" = 10
    "Aringoth #0" = 10
    "Arkved #0" = 10
    "Armion #0" = 10
    "Arondil #0" = 10
    "Aronil #0" = 10
    "Arrille #0" = 10
    "Arrimoril #0" = 10
    "Arterion #0" = 10
    "Arunen #0" = 10
    "Aryamo #0" = 10
    "Aryon #0" = 10
    "Astor #0" = 10
    "Atalmo #0" = 10
    "Ateldil #0" = 10
    "Athellor #0" = 10
    "Atirion #0" = 10
    "Avys #0" = 10
    "Bayenor #0" = 10
    "Berrilidon #0" = 10
    "Blanchete #0" = 10
    "Caalore #0" = 10
    "Caalorne #0" = 10
    "Caano #0" = 10
    "Caerel #0" = 10
    "Cainar #0" = 10
    "Calanor #0" = 10
    "Calastil #0" = 10
    "Calbalion #0" = 10
    "Calcamar #0" = 10
    "Calcelmo #0" = 10
    "Caldandien #0" = 10
    "Caldartur #0" = 10
    "Caldelnalin #0" = 10
    "Caldien #0" = 10
    "Caldil #0" = 10
    "Caledeen #0" = 10
    "Calenus #0" = 10
    "Calibar #0" = 10
    "Calindil #0" = 10
    "Calion #0" = 10
    "Calondil #0" = 10
    "Calpelion #0" = 10
    "Calpion #0" = 10
    "Calpydir #0" = 10
    "Calunorril #0" = 10
    "Caluurion #0" = 10
    "Camaano #0" = 10
    "Camarelur #0" = 10
    "Camarino #0" = 10
    "Canuldil #0" = 10
    "Carandial #0" = 10
    "Carecalmo #0" = 10
    "Carindon #0" = 10
    "Carmion #0" = 10
    "Carnirrimo #0" = 10
    "Caryarel #0" = 10
    "Cassirion #0" = 10
    "Caurtil #0" = 10
    "Ceborn #0" = 10
    "Cebroon #0" = 10
    "Celarus #0" = 10
    "Celedaen #0" = 10
    "Cerulye #0" = 10
    "Cimerhros #0" = 10
    "Cingarfin #0" = 10
    "Cinildil #0" = 10
    "Cinnar #0" = 10
    "Cinosarion #0" = 10
    "Cintuumetil #0" = 10
    "Cinucil #0" = 10
    "Ciral #0" = 10
    "Cirandur #0" = 10
    "Circimure #0" = 10
    "Cirdur #0" = 10
    "Cirendur #0" = 10
    "Ciricollo #0" = 10
    "Cirimion #0" = 10
    "Cirion #0" = 10
    "Cirmo #0" = 10
    "Cironire #0" = 10
    "Cirorlin #0" = 10
    "Ciryarel #0" = 10
    "Ciryefarion #0" = 10
    "Colinyarion #0" = 10
    "Colmorion #0" = 10
    "Colotarion #0" = 10
    "Coluldorn #0" = 10
    "Condalin #0" = 10
    "Coreyon #0" = 10
    "Corimin #0" = 10
    "Corirmorion #0" = 10
    "Coristir #0" = 10
    "Cornar #0" = 10
    "Cororrond #0" = 10
    "Corunorion #0" = 10
    "Cuilacelmo #0" = 10
    "Cuilalme #0" = 10
    "Cuilenrion #0" = 10
    "Cuileril #0" = 10
    "Cuinanthon #0" = 10
    "Cuinur #0" = 10
    "Curandil #0" = 10
    "Curinure #0" = 10
    "Curissil #0" = 10
    "Curtaarimon #0" = 10
    "Curtaros #0" = 10
    "Curvanen #0" = 10
    "Daalinden #0" = 10
    "Dandos #0" = 10
    "Duperil #0" = 10
    "Durell #0" = 10
    "Ealcil #0" = 10
    "Eambar #0" = 10
    "Eancar #0" = 10
    "Eanidore #0" = 10
    "Eanor #0" = 10
    "Eanurlemar #0" = 10
    "Earamon #0" = 10
    "Earanyon #0" = 10
    "Eardir #0" = 10
    "Earelcar #0" = 10
    "Earenwe #0" = 10
    "Earil #0" = 10
    "Earmil #0" = 10
    "Earomar #0" = 10
    "Earos #0" = 10
    "Earran #0" = 10
    "Earrastel #0" = 10
    "Earunlad #0" = 10
    "Ehran #0" = 10
    "Elanaldur #0" = 10
    "Elanar #0" = 10
    "Elanninur #0" = 10
    "Eldamil #0" = 10
    "Eldecil #0" = 10
    "Eldellar #0" = 10
    "Elderhros #0" = 10
    "Elderien #0" = 10
    "Eldhon #0" = 10
    "Eldinaran #0" = 10
    "Eldumoril #0" = 10
    "Eldyme #0" = 10
    "Eleril #0" = 10
    "Elidor #0" = 10
    "Elikar #0" = 10
    "Ellacalion #0" = 10
    "Ellidoril #0" = 10
    "Ellimil #0" = 10
    "Elneandil #0" = 10
    "Elodinar #0" = 10
    "Elonde #0" = 10
    "Elondil #0" = 10
    "Elpion #0" = 10
    "Elundur #0" = 10
    "Elurmeril #0" = 10
    "Elurtalmo #0" = 10
    "Elwintinar #0" = 10
    "Emderil #0" = 10
    "Emecelmo #0" = 10
    "Emonarel #0" = 10
    "Endaron #0" = 10
    "Endarwe #0" = 10
    "Endocar #0" = 10
    "Enelon #0" = 10
    "Engulion #0" = 10
    "Enodoril #0" = 10
    "Enrion #0" = 10
    "Enulyanar #0" = 10
    "Envaril #0" = 10
    "Eraaman #0" = 10
    "Eraamion #0" = 10
    "Eraman #0" = 10
    "Eranamo #0" = 10
    "Erancar #0" = 10
    "Erandil #0" = 10
    "Erannin #0" = 10
    "Eraros #0" = 10
    "Erator #0" = 10
    "Eremind #0" = 10
    "Erendil #0" = 10
    "Erolndil #0" = 10
    "Erolquen #0" = 10
    "Errandil #0" = 10
    "Erthelgor #0" = 10
    "Ertucalion #0" = 10
    "Erudil #0" = 10
    "Erundil #0" = 10
    "Erunien #0" = 10
    "Eryarion #0" = 10
    "Eryeril #0" = 10
    "Erymil #0" = 10
    "Eryon #0" = 10
    "Esaranir #0" = 10
    "Eslendore #0" = 10
    "Essaldur #0" = 10
    "Estaamo #0" = 10
    "Esteltin #0" = 10
    "Esterdel #0" = 10
    "Estertarian #0" = 10
    "Estormo #0" = 10
    "Esulo #0" = 10
    "Esuren #0" = 10
    "Fabanil #0" = 10
    "Faelemar #0" = 10
    "Faelian #0" = 10
    "Faidur #0" = 10
    "Faindor #0" = 10
    "Fainertil #0" = 10
    "Fainorume #0" = 10
    "Fairimo #0" = 10
    "Faladil #0" = 10
    "Falanaamo #0" = 10
    "Falandil #0" = 10
    "Falantar #0" = 10
    "Falarel #0" = 10
    "Falcar #0" = 10
    "Falion #0" = 10
    "Falordilmo #0" = 10
    "Falutur #0" = 10
    "Fandil #0" = 10
    "Fandilol #0" = 10
    "Fanildil #0" = 10
    "Faninmandon #0" = 10
    "Fannariel #0" = 10
    "Fanorne #0" = 10
    "Fanwedil #0" = 10
    "Fanyarel #0" = 10
    "Faralan #0" = 10
    "Faranwenn #0" = 10
    "Farcaano #0" = 10
    "Farmeldo #0" = 10
    "Farmir #0" = 10
    "Farmolbrian #0" = 10
    "Farmorion #0" = 10
    "Farulnor #0" = 10
    "Fasaran #0" = 10
    "Fasarel #0" = 10
    "Fasendil #0" = 10
    "Fasion #0" = 10
    "Fasundil #0" = 10
    "Fealote #0" = 10
    "Felarian #0" = 10
    "Fenanaral #0" = 10
    "Fenarcalmo #0" = 10
    "Fenderil #0" = 10
    "Fendinmin #0" = 10
    "Fenlil #0" = 10
    "Fenoromir #0" = 10
    "Feredir #0" = 10
    "Ferlaatelmo #0" = 10
    "Ferlion #0" = 10
    "Ferlulril #0" = 10
    "Ferlurnire #0" = 10
    "Ferordomas #0" = 10
    "Fiirenanar #0" = 10
    "Fiirenir #0" = 10
    "Fiiriel #0" = 10
    "Fiirofalion #0" = 10
    "Filpormo #0" = 10
    "Filuntol #0" = 10
    "Findarninur #0" = 10
    "Findircalmo #0" = 10
    "Finemo #0" = 10
    "Finunval #0" = 10
    "Finyedion #0" = 10
    "Firamo #0" = 10
    "Firavar #0" = 10
    "Firen #0" = 10
    "Firisar #0" = 10
    "Firruldoril #0" = 10
    "Firtirantar #0" = 10
    "Foloril #0" = 10
    "Furlarros #0" = 10
    "Galalrimon #0" = 10
    "Galenwe #0" = 10
    "Galirlmo #0" = 10
    "Galondorn #0" = 10
    "Galulaben #0" = 10
    "Gerrick #0" = 10
    "Gilgondorin #0" = 10
    "Gilien #0" = 10
    "Glaatol #0" = 10
    "Gladroon #0" = 10
    "Glaetaldo #0" = 10
    "Glamion #0" = 10
    "Glamran #0" = 10
    "Glanoyar #0" = 10
    "Glenadir #0" = 10
    "Guillaume #0" = 10
    "Hadelar #0" = 10
    "Haldinil #0" = 10
    "Haldoril #0" = 10
    "Halidur #0" = 10
    "Halimorion #0" = 10
    "Halinirya #0" = 10
    "Halino #0" = 10
    "Halion #0" = 10
    "Hanelaon #0" = 10
    "Hanil #0" = 10
    "Hanilan #0" = 10
    "Harwion #0" = 10
    "Hasudel #0" = 10
    "Hecalindil #0" = 10
    "Hecerinde #0" = 10
    "Helaran #0" = 10
    "Heldil #0" = 10
    "Helemil #0" = 10
    "Helirmaryon #0" = 10
    "Helonel #0" = 10
    "Helpirion #0" = 10
    "Heluumar #0" = 10
    "Henaamo #0" = 10
    "Henantier #0" = 10
    "Henaril #0" = 10
    "Hendare #0" = 10
    "Hendaril #0" = 10
    "Hendil #0" = 10
    "Henendor #0" = 10
    "Henlandon #0" = 10
    "Henyon #0" = 10
    "Heratir #0" = 10
    "Hererquen #0" = 10
    "Hervarion #0" = 10
    "Heryemo #0" = 10
    "Heryndel #0" = 10
    "Hesolmo #0" = 10
    "Hinaamo #0" = 10
    "Hindaril #0" = 10
    "Hirenariel #0" = 10
    "Hirtel #0" = 10
    "Hiryadrion #0" = 10
    "Honditar #0" = 10
    "Hyalan #0" = 10
    "Hyamir #0" = 10
    "Hyandorril #0" = 10
    "Hyarnarenquar #0" = 10
    "Hydalion #0" = 10
    "Hyircil #0" = 10
    "Hymonim #0" = 10
    "Hyurmir #0" = 10
    "Iachesis #0" = 10
    "Ilaatysar #0" = 10
    "Ilanoras #0" = 10
    "Ilermarin #0" = 10
    "Ilindhar #0" = 10
    "Illmildil #0" = 10
    "Ilmindil #0" = 10
    "Ilmiril #0" = 10
    "Ilmure #0" = 10
    "Ilwen #0" = 10
    "Imedril #0" = 10
    "Indilgalion #0" = 10
    "Indilure #0" = 10
    "Indure #0" = 10
    "Indyen #0" = 10
    "Ineldhel #0" = 10
    "Inenborn #0" = 10
    "Ingamircil #0" = 10
    "Inganar #0" = 10
    "Inganirnei #0" = 10
    "Ingarlas #0" = 10
    "Ingatalmo #0" = 10
    "Ingeromir #0" = 10
    "Ingunnen #0" = 10
    "Iradal #0" = 10
    "Iralundore #0" = 10
    "Iramo #0" = 10
    "Ironarion #0" = 10
    "Iroroon #0" = 10
    "Isinborn #0" = 10
    "Isincolmo #0" = 10
    "Isiraamo #0" = 10
    "Itaalel #0" = 10
    "Iteldil #0" = 10
    "Itermerel #0" = 10
    "Itumil #0" = 10
    "Iwelien #0" = 10
    "Kardryn #0" = 10
    "Karulae #0" = 10
    "Kelurm #0" = 10
    "Kelurmend #0" = 10
    "Kilolembar #0" = 10
    "Kornalus #0" = 10
    "Landomas #0" = 10
    "Landorganil #0" = 10
    "Landorume #0" = 10
    "Landuyas #0" = 10
    "Lanilian #0" = 10
    "Laronen #0" = 10
    "Laruumorien #0" = 10
    "Laryantil #0" = 10
    "Lauron #0" = 10
    "Laurosse #0" = 10
    "Layedril #0" = 10
    "Lelorion #0" = 10
    "Lenarmen #0" = 10
    "Lendetelmo #0" = 10
    "Lendilndorion #0" = 10
    "Lenduldil #0" = 10
    "Lenendore #0" = 10
    "Lenolin #0" = 10
    "Lentidorn #0" = 10
    "Lenwe #0" = 10
    "Lerinyon #0" = 10
    "Lermilcilion #0" = 10
    "Lermion #0" = 10
    "Lernuvaril #0" = 10
    "Lernyelel #0" = 10
    "Leythen #0" = 10
    "Linaaldel #0" = 10
    "Linalion #0" = 10
    "Lindel #0" = 10
    "Lindowel #0" = 10
    "Linenare #0" = 10
    "Lingarmoril #0" = 10
    "Lingonir #0" = 10
    "Linormo #0" = 10
    "Linuudilmo #0" = 10
    "Linwe #0" = 10
    "Linwenvar #0" = 10
    "Linwirmion #0" = 10
    "Linyon #0" = 10
    "Lirendel #0" = 10
    "Lisagnor #0" = 10
    "Lisdebar #0" = 10
    "Lisondor #0" = 10
    "Lisotel #0" = 10
    "Listallel #0" = 10
    "Listinandil #0" = 10
    "Litaagonir #0" = 10
    "Litarion #0" = 10
    "Lithindur #0" = 10
    "Lithnilian #0" = 10
    "Lithodor #0" = 10
    "Lithyyorion #0" = 10
    "Lituudrahil #0" = 10
    "Loncano #0" = 10
    "Loraaldel #0" = 10
    "Lorcalin #0" = 10
    "Loriel #0" = 10
    "Lorimil #0" = 10
    "Lorion #0" = 10
    "Lorirlemil #0" = 10
    "Luinillcar #0" = 10
    "Macamir #0" = 10
    "Maldur #0" = 10
    "Malin #0" = 10
    "Malion #0" = 10
    "Malirndon #0" = 10
    "Malkar #0" = 10
    "Manacar #0" = 10
    "Manduntare #0" = 10
    "Mangildril #0" = 10
    "Mankar #0" = 10
    "Mannimarco #0" = 10
    "Maras #0" = 10
    "Marbarin #0" = 10
    "Marenil #0" = 10
    "Marinmar #0" = 10
    "Marostaale #0" = 10
    "Meanen #0" = 10
    "Melaran #0" = 10
    "Meldil #0" = 10
    "Meldon #0" = 10
    "Melenlan #0" = 10
    "Meluuran #0" = 10
    "Menagarion #0" = 10
    "Menaldinion #0" = 10
    "Mendol #0" = 10
    "Meneval #0" = 10
    "Mengerlas #0" = 10
    "Menuldhel #0" = 10
    "Merandil #0" = 10
    "Mercano #0" = 10
    "Meredil #0" = 10
    "Merildor #0" = 10
    "Merion #0" = 10
    "Merormo #0" = 10
    "Meryaran #0" = 10
    "Meryon #0" = 10
    "Midalmo #0" = 10
    "Milerond #0" = 10
    "Milmendien #0" = 10
    "Mindil #0" = 10
    "Minducil #0" = 10
    "Miratar #0" = 10
    "Mirdinnarian #0" = 10
    "Miremonwe #0" = 10
    "Mirionil #0" = 10
    "Mirnor #0" = 10
    "Mirulon #0" = 10
    "Molacar #0" = 10
    "Moladucil #0" = 10
    "Molanor #0" = 10
    "Molirstamil #0" = 10
    "Mollimo #0" = 10
    "Mollyon #0" = 10
    "Monwe #0" = 10
    "Moranarg #0" = 10
    "Morelrubel #0" = 10
    "Morimbar #0" = 10
    "Mormalion #0" = 10
    "Mormeril #0" = 10
    "Mornandil #0" = 10
    "Mornurdur #0" = 10
    "Mororurg #0" = 10
    "Mossanon #0" = 10
    "Mulvarion #0" = 10
    "Muramil #0" = 10
    "Murarel #0" = 10
    "MurderilNaalirnenil #0" = 10
    "Muril #0" = 10
    "Naanelore #0" = 10
    "Naanirfalion #0" = 10
    "Naarcaano #0" = 10
    "Naaril #0" = 10
    "Naarwe #0" = 10
    "Nadonil #0" = 10
    "Naemon #0" = 10
    "Nafarion #0" = 10
    "Nafiryaamo #0" = 10
    "Nafyeyor #0" = 10
    "Naldien #0" = 10
    "Nallore #0" = 10
    "Namorimon #0" = 10
    "Namornen #0" = 10
    "Nande #0" = 10
    "Nandelle #0" = 10
    "Nanormanar #0" = 10
    "Nanwen #0" = 10
    "Naramin #0" = 10
    "Naranbar #0" = 10
    "Narandor #0" = 10
    "Naris #0" = 10
    "Naritalmo #0" = 10
    "Narwundhel #0" = 10
    "Naryon #0" = 10
    "Nedoril #0" = 10
    "Nelacar #0" = 10
    "Nelerien #0" = 10
    "Nelinar #0" = 10
    "Nelissil #0" = 10
    "Nelulin #0" = 10
    "Nelundahin #0" = 10
    "Nemalarian #0" = 10
    "Nemendoril #0" = 10
    "Nemfarion #0" = 10
    "Nemuutian #0" = 10
    "Nenaron #0" = 10
    "Nenaronald #0" = 10
    "Nendahin #0" = 10
    "Nengenil #0" = 10
    "Nentimo #0" = 10
    "Nentirona #0" = 10
    "Nenvalion #0" = 10
    "Neramo #0" = 10
    "Nerantar #0" = 10
    "Nerassil #0" = 10
    "Nerdorion #0" = 10
    "Nerien #0" = 10
    "Nerien'eth #0" = 10
    "Netalcar #0" = 10
    "Nilarion #0" = 10
    "Nildolnorne #0" = 10
    "Ninguldhon #0" = 10
    "Niramo #0" = 10
    "Nirelon #0" = 10
    "Nirulmo #0" = 10
    "Nirunar #0" = 10
    "Nocare #0" = 10
    "Nocerren #0" = 10
    "Noculvon #0" = 10
    "Noldir #0" = 10
    "Nolonir #0" = 10
    "Nolontar #0" = 10
    "Nolulnarian #0" = 10
    "Nomefanya #0" = 10
    "Nondor #0" = 10
    "Nonvarel #0" = 10
    "Norarubel #0" = 10
    "Norendo #0" = 10
    "Norfando #0" = 10
    "Norion #0" = 10
    "Norionil #0" = 10
    "Norirtil #0" = 10
    "Norunduil #0" = 10
    "Noryon #0" = 10
    "Nuleros #0" = 10
    "Nulion #0" = 10
    "Nulurin #0" = 10
    "Nuluufarya #0" = 10
    "Numithir #0" = 10
    "Nunaacil #0" = 10
    "Nunalhros #0" = 10
    "Nunelneandil #0" = 10
    "Nunorbel #0" = 10
    "Nurelion #0" = 10
    "Nuulehtel #0" = 10
    "Nuvondo #0" = 10
    "Nyderion #0" = 10
    "Ocando #0" = 10
    "Ocandur #0" = 10
    "Ocanim #0" = 10
    "Ocato #0" = 10
    "Ohartalmo #0" = 10
    "Ohmonir #0" = 10
    "Ohtimbar #0" = 10
    "Ohtimir #0" = 10
    "Olanbrim #0" = 10
    "Olincilion #0" = 10
    "Olquamir #0" = 10
    "Olquar #0" = 10
    "Oltimbar #0" = 10
    "Olunandon #0" = 10
    "Ondendil #0" = 10
    "Ondicantar #0" = 10
    "Ondindil #0" = 10
    "Ondolemar #0" = 10
    "Ondunlmo #0" = 10
    "Opylemil #0" = 10
    "Oradel #0" = 10
    "Orintur #0" = 10
    "Ormil #0" = 10
    "Ormilus #0" = 10
    "Ormurrel #0" = 10
    "Orninlur #0" = 10
    "Oromin #0" = 10
    "Orquan #0" = 10
    "Orthorn #0" = 10
    "Osalmil #0" = 10
    "Ostarion #0" = 10
    "Ostion #0" = 10
    "Palomir #0" = 10
    "Pamyedalin #0" = 10
    "Panamar #0" = 10
    "Pandermalion #0" = 10
    "Panuncil #0" = 10
    "Paredan #0" = 10
    "Parmanir #0" = 10
    "Parmbarel #0" = 10
    "Parmion #0" = 10
    "Parmtilir #0" = 10
    "Pelaltor #0" = 10
    "Pelidil #0" = 10
    "Pelimo #0" = 10
    "Pelleren #0" = 10
    "Pelorrah #0" = 10
    "Pelymar #0" = 10
    "Penanmindil #0" = 10
    "Penindur #0" = 10
    "Peninya #0" = 10
    "Pircalmo #0" = 10
    "Piringamen #0" = 10
    "Piromir #0" = 10
    "Pirondil #0" = 10
    "Pirtar #0" = 10
    "Piruyamo #0" = 10
    "Polinus #0" = 10
    "Pondomir #0" = 10
    "Qamor #0" = 10
    "Qamtir #0" = 10
    "Qoramir #0" = 10
    "Qorwynn #0" = 10
    "Qualion #0" = 10
    "Quanomil #0" = 10
    "Quaranir #0" = 10
    "Quaranon #0" = 10
    "Quarantar #0" = 10
    "Quarintil #0" = 10
    "Quarmuuril #0" = 10
    "Quaronaldil #0" = 10
    "Quelilmor #0" = 10
    "Queryarel #0" = 10
    "Quodel #0" = 10
    "Quomin #0" = 10
    "Quorarion #0" = 10
    "Randor #0" = 10
    "Raven #0" = 10
    "Relequen #0" = 10
    "Rellus #0" = 10
    "Riminil #0" = 10
    "Riminor #0" = 10
    "Rimintil #0" = 10
    "Rivenar #0" = 10
    "Rolancano #0" = 10
    "Roland #0" = 10
    "Rolandor #0" = 10
    "Roldofin #0" = 10
    "Rolelnthir #0" = 10
    "Rolerandur #0" = 10
    "Roltilmo #0" = 10
    "Rolumdel #0" = 10
    "Rulanir #0" = 10
    "Rulenliondil #0" = 10
    "Ruliel #0" = 10
    "Rulindil #0" = 10
    "Rulistil #0" = 10
    "Rullenyorion #0" = 10
    "Rullincil #0" = 10
    "Rullordril #0" = 10
    "Rullunar #0" = 10
    "Rulnannariel #0" = 10
    "Rulnerdomas #0" = 10
    "Rulninmir #0" = 10
    "Rulorn #0" = 10
    "Rulotar #0" = 10
    "Rultarion #0" = 10
    "Ruluril #0" = 10
    "Rumare #0" = 10
    "Rumlerrubel #0" = 10
    "Runil #0" = 10
    "Rurelion #0" = 10
    "Ruucaramil #0" = 10
    "Ruurifin #0" = 10
    "Ruuvitar #0" = 10
    "Salmo #0" = 10
    "Samel #0" = 10
    "Sanamen #0" = 10
    "Sanarel #0" = 10
    "Sanderion #0" = 10
    "Sanessalmo #0" = 10
    "Sanodil #0" = 10
    "Sanyon #0" = 10
    "Sarandil #0" = 10
    "Sarodor #0" = 10
    "Sarohanar #0" = 10
    "Sawoyewen #0" = 10
    "Seanwen #0" = 10
    "Semial #0" = 10
    "Semiral #0" = 10
    "Seridur #0" = 10
    "Sevilirion #0" = 10
    "Silolthon #0" = 10
    "Silvanir #0" = 10
    "Simohil #0" = 10
    "Sinaldurion #0" = 10
    "Sincano #0" = 10
    "Sincantar #0" = 10
    "Sinderion #0" = 10
    "Siniel #0" = 10
    "Sinithrel #0" = 10
    "Sinren #0" = 10
    "Sintaananil #0" = 10
    "Sinyaramen #0" = 10
    "Sinyaruton #0" = 10
    "Sinyon #0" = 10
    "Sircantir #0" = 10
    "Sirdor #0" = 10
    "Soltarian #0" = 10
    "Sorangarion #0" = 10
    "Soraperil #0" = 10
    "Soraturil #0" = 10
    "Soravil #0" = 10
    "Sorcalin #0" = 10
    "Sorderion #0" = 10
    "Soriel #0" = 10
    "Soritirmo #0" = 10
    "Sorondil #0" = 10
    "Sorriel #0" = 10
    "Sortam #0" = 10
    "Sortuuya #0" = 10
    "Soryenil #0" = 10
    "Sott #0" = 10
    "Squan #0" = 10
    "Sulimir #0" = 10
    "Sumiril #0" = 10
    "Sunantor #0" = 10
    "Sununturil #0" = 10
    "Surerdahen #0" = 10
    "Surerndur #0" = 10
    "Surolmoril #0" = 10
    "Suurelbrim #0" = 10
    "Suurootan #0" = 10
    "Talambarel #0" = 10
    "Talendil #0" = 10
    "Talerion #0" = 10
    "Talinturil #0" = 10
    "Talinus #0" = 10
    "Talmo #0" = 10
    "Talomar #0" = 10
    "Talonir #0" = 10
    "Talqua #0" = 10
    "Talviah #0" = 10
    "Tanacar #0" = 10
    "Tanamo #0" = 10
    "Tancano #0" = 10
    "Tandemen #0" = 10
    "Tandil #0" = 10
    "Tangarion #0" = 10
    "Taningamen #0" = 10
    "Tanion #0" = 10
    "Taniril #0" = 10
    "Tanorian #0" = 10
    "Tanulad #0" = 10
    "Tanulldel #0" = 10
    "Tanulnyon #0" = 10
    "Taralqua #0" = 10
    "Taredinion #0" = 10
    "Tarma #0" = 10
    "Tarmimn #0" = 10
    "Tarmultur #0" = 10
    "Tarnamir #0" = 10
    "Tarnarrubel #0" = 10
    "Tarqualaite #0" = 10
    "Taryetinar #0" = 10
    "Tauraniron #0" = 10
    "Taurilfin #0" = 10
    "Taurimind #0" = 10
    "Tauryon #0" = 10
    "Telacar #0" = 10
    "Telbincamo #0" = 10
    "Teldigaran #0" = 10
    "Teldur #0" = 10
    "Telenger #0" = 10
    "Telinturco #0" = 10
    "Telmiltarion #0" = 10
    "Telomure #0" = 10
    "Telonde #0" = 10
    "Telonil #0" = 10
    "Telonre #0" = 10
    "Telorsar #0" = 10
    "Telultur #0" = 10
    "Telyneyan #0" = 10
    "Temanros #0" = 10
    "Tendil #0" = 10
    "Tendirrion #0" = 10
    "Tendyederion #0" = 10
    "Tenirtel #0" = 10
    "Tenlethon #0" = 10
    "Tenunil #0" = 10
    "Tenvaril #0" = 10
    "Tesenmolin #0" = 10
    "Tessilstar #0" = 10
    "Tesurcarion #0" = 10
    "Thelerodor #0" = 10
    "Thenley #0" = 10
    "Thetathor #0" = 10
    "Tholbor #0" = 10
    "Thundermaul #0" = 10
    "Tilarion #0" = 10
    "Tilcalar #0" = 10
    "Tildannire #0" = 10
    "Tildanyorion #0" = 10
    "Tildinbrim #0" = 10
    "Tildulon #0" = 10
    "Tildur #0" = 10
    "Tilmanar #0" = 10
    "Tilmo #0" = 10
    "Tilnygaran #0" = 10
    "Timion #0" = 10
    "Timiwe #0" = 10
    "Tinaducil #0" = 10
    "Tirwlurion #0" = 10
    "Tragrim #0" = 10
    "Trallilrion #0" = 10
    "Trelano #0" = 10
    "Tuindal #0" = 10
    "Tuinorion #0" = 10
    "Tuinvitar #0" = 10
    "Tuinylerion #0" = 10
    "Tumande #0" = 10
    "Tumbadoril #0" = 10
    "Tumbaril #0" = 10
    "Tumbomelion #0" = 10
    "Tuminderion #0" = 10
    "Tumindil #0" = 10
    "Tunengore #0" = 10
    "Tusamircil #0" = 10
    "Tusoril #0" = 10
    "Tyermaillin #0" = 10
    "Tymonir #0" = 10
    "Ulando #0" = 10
    "Ularfire #0" = 10
    "Ulcellore #0" = 10
    "Ulcunariel #0" = 10
    "Ulundil #0" = 10
    "Ulymen #0" = 10
    "Umbacano #0" = 10
    "Umbelmion #0" = 10
    "Umbendon #0" = 10
    "Ummanor #0" = 10
    "Undil #0" = 10
    "Ungalin #0" = 10
    "Ungarion #0" = 10
    "Ungdil #0" = 10
    "Uranyon #0" = 10
    "Urcelmo #0" = 10
    "Uricantar #0" = 10
    "Urlurlarion #0" = 10
    "Urluudomas #0" = 10
    "Uryando #0" = 10
    "Uulafalmil #0" = 10
    "Uulernil #0" = 10
    "Uulion #0" = 10
    "Uurkar #0" = 10
    "Vaerelel #0" = 10
    "Vairabrian #0" = 10
    "Vairalmil #0" = 10
    "Valando #0" = 10
    "Valano #0" = 10
    "Valarril #0" = 10
    "Valderyorian #0" = 10
    "Valiano #0" = 10
    "Valik #0" = 10
    "Valion #0" = 10
    "Valmir #0" = 10
    "Valnalmarin #0" = 10
    "Valnil #0" = 10
    "Valnurion #0" = 10
    "Valorone #0" = 10
    "Valrendil #0" = 10
    "Valtarion #0" = 10
    "Valtir #0" = 10
    "Valtuumetil #0" = 10
    "Valunben #0" = 10
    "Vanando #0" = 10
    "Vancano #0" = 10
    "Vancecarion #0" = 10
    "Vancoldalion #0" = 10
    "Vandalion #0" = 10
    "Vanderil #0" = 10
    "Vandoril #0" = 10
    "Vandulyar #0" = 10
    "Vanendil #0" = 10
    "Vanus #0" = 10
    "Varafalmil #0" = 10
    "Varalladan #0" = 10
    "Vareldur #0" = 10
    "Varfandur #0" = 10
    "Vatonyamil #0" = 10
    "Venayen #0" = 10
    "Venerien #0" = 10
    "Verandis #0" = 10
    "Viarmo #0" = 10
    "Viivitar #0" = 10
    "Vincalmo #0" = 10
    "Vincano #0" = 10
    "Vindur #0" = 10
    "Vinenoldil #0" = 10
    "Vingalmo #0" = 10
    "Vinganirne #0" = 10
    "Vingarion #0" = 10
    "Virumariel #0" = 10
    "Volanaro #0" = 10
    "Voranil #0" = 10
    "Voranyarin #0" = 10
    "Vorundil #0" = 10
    "Vrithilin #0" = 10
    "Wailimo #0" = 10
    "Wirande #0" = 10
    "Yakov #0" = 10
    "Yanaril #0" = 10
    "Yancol #0" = 10
    "Yanniss #0" = 10
    "Yannod #0" = 10
    "Yannodil #0" = 10
    "Yarelion #0" = 10
    "Yarmondur #0" = 10
    "Yarnar #0" = 10
    "Yonadus #0" = 10
    "Yvondir #0" = 10

    "Ahlora #0" = -10
    "Aicarya #0" = -10
    "Ainamee #0" = -10
    "Ainare #0" = -10
    "Aineien #0" = -10
    "Airfilwen #0" = -10
    "Alanaire #0" = -10
    "Alandare #0" = -10
    "Alande #0" = -10
    "Alandil #0" = -10
    "Alanne #0" = -10
    "Alanwe #0" = -10
    "Alanya #0" = -10
    "Alcalime #0" = -10
    "Alcardawe #0" = -10
    "Alcildilwe #0" = -10
    "Alcorana #0" = -10
    "Aldamaire #0" = -10
    "Aldanya #0" = -10
    "Aldarenya #0" = -10
    "Aldermil #0" = -10
    "Aldewe #0" = -10
    "Aldimonwe #0" = -10
    "Aldononde #0" = -10
    "Aldunie #0" = -10
    "Alduril #0" = -10
    "Aldurlde #0" = -10
    "Alerume #0" = -10
    "Alinisse #0" = -10
    "Alirfire #0" = -10
    "Alisewen #0" = -10
    "Alque #0" = -10
    "Alquufwe #0" = -10
    "Altansawen #0" = -10
    "Altininde #0" = -10
    "Altoririe #0" = -10
    "Alwaen #0" = -10
    "Alwe #0" = -10
    "Alwinarwe #0" = -10
    "Amaleera #0" = -10
    "Ambarel #0" = -10
    "Ambaril #0" = -10
    "Amelinwe #0" = -10
    "Amilya #0" = -10
    "Aminore #0" = -10
    "Aminwe #0" = -10
    "Amirmil #0" = -10
    "Analande #0" = -10
    "Anaril #0" = -10
    "Ancalin #0" = -10
    "Andalore #0" = -10
    "Andenyerinwe #0" = -10
    "Andewen #0" = -10
    "Andiryewen #0" = -10
    "Andorie #0" = -10
    "Anenale #0" = -10
    "Anenwen #0" = -10
    "Anenya #0" = -10
    "Angalanwen #0" = -10
    "Angalsama #0" = -10
    "Anganirne #0" = -10
    "Angelenwen #0" = -10
    "Angorwe #0" = -10
    "Angwe #0" = -10
    "Aniama #0" = -10
    "Aniaste #0" = -10
    "Aniel #0" = -10
    "Anildalin #0" = -10
    "Aninwe #0" = -10
    "Aniralda #0" = -10
    "Anirione #0" = -10
    "Anirmelda #0" = -10
    "Anirne #0" = -10
    "Anirwe #0" = -10
    "Anirwen #0" = -10
    "Antomine #0" = -10
    "Anurlan #0" = -10
    "Anwelore #0" = -10
    "Anwulsawen #0" = -10
    "Araltil #0" = -10
    "Aramil #0" = -10
    "Aranalda #0" = -10
    "Aranecarne #0" = -10
    "Aranias #0" = -10
    "Arannelya #0" = -10
    "Aranorne #0" = -10
    "Arantale #0" = -10
    "Aranwen #0" = -10
    "Arawe #0" = -10
    "Arawen #0" = -10
    "Arawende #0" = -10
    "Arcimil #0" = -10
    "Ardaline #0" = -10
    "Ardalure #0" = -10
    "Ardarume #0" = -10
    "Areldur #0" = -10
    "Arenwe #0" = -10
    "Aressea #0" = -10
    "Arfaire #0" = -10
    "Arfanwe #0" = -10
    "Arfire #0" = -10
    "Arfiril #0" = -10
    "Arfolasse #0" = -10
    "Ariente #0" = -10
    "Arivanya #0" = -10
    "Arnarne #0" = -10
    "Arnarra #0" = -10
    "Arnurdurwe #0" = -10
    "Arnure #0" = -10
    "Arnuulle #0" = -10
    "Arnyeana #0" = -10
    "Arocil #0" = -10
    "Aroliel #0" = -10
    "Arowende #0" = -10
    "Arquen #0" = -10
    "Artaste #0" = -10
    "Arteril #0" = -10
    "Arterome #0" = -10
    "Artilonwe #0" = -10
    "Artinaire #0" = -10
    "Artiranwen #0" = -10
    "Artuwe #0" = -10
    "Arufinwe #0" = -10
    "Arwolquen #0" = -10
    "Aryarie #0" = -10
    "Astalwen #0" = -10
    "Astante #0" = -10
    "Astanya #0" = -10
    "Asteril #0" = -10
    "Astewen #0" = -10
    "Astilme #0" = -10
    "Astirhil #0" = -10
    "Astorne #0" = -10
    "Astuwae #0" = -10
    "Atildel #0" = -10
    "Atofir #0" = -10
    "Atraena #0" = -10
    "Aurelinwae #0" = -10
    "Avarya #0" = -10
    "Avinaire #0" = -10
    "Avinisse #0" = -10
    "Avirel #0" = -10
    "Ayrenn #0" = -10
    "Azarari #0" = -10
    "Belardirwe #0" = -10
    "Belarin #0" = -10
    "Calanye #0" = -10
    "Calanyese #0" = -10
    "Calawende #0" = -10
    "Calircarya #0" = -10
    "Calirririe #0" = -10
    "Calmaninde #0" = -10
    "Calulgwen #0" = -10
    "Camaisse #0" = -10
    "Camalanwe #0" = -10
    "Camaldetuile #0" = -10
    "Camandil #0" = -10
    "Camenwen #0" = -10
    "Camilonwe #0" = -10
    "Caminalda #0" = -10
    "Caminarne #0" = -10
    "Camore #0" = -10
    "Camyaale #0" = -10
    "Canaale #0" = -10
    "Candangarilde #0" = -10
    "Cangwen #0" = -10
    "Caniel #0" = -10
    "Canirne #0" = -10
    "Caragwen #0" = -10
    "Carahil #0" = -10
    "Caranande #0" = -10
    "Caranya #0" = -10
    "Cararilde #0" = -10
    "Carawen #0" = -10
    "Carellon #0" = -10
    "Carfinwen #0" = -10
    "Cariel #0" = -10
    "Carilasse #0" = -10
    "Carillda #0" = -10
    "Carimalda #0" = -10
    "Caritaale #0" = -10
    "Carterril #0" = -10
    "Cartirinque #0" = -10
    "Cartorrel #0" = -10
    "Casiama #0" = -10
    "Casorlaure #0" = -10
    "Castarnisse #0" = -10
    "Castewe #0" = -10
    "Castyaarne #0" = -10
    "Catannie #0" = -10
    "Catonnel #0" = -10
    "Celria #0" = -10
    "Cerunsawen #0" = -10
    "Ceryolminwe #0" = -10
    "Ceryra #0" = -10
    "Ciindewal #0" = -10
    "Cimalire #0" = -10
    "Cindanwe #0" = -10
    "Cinwiril #0" = -10
    "Ciralinde #0" = -10
    "Ciramaire #0" = -10
    "Cirantille #0" = -10
    "Ciranya #0" = -10
    "Cirenwe #0" = -10
    "Cirode #0" = -10
    "Cirtaarie #0" = -10
    "Cirtelcare #0" = -10
    "Cirterisse #0" = -10
    "Cirunra #0" = -10
    "Ciryelda #0" = -10
    "Colaagwen #0" = -10
    "Colanwe #0" = -10
    "Colaste #0" = -10
    "Colelsawen #0" = -10
    "Colerdawen #0" = -10
    "Colinra #0" = -10
    "Connalenwe #0" = -10
    "Connulsewen #0" = -10
    "Connynque #0" = -10
    "Corelanya #0" = -10
    "Corerine #0" = -10
    "Culanwe #0" = -10
    "Cularalda #0" = -10
    "Cularime #0" = -10
    "Culast #0" = -10
    "Culdandil #0" = -10
    "Culdansea #0" = -10
    "Culdilgwe #0" = -10
    "Culdulquen #0" = -10
    "Culuire #0" = -10
    "Culumaire #0" = -10
    "Culydil #0" = -10
    "Cumangwe #0" = -10
    "Cumanya #0" = -10
    "Curilma #0" = -10
    "Curime #0" = -10
    "Curinaire #0" = -10
    "Curinwe #0" = -10
    "Curorne #0" = -10
    "Cursare #0" = -10
    "Curwe #0" = -10
    "Dhaunayne #0" = -10
    "Eafifwe #0" = -10
    "Eafinme #0" = -10
    "Ealare #0" = -10
    "Ealaren #0" = -10
    "Ealonwe #0" = -10
    "Ealurme #0" = -10
    "Earana #0" = -10
    "Earfogwe #0" = -10
    "Earlanorwe #0" = -10
    "Earlarume #0" = -10
    "Earnaire #0" = -10
    "Earnona #0" = -10
    "Earrona #0" = -10
    "Earyaorne #0" = -10
    "Earyawaen #0" = -10
    "Edelle #0" = -10
    "Eilayne #0" = -10
    "Eilelmil #0" = -10
    "Eilonewen #0" = -10
    "Eilonwy #0" = -10
    "Elaasare #0" = -10
    "Elaminwe #0" = -10
    "Elanande #0" = -10
    "Elanduya #0" = -10
    "Elanecarne #0" = -10
    "Elanere #0" = -10
    "Elanil #0" = -10
    "Elaninwe #0" = -10
    "Elannie #0" = -10
    "Elante #0" = -10
    "Elantelle #0" = -10
    "Elanwe #0" = -10
    "Elanya #0" = -10
    "Elaraama #0" = -10
    "Elarie #0" = -10
    "Elarril #0" = -10
    "Eldafire #0" = -10
    "Eldenyarasse #0" = -10
    "Eldwen #0" = -10
    "Eldyeisse #0" = -10
    "Elendare #0" = -10
    "Elendarie #0" = -10
    "Elenwen #0" = -10
    "Elenya #0" = -10
    "Elondore #0" = -10
    "Elquisa #0" = -10
    "Elwalama #0" = -10
    "Elwilinta #0" = -10
    "Emdoline #0" = -10
    "Emdolye #0" = -10
    "Emerel #0" = -10
    "Eminaire #0" = -10
    "Eminalime #0" = -10
    "Eminelya #0" = -10
    "Eminwe #0" = -10
    "Enalde #0" = -10
    "Enda #0" = -10
    "Endaldilwe #0" = -10
    "Endalle #0" = -10
    "Endannie #0" = -10
    "Endarande #0" = -10
    "Endaraste #0" = -10
    "Endare #0" = -10
    "Endarie #0" = -10
    "Endartirinque #0" = -10
    "Endetuile #0" = -10
    "Endilale #0" = -10
    "Endolale #0" = -10
    "Engariel #0" = -10
    "Enginaire #0" = -10
    "Engitaale #0" = -10
    "Eraril #0" = -10
    "Erelin #0" = -10
    "Erille #0" = -10
    "Erinquen #0" = -10
    "Erissare #0" = -10
    "Erluramar #0" = -10
    "Ernandel #0" = -10
    "Errafinwe #0" = -10
    "Erralle #0" = -10
    "Erranil #0" = -10
    "Errannie #0" = -10
    "Errataale #0" = -10
    "Errawen #0" = -10
    "Erriisse #0" = -10
    "Erronfaire #0" = -10
    "Erronwe #0" = -10
    "Erwurlde #0" = -10
    "Esolarne #0" = -10
    "Estaen #0" = -10
    "Estalenya #0" = -10
    "Estilldo #0" = -10
    "Estinan #0" = -10
    "Estirdalin #0" = -10
    "Estoril #0" = -10
    "Estre #0" = -10
    "Faire #0" = -10
    "Fairencarne #0" = -10
    "Fairenwen #0" = -10
    "Fairwen #0" = -10
    "Falen #0" = -10
    "Fanuwende #0" = -10
    "Fanwenlle #0" = -10
    "Fanwilhil #0" = -10
    "Fanwunine #0" = -10
    "Fanwyearie #0" = -10
    "Fanyeor #0" = -10
    "Faralda #0" = -10
    "Farandare #0" = -10
    "Faranya #0" = -10
    "Fararilde #0" = -10
    "Farilme #0" = -10
    "Farirale #0" = -10
    "Faritaale #0" = -10
    "Faritirinque #0" = -10
    "Farowel #0" = -10
    "Farwelayne #0" = -10
    "Farwen #0" = -10
    "Farwenya #0" = -10
    "Farwewa #0" = -10
    "Farwunte #0" = -10
    "Farya #0" = -10
    "Faryan #0" = -10
    "Felanwe #0" = -10
    "Felawen #0" = -10
    "Fenewen #0" = -10
    "Finandawen #0" = -10
    "Fintilorwe #0" = -10
    "Finyedalin #0" = -10
    "Firaldaale #0" = -10
    "Firenteril #0" = -10
    "Firien #0" = -10
    "Firilanya #0" = -10
    "Firilnisse #0" = -10
    "Firinore #0" = -10
    "Firlaalin #0" = -10
    "Firlarmil #0" = -10
    "Firneril #0" = -10
    "Firorore #0" = -10
    "Firtarcil #0" = -10
    "Firtoldirwe #0" = -10
    "Firtorel #0" = -10
    "Firtoril #0" = -10
    "Firyate #0" = -10
    "Fisinwe #0" = -10
    "Fistalime #0" = -10
    "Fistalle #0" = -10
    "Fistamanwe #0" = -10
    "Fistelle #0" = -10
    "Freyvene #0" = -10
    "Gathewen #0" = -10
    "Gelthorieth #0" = -10
    "Gerwerdel #0" = -10
    "Ghisiliane #0" = -10
    "Gialene #0" = -10
    "Grenedel #0" = -10
    "Haenamil #0" = -10
    "Haenelisse #0" = -10
    "Haeruana #0" = -10
    "Hanerye #0" = -10
    "Haniana #0" = -10
    "Hannayel #0" = -10
    "Hantaari #0" = -10
    "Hanursae #0" = -10
    "Hanyarie #0" = -10
    "Haranwe #0" = -10
    "Helenaere #0" = -10
    "Helende #0" = -10
    "Henarine #0" = -10
    "Henarsare #0" = -10
    "Hendel #0" = -10
    "Henenme #0" = -10
    "Heniquarenwe #0" = -10
    "Henunewe #0" = -10
    "Heranwen #0" = -10
    "Herenia #0" = -10
    "Heron #0" = -10
    "Heruwende #0" = -10
    "Hession #0" = -10
    "Hinwenl #0" = -10
    "Hiradil #0" = -10
    "Hiranesse #0" = -10
    "Hirume #0" = -10
    "Hiryeril #0" = -10
    "Hlidara #0" = -10
    "Iindewen #0" = -10
    "Iirenir #0" = -10
    "Iirenoore #0" = -10
    "Iladawen #0" = -10
    "Ilalinwe #0" = -10
    "Ilemin #0" = -10
    "Ilunsare #0" = -10
    "Imare #0" = -10
    "Imiril #0" = -10
    "Inarala #0" = -10
    "Inare #0" = -10
    "Indalinwe #0" = -10
    "Indradriel #0" = -10
    "Indrathel #0" = -10
    "Ingaril #0" = -10
    "Iniel #0" = -10
    "Innuwae #0" = -10
    "Inulale #0" = -10
    "Iriel #0" = -10
    "Irien #0" = -10
    "Irinwe #0" = -10
    "Irinwen #0" = -10
    "Isunie #0" = -10
    "Karinith #0" = -10
    "Karinnarre #0" = -10
    "Kianra #0" = -10
    "Kilisia #0" = -10
    "Laanari #0" = -10
    "Laanestii #0" = -10
    "Laeriwene #0" = -10
    "Laindilaure #0" = -10
    "Lainirdawen #0" = -10
    "Lairinque #0" = -10
    "Lairiwene #0" = -10
    "Lamoldaire #0" = -10
    "Lamolime #0" = -10
    "Lananwe #0" = -10
    "Lanarie #0" = -10
    "Landare #0" = -10
    "Lanelte #0" = -10
    "Lanende #0" = -10
    "Langwe #0" = -10
    "Lanirsare #0" = -10
    "Lanitaale #0" = -10
    "Lantelcare #0" = -10
    "Lantilwe #0" = -10
    "Laranalda #0" = -10
    "Lareika #0" = -10
    "Larfanwe #0" = -10
    "Larirmindil #0" = -10
    "Larnatille #0" = -10
    "Laryaril #0" = -10
    "Latamenwe #0" = -10
    "Latelisse #0" = -10
    "Latidawe #0" = -10
    "Lauriel #0" = -10
    "Lembien #0" = -10
    "Lenaninwe #0" = -10
    "Lendonarin #0" = -10
    "Lendurwy #0" = -10
    "Lerangalion #0" = -10
    "Lilatha #0" = -10
    "Lilawen #0" = -10
    "Linaanque #0" = -10
    "Linaarie #0" = -10
    "Linatoril #0" = -10
    "Lindafwe #0" = -10
    "Lindarrel #0" = -10
    "Linguvale #0" = -10
    "Linilwe #0" = -10
    "Linimondil #0" = -10
    "Linulyia #0" = -10
    "Linwen #0" = -10
    "Liranaire #0" = -10
    "Lireore #0" = -10
    "Lirinwen #0" = -10
    "Lirunmil #0" = -10
    "Lliae #0" = -10
    "Lorais #0" = -10
    "Lorana #0" = -10
    "Lorin #0" = -10
    "Lorne #0" = -10
    "Lorumel #0" = -10
    "Lorurmend #0" = -10
    "Maalamenwe #0" = -10
    "Mahlia #0" = -10
    "Malangwe #0" = -10
    "Malangwen #0" = -10
    "Malanie #0" = -10
    "Maldetuile #0" = -10
    "Maliren #0" = -10
    "Malwen #0" = -10
    "Mandalime #0" = -10
    "Mangitaale #0" = -10
    "Maritawen #0" = -10
    "Mastengwe #0" = -10
    "Medora #0" = -10
    "Meleril #0" = -10
    "Meleriless #0" = -10
    "Meluririe #0" = -10
    "Melylin #0" = -10
    "Menaste #0" = -10
    "Mendarie #0" = -10
    "Mengilwaen #0" = -10
    "Meratille #0" = -10
    "Merenfire #0" = -10
    "Merenya #0" = -10
    "Minalcil #0" = -10
    "Minantille #0" = -10
    "Mincarione #0" = -10
    "Minelmawen #0" = -10
    "Minique #0" = -10
    "Minolewen #0" = -10
    "Minorne #0" = -10
    "Minwe #0" = -10
    "Minwerdil #0" = -10
    "Minwolhil #0" = -10
    "Minworiel #0" = -10
    "Miranya #0" = -10
    "Mirie #0" = -10
    "Mirkalinde #0" = -10
    "Mirkrand #0" = -10
    "Mirnarie #0" = -10
    "Mirondil #0" = -10
    "Molwen #0" = -10
    "Monormil #0" = -10
    "Morna #0" = -10
    "Motistaari #0" = -10
    "Munya #0" = -10
    "Muurine #0" = -10
    "Naalielir #0" = -10
    "Naaniel #0" = -10
    "Naeruuna #0" = -10
    "Naire #0" = -10
    "Naireorwe #0" = -10
    "Nairume #0" = -10
    "Nalargwen #0" = -10
    "Nalcarya #0" = -10
    "Nalinril #0" = -10
    "Nalirsewen #0" = -10
    "Nalyarie #0" = -10
    "Namolduure #0" = -10
    "Namolelcare #0" = -10
    "Narwaawende #0" = -10
    "Narwende #0" = -10
    "Nauviemil #0" = -10
    "Nelandare #0" = -10
    "Nelanya #0" = -10
    "Nenaarie #0" = -10
    "Nendirume #0" = -10
    "Nenime #0" = -10
    "Nenya #0" = -10
    "Nerussa #0" = -10
    "Nesaawy #0" = -10
    "Nesaranwe #0" = -10
    "Nesilhil #0" = -10
    "Nestaarie #0" = -10
    "Nesullinwe #0" = -10
    "Nesulmawen #0" = -10
    "Nesunte #0" = -10
    "Nesyesawen #0" = -10
    "Netanwe #0" = -10
    "Niiranil #0" = -10
    "Nimare #0" = -10
    "Niralenwe #0" = -10
    "Niralin #0" = -10
    "Niranye #0" = -10
    "Niraselya #0" = -10
    "Nirilrel #0" = -10
    "Nirinwe #0" = -10
    "Nirite #0" = -10
    "Nirya #0" = -10
    "Niryerie #0" = -10
    "Nirywy #0" = -10
    "Nolenowen #0" = -10
    "Nolinare #0" = -10
    "Nolinore #0" = -10
    "Nolunbarel #0" = -10
    "Nolyemal #0" = -10
    "Nonde #0" = -10
    "Noninririe #0" = -10
    "Norerama #0" = -10
    "Noryariel #0" = -10
    "Nuranyawen #0" = -10
    "Nurofire #0" = -10
    "Nurome #0" = -10
    "Nurwuuisse #0" = -10
    "Ohlinonde #0" = -10
    "Oholdirel #0" = -10
    "Ohtandilwe #0" = -10
    "Ohtantaril #0" = -10
    "Ohtari #0" = -10
    "Ohtarona #0" = -10
    "Ohtesse #0" = -10
    "Ohtowen #0" = -10
    "Oimifwe #0" = -10
    "Oinara #0" = -10
    "Oiomiralewen #0" = -10
    "Oiomonwe #0" = -10
    "Olnewil #0" = -10
    "Olorime #0" = -10
    "Olwanenya #0" = -10
    "Oraneth #0" = -10
    "Orarelwe #0" = -10
    "Orelnque #0" = -10
    "Orenwen #0" = -10
    "Ornandel #0" = -10
    "Ornenya #0" = -10
    "Orninlusea #0" = -10
    "Ornuune #0" = -10
    "Ornyenque #0" = -10
    "Oruude #0" = -10
    "Palith #0" = -10
    "Palonirya #0" = -10
    "Pamolinwe #0" = -10
    "Pamolwe #0" = -10
    "Pamuusare #0" = -10
    "Panaaime #0" = -10
    "Pandetuile #0" = -10
    "Panersewen #0" = -10
    "Panewen #0" = -10
    "Panolya #0" = -10
    "Panyra #0" = -10
    "Penardil #0" = -10
    "Penewen #0" = -10
    "Pennifen #0" = -10
    "Penolore #0" = -10
    "Penundil #0" = -10
    "Penunorwe #0" = -10
    "Peregrine #0" = -10
    "Pinanande #0" = -10
    "Qeuryaiel #0" = -10
    "Quen #0" = -10
    "Quendia #0" = -10
    "Quenyas #0" = -10
    "Querertoril #0" = -10
    "Quertasse #0" = -10
    "Queryarie #0" = -10
    "Queryelin #0" = -10
    "Raelys #0" = -10
    "Ranais #0" = -10
    "Ranaline #0" = -10
    "Ranwe #0" = -10
    "Rathorith #0" = -10
    "Raven #0" = -10
    "Reldith #0" = -10
    "Relulae #0" = -10
    "Renduril #0" = -10
    "Renenfwe #0" = -10
    "Rialilrin #0" = -10
    "Rinallie #0" = -10
    "Rindelma #0" = -10
    "Rinedel #0" = -10
    "Riniswin #0" = -10
    "Rinweril #0" = -10
    "Rinwinne #0" = -10
    "Rinyayewen #0" = -10
    "Rinyde #0" = -10
    "Ronawe #0" = -10
    "Rondalinwe #0" = -10
    "Rondellinwe #0" = -10
    "Ronuril #0" = -10
    "Ronwerquen #0" = -10
    "Ronwiramwen #0" = -10
    "Ronyadil #0" = -10
    "Ruma #0" = -10
    "Runaldilwe #0" = -10
    "Runare #0" = -10
    "Rundirwe #0" = -10
    "Runwyenisse #0" = -10
    "Saleia #0" = -10
    "Salelale #0" = -10
    "Saleorne #0" = -10
    "Salerne #0" = -10
    "Salinwe #0" = -10
    "Sangur #0" = -10
    "Sarah #0" = -10
    "Sarandel #0" = -10
    "Sarfinaire #0" = -10
    "Sawen #0" = -10
    "Selandilwen #0" = -10
    "Selloe #0" = -10
    "Seludalin #0" = -10
    "Serfinilonwe #0" = -10
    "Serit #0" = -10
    "Seritenya #0" = -10
    "Seritir #0" = -10
    "Silhansa #0" = -10
    "Siltalaure #0" = -10
    "Siltamaire #0" = -10
    "Silurie #0" = -10
    "Sinarril #0" = -10
    "Siniaritaale #0" = -10
    "Sinien #0" = -10
    "Sintilfalion #0" = -10
    "Siramanwe #0" = -10
    "Sirerale #0" = -10
    "Sireril #0" = -10
    "Sirilonwe #0" = -10
    "Sirinaire #0" = -10
    "Sirinduure #0" = -10
    "Sirinque #0" = -10
    "Siriwen #0" = -10
    "Siroria #0" = -10
    "Sondaale #0" = -10
    "Sonlonwe #0" = -10
    "Sontaire #0" = -10
    "Sorcalin #0" = -10
    "Sorfinilon #0" = -10
    "Sortarione #0" = -10
    "Sunie #0" = -10
    "Suriwen #0" = -10
    "Taalinrel #0" = -10
    "Taalorde #0" = -10
    "Taanuire #0" = -10
    "Taanwae #0" = -10
    "Taanya #0" = -10
    "Taarenyawen #0" = -10
    "Taari #0" = -10
    "Taarie #0" = -10
    "Taarsare #0" = -10
    "Taaruraire #0" = -10
    "Taeruumawen #0" = -10
    "Talirinde #0" = -10
    "Talisse #0" = -10
    "Talolayne #0" = -10
    "Taltaarie #0" = -10
    "Talulma #0" = -10
    "Talwelin #0" = -10
    "Talwullaure #0" = -10
    "Tambare #0" = -10
    "Tanaame #0" = -10
    "Tandare #0" = -10
    "Tandilwe #0" = -10
    "Tanellinwe #0" = -10
    "Tanelwen #0" = -10
    "Tanerline #0" = -10
    "Taralin #0" = -10
    "Tarerane #0" = -10
    "Tarie #0" = -10
    "Tarinwe #0" = -10
    "Tarwanme #0" = -10
    "Tarwannewen #0" = -10
    "Tarwen #0" = -10
    "Telalril #0" = -10
    "Telandil #0" = -10
    "Telarnel #0" = -10
    "Telarniel #0" = -10
    "Teldrelwe #0" = -10
    "Teldulsewen #0" = -10
    "Teldwennisse #0" = -10
    "Teldwifwen #0" = -10
    "Telorinwe #0" = -10
    "Telorinwen #0" = -10
    "Telwyaarie #0" = -10
    "Telyasawen #0" = -10
    "Temanlinwe #0" = -10
    "Temelin #0" = -10
    "Temerlda #0" = -10
    "Tendinwe #0" = -10
    "Tenduldirel #0" = -10
    "Tenwinril #0" = -10
    "Tenyemanwe #0" = -10
    "Tenyeminwe #0" = -10
    "Teralaure #0" = -10
    "Teraniel #0" = -10
    "Teranya #0" = -10
    "Teraseldil #0" = -10
    "Teriinwe #0" = -10
    "Termanwe #0" = -10
    "Teromawen #0" = -10
    "Terorne #0" = -10
    "Thalie #0" = -10
    "Thiirel #0" = -10
    "Tilalime #0" = -10
    "Tilanfire #0" = -10
    "Tilinarie #0" = -10
    "Tilorinwe #0" = -10
    "Tilortil #0" = -10
    "Tindoria #0" = -10
    "Tindwode #0" = -10
    "Tindwuu #0" = -10
    "Tindwyfwe #0" = -10
    "Tinegwen #0" = -10
    "Tinimanwe #0" = -10
    "Tirwin #0" = -10
    "Tirwortil #0" = -10
    "Tuinden #0" = -10
    "Tundanarne #0" = -10
    "Tundullie #0" = -10
    "Tundulsawen #0" = -10
    "Turalla #0" = -10
    "Turqualie #0" = -10
    "Turquenwen #0" = -10
    "Ulumir #0" = -10
    "Umbarile #0" = -10
    "Umbarume #0" = -10
    "Umbuudalin #0" = -10
    "Undaisse #0" = -10
    "Undeya #0" = -10
    "Undowolrinde #0" = -10
    "Undwelda #0" = -10
    "Undwinisse #0" = -10
    "Undwinwe #0" = -10
    "Undwyalie #0" = -10
    "Unordirwe #0" = -10
    "Unwalwy #0" = -10
    "Unwoltil #0" = -10
    "Unwudil #0" = -10
    "Unwulfwe #0" = -10
    "Uraacil #0" = -10
    "Urcelia #0" = -10
    "Urena #0" = -10
    "Urien #0" = -10
    "Urildil #0" = -10
    "Urwaninwe #0" = -10
    "Urwende #0" = -10
    "Uryaamo #0" = -10
    "Uudilwen #0" = -10
    "Vaaryafwe #0" = -10
    "Vaelede #0" = -10
    "Vaeridil #0" = -10
    "Vaerunne #0" = -10
    "Vaerwyae #0" = -10
    "Vaerwyeien #0" = -10
    "Vairaame #0" = -10
    "Vairyehil #0" = -10
    "Valacarya #0" = -10
    "Valaste #0" = -10
    "Valenn #0" = -10
    "Valenwe #0" = -10
    "Valie #0" = -10
    "Valinwe #0" = -10
    "Valla #0" = -10
    "Valowende #0" = -10
    "Valsirenn #0" = -10
    "Valullinwe #0" = -10
    "Vantorwen #0" = -10
    "Varfundore #0" = -10
    "Vartilonwen #0" = -10
    "Varulae #0" = -10
    "Varumil #0" = -10
    "Varustante #0" = -10
    "Varwenra #0" = -10
    "Vastarie #0" = -10
    "Vatisse #0" = -10
    "Velandare #0" = -10
    "Velatosse #0" = -10
    "Velelya #0" = -10
    "Velya #0" = -10
    "Veranquel #0" = -10
    "Veraye #0" = -10
    "Vesteldore #0" = -10
    "Vhasla #0" = -10
    "Vilya #0" = -10
    "Vinafwe #0" = -10
    "Vindare #0" = -10
    "Vindilween #0" = -10
    "Vinelore #0" = -10
    "Viniel #0" = -10
    "Vintenwen #0" = -10
    "Vinuuririe #0" = -10
    "Vinwinarin #0" = -10
    "Vinwysea #0" = -10
    "Viraninde #0" = -10
    "Virenderil #0" = -10
    "Viriniel #0" = -10
    "Virurarie #0" = -10
    "Virwen #0" = -10
    "Virwillaure #0" = -10
    "Volunidai #0" = -10
    "Wendlain #0" = -10
    "Yalorasse #0" = -10
    "Yaremanwe #0" = -10
}

leader_names = {
    Aenthannir Aesmer Aesril Aicaano Aicantar Aicessar Ainaame Alamar Alarnon Aldaril Aldarnen Alderdon Aldimion Aldolin Aldotarel Almion Alrdorion Alturco Amaalmo Amballicil Ambalor Ambaran Ambucilion Aminyon Amuur Amyril Anarenen Anarume Ancalmo Ancano Ancarion Ancarive Ancelhros Ancemen Ancolcalion Anconath Ancotar Andame Anderferion Andil Andresalmo Andulalion Andur Angalmo Angamar Angardil Angedreth Angiente Anginil Ango Angolin Angoril Anirlo Anquen Antarandur Antur Anyon Aonus Aracar Aralyon Aranath Arantar Arartar Arathel Arcarin Arcorion Ardorin Areldil Areldur Arelian Arelmo Arfanel Arillas Arindur Aringoth Arkved Armion Arondil Aronil Arrille Arrimoril Arterion Arunen Aryamo Aryon Astor Atalmo Ateldil Athellor Atirion Avys Bayenor Berrilidon Blanchete Caalore Caalorne Caano Caerel Cainar Calanor Calastil Calbalion Calcamar Calcelmo Caldandien Caldartur Caldelnalin Caldien Caldil Caledeen Calenus Calibar Calindil Calion Calondil Calpelion Calpion Calpydir Calunorril Caluurion Camaano Camarelur Camarino Canuldil Carandial Carecalmo Carindon Carmion Carnirrimo Caryarel Cassirion Caurtil Ceborn Cebroon Celarus Celedaen Cerulye Cimerhros Cingarfin Cinildil Cinnar Cinosarion Cintuumetil Cinucil Ciral Cirandur Circimure Cirdur Cirendur Ciricollo Cirimion Cirion Cirmo Cironire Cirorlin Ciryarel Ciryefarion Colinyarion Colmorion Colotarion Coluldorn Condalin Coreyon Corimin Corirmorion Coristir Cornar Cororrond Corunorion Cuilacelmo Cuilalme Cuilenrion Cuileril Cuinanthon Cuinur Curandil Curinure Curissil Curtaarimon Curtaros Curvanen Daalinden Dandos Duperil Durell Ealcil Eambar Eancar Eanidore Eanor Eanurlemar Earamon Earanyon Eardir Earelcar Earenwe Earil Earmil Earomar Earos Earran Earrastel Earunlad Ehran Elanaldur Elanar Elanninur Eldamil Eldecil Eldellar Elderhros Elderien Eldhon Eldinaran Eldumoril Eldyme Eleril Elidor Elikar Ellacalion Ellidoril Ellimil Elneandil Elodinar Elonde Elondil Elpion Elundur Elurmeril Elurtalmo Elwintinar Emderil Emecelmo Emonarel Endaron Endarwe Endocar Enelon Engulion Enodoril Enrion Enulyanar Envaril Eraaman Eraamion Eraman Eranamo Erancar Erandil Erannin Eraros Erator Eremind Erendil Erolndil Erolquen Errandil Erthelgor Ertucalion Erudil Erundil Erunien Eryarion Eryeril Erymil Eryon Esaranir Eslendore Essaldur Estaamo Esteltin Esterdel Estertarian Estormo Esulo Esuren Fabanil Faelemar Faelian Faidur Faindor Fainertil Fainorume Fairimo Faladil Falanaamo Falandil Falantar Falarel Falcar Falion Falordilmo Falutur Fandil Fandilol Fanildil Faninmandon Fannariel Fanorne Fanwedil Fanyarel Faralan Faranwenn Farcaano Farmeldo Farmir Farmolbrian Farmorion Farulnor Fasaran Fasarel Fasendil Fasion Fasundil Fealote Felarian Fenanaral Fenarcalmo Fenderil Fendinmin Fenlil Fenoromir Feredir Ferlaatelmo Ferlion Ferlulril Ferlurnire Ferordomas Fiirenanar Fiirenir Fiiriel Fiirofalion Filpormo Filuntol Findarninur Findircalmo Finemo Finunval Finyedion Firamo Firavar Firen Firisar Firruldoril Firtirantar Foloril Furlarros Galalrimon Galenwe Galirlmo Galondorn Galulaben Gerrick Gilgondorin Gilien Glaatol Gladroon Glaetaldo Glamion Glamran Glanoyar Glenadir Guillaume Hadelar Haldinil Haldoril Halidur Halimorion Halinirya Halino Halion Hanelaon Hanil Hanilan Harwion Hasudel Hecalindil Hecerinde Helaran Heldil Helemil Helirmaryon Helonel Helpirion Heluumar Henaamo Henantier Henaril Hendare Hendaril Hendil Henendor Henlandon Henyon Heratir Hererquen Hervarion Heryemo Heryndel Hesolmo Hinaamo Hindaril Hirenariel Hirtel Hiryadrion Honditar Hyalan Hyamir Hyandorril Hyarnarenquar Hydalion Hyircil Hymonim Hyurmir Iachesis Ilaatysar Ilanoras Ilermarin Ilindhar Illmildil Ilmindil Ilmiril Ilmure Ilwen Imedril Indilgalion Indilure Indure Indyen Ineldhel Inenborn Ingamircil Inganar Inganirnei Ingarlas Ingatalmo Ingeromir Ingunnen Iradal Iralundore Iramo Ironarion Iroroon Isinborn Isincolmo Isiraamo Itaalel Iteldil Itermerel Itumil Iwelien Kardryn Karulae Kelurm Kelurmend Kilolembar Kornalus Landomas Landorganil Landorume Landuyas Lanilian Laronen Laruumorien Laryantil Lauron Laurosse Layedril Lelorion Lenarmen Lendetelmo Lendilndorion Lenduldil Lenendore Lenolin Lentidorn Lenwe Lerinyon Lermilcilion Lermion Lernuvaril Lernyelel Leythen Linaaldel Linalion Lindel Lindowel Linenare Lingarmoril Lingonir Linormo Linuudilmo Linwe Linwenvar Linwirmion Linyon Lirendel Lisagnor Lisdebar Lisondor Lisotel Listallel Listinandil Litaagonir Litarion Lithindur Lithnilian Lithodor Lithyyorion Lituudrahil Loncano Loraaldel Lorcalin Loriel Lorimil Lorion Lorirlemil Luinillcar Macamir Maldur Malin Malion Malirndon Malkar Manacar Manduntare Mangildril Mankar Mannimarco Maras Marbarin Marenil Marinmar Marostaale Meanen Melaran Meldil Meldon Melenlan Meluuran Menagarion Menaldinion Mendol Meneval Mengerlas Menuldhel Merandil Mercano Meredil Merildor Merion Merormo Meryaran Meryon Midalmo Milerond Milmendien Mindil Minducil Miratar Mirdinnarian Miremonwe Mirionil Mirnor Mirulon Molacar Moladucil Molanor Molirstamil Mollimo Mollyon Monwe Moranarg Morelrubel Morimbar Mormalion Mormeril Mornandil Mornurdur Mororurg Mossanon Mulvarion Muramil Murarel MurderilNaalirnenil Muril Naanelore Naanirfalion Naarcaano Naaril Naarwe Nadonil Naemon Nafarion Nafiryaamo Nafyeyor Naldien Nallore Namorimon Namornen Nande Nandelle Nanormanar Nanwen Naramin Naranbar Narandor Naris Naritalmo Narwundhel Naryon Nedoril Nelacar Nelerien Nelinar Nelissil Nelulin Nelundahin Nemalarian Nemendoril Nemfarion Nemuutian Nenaron Nenaronald Nendahin Nengenil Nentimo Nentirona Nenvalion Neramo Nerantar Nerassil Nerdorion Nerien Nerien'eth Netalcar Nilarion Nildolnorne Ninguldhon Niramo Nirelon Nirulmo Nirunar Nocare Nocerren Noculvon Noldir Nolonir Nolontar Nolulnarian Nomefanya Nondor Nonvarel Norarubel Norendo Norfando Norion Norionil Norirtil Norunduil Noryon Nuleros Nulion Nulurin Nuluufarya Numithir Nunaacil Nunalhros Nunelneandil Nunorbel Nurelion Nuulehtel Nuvondo Nyderion Ocando Ocandur Ocanim Ocato Ohartalmo Ohmonir Ohtimbar Ohtimir Olanbrim Olincilion Olquamir Olquar Oltimbar Olunandon Ondendil Ondicantar Ondindil Ondolemar Ondunlmo Opylemil Oradel Orintur Ormil Ormilus Ormurrel Orninlur Oromin Orquan Orthorn Osalmil Ostarion Ostion Palomir Pamyedalin Panamar Pandermalion Panuncil Paredan Parmanir Parmbarel Parmion Parmtilir Pelaltor Pelidil Pelimo Pelleren Pelorrah Pelymar Penanmindil Penindur Peninya Pircalmo Piringamen Piromir Pirondil Pirtar Piruyamo Polinus Pondomir Qamor Qamtir Qoramir Qorwynn Qualion Quanomil Quaranir Quaranon Quarantar Quarintil Quarmuuril Quaronaldil Quelilmor Queryarel Quodel Quomin Quorarion Randor Raven Relequen Rellus Riminil Riminor Rimintil Rivenar Rolancano Roland Rolandor Roldofin Rolelnthir Rolerandur Roltilmo Rolumdel Rulanir Rulenliondil Ruliel Rulindil Rulistil Rullenyorion Rullincil Rullordril Rullunar Rulnannariel Rulnerdomas Rulninmir Rulorn Rulotar Rultarion Ruluril Rumare Rumlerrubel Runil Rurelion Ruucaramil Ruurifin Ruuvitar Salmo Samel Sanamen Sanarel Sanderion Sanessalmo Sanodil Sanyon Sarandil Sarodor Sarohanar Sawoyewen Seanwen Semial Semiral Seridur Sevilirion Silolthon Silvanir Simohil Sinaldurion Sincano Sincantar Sinderion Siniel Sinithrel Sinren Sintaananil Sinyaramen Sinyaruton Sinyon Sircantir Sirdor Soltarian Sorangarion Soraperil Soraturil Soravil Sorcalin Sorderion Soriel Soritirmo Sorondil Sorriel Sortam Sortuuya Soryenil Sott Squan Sulimir Sumiril Sunantor Sununturil Surerdahen Surerndur Surolmoril Suurelbrim Suurootan Talambarel Talendil Talerion Talinturil Talinus Talmo Talomar Talonir Talqua Talviah Tanacar Tanamo Tancano Tandemen Tandil Tangarion Taningamen Tanion Taniril Tanorian Tanulad Tanulldel Tanulnyon Taralqua Taredinion Tarma Tarmimn Tarmultur Tarnamir Tarnarrubel Tarqualaite Taryetinar Tauraniron Taurilfin Taurimind Tauryon Telacar Telbincamo Teldigaran Teldur Telenger Telinturco Telmiltarion Telomure Telonde Telonil Telonre Telorsar Telultur Telyneyan Temanros Tendil Tendirrion Tendyederion Tenirtel Tenlethon Tenunil Tenvaril Tesenmolin Tessilstar Tesurcarion Thelerodor Thenley Thetathor Tholbor Thundermaul Tilarion Tilcalar Tildannire Tildanyorion Tildinbrim Tildulon Tildur Tilmanar Tilmo Tilnygaran Timion Timiwe Tinaducil Tirwlurion Tragrim Trallilrion Trelano Tuindal Tuinorion Tuinvitar Tuinylerion Tumande Tumbadoril Tumbaril Tumbomelion Tuminderion Tumindil Tunengore Tusamircil Tusoril Tyermaillin Tymonir Ulando Ularfire Ulcellore Ulcunariel Ulundil Ulymen Umbacano Umbelmion Umbendon Ummanor Undil Ungalin Ungarion Ungdil Uranyon Urcelmo Uricantar Urlurlarion Urluudomas Uryando Uulafalmil Uulernil Uulion Uurkar Vaerelel Vairabrian Vairalmil Valando Valano Valarril Valderyorian Valiano Valik Valion Valmir Valnalmarin Valnil Valnurion Valorone Valrendil Valtarion Valtir Valtuumetil Valunben Vanando Vancano Vancecarion Vancoldalion Vandalion Vanderil Vandoril Vandulyar Vanendil Vanus Varafalmil Varalladan Vareldur Varfandur Vatonyamil Venayen Venerien Verandis Viarmo Viivitar Vincalmo Vincano Vindur Vinenoldil Vingalmo Vinganirne Vingarion Virumariel Volanaro Voranil Voranyarin Vorundil Vrithilin Wailimo Wirande Yakov Yanaril Yancol Yanniss Yannod Yannodil Yarelion Yarmondur Yarnar Yonadus Yvondir
}

ship_names = {
    Ahlora Aicarya Ainamee Ainare Aineien Airfilwen Alanaire Alandare Alande Alandil Alanne Alanwe Alanya Alcalime Alcardawe Alcildilwe Alcorana Aldamaire Aldanya Aldarenya Aldermil Aldewe Aldimonwe Aldononde Aldunie Alduril Aldurlde Alerume Alinisse Alirfire Alisewen Alque Alquufwe Altansawen Altininde Altoririe Alwaen Alwe Alwinarwe Amaleera Ambarel Ambaril Amelinwe Amilya Aminore Aminwe Amirmil Analande Anaril Ancalin Andalore Andenyerinwe Andewen Andiryewen Andorie Anenale Anenwen Anenya Angalanwen Angalsama Anganirne Angelenwen Angorwe Angwe Aniama Aniaste Aniel Anildalin Aninwe Aniralda Anirione Anirmelda Anirne Anirwe Anirwen Antomine Anurlan Anwelore Anwulsawen Araltil Aramil Aranalda Aranecarne Aranias Arannelya Aranorne Arantale Aranwen Arawe Arawen Arawende Arcimil Ardaline Ardalure Ardarume Areldur Arenwe Aressea Arfaire Arfanwe Arfire Arfiril Arfolasse Ariente Arivanya Arnarne Arnarra Arnurdurwe Arnure Arnuulle Arnyeana Arocil Aroliel Arowende Arquen Artaste Arteril Arterome Artilonwe Artinaire Artiranwen Artuwe Arufinwe Arwolquen Aryarie Astalwen Astante Astanya Asteril Astewen Astilme Astirhil Astorne Astuwae Atildel Atofir Atraena Aurelinwae Avarya Avinaire Avinisse Avirel Ayrenn Azarari Belardirwe Belarin Calanye Calanyese Calawende Calircarya Calirririe Calmaninde Calulgwen Camaisse Camalanwe Camaldetuile Camandil Camenwen Camilonwe Caminalda Caminarne Camore Camyaale Canaale Candangarilde Cangwen Caniel Canirne Caragwen Carahil Caranande Caranya Cararilde Carawen Carellon Carfinwen Cariel Carilasse Carillda Carimalda Caritaale Carterril Cartirinque Cartorrel Casiama Casorlaure Castarnisse Castewe Castyaarne Catannie Catonnel Celria Cerunsawen Ceryolminwe Ceryra Ciindewal Cimalire Cindanwe Cinwiril Ciralinde Ciramaire Cirantille Ciranya Cirenwe Cirode Cirtaarie Cirtelcare Cirterisse Cirunra Ciryelda Colaagwen Colanwe Colaste Colelsawen Colerdawen Colinra Connalenwe Connulsewen Connynque Corelanya Corerine Culanwe Cularalda Cularime Culast Culdandil Culdansea Culdilgwe Culdulquen Culuire Culumaire Culydil Cumangwe Cumanya Curilma Curime Curinaire Curinwe Curorne Cursare Curwe Dhaunayne Eafifwe Eafinme Ealare Ealaren Ealonwe Ealurme Earana Earfogwe Earlanorwe Earlarume Earnaire Earnona Earrona Earyaorne Earyawaen Edelle Eilayne Eilelmil Eilonewen Eilonwy Elaasare Elaminwe Elanande Elanduya Elanecarne Elanere Elanil Elaninwe Elannie Elante Elantelle Elanwe Elanya Elaraama Elarie Elarril Eldafire Eldenyarasse Eldwen Eldyeisse Elendare Elendarie Elenwen Elenya Elondore Elquisa Elwalama Elwilinta Emdoline Emdolye Emerel Eminaire Eminalime Eminelya Eminwe Enalde Enda Endaldilwe Endalle Endannie Endarande Endaraste Endare Endarie Endartirinque Endetuile Endilale Endolale Engariel Enginaire Engitaale Eraril Erelin Erille Erinquen Erissare Erluramar Ernandel Errafinwe Erralle Erranil Errannie Errataale Errawen Erriisse Erronfaire Erronwe Erwurlde Esolarne Estaen Estalenya Estilldo Estinan Estirdalin Estoril Estre Faire Fairencarne Fairenwen Fairwen Falen Fanuwende Fanwenlle Fanwilhil Fanwunine Fanwyearie Fanyeor Faralda Farandare Faranya Fararilde Farilme Farirale Faritaale Faritirinque Farowel Farwelayne Farwen Farwenya Farwewa Farwunte Farya Faryan Felanwe Felawen Fenewen Finandawen Fintilorwe Finyedalin Firaldaale Firenteril Firien Firilanya Firilnisse Firinore Firlaalin Firlarmil Firneril Firorore Firtarcil Firtoldirwe Firtorel Firtoril Firyate Fisinwe Fistalime Fistalle Fistamanwe Fistelle Freyvene Gathewen Gelthorieth Gerwerdel Ghisiliane Gialene Grenedel Haenamil Haenelisse Haeruana Hanerye Haniana Hannayel Hantaari Hanursae Hanyarie Haranwe Helenaere Helende Henarine Henarsare Hendel Henenme Heniquarenwe Henunewe Heranwen Herenia Heron Heruwende Hession Hinwenl Hiradil Hiranesse Hirume Hiryeril Hlidara Iindewen Iirenir Iirenoore Iladawen Ilalinwe Ilemin Ilunsare Imare Imiril Inarala Inare Indalinwe Indradriel Indrathel Ingaril Iniel Innuwae Inulale Iriel Irien Irinwe Irinwen Isunie Karinith Karinnarre Kianra Kilisia Laanari Laanestii Laeriwene Laindilaure Lainirdawen Lairinque Lairiwene Lamoldaire Lamolime Lananwe Lanarie Landare Lanelte Lanende Langwe Lanirsare Lanitaale Lantelcare Lantilwe Laranalda Lareika Larfanwe Larirmindil Larnatille Laryaril Latamenwe Latelisse Latidawe Lauriel Lembien Lenaninwe Lendonarin Lendurwy Lerangalion Lilatha Lilawen Linaanque Linaarie Linatoril Lindafwe Lindarrel Linguvale Linilwe Linimondil Linulyia Linwen Liranaire Lireore Lirinwen Lirunmil Lliae Lorais Lorana Lorin Lorne Lorumel Lorurmend Maalamenwe Mahlia Malangwe Malangwen Malanie Maldetuile Maliren Malwen Mandalime Mangitaale Maritawen Mastengwe Medora Meleril Meleriless Meluririe Melylin Menaste Mendarie Mengilwaen Meratille Merenfire Merenya Minalcil Minantille Mincarione Minelmawen Minique Minolewen Minorne Minwe Minwerdil Minwolhil Minworiel Miranya Mirie Mirkalinde Mirkrand Mirnarie Mirondil Molwen Monormil Morna Motistaari Munya Muurine Naalielir Naaniel Naeruuna Naire Naireorwe Nairume Nalargwen Nalcarya Nalinril Nalirsewen Nalyarie Namolduure Namolelcare Narwaawende Narwende Nauviemil Nelandare Nelanya Nenaarie Nendirume Nenime Nenya Nerussa Nesaawy Nesaranwe Nesilhil Nestaarie Nesullinwe Nesulmawen Nesunte Nesyesawen Netanwe Niiranil Nimare Niralenwe Niralin Niranye Niraselya Nirilrel Nirinwe Nirite Nirya Niryerie Nirywy Nolenowen Nolinare Nolinore Nolunbarel Nolyemal Nonde Noninririe Norerama Noryariel Nuranyawen Nurofire Nurome Nurwuuisse Ohlinonde Oholdirel Ohtandilwe Ohtantaril Ohtari Ohtarona Ohtesse Ohtowen Oimifwe Oinara Oiomiralewen Oiomonwe Olnewil Olorime Olwanenya Oraneth Orarelwe Orelnque Orenwen Ornandel Ornenya Orninlusea Ornuune Ornyenque Oruude Palith Palonirya Pamolinwe Pamolwe Pamuusare Panaaime Pandetuile Panersewen Panewen Panolya Panyra Penardil Penewen Pennifen Penolore Penundil Penunorwe Peregrine Pinanande Qeuryaiel Quen Quendia Quenyas Querertoril Quertasse Queryarie Queryelin Raelys Ranais Ranaline Ranwe Rathorith Raven Reldith Relulae Renduril Renenfwe Rialilrin Rinallie Rindelma Rinedel Riniswin Rinweril Rinwinne Rinyayewen Rinyde Ronawe Rondalinwe Rondellinwe Ronuril Ronwerquen Ronwiramwen Ronyadil Ruma Runaldilwe Runare Rundirwe Runwyenisse Saleia Salelale Saleorne Salerne Salinwe Sangur Sarah Sarandel Sarfinaire Sawen Selandilwen Selloe Seludalin Serfinilonwe Serit Seritenya Seritir Silhansa Siltalaure Siltamaire Silurie Sinarril Siniaritaale Sinien Sintilfalion Siramanwe Sirerale Sireril Sirilonwe Sirinaire Sirinduure Sirinque Siriwen Siroria Sondaale Sonlonwe Sontaire Sorcalin Sorfinilon Sortarione Sunie Suriwen Taalinrel Taalorde Taanuire Taanwae Taanya Taarenyawen Taari Taarie Taarsare Taaruraire Taeruumawen Talirinde Talisse Talolayne Taltaarie Talulma Talwelin Talwullaure Tambare Tanaame Tandare Tandilwe Tanellinwe Tanelwen Tanerline Taralin Tarerane Tarie Tarinwe Tarwanme Tarwannewen Tarwen Telalril Telandil Telarnel Telarniel Teldrelwe Teldulsewen Teldwennisse Teldwifwen Telorinwe Telorinwen Telwyaarie Telyasawen Temanlinwe Temelin Temerlda Tendinwe Tenduldirel Tenwinril Tenyemanwe Tenyeminwe Teralaure Teraniel Teranya Teraseldil Teriinwe Termanwe Teromawen Terorne Thalie Thiirel Tilalime Tilanfire Tilinarie Tilorinwe Tilortil Tindoria Tindwode Tindwuu Tindwyfwe Tinegwen Tinimanwe Tirwin Tirwortil Tuinden Tundanarne Tundullie Tundulsawen Turalla Turqualie Turquenwen Ulumir Umbarile Umbarume Umbuudalin Undaisse Undeya Undowolrinde Undwelda Undwinisse Undwinwe Undwyalie Unordirwe Unwalwy Unwoltil Unwudil Unwulfwe Uraacil Urcelia Urena Urien Urildil Urwaninwe Urwende Uryaamo Uudilwen Vaaryafwe Vaelede Vaeridil Vaerunne Vaerwyae Vaerwyeien Vairaame Vairyehil Valacarya Valaste Valenn Valenwe Valie Valinwe Valla Valowende Valsirenn Valullinwe Vantorwen Varfundore Vartilonwen Varulae Varumil Varustante Varwenra Vastarie Vatisse Velandare Velatosse Velelya Velya Veranquel Veraye Vesteldore Vhasla Vilya Vinafwe Vindare Vindilween Vinelore Viniel Vintenwen Vinuuririe Vinwinarin Vinwysea Viraninde Virenderil Viriniel Virurarie Virwen Virwillaure Volunidai Wendlain Yalorasse Yaremanwe
}

army_names = {
    "Army of $PROVINCE$"
}

fleet_names = {
    "Fleet of $PROVINCE$"
}