graphical_culture = asiangfx

color = { 227 143 0 }

revolutionary_colors = { 0 13 8}


historical_idea_groups = {
}

historical_units = {
}

monarch_names = {
    "Asec #0" = 10
    "Xogyauz #0" = 10
    "Chicroth #0" = 10
    "Suakzuc #0" = 10
    "Juhxaux #0" = 10
    "Yehxonet #0" = 10
    "Uhnoxuas #0" = 10
    "Zonuajeth #0" = 10
    "Thuacahsoq #0" = 10
    "Shogyoxos #0" = 10
    "Aakuc #0" = 10
    "Azaa #0" = 10
    "Xigeiz #0" = 10
    "Yucre #0" = 10
    "Chuaqosh #0" = 10
    "Nujaceq #0" = 10
    "Hakeqouth #0" = 10
    "Hikuashuth #0" = 10
    "Shacakshas #0" = 10
    "Regesuz #0" = 10
    "Chanauth #0" = 10
    "Xaaggas #0" = 10
    "Suzeic #0" = 10
    "Ajout #0" = 10
    "Ronic #0" = 10
    "Xukozoh #0" = 10
    "Jaxece #0" = 10
    "Sheisahsox #0" = 10
    "Zanojoh #0" = 10
    "Uaguzoq #0" = 10
    "Xougreh #0" = 10
    "Chenax #0" = 10
    "Shejac #0" = 10
    "Eza #0" = 10
    "Chuxou #0" = 10
    "Hehsuaqus #0" = 10
    "Oqakix #0" = 10
    "Xicenshez #0" = 10
    "Thaxaqash #0" = 10
    "Thujinesh #0" = 10
    "Inshat #0" = 10
    "Rukza #0" = 10
    "Xeikru #0" = 10
    "Chuqos #0" = 10
    "Unouq #0" = 10
    "Shaqhekit #0" = 10
    "Rezogeix #0" = 10
    "Asuqhus #0" = 10
    "Sasaqus #0" = 10
    "Thaxugret #0" = 10
    "Naucua #0" = 10
    "Okhax #0" = 10
    "Xukhih #0" = 10
    "Uzhix #0" = 10
    "Iszuh #0" = 10
    "Chihxeze #0" = 10
    "Esouqi #0" = 10
    "Neqehxush #0" = 10
    "Jacuhgeth #0" = 10
    "Sajashuaq #0" = 10
    "Rehnesh #0" = 10
    "Chakah #0" = 10
    "Uxoz #0" = 10
    "Thugih #0" = 10
    "Ruhsouc #0" = 10
    "Eguazex #0" = 10
    "Rucauzou #0" = 10
    "Zukuchax #0" = 10
    "Sogunzut #0" = 10
    "Onezo #0" = 10
    "Unu #0" = 10
    "Egshath #0" = 10
    "Heszosh #0" = 10
    "Yogshuth #0" = 10
    "Xonsac #0" = 10
    "Xucaxaz #0" = 10
    "Jiszejosh #0" = 10
    "Xixecu #0" = 10
    "Chaxuaqut #0" = 10
    "Jekrigeh #0" = 10
    "Egget #0" = 10
    "Acraush #0" = 10
    "Thanse #0" = 10
    "Eqaz #0" = 10
    "Neqes #0" = 10
    "Azaaxi #0" = 10
    "Zokaaxax #0" = 10
    "Shocaja #0" = 10
    "Jijanau #0" = 10
    "Nohgexaus #0" = 10
    "Nakhe #0" = 10
    "Xane #0" = 10
    "Thihnus #0" = 10
    "Uzho #0" = 10
    "Sougrax #0" = 10
    "Zunexaush #0" = 10
    "Theigocuth #0" = 10
    "Soujaakhe #0" = 10
    "Anaza #0" = 10
    "Zehsicraut #0" = 10

    "Krarahs #0" = -10
    "Chinnia #0" = -10
    "Aunian #0" = -10
    "Guggin #0" = -10
    "Avuzes #0" = -10
    "Imerai #0" = -10
    "Evekku #0" = -10
    "Illorahz #0" = -10
    "Vouggignez #0" = -10
    "Ghokizsha #0" = -10
    "Nunnu #0" = -10
    "Jhongi #0" = -10
    "Jekuh #0" = -10
    "Ngeve #0" = -10
    "Kressharu #0" = -10
    "Aekkusse #0" = -10
    "Chiraigu #0" = -10
    "Zhogozauhs #0" = -10
    "Jangrako #0" = -10
    "Chegisse #0" = -10
    "Juahuh #0" = -10
    "Trezus #0" = -10
    "Uzshuhs #0" = -10
    "Iazkahs #0" = -10
    "Chaenire #0" = -10
    "Zekuvo #0" = -10
    "Ngunevouz #0" = -10
    "Evounni #0" = -10
    "Mgiagauze #0" = -10
    "Zrokkugzu #0" = -10
    "Mizauh #0" = -10
    "Ghihzaz #0" = -10
    "Zremaihz #0" = -10
    "Ghumau #0" = -10
    "Krakhuakij #0" = -10
    "Ommomuhs #0" = -10
    "Chizozro #0" = -10
    "Unogi #0" = -10
    "Juhuke #0" = -10
    "Ngillare #0" = -10
    "Okush #0" = -10
    "Zerish #0" = -10
    "Mgegash #0" = -10
    "Ongruj #0" = -10
    "Ogzego #0" = -10
    "Kizrokuhs #0" = -10
    "Mreninna #0" = -10
    "Nraullegrahs #0" = -10
    "Ourgikash #0" = -10
    "Ivono #0" = -10
    "Jhurze #0" = -10
    "Moru #0" = -10
    "Ngagej #0" = -10
    "Zizgohs #0" = -10
    "Ogizij #0" = -10
    "Ezoka #0" = -10
    "Ugumash #0" = -10
    "Jhogagni #0" = -10
    "Niggiza #0" = -10
    "Jhivhergia #0" = -10
    "Goman #0" = -10
    "Mrecho #0" = -10
    "Mgognon #0" = -10
    "Umis #0" = -10
    "Jamzakus #0" = -10
    "Zuzire #0" = -10
    "Jhorinish #0" = -10
    "Nrounogriz #0" = -10
    "Imokua #0" = -10
    "Ingrossi #0" = -10
    "Agoz #0" = -10
    "Khukuhz #0" = -10
    "Ghuamiash #0" = -10
    "Ngasskan #0" = -10
    "Jhivhuku #0" = -10
    "Zromunaesh #0" = -10
    "Nuzemohs #0" = -10
    "Mazanna #0" = -10
    "Ghinoro #0" = -10
    "Juvhahzihz #0" = -10
    "Chuzza #0" = -10
    "Nrekij #0" = -10
    "Kaisshi #0" = -10
    "Ozas #0" = -10
    "Vuanzaiki #0" = -10
    "Ngarunas #0" = -10
    "Gumosskesh #0" = -10
    "Ougunnuhz #0" = -10
    "Chuskashki #0" = -10
    "Mgongivu #0" = -10
    "Mgozehs #0" = -10
    "Jekki #0" = -10
    "Krenki #0" = -10
    "Mreske #0" = -10
    "Azimuh #0" = -10
    "Kuhshammo #0" = -10
    "Zrekozzej #0" = -10
    "Khukamia #0" = -10
    "Nokomish #0" = -10
    "Emmura #0" = -10
}

leader_names = {
    Asec Xogyauz Chicroth Suakzuc Juhxaux Yehxonet Uhnoxuas Zonuajeth Thuacahsoq Shogyoxos Aakuc Azaa Xigeiz Yucre Chuaqosh Nujaceq Hakeqouth Hikuashuth Shacakshas Regesuz Chanauth Xaaggas Suzeic Ajout Ronic Xukozoh Jaxece Sheisahsox Zanojoh Uaguzoq Xougreh Chenax Shejac Eza Chuxou Hehsuaqus Oqakix Xicenshez Thaxaqash Thujinesh Inshat Rukza Xeikru Chuqos Unouq Shaqhekit Rezogeix Asuqhus Sasaqus Thaxugret Naucua Okhax Xukhih Uzhix Iszuh Chihxeze Esouqi Neqehxush Jacuhgeth Sajashuaq Rehnesh Chakah Uxoz Thugih Ruhsouc Eguazex Rucauzou Zukuchax Sogunzut Onezo Unu Egshath Heszosh Yogshuth Xonsac Xucaxaz Jiszejosh Xixecu Chaxuaqut Jekrigeh Egget Acraush Thanse Eqaz Neqes Azaaxi Zokaaxax Shocaja Jijanau Nohgexaus Nakhe Xane Thihnus Uzho Sougrax Zunexaush Theigocuth Soujaakhe Anaza Zehsicraut
}

ship_names = {
    Krarahs Chinnia Aunian Guggin Avuzes Imerai Evekku Illorahz Vouggignez Ghokizsha Nunnu Jhongi Jekuh Ngeve Kressharu Aekkusse Chiraigu Zhogozauhs Jangrako Chegisse Juahuh Trezus Uzshuhs Iazkahs Chaenire Zekuvo Ngunevouz Evounni Mgiagauze Zrokkugzu Mizauh Ghihzaz Zremaihz Ghumau Krakhuakij Ommomuhs Chizozro Unogi Juhuke Ngillare Okush Zerish Mgegash Ongruj Ogzego Kizrokuhs Mreninna Nraullegrahs Ourgikash Ivono Jhurze Moru Ngagej Zizgohs Ogizij Ezoka Ugumash Jhogagni Niggiza Jhivhergia Goman Mrecho Mgognon Umis Jamzakus Zuzire Jhorinish Nrounogriz Imokua Ingrossi Agoz Khukuhz Ghuamiash Ngasskan Jhivhuku Zromunaesh Nuzemohs Mazanna Ghinoro Juvhahzihz Chuzza Nrekij Kaisshi Ozas Vuanzaiki Ngarunas Gumosskesh Ougunnuhz Chuskashki Mgongivu Mgozehs Jekki Krenki Mreske Azimuh Kuhshammo Zrekozzej Khukamia Nokomish Emmura
}

army_names = {
    "Army of $PROVINCE$"
}

fleet_names = {
    "Fleet of $PROVINCE$"
}