graphical_culture = asiangfx

color = {255 255 255 }

revolutionary_colors = { 14 5 12}


historical_idea_groups = {
}

historical_units = {
}

monarch_names = {
    "Athixus #0" = 10
    "Salmoebus #0" = 10
    "Anasztochus #0" = 10
    "Brasolas #0" = 10
    "Salmyx #0" = 10
    "Thelameseus #0" = 10
    "Eustyrtus #0" = 10
    "Caphaneithes #0" = 10
    "Salmysios #0" = 10
    "Erasmys #0" = 10
    "Thititus #0" = 10
    "Mosophor #0" = 10
    "Aphrixi #0" = 10
    "Salmeros #0" = 10
    "Krathisthus #0" = 10
    "Hespips #0" = 10
    "Therrastos #0" = 10
    "Hespice #0" = 10
    "Depheus #0" = 10
    "Amycepios #0" = 10
    "Typhaus #0" = 10
    "Iphitelous #0" = 10
    "Jaselphos #0" = 10
    "Brasas #0" = 10
    "Demithaeus #0" = 10
    "Basos #0" = 10
    "Herastus #0" = 10
    "Arthatos #0" = 10
    "Antipherios #0" = 10
    "Alpheas #0" = 10
    "Ulyssolos #0" = 10
    "Ephiste #0" = 10
    "Castethon #0" = 10
    "Lichax #0" = 10
    "Absyristhus #0" = 10
    "Prophilles #0" = 10
    "Cirorus #0" = 10
    "Amycades #0" = 10
    "Oediphose #0" = 10
    "Dionysanos #0" = 10
    "Thanetus #0" = 10
    "Thaleros #0" = 10
    "Agathastos #0" = 10
    "Soteryx #0" = 10
    "Stephophor #0" = 10
    "Ansteas #0" = 10
    "Lichophoros #0" = 10
    "Antiphoebus #0" = 10
    "Adrates #0" = 10
    "Ancochus #0" = 10
    "Phlegixus #0" = 10
    "Hespocia #0" = 10
    "Arsastus #0" = 10
    "Dephophoros #0" = 10
    "Thimithous #0" = 10
    "Demithios #0" = 10
    "Zalothius #0" = 10
    "Proteserios #0" = 10
    "Nisolas #0" = 10
    "Soterixus #0" = 10
    "Heryrtus #0" = 10
    "Zalisthus #0" = 10
    "Oediphanthus #0" = 10
    "Thitous #0" = 10
    "Orthrosyne #0" = 10
    "Mopsersis #0" = 10
    "Ashataus #0" = 10
    "Prophios #0" = 10
    "Phrixice #0" = 10
    "Tharasiaraus #0" = 10
    "Aristorus #0" = 10
    "Parthaus #0" = 10
    "Tarasatos #0" = 10
    "Krathastos #0" = 10
    "Helix #0" = 10
    "Mosysios #0" = 10
    "Vasios #0" = 10
    "Xerxelix #0" = 10
    "Arsax #0" = 10
    "Xanthatos #0" = 10
    "Adelphastos #0" = 10
    "Athanersis #0" = 10
    "Niseseus #0" = 10
    "Xenades #0" = 10
    "Zetiaraus #0" = 10
    "Laestithous #0" = 10
    "Celanos #0" = 10
    "Protesochus #0" = 10
    "Anathios #0" = 10
    "Isocrerios #0" = 10
    "Caesanthus #0" = 10
    "Eustolos #0" = 10
    "Spyrersis #0" = 10
    "Caphanexei #0" = 10
    "Sotalus #0" = 10
    "Orthralus #0" = 10
    "Anchobus #0" = 10
    "Alcelix #0" = 10
    "Salmepios #0" = 10

    "Selice #0" = -10
    "Brethilis #0" = -10
    "Nyshophila #0" = -10
    "Pherishae #0" = -10
    "Mystymes #0" = -10
    "Adrasalphia #0" = -10
    "Salaphite #0" = -10
    "Prosenis #0" = -10
    "Oriphephia #0" = -10
    "Mystophi #0" = -10
    "Nyshise #0" = -10
    "Kisseosis #0" = -10
    "Savariphei #0" = -10
    "Nysyse #0" = -10
    "Ophiisha #0" = -10
    "Acaliphelia #0" = -10
    "Sabixa #0" = -10
    "Orphishia #0" = -10
    "Misais #0" = -10
    "Acsaphine #0" = -10
    "Othrithoe #0" = -10
    "Oriphosa #0" = -10
    "Thanistae #0" = -10
    "Adrasaxaura #0" = -10
    "Thyxaphine #0" = -10
    "Adrasephia #0" = -10
    "Theisyphe #0" = -10
    "Chalixa #0" = -10
    "Nethice #0" = -10
    "Nephiphi #0" = -10
    "Athiliphis #0" = -10
    "Pethalise #0" = -10
    "Batheshi #0" = -10
    "Akisyxio #0" = -10
    "Nethoesa #0" = -10
    "Nethiasse #0" = -10
    "Crepheasi #0" = -10
    "Cnassisa #0" = -10
    "Ethemilis #0" = -10
    "Adrasite #0" = -10
    "Siliphi #0" = -10
    "Theamiophai #0" = -10
    "Rhethali #0" = -10
    "Alethrusa #0" = -10
    "Acsais #0" = -10
    "Rhaenosia #0" = -10
    "Rhaeniophai #0" = -10
    "Thesassea #0" = -10
    "Anthophila #0" = -10
    "Theanionis #0" = -10
    "Prisenis #0" = -10
    "Prisishia #0" = -10
    "Selassa #0" = -10
    "Paphopheu #0" = -10
    "Theanertes #0" = -10
    "Taphithe #0" = -10
    "Klepheithe #0" = -10
    "Kaphosa #0" = -10
    "Syrixie #0" = -10
    "Thronassea #0" = -10
    "Physacia #0" = -10
    "Akisisha #0" = -10
    "Orethaeia #0" = -10
    "Aphose #0" = -10
    "Nyshisia #0" = -10
    "Lephenis #0" = -10
    "Acsiphei #0" = -10
    "Misypso #0" = -10
    "Leuceshi #0" = -10
    "Ophiali #0" = -10
    "Anthia #0" = -10
    "Theanaeia #0" = -10
    "Cirohsa #0" = -10
    "Anthesi #0" = -10
    "Kissusei #0" = -10
    "Misosise #0" = -10
    "Thelophi #0" = -10
    "Thelelia #0" = -10
    "Leuciphia #0" = -10
    "Theamephia #0" = -10
    "Sinopheu #0" = -10
    "Lisiphe #0" = -10
    "Akiseris #0" = -10
    "Iasephia #0" = -10
    "Nyxacia #0" = -10
    "Astrisei #0" = -10
    "Brethiophai #0" = -10
    "Meniphelia #0" = -10
    "Silishia #0" = -10
    "Rhaenine #0" = -10
    "Taphiphe #0" = -10
    "Galixeilla #0" = -10
    "Thespisha #0" = -10
    "Galixaia #0" = -10
    "Phaisusei #0" = -10
    "Rhaeneis #0" = -10
    "Ashertes #0" = -10
    "Daphnaia #0" = -10
    "Nyshassa #0" = -10
    "Nyxophi #0" = -10
}

leader_names = {
    Athixus Salmoebus Anasztochus Brasolas Salmyx Thelameseus Eustyrtus Caphaneithes Salmysios Erasmys Thititus Mosophor Aphrixi Salmeros Krathisthus Hespips Therrastos Hespice Depheus Amycepios Typhaus Iphitelous Jaselphos Brasas Demithaeus Basos Herastus Arthatos Antipherios Alpheas Ulyssolos Ephiste Castethon Lichax Absyristhus Prophilles Cirorus Amycades Oediphose Dionysanos Thanetus Thaleros Agathastos Soteryx Stephophor Ansteas Lichophoros Antiphoebus Adrates Ancochus Phlegixus Hespocia Arsastus Dephophoros Thimithous Demithios Zalothius Proteserios Nisolas Soterixus Heryrtus Zalisthus Oediphanthus Thitous Orthrosyne Mopsersis Ashataus Prophios Phrixice Tharasiaraus Aristorus Parthaus Tarasatos Krathastos Helix Mosysios Vasios Xerxelix Arsax Xanthatos Adelphastos Athanersis Niseseus Xenades Zetiaraus Laestithous Celanos Protesochus Anathios Isocrerios Caesanthus Eustolos Spyrersis Caphanexei Sotalus Orthralus Anchobus Alcelix Salmepios
}

ship_names = {
    Selice Brethilis Nyshophila Pherishae Mystymes Adrasalphia Salaphite Prosenis Oriphephia Mystophi Nyshise Kisseosis Savariphei Nysyse Ophiisha Acaliphelia Sabixa Orphishia Misais Acsaphine Othrithoe Oriphosa Thanistae Adrasaxaura Thyxaphine Adrasephia Theisyphe Chalixa Nethice Nephiphi Athiliphis Pethalise Batheshi Akisyxio Nethoesa Nethiasse Crepheasi Cnassisa Ethemilis Adrasite Siliphi Theamiophai Rhethali Alethrusa Acsais Rhaenosia Rhaeniophai Thesassea Anthophila Theanionis Prisenis Prisishia Selassa Paphopheu Theanertes Taphithe Klepheithe Kaphosa Syrixie Thronassea Physacia Akisisha Orethaeia Aphose Nyshisia Lephenis Acsiphei Misypso Leuceshi Ophiali Anthia Theanaeia Cirohsa Anthesi Kissusei Misosise Thelophi Thelelia Leuciphia Theamephia Sinopheu Lisiphe Akiseris Iasephia Nyxacia Astrisei Brethiophai Meniphelia Silishia Rhaenine Taphiphe Galixeilla Thespisha Galixaia Phaisusei Rhaeneis Ashertes Daphnaia Nyshassa Nyxophi
}

army_names = {
    "Army of $PROVINCE$"
}

fleet_names = {
    "Fleet of $PROVINCE$"
}