graphical_culture = new_southamericagfx

color = { 67 6 188 }

revolutionary_colors = { 4 4 3}


historical_idea_groups = {
}

historical_units = {
}

monarch_names = {
    "N'Gasta #0" = 10
    "B'Korgen #0" = 10
    "K'Tora #0" = 10
    "N'buta #0" = 10
    "Dhifra #0" = 10
    "Selri #0" = 10
    "Drermo #0" = 10
    "Larno #0" = 10
    "Dryba #0" = 10
    "Griba #0" = 10
    "Cembiviph #0" = 10
    "Stimleri #0" = 10
    "Viphlateash #0" = 10
    "Phruitravi #0" = 10
    "Drafron #0" = 10
    "Peva #0" = 10
    "Stifra #0" = 10
    "Gefith #0" = 10
    "Valiph #0" = 10
    "Dhadno #0" = 10
    "Cishety #0" = 10
    "Cylapie #0" = 10
    "Itsevi #0" = 10
    "Llipeva #0" = 10
    "Thaeve #0" = 10
    "Lleasi #0" = 10
    "Piaddi #0" = 10
    "Thacha #0" = 10
    "Iatra #0" = 10
    "Mystri #0" = 10
    "Scilere #0" = 10
    "Tefrala #0" = 10
    "Thamodys #0" = 10
    "Thuiphrane #0" = 10
    "Zhyllash #0" = 10
    "Pydha #0" = 10
    "Threno #0" = 10
    "Imin #0" = 10
    "Phrianza #0" = 10
    "Thymi #0" = 10
    "Zhoensine #0" = 10
    "Ciephnety #0" = 10
    "Thramosi #0" = 10
    "Mnamperin #0" = 10
    "Denshi #0" = 10
    "Seonsha #0" = 10
    "Phryrref #0" = 10
    "Stira #0" = 10
    "Dhaephri #0" = 10
    "Phacha #0" = 10
    "Zhitemyph #0" = 10
    "Zhechame #0" = 10
    "Gaephrima #0" = 10
    "Scuithrira #0" = 10
    "Gymbeph #0" = 10
    "Scansi #0" = 10
    "Sthiadhe #0" = 10
    "Shydo #0" = 10
    "Duifra #0" = 10
    "Eli #0" = 10
    "Yflaviph #0" = 10
    "Dreddida #0" = 10
    "Phryveseph #0" = 10
    "Phrathinih #0" = 10
    "Thryva #0" = 10
    "Llestha #0" = 10
    "Scili #0" = 10
    "Ymbi #0" = 10
    "Neoffesh #0" = 10
    "Zheffi #0" = 10
    "Tynsebe #0" = 10
    "Mermove #0" = 10
    "Llissobi #0" = 10
    "Paemnetash #0" = 10
    "Gaphra #0" = 10
    "Vyle #0" = 10
    "Yrme #0" = 10
    "Mnitha #0" = 10
    "Essi #0" = 10
    "Nelmo #0" = 10
    "Stalrovi #0" = 10
    "Virnaben #0" = 10
    "Gydevas #0" = 10
    "Phastheda #0" = 10
    "Styffi #0" = 10
    "Stheophlo #0" = 10
    "Mnettosh #0" = 10
    "Mninsha #0" = 10
    "Puinef #0" = 10
    "Yntes #0" = 10
    "Tyrnami #0" = 10
    "Itsefyh #0" = 10
    "Mnaphrona #0" = 10
    "Tiflasan #0" = 10
    "Sceane #0" = 10
    "Ziche #0" = 10
    "Itra #0" = 10
    "Naddi #0" = 10
    "Lliles #0" = 10
    "Zhisso #0" = 10
    "Tidhade #0" = 10
    "Llettafia #0" = 10
    "Zylati #0" = 10
    "Mymlosif #0" = 10

    "K'Garza #0" = -10
    "Z'Maja #0" = -10
    "Q'fura #0" = -10
    "Bormenis #0" = -10
    "Nemenrane #0" = -10
    "Ianalina #0" = -10
    "Bormine #0" = -10
    "Calyete #0" = -10
    "Brilyn #0" = -10
    "Murilyn #0" = -10
    "Callania #0" = -10
    "Sheimala #0" = -10
    "Aquidina #0" = -10
    "Corathusa #0" = -10
    "Ateleia #0" = -10
    "Zelimisia #0" = -10
    "Anitheis #0" = -10
    "Melisesis #0" = -10
    "Eirely #0" = -10
    "Viviarith #0" = -10
    "Halilise #0" = -10
    "Zhadenah #0" = -10
    "Adrielure #0" = -10
    "Clalise #0" = -10
    "Adophine #0" = -10
    "Saphapheu #0" = -10
    "Metisise #0" = -10
    "Ianadella #0" = -10
    "Merilora #0" = -10
    "Delorial #0" = -10
    "Raelody #0" = -10
    "Maryrien #0" = -10
    "Shemara #0" = -10
    "Orilophi #0" = -10
    "Calothe #0" = -10
    "Iphagoria #0" = -10
    "Danacea #0" = -10
    "Malimisa #0" = -10
    "Aquirene #0" = -10
    "Nereirissa #0" = -10
    "Raelura #0" = -10
    "Sereithia #0" = -10
    "Jenieria #0" = -10
    "Pidorise #0" = -10
    "Peritai #0" = -10
    "Rhenelea #0" = -10
    "Naigina #0" = -10
    "Nephegina #0" = -10
    "Noefa #0" = -10
    "Analina #0" = -10
    "Adredenah #0" = -10
    "Amalee #0" = -10
    "Siregana #0" = -10
    "Lamephaeia #0" = -10
    "Ianadelia #0" = -10
    "Malinei #0" = -10
    "Hailodia #0" = -10
    "Corosiphe #0" = -10
    "Merilis #0" = -10
    "Vivianoe #0" = -10
    "Adrietune #0" = -10
    "Mirame #0" = -10
    "Vivienne #0" = -10
    "Meticea #0" = -10
    "Poreithea #0" = -10
    "Themisesis #0" = -10
    "Piria #0" = -10
    "Nealyse #0" = -10
    "Sheifa #0" = -10
    "Maryneh #0" = -10
    "Avarial #0" = -10
    "Dorierissa #0" = -10
    "Muriexie #0" = -10
    "Tesiphe #0" = -10
    "Menilira #0" = -10
    "Metiopise #0" = -10
    "Limolopei #0" = -10
    "Calopeia #0" = -10
    "Larairin #0" = -10
    "Aurareida #0" = -10
    "Azana #0" = -10
    "Dalirena #0" = -10
    "Fontaguna #0" = -10
    "Metirose #0" = -10
    "Pilato #0" = -10
    "Piphia #0" = -10
    "Nerigoria #0" = -10
    "Idales #0" = -10
    "Aeririssa #0" = -10
    "Dorieneva #0" = -10
    "Auragana #0" = -10
    "Oarariel #0" = -10
    "Aqeanna #0" = -10
    "Neameria #0" = -10
    "Pinea #0" = -10
    "Palaphine #0" = -10
    "Raiseise #0" = -10
    "Kalliseis #0" = -10
    "Loraithia #0" = -10
    "Meriria #0" = -10
    "Adrearos #0" = -10
    "Corderissa #0" = -10
    "Anata #0" = -10
}

leader_names = {
    N'Gasta B'Korgen K'Tora N'buta Dhifra Selri Drermo Larno Dryba Griba Cembiviph Stimleri Viphlateash Phruitravi Drafron Peva Stifra Gefith Valiph Dhadno Cishety Cylapie Itsevi Llipeva Thaeve Lleasi Piaddi Thacha Iatra Mystri Scilere Tefrala Thamodys Thuiphrane Zhyllash Pydha Threno Imin Phrianza Thymi Zhoensine Ciephnety Thramosi Mnamperin Denshi Seonsha Phryrref Stira Dhaephri Phacha Zhitemyph Zhechame Gaephrima Scuithrira Gymbeph Scansi Sthiadhe Shydo Duifra Eli Yflaviph Dreddida Phryveseph Phrathinih Thryva Llestha Scili Ymbi Neoffesh Zheffi Tynsebe Mermove Llissobi Paemnetash Gaphra Vyle Yrme Mnitha Essi Nelmo Stalrovi Virnaben Gydevas Phastheda Styffi Stheophlo Mnettosh Mninsha Puinef Yntes Tyrnami Itsefyh Mnaphrona Tiflasan Sceane Ziche Itra Naddi Lliles Zhisso Tidhade Llettafia Zylati Mymlosif
}

ship_names = {
    K'Garza Z'Maja Q'fura Bormenis Nemenrane Ianalina Bormine Calyete Brilyn Murilyn Callania Sheimala Aquidina Corathusa Ateleia Zelimisia Anitheis Melisesis Eirely Viviarith Halilise Zhadenah Adrielure Clalise Adophine Saphapheu Metisise Ianadella Merilora Delorial Raelody Maryrien Shemara Orilophi Calothe Iphagoria Danacea Malimisa Aquirene Nereirissa Raelura Sereithia Jenieria Pidorise Peritai Rhenelea Naigina Nephegina Noefa Analina Adredenah Amalee Siregana Lamephaeia Ianadelia Malinei Hailodia Corosiphe Merilis Vivianoe Adrietune Mirame Vivienne Meticea Poreithea Themisesis Piria Nealyse Sheifa Maryneh Avarial Dorierissa Muriexie Tesiphe Menilira Metiopise Limolopei Calopeia Larairin Aurareida Azana Dalirena Fontaguna Metirose Pilato Piphia Nerigoria Idales Aeririssa Dorieneva Auragana Oarariel Aqeanna Neameria Pinea Palaphine Raiseise Kalliseis Loraithia Meriria Adrearos Corderissa Anata
}

army_names = {
    "Army of $PROVINCE$"
}

fleet_names = {
    "Fleet of $PROVINCE$"
}