graphical_culture = westerngfx

color = { 192 23 23 }

revolutionary_colors = { 15 5 3}


historical_idea_groups = {
}

historical_units = {
}

monarch_names = {
    "Aberius #0" = 10
    "Abnur #0" = 10
    "Absolon #0" = 10
    "Accalia #0" = 10
    "Adamus #0" = 10
    "Adonato #0" = 10
    "Adonatus #0" = 10
    "Adrian #0" = 10
    "Adventus #0" = 10
    "Aebondeius #0" = 10
    "Aerin #0" = 10
    "Aetis #0" = 10
    "Afer #0" = 10
    "Agapius #0" = 10
    "Agrius #0" = 10
    "Albecius #0" = 10
    "Alethius #0" = 10
    "Allian #0" = 10
    "Aloys #0" = 10
    "Amantius #0" = 10
    "Amiel #0" = 10
    "Amminus #0" = 10
    "Ancurio #0" = 10
    "Ancus #0" = 10
    "Andreas #0" = 10
    "Antonius #0" = 10
    "Antus #0" = 10
    "Apelles #0" = 10
    "Appius #0" = 10
    "Aquila #0" = 10
    "Aquillius #0" = 10
    "Arcturus #0" = 10
    "Arentus #0" = 10
    "Aretino #0" = 10
    "Ariulcabor #0" = 10
    "Arius #0" = 10
    "Arlowe #0" = 10
    "Arrianus #0" = 10
    "Arrinis #0" = 10
    "Artorius #0" = 10
    "Artus #0" = 10
    "Ashtus #0" = 10
    "Aspridus #0" = 10
    "Astius #0" = 10
    "Atrius #0" = 10
    "Attelivupis #0" = 10
    "Audenian #0" = 10
    "Audens #0" = 10
    "Augurius #0" = 10
    "August #0" = 10
    "Auiphion #0" = 10
    "Aunius #0" = 10
    "Aurius #0" = 10
    "Aventus #0" = 10
    "Averio #0" = 10
    "Azshalku #0" = 10
    "Bacola #0" = 10
    "Baro #0" = 10
    "Bassianus #0" = 10
    "Baszone #0" = 10
    "Beldorr #0" = 10
    "Belisarius #0" = 10
    "Bendu #0" = 10
    "Benunius #0" = 10
    "Berich #0" = 10
    "Betto #0" = 10
    "Blandus #0" = 10
    "Bremman #0" = 10
    "Brielus #0" = 10
    "Brotch #0" = 10
    "Bruccius #0" = 10
    "Brucus #0" = 10
    "Bruscius #0" = 10
    "Bruscus #0" = 10
    "Burcanius #0" = 10
    "Caccian #0" = 10
    "Cadwell #0" = 10
    "Caecilus #0" = 10
    "Caitarius #0" = 10
    "Caius #0" = 10
    "Calixto #0" = 10
    "Calvario #0" = 10
    "Calvus #0" = 10
    "Canctunian #0" = 10
    "Capiton #0" = 10
    "Carius #0" = 10
    "Carmalo #0" = 10
    "Carnius #0" = 10
    "Carodus #0" = 10
    "Carolus #0" = 10
    "Cartrus #0" = 10
    "Carusian #0" = 10
    "Cassius #0" = 10
    "Casta #0" = 10
    "Castellan #0" = 10
    "Cavortius #0" = 10
    "Cavorus #0" = 10
    "Celag #0" = 10
    "Celsus #0" = 10
    "Chaero #0" = 10
    "Cicero #0" = 10
    "Cidius #0" = 10
    "Cimbar #0" = 10
    "Cimber #0" = 10
    "Clagius #0" = 10
    "Clasomo #0" = 10
    "Claudius #0" = 10
    "Clecentor #0" = 10
    "Clementus #0" = 10
    "Clibergus #0" = 10
    "Cocistian #0" = 10
    "Codus #0" = 10
    "Coirtene #0" = 10
    "Collatinus #0" = 10
    "Compicius #0" = 10
    "Constans #0" = 10
    "Constantius #0" = 10
    "Contar #0" = 10
    "Contumeliorus #0" = 10
    "Cordius #0" = 10
    "Coris #0" = 10
    "Corloius #0" = 10
    "Corpulus #0" = 10
    "Corrudus #0" = 10
    "Corvus #0" = 10
    "Cosh #0" = 10
    "Cosmus #0" = 10
    "Crassius #0" = 10
    "Crescius #0" = 10
    "Crispinus #0" = 10
    "Crispus #0" = 10
    "Crito #0" = 10
    "Crottus #0" = 10
    "Crulius #0" = 10
    "Cunius #0" = 10
    "Cyronin #0" = 10
    "Danus #0" = 10
    "Darius #0" = 10
    "Decalus #0" = 10
    "Decanus #0" = 10
    "Decentius #0" = 10
    "Decius #0" = 10
    "Denel #0" = 10
    "Depusanis #0" = 10
    "Desideratus #0" = 10
    "Dexion #0" = 10
    "Dion #0" = 10
    "Dirge #0" = 10
    "Dobias #0" = 10
    "Domitius #0" = 10
    "Donus #0" = 10
    "Draninus #0" = 10
    "Drusus #0" = 10
    "Dunius #0" = 10
    "Durus #0" = 10
    "Duvianus #0" = 10
    "Dyus #0" = 10
    "Eburris #0" = 10
    "Eduard #0" = 10
    "Ennis #0" = 10
    "Ennodius #0" = 10
    "Ertius #0" = 10
    "Esdrufus #0" = 10
    "Fabio #0" = 10
    "Fabius #0" = 10
    "Fabricius #0" = 10
    "Fadus #0" = 10
    "Fagus #0" = 10
    "Falco #0" = 10
    "Falx #0" = 10
    "Fandus #0" = 10
    "Feristyr #0" = 10
    "Ferrus #0" = 10
    "Flaminius #0" = 10
    "Florentius #0" = 10
    "Florus #0" = 10
    "Floveran #0" = 10
    "Fluvius #0" = 10
    "Fortis #0" = 10
    "Fralav #0" = 10
    "Frinnius #0" = 10
    "Furius #0" = 10
    "Gadayn #0" = 10
    "Gaius #0" = 10
    "Gallinius #0" = 10
    "Gallus #0" = 10
    "Galtus #0" = 10
    "Ganciele #0" = 10
    "Garrus #0" = 10
    "Gavros #0" = 10
    "Gellius #0" = 10
    "Gemellus #0" = 10
    "Gergio #0" = 10
    "Gerich #0" = 10
    "Gian #0" = 10
    "Giovanni #0" = 10
    "Glallian #0" = 10
    "Glenroy #0" = 10
    "Gorag #0" = 10
    "Graccus #0" = 10
    "Granius #0" = 10
    "Gratian #0" = 10
    "Gregorius #0" = 10
    "Gregory #0" = 10
    "Gualtierus #0" = 10
    "Haderus #0" = 10
    "Hareld #0" = 10
    "Hark #0" = 10
    "Hasphat #0" = 10
    "Helvius #0" = 10
    "Helvo #0" = 10
    "Herdir #0" = 10
    "Hieronymus #0" = 10
    "Hirrus #0" = 10
    "Humilis #0" = 10
    "Ignatius #0" = 10
    "Ilav #0" = 10
    "Ildogesto #0" = 10
    "Ilend #0" = 10
    "Ilnori #0" = 10
    "Impudius #0" = 10
    "Imus #0" = 10
    "Iniel #0" = 10
    "Inius #0" = 10
    "Iocundus #0" = 10
    "Iratian #0" = 10
    "Irlav #0" = 10
    "Itius #0" = 10
    "Iulianus #0" = 10
    "Iulius #0" = 10
    "Iulus #0" = 10
    "Jadier #0" = 10
    "Jak #0" = 10
    "Janius #0" = 10
    "Jano #0" = 10
    "Januarius #0" = 10
    "Janus #0" = 10
    "Jaras #0" = 10
    "Jaretius #0" = 10
    "Javad #0" = 10
    "Jesan #0" = 10
    "Jirolin #0" = 10
    "Jiv #0" = 10
    "John #0" = 10
    "Jonus #0" = 10
    "Joofy #0" = 10
    "Justianas #0" = 10
    "Justicius #0" = 10
    "Justicus #0" = 10
    "Justino #0" = 10
    "Kantav #0" = 10
    "Kaslowyn #0" = 10
    "Kastav #0" = 10
    "Laelius #0" = 10
    "Langley #0" = 10
    "Larisus #0" = 10
    "Larrius #0" = 10
    "Larus #0" = 10
    "Laythe #0" = 10
    "Leono #0" = 10
    "Leontius #0" = 10
    "Lerexus #0" = 10
    "Letreius #0" = 10
    "Levus #0" = 10
    "Ley #0" = 10
    "Liguro #0" = 10
    "Linus #0" = 10
    "Liodes #0" = 10
    "Livius #0" = 10
    "Lorgren #0" = 10
    "Lucan #0" = 10
    "Lucien #0" = 10
    "Lucretinaus #0" = 10
    "Lulius #0" = 10
    "Lupandinus #0" = 10
    "Lupius #0" = 10
    "Lurio #0" = 10
    "Lurius #0" = 10
    "Luspinian #0" = 10
    "Luther #0" = 10
    "Luven #0" = 10
    "Malintus #0" = 10
    "Mallius #0" = 10
    "Mallus #0" = 10
    "Malpenix #0" = 10
    "Manilian #0" = 10
    "Marcellinus #0" = 10
    "Marcius #0" = 10
    "Marcurio #0" = 10
    "Margus #0" = 10
    "Marinus #0" = 10
    "Marius #0" = 10
    "Maro #0" = 10
    "Marsus #0" = 10
    "Martialis #0" = 10
    "Martin #0" = 10
    "Martinus #0" = 10
    "Martio #0" = 10
    "Masque #0" = 10
    "Mattius #0" = 10
    "Matus #0" = 10
    "Maxilien #0" = 10
    "Maxim #0" = 10
    "Mecilvus #0" = 10
    "Medallus #0" = 10
    "Melus #0" = 10
    "Menien #0" = 10
    "Mercator #0" = 10
    "Mercuro #0" = 10
    "Mero #0" = 10
    "Metilius #0" = 10
    "Miles #0" = 10
    "Molvirian #0" = 10
    "Montanus #0" = 10
    "Moris #0" = 10
    "Mulnus #0" = 10
    "Murberius #0" = 10
    "Murudius #0" = 10
    "Mus #0" = 10
    "Musius #0" = 10
    "Namanian #0" = 10
    "Naspis #0" = 10
    "Natalinus #0" = 10
    "Natalo #0" = 10
    "Natch #0" = 10
    "Nemesianus #0" = 10
    "Nemus #0" = 10
    "Nepas #0" = 10
    "Nepicius #0" = 10
    "Nermus #0" = 10
    "Nero #0" = 10
    "Nerus #0" = 10
    "Nicolas #0" = 10
    "Nigidius #0" = 10
    "Nirtunus #0" = 10
    "Nitterius #0" = 10
    "Nolus #0" = 10
    "Nonus #0" = 10
    "Noster #0" = 10
    "Novatus #0" = 10
    "Nrio #0" = 10
    "Nullius #0" = 10
    "Octarianus #0" = 10
    "Octavimus #0" = 10
    "Olvus #0" = 10
    "Ontus #0" = 10
    "Orinthus #0" = 10
    "Oritius #0" = 10
    "Orland #0" = 10
    "Ormax #0" = 10
    "Ormellius #0" = 10
    "Orthus #0" = 10
    "Otho #0" = 10
    "Otius #0" = 10
    "Ovidius #0" = 10
    "Panundus #0" = 10
    "Paolus #0" = 10
    "Paratius #0" = 10
    "Paratus #0" = 10
    "Paulinius #0" = 10
    "Pavo #0" = 10
    "Pelagius #0" = 10
    "Pelinal #0" = 10
    "Pennus #0" = 10
    "Percius #0" = 10
    "Perenius #0" = 10
    "Petronius #0" = 10
    "Philius #0" = 10
    "Phrastus #0" = 10
    "Pilper #0" = 10
    "Pilus #0" = 10
    "Pinarus #0" = 10
    "Piner #0" = 10
    "Pitro #0" = 10
    "Pius #0" = 10
    "Pixot #0" = 10
    "Plautis #0" = 10
    "Plautisanus #0" = 10
    "Plautus #0" = 10
    "Plitinius #0" = 10
    "Porcius #0" = 10
    "Postius #0" = 10
    "Primo #0" = 10
    "Priscus #0" = 10
    "Processus #0" = 10
    "Procyon #0" = 10
    "Proventus #0" = 10
    "Pustula #0" = 10
    "Quan #0" = 10
    "Quentin #0" = 10
    "Quentinius #0" = 10
    "Quintus #0" = 10
    "Rallus #0" = 10
    "Raminus #0" = 10
    "Ravo #0" = 10
    "Raxle #0" = 10
    "Reberio #0" = 10
    "Reburrus #0" = 10
    "Regulus #0" = 10
    "Reman #0" = 10
    "Rexus #0" = 10
    "Rielus #0" = 10
    "Rimalus #0" = 10
    "Ris #0" = 10
    "Roderic #0" = 10
    "Rogatus #0" = 10
    "Roliand #0" = 10
    "Rufinus #0" = 10
    "Rufrius #0" = 10
    "Sabinus #0" = 10
    "Saenus #0" = 10
    "Saevus #0" = 10
    "Salanius #0" = 10
    "Salano #0" = 10
    "Salanus #0" = 10
    "Salvianus #0" = 10
    "Samuel #0" = 10
    "Sanctius #0" = 10
    "Saprius #0" = 10
    "Sauleius #0" = 10
    "Saulius #0" = 10
    "Savilian #0" = 10
    "Savio #0" = 10
    "Savlian #0" = 10
    "Scaevola #0" = 10
    "Scarius #0" = 10
    "Scelian #0" = 10
    "Scipion #0" = 10
    "Segunivus #0" = 10
    "Seliulus #0" = 10
    "Sellus #0" = 10
    "Senilias #0" = 10
    "Septimus #0" = 10
    "Septius #0" = 10
    "Sergianus #0" = 10
    "Sergius #0" = 10
    "Sergus #0" = 10
    "Servatius #0" = 10
    "Servius #0" = 10
    "Severinus #0" = 10
    "Severio #0" = 10
    "Severius #0" = 10
    "Sextus #0" = 10
    "Sigilis #0" = 10
    "Silius #0" = 10
    "Silus #0" = 10
    "Sirollus #0" = 10
    "Sitialius #0" = 10
    "Somutis #0" = 10
    "Sorex #0" = 10
    "Sorexius #0" = 10
    "Stantus #0" = 10
    "Statius #0" = 10
    "Steffan #0" = 10
    "Stentus #0" = 10
    "Stlubo #0" = 10
    "Strilian #0" = 10
    "Strillian #0" = 10
    "Sulinus #0" = 10
    "Sulla #0" = 10
    "Surius #0" = 10
    "Surus #0" = 10
    "Sylvian #0" = 10
    "Synnolian #0" = 10
    "Tacitus #0" = 10
    "Tahm #0" = 10
    "Taminal #0" = 10
    "Tappius #0" = 10
    "Tasellis #0" = 10
    "Taurinus #0" = 10
    "Teldius #0" = 10
    "Telrav #0" = 10
    "Terek #0" = 10
    "Terenus #0" = 10
    "Tersius #0" = 10
    "Tertius #0" = 10
    "Tertullian #0" = 10
    "Thalanius #0" = 10
    "Tiburtius #0" = 10
    "Ticemius #0" = 10
    "Tienius #0" = 10
    "Tininnus #0" = 10
    "Tinus #0" = 10
    "Titus #0" = 10
    "Toutius #0" = 10
    "Tractus #0" = 10
    "Trano #0" = 10
    "Trebonius #0" = 10
    "Trenus #0" = 10
    "Tullius #0" = 10
    "Turedus #0" = 10
    "Tutorius #0" = 10
    "Tyranus #0" = 10
    "Tyrellius #0" = 10
    "Tyronius #0" = 10
    "Uriel #0" = 10
    "Vala #0" = 10
    "Valandrus #0" = 10
    "Valentinus #0" = 10
    "Valgus #0" = 10
    "Valton #0" = 10
    "Valus #0" = 10
    "Valvius #0" = 10
    "Vandorallen #0" = 10
    "Vantus #0" = 10
    "Vantustius #0" = 10
    "Varen #0" = 10
    "Varian #0" = 10
    "Varinus #0" = 10
    "Varius #0" = 10
    "Varnius #0" = 10
    "Varo #0" = 10
    "Varus #0" = 10
    "Vasesius #0" = 10
    "Velan #0" = 10
    "Velus #0" = 10
    "Velwyn #0" = 10
    "Venarus #0" = 10
    "Ventilias #0" = 10
    "Veranus #0" = 10
    "Verel #0" = 10
    "Verro #0" = 10
    "Vertilvius #0" = 10
    "Verulus #0" = 10
    "Viator #0" = 10
    "Vibius #0" = 10
    "Vinice #0" = 10
    "Vinnus #0" = 10
    "Viranus #0" = 10
    "Viro #0" = 10
    "Visetus #0" = 10
    "Vitellus #0" = 10
    "Vitrus #0" = 10
    "Vitus #0" = 10
    "Vlanarus #0" = 10
    "Vlanhonder #0" = 10
    "Vlarimil #0" = 10
    "Vodunius #0" = 10
    "Volgo #0" = 10
    "Vontan #0" = 10
    "Vontus #0" = 10
    "Vyric #0" = 10
    "Wulf #0" = 10
    "Xander #0" = 10
    "Zedrick #0" = 10
    "Zelanus #0" = 10
    "Zeno #0" = 10

    "Accalia #0" = -10
    "Aconia #0" = -10
    "Adelaisa #0" = -10
    "Adraria #0" = -10
    "Adrianne #0" = -10
    "Aemilia #0" = -10
    "Agrippina #0" = -10
    "Ahetotis #0" = -10
    "Aia #0" = -10
    "Alcedonia #0" = -10
    "Alessandra #0" = -10
    "Alessia #0" = -10
    "Alexia #0" = -10
    "Aloisia #0" = -10
    "Amanda #0" = -10
    "Amandia #0" = -10
    "Amia #0" = -10
    "Annia #0" = -10
    "Anodia #0" = -10
    "Apphia #0" = -10
    "Apronia #0" = -10
    "Arcadia #0" = -10
    "Arenara #0" = -10
    "Ariela #0" = -10
    "Arnora #0" = -10
    "Arria #0" = -10
    "Arriana #0" = -10
    "Asirel #0" = -10
    "Astara #0" = -10
    "Astia #0" = -10
    "Astinia #0" = -10
    "Atia #0" = -10
    "Audania #0" = -10
    "Augusta #0" = -10
    "Augustina #0" = -10
    "Aventina #0" = -10
    "Aviera #0" = -10
    "Avita #0" = -10
    "Avresa #0" = -10
    "Bellona #0" = -10
    "Blatta #0" = -10
    "Britta #0" = -10
    "Brittia #0" = -10
    "Bronsila #0" = -10
    "Buntara #0" = -10
    "Caecilia #0" = -10
    "Caelia #0" = -10
    "Caesina #0" = -10
    "Caesonia #0" = -10
    "Caldana #0" = -10
    "Caledonia #0" = -10
    "Camilla #0" = -10
    "Candria #0" = -10
    "Cania #0" = -10
    "Canodia #0" = -10
    "Cardea #0" = -10
    "Cargas #0" = -10
    "Carina #0" = -10
    "Carlotta #0" = -10
    "Carmana #0" = -10
    "Cassia #0" = -10
    "Cassipia #0" = -10
    "Casta #0" = -10
    "Catia #0" = -10
    "Catina #0" = -10
    "Caula #0" = -10
    "Celina #0" = -10
    "Ciceri #0" = -10
    "Ciirta #0" = -10
    "Cinda #0" = -10
    "Cinia #0" = -10
    "Clilias #0" = -10
    "Cloelia #0" = -10
    "Comilla #0" = -10
    "Constance #0" = -10
    "Constantina #0" = -10
    "Coventina #0" = -10
    "Craetia #0" = -10
    "Damyra #0" = -10
    "Darvala #0" = -10
    "Denisa #0" = -10
    "Dinia #0" = -10
    "Domitiana #0" = -10
    "Drusilla #0" = -10
    "Dulcilla #0" = -10
    "Dumania #0" = -10
    "Duras #0" = -10
    "Duvia #0" = -10
    "Dynari #0" = -10
    "Edana #0" = -10
    "Edda #0" = -10
    "Edwina #0" = -10
    "Elianna #0" = -10
    "Elianne #0" = -10
    "Eloe #0" = -10
    "Elska #0" = -10
    "Emelia #0" = -10
    "Enganna #0" = -10
    "Engannas #0" = -10
    "Eponis #0" = -10
    "Erina #0" = -10
    "Etira #0" = -10
    "Ettiene #0" = -10
    "Euraxia #0" = -10
    "Fallaise #0" = -10
    "Faltonia #0" = -10
    "Famia #0" = -10
    "Fammana #0" = -10
    "Farida #0" = -10
    "Fausta #0" = -10
    "Faustina #0" = -10
    "Felixa #0" = -10
    "Felra #0" = -10
    "Fentula #0" = -10
    "Finia #0" = -10
    "Flacassia #0" = -10
    "Flaenia #0" = -10
    "Florentia #0" = -10
    "Fortunata #0" = -10
    "Fralvia #0" = -10
    "Fruscia #0" = -10
    "Gaea #0" = -10
    "Galeria #0" = -10
    "Ganna #0" = -10
    "Gemma #0" = -10
    "Gemmia #0" = -10
    "Germia #0" = -10
    "Gianna #0" = -10
    "Gilfre #0" = -10
    "Gnaea #0" = -10
    "Gratidia #0" = -10
    "Gruiand #0" = -10
    "Helena #0" = -10
    "Helvia #0" = -10
    "Herminia #0" = -10
    "Hestra #0" = -10
    "Hilora #0" = -10
    "Holli #0" = -10
    "Honorata #0" = -10
    "Honoria #0" = -10
    "Horatia #0" = -10
    "Horonna #0" = -10
    "Horulia #0" = -10
    "Hostia #0" = -10
    "Hyponea #0" = -10
    "Ida #0" = -10
    "Idessa #0" = -10
    "Idessia #0" = -10
    "Idonea #0" = -10
    "Ilfras #0" = -10
    "Illia #0" = -10
    "Indara #0" = -10
    "Infrasia #0" = -10
    "Iocani #0" = -10
    "Isa #0" = -10
    "Isobel #0" = -10
    "Ita #0" = -10
    "Itinia #0" = -10
    "Janieta #0" = -10
    "Janonia #0" = -10
    "Janta #0" = -10
    "Jantus #0" = -10
    "Jastia #0" = -10
    "Jastira #0" = -10
    "Javolia #0" = -10
    "Jena #0" = -10
    "Jera #0" = -10
    "Jerae #0" = -10
    "Jerina #0" = -10
    "Julia #0" = -10
    "Julitta #0" = -10
    "Juna #0" = -10
    "Justa #0" = -10
    "Justina #0" = -10
    "Justinia #0" = -10
    "Kaie #0" = -10
    "Kerelia #0" = -10
    "Kirandas #0" = -10
    "Kyleus #0" = -10
    "Ladia #0" = -10
    "Lalaine #0" = -10
    "Lalatia #0" = -10
    "Larienna #0" = -10
    "Larina #0" = -10
    "Lassinia #0" = -10
    "Laurentia #0" = -10
    "Laurina #0" = -10
    "Lavinia #0" = -10
    "Laytiva #0" = -10
    "Lekellae #0" = -10
    "Lenka #0" = -10
    "Leona #0" = -10
    "Leonara #0" = -10
    "Leone #0" = -10
    "Lepida #0" = -10
    "Leta #0" = -10
    "Libertas #0" = -10
    "Licinia #0" = -10
    "Linia #0" = -10
    "Livia #0" = -10
    "Luca #0" = -10
    "Lucia #0" = -10
    "Luciana #0" = -10
    "Lucina #0" = -10
    "Lucinia #0" = -10
    "Lucretia #0" = -10
    "Lunia #0" = -10
    "Lusilla #0" = -10
    "Lyra #0" = -10
    "Maera #0" = -10
    "Maesa #0" = -10
    "Magna #0" = -10
    "Marama #0" = -10
    "Marana #0" = -10
    "Marara #0" = -10
    "Marenia #0" = -10
    "Mariana #0" = -10
    "Marina #0" = -10
    "Marja #0" = -10
    "Marlena #0" = -10
    "Martina #0" = -10
    "Maxima #0" = -10
    "Meluse #0" = -10
    "Micella #0" = -10
    "Midaras #0" = -10
    "Mila #0" = -10
    "Millona #0" = -10
    "Ministe #0" = -10
    "Mirona #0" = -10
    "Moria #0" = -10
    "Naissa #0" = -10
    "Nari #0" = -10
    "Narina #0" = -10
    "Naspia #0" = -10
    "Nebia #0" = -10
    "Octavia #0" = -10
    "Orendra #0" = -10
    "Oriandra #0" = -10
    "Orneldas #0" = -10
    "Pallia #0" = -10
    "Pania #0" = -10
    "Pantea #0" = -10
    "Patia #0" = -10
    "Pelena #0" = -10
    "Pellecia #0" = -10
    "Pelona #0" = -10
    "Peregrina #0" = -10
    "Perennia #0" = -10
    "Phedra #0" = -10
    "Phedre #0" = -10
    "Pinarus #0" = -10
    "Pista #0" = -10
    "Pladina #0" = -10
    "Plexica #0" = -10
    "Porcia #0" = -10
    "Portia #0" = -10
    "Praxedes #0" = -10
    "Pritia #0" = -10
    "Pudentia #0" = -10
    "Pulcheria #0" = -10
    "Quintia #0" = -10
    "Raen #0" = -10
    "Raesa #0" = -10
    "Rafora #0" = -10
    "Rasala #0" = -10
    "Regine #0" = -10
    "Rena #0" = -10
    "Renee #0" = -10
    "Restita #0" = -10
    "Ria #0" = -10
    "Rilia #0" = -10
    "Romana #0" = -10
    "Rona #0" = -10
    "Rosentia #0" = -10
    "Ruccia #0" = -10
    "Rusia #0" = -10
    "Sabenda #0" = -10
    "Sabrina #0" = -10
    "Safia #0" = -10
    "Salonia #0" = -10
    "Sandana #0" = -10
    "Sarmosia #0" = -10
    "Schlera #0" = -10
    "Selena #0" = -10
    "Selene #0" = -10
    "Selvia #0" = -10
    "Senna #0" = -10
    "Septima #0" = -10
    "Severa #0" = -10
    "Severia #0" = -10
    "Shekestra #0" = -10
    "Sibylla #0" = -10
    "Siladia #0" = -10
    "Silana #0" = -10
    "Silvia #0" = -10
    "Simplicia #0" = -10
    "Slera #0" = -10
    "Solea #0" = -10
    "Sonolia #0" = -10
    "Sosea #0" = -10
    "Sosia #0" = -10
    "Syloria #0" = -10
    "Tacita #0" = -10
    "Talia #0" = -10
    "Terari #0" = -10
    "Terendras #0" = -10
    "Terran #0" = -10
    "Tertia #0" = -10
    "Thisa #0" = -10
    "Thorasa #0" = -10
    "Thraccenia #0" = -10
    "Tia #0" = -10
    "Una #0" = -10
    "Urania #0" = -10
    "Vacia #0" = -10
    "Vala #0" = -10
    "Valencia #0" = -10
    "Valentina #0" = -10
    "Valga #0" = -10
    "Vaneria #0" = -10
    "Varandia #0" = -10
    "Varilia #0" = -10
    "Varina #0" = -10
    "Varinia #0" = -10
    "Vastae #0" = -10
    "Ventitia #0" = -10
    "Veresa #0" = -10
    "Vesta #0" = -10
    "Vex #0" = -10
    "Vianis #0" = -10
    "Viatrix #0" = -10
    "Vicca #0" = -10
    "Viccia #0" = -10
    "Viera #0" = -10
    "Vigdis #0" = -10
    "Vilbia #0" = -10
    "Vilena #0" = -10
    "Vinicia #0" = -10
    "Viola #0" = -10
    "Vistilia #0" = -10
    "Vita #0" = -10
    "Vitelia #0" = -10
    "Vitellia #0" = -10
    "Vittoria #0" = -10
    "Vodiaka #0" = -10
    "Volcatia #0" = -10
    "Volrina #0" = -10
    "Ysabel #0" = -10
}

leader_names = {
    Aberius Abnur Absolon Accalia Adamus Adonato Adonatus Adrian Adventus Aebondeius Aerin Aetis Afer Agapius Agrius Albecius Alethius Allian Aloys Amantius Amiel Amminus Ancurio Ancus Andreas Antonius Antus Apelles Appius Aquila Aquillius Arcturus Arentus Aretino Ariulcabor Arius Arlowe Arrianus Arrinis Artorius Artus Ashtus Aspridus Astius Atrius Attelivupis Audenian Audens Augurius August Auiphion Aunius Aurius Aventus Averio Azshalku Bacola Baro Bassianus Baszone Beldorr Belisarius Bendu Benunius Berich Betto Blandus Bremman Brielus Brotch Bruccius Brucus Bruscius Bruscus Burcanius Caccian Cadwell Caecilus Caitarius Caius Calixto Calvario Calvus Canctunian Capiton Carius Carmalo Carnius Carodus Carolus Cartrus Carusian Cassius Casta Castellan Cavortius Cavorus Celag Celsus Chaero Cicero Cidius Cimbar Cimber Clagius Clasomo Claudius Clecentor Clementus Clibergus Cocistian Codus Coirtene Collatinus Compicius Constans Constantius Contar Contumeliorus Cordius Coris Corloius Corpulus Corrudus Corvus Cosh Cosmus Crassius Crescius Crispinus Crispus Crito Crottus Crulius Cunius Cyronin Danus Darius Decalus Decanus Decentius Decius Denel Depusanis Desideratus Dexion Dion Dirge Dobias Domitius Donus Draninus Drusus Dunius Durus Duvianus Dyus Eburris Eduard Ennis Ennodius Ertius Esdrufus Fabio Fabius Fabricius Fadus Fagus Falco Falx Fandus Feristyr Ferrus Flaminius Florentius Florus Floveran Fluvius Fortis Fralav Frinnius Furius Gadayn Gaius Gallinius Gallus Galtus Ganciele Garrus Gavros Gellius Gemellus Gergio Gerich Gian Giovanni Glallian Glenroy Gorag Graccus Granius Gratian Gregorius Gregory Gualtierus Haderus Hareld Hark Hasphat Helvius Helvo Herdir Hieronymus Hirrus Humilis Ignatius Ilav Ildogesto Ilend Ilnori Impudius Imus Iniel Inius Iocundus Iratian Irlav Itius Iulianus Iulius Iulus Jadier Jak Janius Jano Januarius Janus Jaras Jaretius Javad Jesan Jirolin Jiv John Jonus Joofy Justianas Justicius Justicus Justino Kantav Kaslowyn Kastav Laelius Langley Larisus Larrius Larus Laythe Leono Leontius Lerexus Letreius Levus Ley Liguro Linus Liodes Livius Lorgren Lucan Lucien Lucretinaus Lulius Lupandinus Lupius Lurio Lurius Luspinian Luther Luven Malintus Mallius Mallus Malpenix Manilian Marcellinus Marcius Marcurio Margus Marinus Marius Maro Marsus Martialis Martin Martinus Martio Masque Mattius Matus Maxilien Maxim Mecilvus Medallus Melus Menien Mercator Mercuro Mero Metilius Miles Molvirian Montanus Moris Mulnus Murberius Murudius Mus Musius Namanian Naspis Natalinus Natalo Natch Nemesianus Nemus Nepas Nepicius Nermus Nero Nerus Nicolas Nigidius Nirtunus Nitterius Nolus Nonus Noster Novatus Nrio Nullius Octarianus Octavimus Olvus Ontus Orinthus Oritius Orland Ormax Ormellius Orthus Otho Otius Ovidius Panundus Paolus Paratius Paratus Paulinius Pavo Pelagius Pelinal Pennus Percius Perenius Petronius Philius Phrastus Pilper Pilus Pinarus Piner Pitro Pius Pixot Plautis Plautisanus Plautus Plitinius Porcius Postius Primo Priscus Processus Procyon Proventus Pustula Quan Quentin Quentinius Quintus Rallus Raminus Ravo Raxle Reberio Reburrus Regulus Reman Rexus Rielus Rimalus Ris Roderic Rogatus Roliand Rufinus Rufrius Sabinus Saenus Saevus Salanius Salano Salanus Salvianus Samuel Sanctius Saprius Sauleius Saulius Savilian Savio Savlian Scaevola Scarius Scelian Scipion Segunivus Seliulus Sellus Senilias Septimus Septius Sergianus Sergius Sergus Servatius Servius Severinus Severio Severius Sextus Sigilis Silius Silus Sirollus Sitialius Somutis Sorex Sorexius Stantus Statius Steffan Stentus Stlubo Strilian Strillian Sulinus Sulla Surius Surus Sylvian Synnolian Tacitus Tahm Taminal Tappius Tasellis Taurinus Teldius Telrav Terek Terenus Tersius Tertius Tertullian Thalanius Tiburtius Ticemius Tienius Tininnus Tinus Titus Toutius Tractus Trano Trebonius Trenus Tullius Turedus Tutorius Tyranus Tyrellius Tyronius Uriel Vala Valandrus Valentinus Valgus Valton Valus Valvius Vandorallen Vantus Vantustius Varen Varian Varinus Varius Varnius Varo Varus Vasesius Velan Velus Velwyn Venarus Ventilias Veranus Verel Verro Vertilvius Verulus Viator Vibius Vinice Vinnus Viranus Viro Visetus Vitellus Vitrus Vitus Vlanarus Vlanhonder Vlarimil Vodunius Volgo Vontan Vontus Vyric Wulf Xander Zedrick Zelanus Zeno
}

ship_names = {
    Accalia Aconia Adelaisa Adraria Adrianne Aemilia Agrippina Ahetotis Aia Alcedonia Alessandra Alessia Alexia Aloisia Amanda Amandia Amia Annia Anodia Apphia Apronia Arcadia Arenara Ariela Arnora Arria Arriana Asirel Astara Astia Astinia Atia Audania Augusta Augustina Aventina Aviera Avita Avresa Bellona Blatta Britta Brittia Bronsila Buntara Caecilia Caelia Caesina Caesonia Caldana Caledonia Camilla Candria Cania Canodia Cardea Cargas Carina Carlotta Carmana Cassia Cassipia Casta Catia Catina Caula Celina Ciceri Ciirta Cinda Cinia Clilias Cloelia Comilla Constance Constantina Coventina Craetia Damyra Darvala Denisa Dinia Domitiana Drusilla Dulcilla Dumania Duras Duvia Dynari Edana Edda Edwina Elianna Elianne Eloe Elska Emelia Enganna Engannas Eponis Erina Etira Ettiene Euraxia Fallaise Faltonia Famia Fammana Farida Fausta Faustina Felixa Felra Fentula Finia Flacassia Flaenia Florentia Fortunata Fralvia Fruscia Gaea Galeria Ganna Gemma Gemmia Germia Gianna Gilfre Gnaea Gratidia Gruiand Helena Helvia Herminia Hestra Hilora Holli Honorata Honoria Horatia Horonna Horulia Hostia Hyponea Ida Idessa Idessia Idonea Ilfras Illia Indara Infrasia Iocani Isa Isobel Ita Itinia Janieta Janonia Janta Jantus Jastia Jastira Javolia Jena Jera Jerae Jerina Julia Julitta Juna Justa Justina Justinia Kaie Kerelia Kirandas Kyleus Ladia Lalaine Lalatia Larienna Larina Lassinia Laurentia Laurina Lavinia Laytiva Lekellae Lenka Leona Leonara Leone Lepida Leta Libertas Licinia Linia Livia Luca Lucia Luciana Lucina Lucinia Lucretia Lunia Lusilla Lyra Maera Maesa Magna Marama Marana Marara Marenia Mariana Marina Marja Marlena Martina Maxima Meluse Micella Midaras Mila Millona Ministe Mirona Moria Naissa Nari Narina Naspia Nebia Octavia Orendra Oriandra Orneldas Pallia Pania Pantea Patia Pelena Pellecia Pelona Peregrina Perennia Phedra Phedre Pinarus Pista Pladina Plexica Porcia Portia Praxedes Pritia Pudentia Pulcheria Quintia Raen Raesa Rafora Rasala Regine Rena Renee Restita Ria Rilia Romana Rona Rosentia Ruccia Rusia Sabenda Sabrina Safia Salonia Sandana Sarmosia Schlera Selena Selene Selvia Senna Septima Severa Severia Shekestra Sibylla Siladia Silana Silvia Simplicia Slera Solea Sonolia Sosea Sosia Syloria Tacita Talia Terari Terendras Terran Tertia Thisa Thorasa Thraccenia Tia Una Urania Vacia Vala Valencia Valentina Valga Vaneria Varandia Varilia Varina Varinia Vastae Ventitia Veresa Vesta Vex Vianis Viatrix Vicca Viccia Viera Vigdis Vilbia Vilena Vinicia Viola Vistilia Vita Vitelia Vitellia Vittoria Vodiaka Volcatia Volrina Ysabel
}

army_names = {
    "Army of $PROVINCE$"
}

fleet_names = {
    "Fleet of $PROVINCE$"
}