graphical_culture = northamericagfx

color = { 253  253  253 }

revolutionary_colors = { 9 15 8}


historical_idea_groups = {
}

historical_units = {
}

monarch_names = {
    "Sagewood #0" = 10
    "Fingaenion #0" = 10
    "Gwanur #0" = 10
    "Hurolas #0" = 10
    "Gwannor #0" = 10
    "Mandolion #0" = 10
    "Miruin #0" = 10
    "Nedras #0" = 10
    "Ronahanar #0" = 10
    "Adamir #0" = 10
    "Adragros #0" = 10
    "Adwien #0" = 10
    "Aengaer #0" = 10
    "Aengvar #0" = 10
    "Aenthalor #0" = 10
    "Aeradan #0" = 10
    "Aerchelas #0" = 10
    "Aering #0" = 10
    "Aerolor #0" = 10
    "Agilgor #0" = 10
    "Aginlas #0" = 10
    "Aglion #0" = 10
    "Agolas #0" = 10
    "Agular #0" = 10
    "Agwodir #0" = 10
    "Alander #0" = 10
    "Aldor #0" = 10
    "Alphrennor #0" = 10
    "Alphrost #0" = 10
    "Althaedal #0" = 10
    "Altholmir #0" = 10
    "Amlion #0" = 10
    "Amreval #0" = 10
    "Andranon #0" = 10
    "Andrilion #0" = 10
    "Andrinlor #0" = 10
    "Angeron #0" = 10
    "Angilor #0" = 10
    "Anglalas #0" = 10
    "Anglas #0" = 10
    "Anglenthor #0" = 10
    "Anglorn #0" = 10
    "Anthelion #0" = 10
    "Aralem #0" = 10
    "Arengo #0" = 10
    "Arengur #0" = 10
    "Arenion #0" = 10
    "Arganar #0" = 10
    "Arthor #0" = 10
    "Athraedal #0" = 10
    "Athrahgor #0" = 10
    "Azareth #0" = 10
    "Baenelros #0" = 10
    "Balithil #0" = 10
    "Baronas #0" = 10
    "Barothlas #0" = 10
    "Barulor #0" = 10
    "Behelir #0" = 10
    "Bellulor #0" = 10
    "Bendralas #0" = 10
    "Benduin #0" = 10
    "Berdonion #0" = 10
    "Berithor #0" = 10
    "Berthor #0" = 10
    "Bodring #0" = 10
    "Bolefin #0" = 10
    "Bolelos #0" = 10
    "Bolion #0" = 10
    "Bolwagon #0" = 10
    "Bolwunor #0" = 10
    "Borcholim #0" = 10
    "Borchon #0" = 10
    "Borelril #0" = 10
    "Borwiian #0" = 10
    "Bredragon #0" = 10
    "Bredros #0" = 10
    "Breduin #0" = 10
    "Brellin #0" = 10
    "Brelor #0" = 10
    "Brengolin #0" = 10
    "Brengor #0" = 10
    "Brenor #0" = 10
    "Briminor #0" = 10
    "Brimlirdor #0" = 10
    "Brimlor #0" = 10
    "Brinthir #0" = 10
    "Brogomir #0" = 10
    "Brolthiath #0" = 10
    "Burrfoot #0" = 10
    "Caeleneth #0" = 10
    "Caelin #0" = 10
    "Caenlilmith #0" = 10
    "Caentholrin #0" = 10
    "Caerllelfin #0" = 10
    "Caerllin #0" = 10
    "Calabenn #0" = 10
    "Calthindor #0" = 10
    "Cantadir #0" = 10
    "Canthion #0" = 10
    "Carethil #0" = 10
    "Cathras #0" = 10
    "Celan #0" = 10
    "Celelruin #0" = 10
    "Celinar #0" = 10
    "Celonron #0" = 10
    "Celthalion #0" = 10
    "Cendalor #0" = 10
    "Cenirond #0" = 10
    "Cingunor #0" = 10
    "Ciradir #0" = 10
    "Cirglion #0" = 10
    "Cirithor #0" = 10
    "Cirnean #0" = 10
    "Cirodros #0" = 10
    "Cirthile #0" = 10
    "Cirtor #0" = 10
    "Clenalgor #0" = 10
    "Clenegor #0" = 10
    "Cunendor #0" = 10
    "Cunodir #0" = 10
    "Daenilroth #0" = 10
    "Dalodir #0" = 10
    "Dalrelvir #0" = 10
    "Dalrithor #0" = 10
    "Danrithri #0" = 10
    "Dardalmoth #0" = 10
    "Dardir #0" = 10
    "Dathangil #0" = 10
    "Dathidor #0" = 10
    "Dennir #0" = 10
    "Dennithel #0" = 10
    "Dennoroth #0" = 10
    "Denrin #0" = 10
    "Deregor #0" = 10
    "Deros #0" = 10
    "Derveglor #0" = 10
    "Dessathiel #0" = 10
    "Dindom #0" = 10
    "Diranor #0" = 10
    "Dirchanor #0" = 10
    "Dirdelas #0" = 10
    "Dolilas #0" = 10
    "Dollarthor #0" = 10
    "Domillas #0" = 10
    "Donallir #0" = 10
    "Donthengeval #0" = 10
    "Doradrin #0" = 10
    "Doralon #0" = 10
    "Doranar #0" = 10
    "Dordanion #0" = 10
    "Dorinlas #0" = 10
    "Dorodir #0" = 10
    "Dorondor #0" = 10
    "Drauginor #0" = 10
    "Draugorin #0" = 10
    "Drauldolim #0" = 10
    "Draulduin #0" = 10
    "Drilalfin #0" = 10
    "Drimrin #0" = 10
    "Drinlin #0" = 10
    "Drinroth #0" = 10
    "Edalor #0" = 10
    "Edeleg #0" = 10
    "Edhelas #0" = 10
    "Edheldor #0" = 10
    "Edhelfin #0" = 10
    "Edhelorn #0" = 10
    "Edhelruin #0" = 10
    "Edhelvir #0" = 10
    "Edrin #0" = 10
    "Edthas #0" = 10
    "Edundor #0" = 10
    "Egannor #0" = 10
    "Egarfin #0" = 10
    "Egelnor #0" = 10
    "Egelrin #0" = 10
    "Egenor #0" = 10
    "Egenthor #0" = 10
    "Eghanar #0" = 10
    "Egidnor #0" = 10
    "Egidrin #0" = 10
    "Egilas #0" = 10
    "Eginir #0" = 10
    "Eginthoril #0" = 10
    "Eglabenn #0" = 10
    "Egolor #0" = 10
    "Egranor #0" = 10
    "Eguroth #0" = 10
    "Elaldor #0" = 10
    "Elanir #0" = 10
    "Elebor #0" = 10
    "Elethir #0" = 10
    "Elethlin #0" = 10
    "Elhalem #0" = 10
    "Elilor #0" = 10
    "Elolir #0" = 10
    "Elonthor #0" = 10
    "Elphregor #0" = 10
    "Elseer #0" = 10
    "Elthras #0" = 10
    "Enaring #0" = 10
    "Enathorn #0" = 10
    "Enathras #0" = 10
    "Endregail #0" = 10
    "Endring #0" = 10
    "Endrothir #0" = 10
    "Enethrin #0" = 10
    "Engaenir #0" = 10
    "Engiroth #0" = 10
    "Englor #0" = 10
    "Engor #0" = 10
    "Enoring #0" = 10
    "Entelator #0" = 10
    "Enthilin #0" = 10
    "Enthonor #0" = 10
    "Enthoras #0" = 10
    "Enthorin #0" = 10
    "Eraegaer #0" = 10
    "Eralgor #0" = 10
    "Eralorn #0" = 10
    "Eranas #0" = 10
    "Eranion #0" = 10
    "Erdelan #0" = 10
    "Erengor #0" = 10
    "Erimroth #0" = 10
    "Eringor #0" = 10
    "Erodir #0" = 10
    "Eronthor #0" = 10
    "Erothel #0" = 10
    "Erthaenir #0" = 10
    "Erthalmoth #0" = 10
    "Erthas #0" = 10
    "Erthonor #0" = 10
    "Erthor #0" = 10
    "Erunor #0" = 10
    "Ervalir #0" = 10
    "Esladir #0" = 10
    "Eslion #0" = 10
    "Esunil #0" = 10
    "Ethgin #0" = 10
    "Ethlinor #0" = 10
    "Ethodan #0" = 10
    "Ethruin #0" = 10
    "Faeldal #0" = 10
    "Faenegor #0" = 10
    "Faengongorn #0" = 10
    "Faenir #0" = 10
    "Faenlidor #0" = 10
    "Faenlolras #0" = 10
    "Faenthundor #0" = 10
    "Faerelos #0" = 10
    "Faerin #0" = 10
    "Faerorin #0" = 10
    "Falahawn #0" = 10
    "Faldaleb #0" = 10
    "Falelros #0" = 10
    "Falthalorn #0" = 10
    "Famronion #0" = 10
    "Fangilmir #0" = 10
    "Faradan #0" = 10
    "Faralos #0" = 10
    "Farandor #0" = 10
    "Fardel #0" = 10
    "Farthagal #0" = 10
    "Farthalem #0" = 10
    "Fastor #0" = 10
    "Faulannor #0" = 10
    "Faulbor #0" = 10
    "Fauleroth #0" = 10
    "Faulor #0" = 10
    "Faurchon #0" = 10
    "Faurinar #0" = 10
    "Feladir #0" = 10
    "Fengrin #0" = 10
    "Fenteladir #0" = 10
    "Filalmoth #0" = 10
    "Filbolrel #0" = 10
    "Fildir #0" = 10
    "Filingaer #0" = 10
    "Filmian #0" = 10
    "Fimrimion #0" = 10
    "Findir #0" = 10
    "Findor #0" = 10
    "Findun #0" = 10
    "Finedrin #0" = 10
    "Fingor #0" = 10
    "Finlas #0" = 10
    "Finnalir #0" = 10
    "Finonas #0" = 10
    "Fintholor #0" = 10
    "Finvir #0" = 10
    "Firaelion #0" = 10
    "Firagaer #0" = 10
    "Fireluin #0" = 10
    "Firolbor #0" = 10
    "Firolmoth #0" = 10
    "Fironthor #0" = 10
    "Firras #0" = 10
    "Firthaedal #0" = 10
    "Firuin #0" = 10
    "Fithrolon #0" = 10
    "Foldor #0" = 10
    "Folilas #0" = 10
    "Fonalor #0" = 10
    "Fongidor #0" = 10
    "Fongoth #0" = 10
    "Foral #0" = 10
    "Fordan #0" = 10
    "Forelfin #0" = 10
    "Forinor #0" = 10
    "Forolon #0" = 10
    "Forongon #0" = 10
    "Forthor #0" = 10
    "Fradion #0" = 10
    "Gadinas #0" = 10
    "Gadnalon #0" = 10
    "Gaedil #0" = 10
    "Gael #0" = 10
    "Gaelthagar #0" = 10
    "Gaenengeval #0" = 10
    "Gaenennor #0" = 10
    "Gaerthgorn #0" = 10
    "Gaerthidrin #0" = 10
    "Gaerthir #0" = 10
    "Galalron #0" = 10
    "Galandir #0" = 10
    "Galbor #0" = 10
    "Galdilin #0" = 10
    "Galfinar #0" = 10
    "Galithor #0" = 10
    "Galmelor #0" = 10
    "Galolion #0" = 10
    "Galriel #0" = 10
    "Galthonor #0" = 10
    "Gandalor #0" = 10
    "Gandonion #0" = 10
    "Ganolon #0" = 10
    "Ganwidrin #0" = 10
    "Gazunil #0" = 10
    "Gelabenn #0" = 10
    "Gelin #0" = 10
    "Gelthior #0" = 10
    "Gilanbor #0" = 10
    "Gilragaith #0" = 10
    "Ginion #0" = 10
    "Ginthor #0" = 10
    "Giralon #0" = 10
    "Girin #0" = 10
    "Glalongoth #0" = 10
    "Glalor #0" = 10
    "Glanil #0" = 10
    "Glanir #0" = 10
    "Glanongor #0" = 10
    "Glathor #0" = 10
    "Glathras #0" = 10
    "Glaugluin #0" = 10
    "Glauloroth #0" = 10
    "Glaurilas #0" = 10
    "Glaurolin #0" = 10
    "Glinthinar #0" = 10
    "Glirion #0" = 10
    "Gloldor #0" = 10
    "Glolmir #0" = 10
    "Glolor #0" = 10
    "Glongor #0" = 10
    "Glonnir #0" = 10
    "Glooring #0" = 10
    "Gloron #0" = 10
    "Glothor #0" = 10
    "Gluin #0" = 10
    "Godadras #0" = 10
    "Golor #0" = 10
    "Gomlor #0" = 10
    "Gonlas #0" = 10
    "Goralgor #0" = 10
    "Gorendir #0" = 10
    "Gorinir #0" = 10
    "Gorulbor #0" = 10
    "Gothrarth #0" = 10
    "Gothrongor #0" = 10
    "Grohanar #0" = 10
    "Gwaegalir #0" = 10
    "Gwael #0" = 10
    "Gwaerinbor #0" = 10
    "Gwagoth #0" = 10
    "Gwannas #0" = 10
    "Gwanolrin #0" = 10
    "Gwarolgor #0" = 10
    "Gwilandor #0" = 10
    "Gwilgoth #0" = 10
    "Gwilir #0" = 10
    "Gwilon #0" = 10
    "Gwinadras #0" = 10
    "Gwindebros #0" = 10
    "Gwindir #0" = 10
    "Gwinengur #0" = 10
    "Gwingelruin #0" = 10
    "Gwingeval #0" = 10
    "Gwinir #0" = 10
    "Gwinithor #0" = 10
    "Gwinolas #0" = 10
    "Gwinor #0" = 10
    "Gwiras #0" = 10
    "Gwiroth #0" = 10
    "Hadendor #0" = 10
    "Hadnilion #0" = 10
    "Hadran #0" = 10
    "Hadras #0" = 10
    "Hagaelion #0" = 10
    "Halalin #0" = 10
    "Halelmathras #0" = 10
    "Halindor #0" = 10
    "Halion #0" = 10
    "Halordil #0" = 10
    "Halridor #0" = 10
    "Halronion #0" = 10
    "Hamevion #0" = 10
    "Haraenion #0" = 10
    "Haras #0" = 10
    "Hareglor #0" = 10
    "Harin #0" = 10
    "Harinlor #0" = 10
    "Haron #0" = 10
    "Hartmin #0" = 10
    "Hednor #0" = 10
    "Hegaer #0" = 10
    "Hegor #0" = 10
    "Helmir #0" = 10
    "Helondanbor #0" = 10
    "Heluin #0" = 10
    "Henandan #0" = 10
    "Hengolar #0" = 10
    "Hengolir #0" = 10
    "Henodras #0" = 10
    "Heralbor #0" = 10
    "Hingaron #0" = 10
    "Hunder #0" = 10
    "Hunindir #0" = 10
    "Hurdalas #0" = 10
    "Hurgedor #0" = 10
    "Hurthinnor #0" = 10
    "Icarian #0" = 10
    "Idreloth #0" = 10
    "Ilring #0" = 10
    "Ilthring #0" = 10
    "Indaenir #0" = 10
    "Indaryn #0" = 10
    "Indelor #0" = 10
    "Indiir #0" = 10
    "Indinor #0" = 10
    "Indinroth #0" = 10
    "Indolor #0" = 10
    "Indralir #0" = 10
    "Indrelor #0" = 10
    "Indring #0" = 10
    "Inluin #0" = 10
    "Irielis #0" = 10
    "Ithanarth #0" = 10
    "Ithgagon #0" = 10
    "Iulidul #0" = 10
    "Kerninn #0" = 10
    "Ladrelas #0" = 10
    "Laelrion #0" = 10
    "Lagrethor #0" = 10
    "Lanelor #0" = 10
    "Lataryon #0" = 10
    "Ledronor #0" = 10
    "Legimir #0" = 10
    "Legodir #0" = 10
    "Lemring #0" = 10
    "Lemrongorn #0" = 10
    "Lenahawn #0" = 10
    "Lengaer #0" = 10
    "Lenonion #0" = 10
    "Lenor #0" = 10
    "Lenoril #0" = 10
    "Lenranas #0" = 10
    "Lerangor #0" = 10
    "Lereluin #0" = 10
    "Lestadir #0" = 10
    "Lilthelfin #0" = 10
    "Lilthidrin #0" = 10
    "Lonor #0" = 10
    "Lorchon #0" = 10
    "Lorfolas #0" = 10
    "Lorfolros #0" = 10
    "Lowindor #0" = 10
    "Madruin #0" = 10
    "Maendir #0" = 10
    "Maenlin #0" = 10
    "Maenrin #0" = 10
    "Maenthanaras #0" = 10
    "Maeroth #0" = 10
    "Magaelion #0" = 10
    "Malbuin #0" = 10
    "Malgawn #0" = 10
    "Malgor #0" = 10
    "Malgorin #0" = 10
    "Malgoth #0" = 10
    "Malinor #0" = 10
    "Malionar #0" = 10
    "Malthagros #0" = 10
    "Malthor #0" = 10
    "Malvir #0" = 10
    "Manalmir #0" = 10
    "Mandir #0" = 10
    "Mandor #0" = 10
    "Manenlir #0" = 10
    "Mangaer #0" = 10
    "Mangeth #0" = 10
    "Mangonas #0" = 10
    "Manilbor #0" = 10
    "Manroth #0" = 10
    "Manthir #0" = 10
    "Marantar #0" = 10
    "Marilrin #0" = 10
    "Marthine #0" = 10
    "Maruin #0" = 10
    "Mathal #0" = 10
    "Mathragor #0" = 10
    "Mathralfin #0" = 10
    "Megail #0" = 10
    "Melas #0" = 10
    "Meleras #0" = 10
    "Melinfel #0" = 10
    "Melleron #0" = 10
    "Melluin #0" = 10
    "Mendros #0" = 10
    "Mengonir #0" = 10
    "Menorfin #0" = 10
    "Menthorn #0" = 10
    "Merethrin #0" = 10
    "Mertheriel #0" = 10
    "Methring #0" = 10
    "Milgangor #0" = 10
    "Milion #0" = 10
    "Millabenn #0" = 10
    "Milmilin #0" = 10
    "Milwalin #0" = 10
    "Minan #0" = 10
    "Minangor #0" = 10
    "Mingaenir #0" = 10
    "Mingalion #0" = 10
    "Mingonor #0" = 10
    "Mingor #0" = 10
    "Minthelir #0" = 10
    "Mirchanas #0" = 10
    "Mirilir #0" = 10
    "Modorin #0" = 10
    "Modradil #0" = 10
    "Mollorn #0" = 10
    "Monennor #0" = 10
    "Monganar #0" = 10
    "Mongon #0" = 10
    "Mongor #0" = 10
    "Mongoth #0" = 10
    "Monvaras #0" = 10
    "Monynen #0" = 10
    "Morthelos #0" = 10
    "Naglanor #0" = 10
    "Nagledrin #0" = 10
    "Nalbor #0" = 10
    "Nalguin #0" = 10
    "Nallelfin #0" = 10
    "Nalthenlir #0" = 10
    "Nanthenas #0" = 10
    "Nedaegaer #0" = 10
    "Nedhellas #0" = 10
    "Nednor #0" = 10
    "Nedrin #0" = 10
    "Nedtharond #0" = 10
    "Nedthion #0" = 10
    "Negaelion #0" = 10
    "Nelgorn #0" = 10
    "Nelguar #0" = 10
    "Nellor #0" = 10
    "Nendaer #0" = 10
    "Nendilir #0" = 10
    "Nerellanvir #0" = 10
    "Nergor #0" = 10
    "Neronnir #0" = 10
    "Nethrin #0" = 10
    "Niden #0" = 10
    "Nidras #0" = 10
    "Nilaendril #0" = 10
    "Nildedrin #0" = 10
    "Nilding #0" = 10
    "Nindir #0" = 10
    "Ninglenel #0" = 10
    "Ninglos #0" = 10
    "Ningor #0" = 10
    "Nirolos #0" = 10
    "Nironor #0" = 10
    "Nirthindor #0" = 10
    "Nirthongoth #0" = 10
    "Nongiruin #0" = 10
    "Norvir #0" = 10
    "Nothilgor #0" = 10
    "Nothirvir #0" = 10
    "Nothrelras #0" = 10
    "Nothrolion #0" = 10
    "Obenion #0" = 10
    "Obentor #0" = 10
    "Odreth #0" = 10
    "Odrethin #0" = 10
    "Ogarendir #0" = 10
    "Olahanar #0" = 10
    "Olarion #0" = 10
    "Ongalion #0" = 10
    "Onglor #0" = 10
    "Onglorn #0" = 10
    "Oranron #0" = 10
    "Orbinor #0" = 10
    "Orchelor #0" = 10
    "Orchelos #0" = 10
    "Orchenas #0" = 10
    "Orchinar #0" = 10
    "Orcholin #0" = 10
    "Ording #0" = 10
    "Orenthel #0" = 10
    "Orinol #0" = 10
    "Orthalon #0" = 10
    "Orthanron #0" = 10
    "Orthelos #0" = 10
    "Orthenir #0" = 10
    "Orthonor #0" = 10
    "Orthoron #0" = 10
    "Parenonas #0" = 10
    "Pegebor #0" = 10
    "Pegolos #0" = 10
    "Peras #0" = 10
    "Perinor #0" = 10
    "Raen #0" = 10
    "Raendor #0" = 10
    "Rafel #0" = 10
    "Ragalvir #0" = 10
    "Ralalorn #0" = 10
    "Ralds #0" = 10
    "Ralondel #0" = 10
    "Ramsi #0" = 10
    "Ranedor #0" = 10
    "Raniluin #0" = 10
    "Rathilmith #0" = 10
    "Regring #0" = 10
    "Rendarion #0" = 10
    "Rethelmir #0" = 10
    "Rethrin #0" = 10
    "Rilding #0" = 10
    "Rilion #0" = 10
    "Rindulath #0" = 10
    "Rininion #0" = 10
    "Rinlir #0" = 10
    "Rithanion #0" = 10
    "Rodaegaer #0" = 10
    "Rodring #0" = 10
    "Rolalmoth #0" = 10
    "Rolding #0" = 10
    "Rolindor #0" = 10
    "Rolion #0" = 10
    "Rollin #0" = 10
    "Rolon #0" = 10
    "Rondor #0" = 10
    "Rondrin #0" = 10
    "Ronolin #0" = 10
    "Rothondothrin #0" = 10
    "Rothraenion #0" = 10
    "Salahanar #0" = 10
    "Salalin #0" = 10
    "Saldaer #0" = 10
    "Saldir #0" = 10
    "Salgaer #0" = 10
    "Sandaenion #0" = 10
    "Sanonor #0" = 10
    "Sarmionor #0" = 10
    "Sarolion #0" = 10
    "Saromir #0" = 10
    "Shaguniel #0" = 10
    "Tessorthon #0" = 10
    "Thiingelien #0" = 10
    "Thodothor #0" = 10
    "Tholdaegal #0" = 10
    "Tholdegil #0" = 10
    "Tholdinlor #0" = 10
    "Tholerthorn #0" = 10
    "Thollebros #0" = 10
    "Thollidor #0" = 10
    "Thollunil #0" = 10
    "Thololin #0" = 10
    "Tholongor #0" = 10
    "Tholor #0" = 10
    "Tholralem #0" = 10
    "Thongonor #0" = 10
    "Thonoras #0" = 10
    "Thorianion #0" = 10
    "Thorinor #0" = 10
    "Thoron #0" = 10
    "Thragaer #0" = 10
    "Thragnor #0" = 10
    "Thrandion #0" = 10
    "Thranor #0" = 10
    "Tralor #0" = 10
    "Trilion #0" = 10
    "Tuunnir #0" = 10
    "Uldwin #0" = 10
    "Ulmion #0" = 10
    "Ulonron #0" = 10
    "Ulphroth #0" = 10
    "Ultholon #0" = 10
    "Ulthorn #0" = 10
    "Ulwemir #0" = 10
    "Ulwithor #0" = 10
    "Ungaedal #0" = 10
    "Ungenor #0" = 10
    "Ungiras #0" = 10
    "Ungrendor #0" = 10
    "Urralosl #0" = 10
    "Uwedrin #0" = 10
    "Virgeraurd #0" = 10
    "Vole #0" = 10

    "Alareth #0" = -10
    "Balam #0" = -10
    "Baham #0" = -10
    "Benieth #0" = -10
    "Dorniel #0" = -10
    "Fara #0" = -10
    "Iinel #0" = -10
    "Iirwaen #0" = -10
    "Laenril #0" = -10
    "Radreth #0" = -10
    "Riian #0" = -10
    "Adagwen #0" = -10
    "Adandora #0" = -10
    "Adwihill #0" = -10
    "Aedion #0" = -10
    "Aedwora #0" = -10
    "Aeranir #0" = -10
    "Aerchith #0" = -10
    "Aerledirre #0" = -10
    "Aerwaen #0" = -10
    "Agafos #0" = -10
    "Agilrin #0" = -10
    "Agilruin #0" = -10
    "Agraein #0" = -10
    "Aladess #0" = -10
    "Alandis #0" = -10
    "Alangil #0" = -10
    "Aldeth #0" = -10
    "Aleanneth #0" = -10
    "Allanwen #0" = -10
    "Altha #0" = -10
    "Althoth #0" = -10
    "Althuviel #0" = -10
    "Amariel #0" = -10
    "Amrael #0" = -10
    "Amridil #0" = -10
    "Andoriel #0" = -10
    "Andrathel #0" = -10
    "Anerel #0" = -10
    "Anganrith #0" = -10
    "Angeniel #0" = -10
    "Anglith #0" = -10
    "Angranel #0" = -10
    "Angrel #0" = -10
    "Angren #0" = -10
    "Angrineth #0" = -10
    "Ania #0" = -10
    "Annagail #0" = -10
    "Annarth #0" = -10
    "Anredith #0" = -10
    "Annathiel #0" = -10
    "Anriel #0" = -10
    "Aradhel #0" = -10
    "Aramriel #0" = -10
    "Araneth #0" = -10
    "Arathel #0" = -10
    "Arithiel #0" = -10
    "Arthwiien #0" = -10
    "Athemel #0" = -10
    "Atheval #0" = -10
    "Athirion #0" = -10
    "Athuviel #0" = -10
    "Balia #0" = -10
    "Belane #0" = -10
    "Belwanril #0" = -10
    "Belwinan #0" = -10
    "Berisse #0" = -10
    "Berwentha #0" = -10
    "Berwiria #0" = -10
    "Birwaen #0" = -10
    "Bondileth #0" = -10
    "Boriel #0" = -10
    "Borogilmith #0" = -10
    "Borwaegal #0" = -10
    "Borwaeneth #0" = -10
    "Bothiel #0" = -10
    "Bowenas #0" = -10
    "Bredrel #0" = -10
    "Brelenel #0" = -10
    "Brelinith #0" = -10
    "Brelondith #0" = -10
    "Brendil #0" = -10
    "Brithril #0" = -10
    "Calendir #0" = -10
    "Calenethel #0" = -10
    "Calithil #0" = -10
    "Canda #0" = -10
    "Candariel #0" = -10
    "Candion #0" = -10
    "Caraleth #0" = -10
    "Caralith #0" = -10
    "Caranith #0" = -10
    "Caranwel #0" = -10
    "Cariel #0" = -10
    "Carwengil #0" = -10
    "Cayliss #0" = -10
    "Celanarth #0" = -10
    "Celaranith #0" = -10
    "Celorien #0" = -10
    "Celwen #0" = -10
    "Cemaria #0" = -10
    "Cenrathil #0" = -10
    "Cerethriath #0" = -10
    "Cerwaenor #0" = -10
    "Cerweriell #0" = -10
    "Cerwil #0" = -10
    "Ciinderel #0" = -10
    "Ciindirre #0" = -10
    "Ciirenas #0" = -10
    "Ciireriath #0" = -10
    "Ciirillie #0" = -10
    "Circone #0" = -10
    "Cirithiel #0" = -10
    "Coradri #0" = -10
    "Cwynoniel #0" = -10
    "Cygwen #0" = -10
    "Cygwenn #0" = -10
    "Dailalleth #0" = -10
    "Dailinir #0" = -10
    "Dailinthil #0" = -10
    "Dailirwen #0" = -10
    "Dailithil #0" = -10
    "Dairaegal #0" = -10
    "Dalaneth #0" = -10
    "Dandra #0" = -10
    "Darahawn #0" = -10
    "Daraneth #0" = -10
    "Dayagwen #0" = -10
    "Dayidril #0" = -10
    "Degail #0" = -10
    "Degethel #0" = -10
    "Denninel #0" = -10
    "Dessidela #0" = -10
    "Dinwenel #0" = -10
    "Dirwendel #0" = -10
    "Doldoniel #0" = -10
    "Dolian #0" = -10
    "Dolirdor #0" = -10
    "Dollian #0" = -10
    "Dolwinora #0" = -10
    "Dondrinir #0" = -10
    "Dondrothel #0" = -10
    "Doneth #0" = -10
    "Donganiel #0" = -10
    "Dongenan #0" = -10
    "Donglanel #0" = -10
    "Donnaelain #0" = -10
    "Donnanel #0" = -10
    "Donnenir #0" = -10
    "Donniel #0" = -10
    "Doralin #0" = -10
    "Doralineth #0" = -10
    "Dorathil #0" = -10
    "Dorendir #0" = -10
    "Doriel #0" = -10
    "Dothriel #0" = -10
    "Drauginas #0" = -10
    "Dredhedil #0" = -10
    "Earnaana #0" = -10
    "Edherien #0" = -10
    "Efreghar #0" = -10
    "Egilrineth #0" = -10
    "Einnel #0" = -10
    "Einrel #0" = -10
    "Einriel #0" = -10
    "Eiola #0" = -10
    "Elagaer #0" = -10
    "Elanas #0" = -10
    "Elandora #0" = -10
    "Elayel #0" = -10
    "Elengil #0" = -10
    "Elerdel #0" = -10
    "Elethien #0" = -10
    "Elirwen #0" = -10
    "Elorwen #0" = -10
    "Elphaniel #0" = -10
    "Elphinia #0" = -10
    "Elphiniel #0" = -10
    "Elphirion #0" = -10
    "Elriniel #0" = -10
    "Elruin #0" = -10
    "Elsaril #0" = -10
    "Elsenia #0" = -10
    "Elsonia #0" = -10
    "Elsoreth #0" = -10
    "Emalith #0" = -10
    "Emanir #0" = -10
    "Emolwen #0" = -10
    "Emoneth #0" = -10
    "Emuin #0" = -10
    "Endoriell #0" = -10
    "Endrith #0" = -10
    "Endriwen #0" = -10
    "Enduinas #0" = -10
    "Eneriell #0" = -10
    "Engail #0" = -10
    "Englornith #0" = -10
    "Enielin #0" = -10
    "Eniras #0" = -10
    "Enlorien #0" = -10
    "Enruvie #0" = -10
    "Eralian #0" = -10
    "Eralin #0" = -10
    "Eraneth #0" = -10
    "Eranwen #0" = -10
    "Erathrin #0" = -10
    "Erelruin #0" = -10
    "Erilthel #0" = -10
    "Erilthil #0" = -10
    "Erinel #0" = -10
    "Ernethel #0" = -10
    "Ernethiel #0" = -10
    "Erwin #0" = -10
    "Essaneth #0" = -10
    "Essilion #0" = -10
    "Essonarth #0" = -10
    "Essoriel #0" = -10
    "Estelin #0" = -10
    "Estilion #0" = -10
    "Ethrandora #0" = -10
    "Ethrel #0" = -10
    "Eveli #0" = -10
    "Faedre #0" = -10
    "Faedridil #0" = -10
    "Faenir #0" = -10
    "Faenor #0" = -10
    "Faldethil #0" = -10
    "Faldiniel #0" = -10
    "Falphirion #0" = -10
    "Fanadis #0" = -10
    "Fanayell #0" = -10
    "Fandir #0" = -10
    "Fangil #0" = -10
    "Fanrel #0" = -10
    "Faraniel #0" = -10
    "Farenlith #0" = -10
    "Fariel #0" = -10
    "Farril #0" = -10
    "Faruin #0" = -10
    "Farwen #0" = -10
    "Farwilwen #0" = -10
    "Fauridil #0" = -10
    "Fauril #0" = -10
    "Faurwin #0" = -10
    "Fayadess #0" = -10
    "Fayagwen #0" = -10
    "Fayena #0" = -10
    "Fayilien #0" = -10
    "Felariel #0" = -10
    "Fiabess #0" = -10
    "Filberel #0" = -10
    "Filedh #0" = -10
    "Filenarth #0" = -10
    "Filoneth #0" = -10
    "Finde #0" = -10
    "Findredil #0" = -10
    "Fingil #0" = -10
    "Fingrathel #0" = -10
    "Finnegil #0" = -10
    "Finnethil #0" = -10
    "Finnorieth #0" = -10
    "Finoriell #0" = -10
    "Firalboreth #0" = -10
    "Firanarth #0" = -10
    "Firathil #0" = -10
    "Firchel #0" = -10
    "Firgelin #0" = -10
    "Firgiel #0" = -10
    "Firiliril #0" = -10
    "Firion #0" = -10
    "Fironel #0" = -10
    "Firuin #0" = -10
    "Firwin #0" = -10
    "Fisalie #0" = -10
    "Flaniethe #0" = -10
    "Flanneth #0" = -10
    "Floriele #0" = -10
    "Frenenora #0" = -10
    "Frenidela #0" = -10
    "Frenillas #0" = -10
    "Frenith #0" = -10
    "Gaette #0" = -10
    "Gaireth #0" = -10
    "Galathril #0" = -10
    "Galbenel #0" = -10
    "Galdini #0" = -10
    "Galeneth #0" = -10
    "Galereth #0" = -10
    "Galerond #0" = -10
    "Galesse #0" = -10
    "Galethril #0" = -10
    "Galilarlel #0" = -10
    "Galthel #0" = -10
    "Gananith #0" = -10
    "Gandalith #0" = -10
    "Ganduin #0" = -10
    "Gannel #0" = -10
    "Ganniel #0" = -10
    "Ganorith #0" = -10
    "Ganrenan #0" = -10
    "Ganwen #0" = -10
    "Garaengrin #0" = -10
    "Garel #0" = -10
    "Garamiel #0" = -10
    "Garanel #0" = -10
    "Gariel #0" = -10
    "Garimmir #0" = -10
    "Garion #0" = -10
    "Garniel #0" = -10
    "Garwiril #0" = -10
    "Garwiruin #0" = -10
    "Gathiel #0" = -10
    "Gathion #0" = -10
    "Gathraenor #0" = -10
    "Gathviel #0" = -10
    "Gathwen #0" = -10
    "Geldaeniel #0" = -10
    "Geldirel #0" = -10
    "Gelthedh #0" = -10
    "Gelthiras #0" = -10
    "Gelur #0" = -10
    "Genboril #0" = -10
    "Gendinora #0" = -10
    "Genraeniel #0" = -10
    "Genriel #0" = -10
    "Genrunarel #0" = -10
    "Genthel #0" = -10
    "Geoffrise #0" = -10
    "Gerethel #0" = -10
    "Gerinien #0" = -10
    "Gerwen #0" = -10
    "Gerweruin #0" = -10
    "Gethawen #0" = -10
    "Gilbonel #0" = -10
    "Gilbonil #0" = -10
    "Gilinora #0" = -10
    "Gilradil #0" = -10
    "Gilraen #0" = -10
    "Gilriian #0" = -10
    "Gindothel #0" = -10
    "Ginereth #0" = -10
    "Giniel #0" = -10
    "Girnalin #0" = -10
    "Girnileth #0" = -10
    "Girninan #0" = -10
    "Girriian #0" = -10
    "Githiril #0" = -10
    "Githriian #0" = -10
    "Glaras #0" = -10
    "Glardel #0" = -10
    "Glardir #0" = -10
    "Glarin #0" = -10
    "Glenora #0" = -10
    "Glooredel #0" = -10
    "Gloraneth #0" = -10
    "Glordil #0" = -10
    "Glothorien #0" = -10
    "Gluineth #0" = -10
    "Gosellaneth #0" = -10
    "Gothemril #0" = -10
    "Grildoriel #0" = -10
    "Guilenarne #0" = -10
    "Guilenarth #0" = -10
    "Guileval #0" = -10
    "Guilion #0" = -10
    "Gwaerarth #0" = -10
    "Gwaering #0" = -10
    "Gwendis #0" = -10
    "Gwenieth #0" = -10
    "Gwenuinas #0" = -10
    "Halsinan #0" = -10
    "Hangaerin #0" = -10
    "Hanriian #0" = -10
    "Hanthaerin #0" = -10
    "Hariell #0" = -10
    "Harmolith #0" = -10
    "Harowen #0" = -10
    "Hasiwen #0" = -10
    "Henilien #0" = -10
    "Henoreth #0" = -10
    "Henriel #0" = -10
    "Henrinora #0" = -10
    "Heragaeth #0" = -10
    "Herdor #0" = -10
    "Holithel #0" = -10
    "Huundel #0" = -10
    "Huunel #0" = -10
    "Huurel #0" = -10
    "Hynendirre #0" = -10
    "Iannianith #0" = -10
    "Ianwaen #0" = -10
    "Idradriel #0" = -10
    "Idronel #0" = -10
    "Idrothiel #0" = -10
    "Iirdel #0" = -10
    "Iirdilin #0" = -10
    "Iirond #0" = -10
    "Imriel #0" = -10
    "Inalion #0" = -10
    "Indanas #0" = -10
    "Indel #0" = -10
    "Indinael #0" = -10
    "Indithil #0" = -10
    "Indrenan #0" = -10
    "Indraseth #0" = -10
    "Inglin #0" = -10
    "Ingrarthel #0" = -10
    "Inril #0" = -10
    "Irdan #0" = -10
    "Irwiraen #0" = -10
    "Kaale #0" = -10
    "Kathariel #0" = -10
    "Kirstaleth #0" = -10
    "Kirstar #0" = -10
    "Kirstenreth #0" = -10
    "Kuna #0" = -10
    "Laen #0" = -10
    "Laeneval #0" = -10
    "Laenriian #0" = -10
    "Laeranir #0" = -10
    "Laerinir #0" = -10
    "Laerion #0" = -10
    "Laniriel #0" = -10
    "Lanwaen #0" = -10
    "Lara #0" = -10
    "Larafil #0" = -10
    "Laranieth #0" = -10
    "Larasel #0" = -10
    "Larchelas #0" = -10
    "Larweneth #0" = -10
    "Lathriel #0" = -10
    "Lianedirre #0" = -10
    "Lianorien #0" = -10
    "Lienalel #0" = -10
    "Lienanarth #0" = -10
    "Lienenarth #0" = -10
    "Lienil #0" = -10
    "Liennas #0" = -10
    "Lilaneth #0" = -10
    "Lionora #0" = -10
    "Little #0" = -10
    "Leaf #0" = -10
    "Lobelathel #0" = -10
    "Lorading #0" = -10
    "Lorhiel #0" = -10
    "Lorregil #0" = -10
    "Lorthodaer #0" = -10
    "Lorwen #0" = -10
    "Lothiel #0" = -10
    "Maelanrith #0" = -10
    "Maelin #0" = -10
    "Malaniel #0" = -10
    "Malareth #0" = -10
    "Malesse #0" = -10
    "Malfinir #0" = -10
    "Malioneth #0" = -10
    "Mandilin #0" = -10
    "Mariel #0" = -10
    "Marineth #0" = -10
    "Marinora #0" = -10
    "Marise #0" = -10
    "Mehlin #0" = -10
    "Melbethil #0" = -10
    "Meldaril #0" = -10
    "Mell #0" = -10
    "Melledh #0" = -10
    "Mellieth #0" = -10
    "Melothil #0" = -10
    "Melrethel #0" = -10
    "Menaelion #0" = -10
    "Mendil #0" = -10
    "Mendredhil #0" = -10
    "Mendreval #0" = -10
    "Mengaer #0" = -10
    "Meninel #0" = -10
    "Mennel #0" = -10
    "Menninia #0" = -10
    "Mennir #0" = -10
    "Menwendel #0" = -10
    "Menwirchel #0" = -10
    "Miliril #0" = -10
    "Millenith #0" = -10
    "Millia #0" = -10
    "Minaelion #0" = -10
    "Mindileth #0" = -10
    "Mindirin #0" = -10
    "Mindora #0" = -10
    "Mindoril #0" = -10
    "Miniel #0" = -10
    "Minonel #0" = -10
    "Minriel #0" = -10
    "Minrion #0" = -10
    "Miranrel #0" = -10
    "Mithen #0" = -10
    "Molamiel #0" = -10
    "Molenaniel #0" = -10
    "Moleras #0" = -10
    "Moneriel #0" = -10
    "Naarendras #0" = -10
    "Naeldil #0" = -10
    "Naerion #0" = -10
    "Naeronel #0" = -10
    "Naerorien #0" = -10
    "Nalia #0" = -10
    "Nallion #0" = -10
    "Nallorwen #0" = -10
    "Namradis #0" = -10
    "Namriel #0" = -10
    "Nara #0" = -10
    "Naridir #0" = -10
    "Narinarth #0" = -10
    "Narinia #0" = -10
    "Narion #0" = -10
    "Narirasi #0" = -10
    "Narwin #0" = -10
    "Natareth #0" = -10
    "Nielaenor #0" = -10
    "Nielas #0" = -10
    "Nien #0" = -10
    "Nienornith #0" = -10
    "Nienras #0" = -10
    "Nieth #0" = -10
    "Nilara #0" = -10
    "Nilbedel #0" = -10
    "Nilbethil #0" = -10
    "Nilenarth #0" = -10
    "Nilenir #0" = -10
    "Niliendras #0" = -10
    "Nilleth #0" = -10
    "Nilliel #0" = -10
    "Nilwen #0" = -10
    "Nimanir #0" = -10
    "Niminthil #0" = -10
    "Nimriell #0" = -10
    "Nimriian #0" = -10
    "Nindenel #0" = -10
    "Ninriledh #0" = -10
    "Ninwin #0" = -10
    "Niranda #0" = -10
    "Niraniel #0" = -10
    "Niriel #0" = -10
    "Nirihill #0" = -10
    "Niruin #0" = -10
    "Nistel #0" = -10
    "Nistyniel #0" = -10
    "Nithelin #0" = -10
    "Nithiel #0" = -10
    "Nitholeth #0" = -10
    "Nithonda #0" = -10
    "Nithriel #0" = -10
    "Nivrel #0" = -10
    "Nivriian #0" = -10
    "Nivrilin #0" = -10
    "Noldathil #0" = -10
    "Nona #0" = -10
    "Norasea #0" = -10
    "Norraneth #0" = -10
    "Norrareth #0" = -10
    "Norriel #0" = -10
    "Norweras #0" = -10
    "Norwess #0" = -10
    "Norwifinn #0" = -10
    "Nothemril #0" = -10
    "Ondineth #0" = -10
    "Onglorien #0" = -10
    "Orabess #0" = -10
    "Oraneth #0" = -10
    "Orchelith #0" = -10
    "Oriadess #0" = -10
    "Orianel #0" = -10
    "Orwinora #0" = -10
    "Panreth #0" = -10
    "Parenel #0" = -10
    "Pariel #0" = -10
    "Parwaen #0" = -10
    "Parwinel #0" = -10
    "Pengaenion #0" = -10
    "Peruin #0" = -10
    "Pishna #0" = -10
    "Ralaenglin #0" = -10
    "Ralai #0" = -10
    "Ralayell #0" = -10
    "Ralerdhil #0" = -10
    "Ralion #0" = -10
    "Rallion #0" = -10
    "Rangil #0" = -10
    "Ranneth #0" = -10
    "Ranniel #0" = -10
    "Rannonda #0" = -10
    "Rathornith #0" = -10
    "Rathril #0" = -10
    "Rayniir #0" = -10
    "Raynineth #0" = -10
    "Raynorien #0" = -10
    "Rendorien #0" = -10
    "Rialanith #0" = -10
    "Rilineth #0" = -10
    "Rinareth #0" = -10
    "Rindirre #0" = -10
    "Rithros #0" = -10
    "Rodaeril #0" = -10
    "Ronarith #0" = -10
    "Rothariel #0" = -10
    "Sanithil #0" = -10
    "Sariel #0" = -10
    "Sarion #0" = -10
    "Saronithel #0" = -10
    "Sarralthir #0" = -10
    "Sarrothiel #0" = -10
    "Seldine #0" = -10
    "Selene #0" = -10
    "Sellineth #0" = -10
    "Selynia #0" = -10
    "Sendel #0" = -10
    "Sendranir #0" = -10
    "Serchel #0" = -10
    "Serwin #0" = -10
    "Serwuin #0" = -10
    "Sethel #0" = -10
    "Sirreth #0" = -10
    "Sorvayel #0" = -10
    "Syalleth #0" = -10
    "Sylthendel #0" = -10
    "Teliwen #0" = -10
    "Tellanil #0" = -10
    "Telona #0" = -10
    "Thaedothiel #0" = -10
    "Thael #0" = -10
    "Thaelion #0" = -10
    "Thaeliwaen #0" = -10
    "Thaellin #0" = -10
    "Thaelril #0" = -10
    "Thaenaneth #0" = -10
    "Thaendil #0" = -10
    "Thaeniril #0" = -10
    "Thaenor #0" = -10
    "Thaeraen #0" = -10
    "Thaereledh #0" = -10
    "Thaeril #0" = -10
    "Thaerin #0" = -10
    "Thaesse #0" = -10
    "Thaleth #0" = -10
    "Thalienglas #0" = -10
    "Thaliwen #0" = -10
    "Thallioniel #0" = -10
    "Thalorel #0" = -10
    "Thaloril #0" = -10
    "Thalrel #0" = -10
    "Thalrinel #0" = -10
    "Thamenarth #0" = -10
    "Thaminiel #0" = -10
    "Thamraen #0" = -10
    "Thamrin #0" = -10
    "Thanael #0" = -10
    "Thara #0" = -10
    "Thariel #0" = -10
    "Tharuin #0" = -10
    "Thiirion #0" = -10
    "Thiirril #0" = -10
    "Thorelir #0" = -10
    "Thralin #0" = -10
    "Thranarel #0" = -10
    "Thranileith #0" = -10
    "Tildri #0" = -10
    "Trea #0" = -10
    "Ulladhel #0" = -10
    "Uunniel #0" = -10
    "Uunril #0" = -10
    "Uurdhel #0" = -10
    "Uurwaen #0" = -10
    "Uurwaerion #0" = -10
    "Vendyne #0" = -10
    "Wendirre #0" = -10
    "Wenridil #0" = -10
    "Whisper #0" = -10
    "Yarmia #0" = -10
    "Zifri #0" = -10
}

leader_names = {
    Sagewood Fingaenion Gwanur Hurolas Gwannor Mandolion Miruin Nedras Ronahanar Adamir Adragros Adwien Aengaer Aengvar Aenthalor Aeradan Aerchelas Aering Aerolor Agilgor Aginlas Aglion Agolas Agular Agwodir Alander Aldor Alphrennor Alphrost Althaedal Altholmir Amlion Amreval Andranon Andrilion Andrinlor Angeron Angilor Anglalas Anglas Anglenthor Anglorn Anthelion Aralem Arengo Arengur Arenion Arganar Arthor Athraedal Athrahgor Azareth Baenelros Balithil Baronas Barothlas Barulor Behelir Bellulor Bendralas Benduin Berdonion Berithor Berthor Bodring Bolefin Bolelos Bolion Bolwagon Bolwunor Borcholim Borchon Borelril Borwiian Bredragon Bredros Breduin Brellin Brelor Brengolin Brengor Brenor Briminor Brimlirdor Brimlor Brinthir Brogomir Brolthiath Burrfoot Caeleneth Caelin Caenlilmith Caentholrin Caerllelfin Caerllin Calabenn Calthindor Cantadir Canthion Carethil Cathras Celan Celelruin Celinar Celonron Celthalion Cendalor Cenirond Cingunor Ciradir Cirglion Cirithor Cirnean Cirodros Cirthile Cirtor Clenalgor Clenegor Cunendor Cunodir Daenilroth Dalodir Dalrelvir Dalrithor Danrithri Dardalmoth Dardir Dathangil Dathidor Dennir Dennithel Dennoroth Denrin Deregor Deros Derveglor Dessathiel Dindom Diranor Dirchanor Dirdelas Dolilas Dollarthor Domillas Donallir Donthengeval Doradrin Doralon Doranar Dordanion Dorinlas Dorodir Dorondor Drauginor Draugorin Drauldolim Draulduin Drilalfin Drimrin Drinlin Drinroth Edalor Edeleg Edhelas Edheldor Edhelfin Edhelorn Edhelruin Edhelvir Edrin Edthas Edundor Egannor Egarfin Egelnor Egelrin Egenor Egenthor Eghanar Egidnor Egidrin Egilas Eginir Eginthoril Eglabenn Egolor Egranor Eguroth Elaldor Elanir Elebor Elethir Elethlin Elhalem Elilor Elolir Elonthor Elphregor Elseer Elthras Enaring Enathorn Enathras Endregail Endring Endrothir Enethrin Engaenir Engiroth Englor Engor Enoring Entelator Enthilin Enthonor Enthoras Enthorin Eraegaer Eralgor Eralorn Eranas Eranion Erdelan Erengor Erimroth Eringor Erodir Eronthor Erothel Erthaenir Erthalmoth Erthas Erthonor Erthor Erunor Ervalir Esladir Eslion Esunil Ethgin Ethlinor Ethodan Ethruin Faeldal Faenegor Faengongorn Faenir Faenlidor Faenlolras Faenthundor Faerelos Faerin Faerorin Falahawn Faldaleb Falelros Falthalorn Famronion Fangilmir Faradan Faralos Farandor Fardel Farthagal Farthalem Fastor Faulannor Faulbor Fauleroth Faulor Faurchon Faurinar Feladir Fengrin Fenteladir Filalmoth Filbolrel Fildir Filingaer Filmian Fimrimion Findir Findor Findun Finedrin Fingor Finlas Finnalir Finonas Fintholor Finvir Firaelion Firagaer Fireluin Firolbor Firolmoth Fironthor Firras Firthaedal Firuin Fithrolon Foldor Folilas Fonalor Fongidor Fongoth Foral Fordan Forelfin Forinor Forolon Forongon Forthor Fradion Gadinas Gadnalon Gaedil Gael Gaelthagar Gaenengeval Gaenennor Gaerthgorn Gaerthidrin Gaerthir Galalron Galandir Galbor Galdilin Galfinar Galithor Galmelor Galolion Galriel Galthonor Gandalor Gandonion Ganolon Ganwidrin Gazunil Gelabenn Gelin Gelthior Gilanbor Gilragaith Ginion Ginthor Giralon Girin Glalongoth Glalor Glanil Glanir Glanongor Glathor Glathras Glaugluin Glauloroth Glaurilas Glaurolin Glinthinar Glirion Gloldor Glolmir Glolor Glongor Glonnir Glooring Gloron Glothor Gluin Godadras Golor Gomlor Gonlas Goralgor Gorendir Gorinir Gorulbor Gothrarth Gothrongor Grohanar Gwaegalir Gwael Gwaerinbor Gwagoth Gwannas Gwanolrin Gwarolgor Gwilandor Gwilgoth Gwilir Gwilon Gwinadras Gwindebros Gwindir Gwinengur Gwingelruin Gwingeval Gwinir Gwinithor Gwinolas Gwinor Gwiras Gwiroth Hadendor Hadnilion Hadran Hadras Hagaelion Halalin Halelmathras Halindor Halion Halordil Halridor Halronion Hamevion Haraenion Haras Hareglor Harin Harinlor Haron Hartmin Hednor Hegaer Hegor Helmir Helondanbor Heluin Henandan Hengolar Hengolir Henodras Heralbor Hingaron Hunder Hunindir Hurdalas Hurgedor Hurthinnor Icarian Idreloth Ilring Ilthring Indaenir Indaryn Indelor Indiir Indinor Indinroth Indolor Indralir Indrelor Indring Inluin Irielis Ithanarth Ithgagon Iulidul Kerninn Ladrelas Laelrion Lagrethor Lanelor Lataryon Ledronor Legimir Legodir Lemring Lemrongorn Lenahawn Lengaer Lenonion Lenor Lenoril Lenranas Lerangor Lereluin Lestadir Lilthelfin Lilthidrin Lonor Lorchon Lorfolas Lorfolros Lowindor Madruin Maendir Maenlin Maenrin Maenthanaras Maeroth Magaelion Malbuin Malgawn Malgor Malgorin Malgoth Malinor Malionar Malthagros Malthor Malvir Manalmir Mandir Mandor Manenlir Mangaer Mangeth Mangonas Manilbor Manroth Manthir Marantar Marilrin Marthine Maruin Mathal Mathragor Mathralfin Megail Melas Meleras Melinfel Melleron Melluin Mendros Mengonir Menorfin Menthorn Merethrin Mertheriel Methring Milgangor Milion Millabenn Milmilin Milwalin Minan Minangor Mingaenir Mingalion Mingonor Mingor Minthelir Mirchanas Mirilir Modorin Modradil Mollorn Monennor Monganar Mongon Mongor Mongoth Monvaras Monynen Morthelos Naglanor Nagledrin Nalbor Nalguin Nallelfin Nalthenlir Nanthenas Nedaegaer Nedhellas Nednor Nedrin Nedtharond Nedthion Negaelion Nelgorn Nelguar Nellor Nendaer Nendilir Nerellanvir Nergor Neronnir Nethrin Niden Nidras Nilaendril Nildedrin Nilding Nindir Ninglenel Ninglos Ningor Nirolos Nironor Nirthindor Nirthongoth Nongiruin Norvir Nothilgor Nothirvir Nothrelras Nothrolion Obenion Obentor Odreth Odrethin Ogarendir Olahanar Olarion Ongalion Onglor Onglorn Oranron Orbinor Orchelor Orchelos Orchenas Orchinar Orcholin Ording Orenthel Orinol Orthalon Orthanron Orthelos Orthenir Orthonor Orthoron Parenonas Pegebor Pegolos Peras Perinor Raen Raendor Rafel Ragalvir Ralalorn Ralds Ralondel Ramsi Ranedor Raniluin Rathilmith Regring Rendarion Rethelmir Rethrin Rilding Rilion Rindulath Rininion Rinlir Rithanion Rodaegaer Rodring Rolalmoth Rolding Rolindor Rolion Rollin Rolon Rondor Rondrin Ronolin Rothondothrin Rothraenion Salahanar Salalin Saldaer Saldir Salgaer Sandaenion Sanonor Sarmionor Sarolion Saromir Shaguniel Tessorthon Thiingelien Thodothor Tholdaegal Tholdegil Tholdinlor Tholerthorn Thollebros Thollidor Thollunil Thololin Tholongor Tholor Tholralem Thongonor Thonoras Thorianion Thorinor Thoron Thragaer Thragnor Thrandion Thranor Tralor Trilion Tuunnir Uldwin Ulmion Ulonron Ulphroth Ultholon Ulthorn Ulwemir Ulwithor Ungaedal Ungenor Ungiras Ungrendor Urralosl Uwedrin Virgeraurd Vole
}

ship_names = {
    Alareth Balam Baham Benieth Dorniel Fara Iinel Iirwaen Laenril Radreth Riian Adagwen Adandora Adwihill Aedion Aedwora Aeranir Aerchith Aerledirre Aerwaen Agafos Agilrin Agilruin Agraein Aladess Alandis Alangil Aldeth Aleanneth Allanwen Altha Althoth Althuviel Amariel Amrael Amridil Andoriel Andrathel Anerel Anganrith Angeniel Anglith Angranel Angrel Angren Angrineth Ania Annagail Annarth Anredith Annathiel Anriel Aradhel Aramriel Araneth Arathel Arithiel Arthwiien Athemel Atheval Athirion Athuviel Balia Belane Belwanril Belwinan Berisse Berwentha Berwiria Birwaen Bondileth Boriel Borogilmith Borwaegal Borwaeneth Bothiel Bowenas Bredrel Brelenel Brelinith Brelondith Brendil Brithril Calendir Calenethel Calithil Canda Candariel Candion Caraleth Caralith Caranith Caranwel Cariel Carwengil Cayliss Celanarth Celaranith Celorien Celwen Cemaria Cenrathil Cerethriath Cerwaenor Cerweriell Cerwil Ciinderel Ciindirre Ciirenas Ciireriath Ciirillie Circone Cirithiel Coradri Cwynoniel Cygwen Cygwenn Dailalleth Dailinir Dailinthil Dailirwen Dailithil Dairaegal Dalaneth Dandra Darahawn Daraneth Dayagwen Dayidril Degail Degethel Denninel Dessidela Dinwenel Dirwendel Doldoniel Dolian Dolirdor Dollian Dolwinora Dondrinir Dondrothel Doneth Donganiel Dongenan Donglanel Donnaelain Donnanel Donnenir Donniel Doralin Doralineth Dorathil Dorendir Doriel Dothriel Drauginas Dredhedil Earnaana Edherien Efreghar Egilrineth Einnel Einrel Einriel Eiola Elagaer Elanas Elandora Elayel Elengil Elerdel Elethien Elirwen Elorwen Elphaniel Elphinia Elphiniel Elphirion Elriniel Elruin Elsaril Elsenia Elsonia Elsoreth Emalith Emanir Emolwen Emoneth Emuin Endoriell Endrith Endriwen Enduinas Eneriell Engail Englornith Enielin Eniras Enlorien Enruvie Eralian Eralin Eraneth Eranwen Erathrin Erelruin Erilthel Erilthil Erinel Ernethel Ernethiel Erwin Essaneth Essilion Essonarth Essoriel Estelin Estilion Ethrandora Ethrel Eveli Faedre Faedridil Faenir Faenor Faldethil Faldiniel Falphirion Fanadis Fanayell Fandir Fangil Fanrel Faraniel Farenlith Fariel Farril Faruin Farwen Farwilwen Fauridil Fauril Faurwin Fayadess Fayagwen Fayena Fayilien Felariel Fiabess Filberel Filedh Filenarth Filoneth Finde Findredil Fingil Fingrathel Finnegil Finnethil Finnorieth Finoriell Firalboreth Firanarth Firathil Firchel Firgelin Firgiel Firiliril Firion Fironel Firuin Firwin Fisalie Flaniethe Flanneth Floriele Frenenora Frenidela Frenillas Frenith Gaette Gaireth Galathril Galbenel Galdini Galeneth Galereth Galerond Galesse Galethril Galilarlel Galthel Gananith Gandalith Ganduin Gannel Ganniel Ganorith Ganrenan Ganwen Garaengrin Garel Garamiel Garanel Gariel Garimmir Garion Garniel Garwiril Garwiruin Gathiel Gathion Gathraenor Gathviel Gathwen Geldaeniel Geldirel Gelthedh Gelthiras Gelur Genboril Gendinora Genraeniel Genriel Genrunarel Genthel Geoffrise Gerethel Gerinien Gerwen Gerweruin Gethawen Gilbonel Gilbonil Gilinora Gilradil Gilraen Gilriian Gindothel Ginereth Giniel Girnalin Girnileth Girninan Girriian Githiril Githriian Glaras Glardel Glardir Glarin Glenora Glooredel Gloraneth Glordil Glothorien Gluineth Gosellaneth Gothemril Grildoriel Guilenarne Guilenarth Guileval Guilion Gwaerarth Gwaering Gwendis Gwenieth Gwenuinas Halsinan Hangaerin Hanriian Hanthaerin Hariell Harmolith Harowen Hasiwen Henilien Henoreth Henriel Henrinora Heragaeth Herdor Holithel Huundel Huunel Huurel Hynendirre Iannianith Ianwaen Idradriel Idronel Idrothiel Iirdel Iirdilin Iirond Imriel Inalion Indanas Indel Indinael Indithil Indrenan Indraseth Inglin Ingrarthel Inril Irdan Irwiraen Kaale Kathariel Kirstaleth Kirstar Kirstenreth Kuna Laen Laeneval Laenriian Laeranir Laerinir Laerion Laniriel Lanwaen Lara Larafil Laranieth Larasel Larchelas Larweneth Lathriel Lianedirre Lianorien Lienalel Lienanarth Lienenarth Lienil Liennas Lilaneth Lionora Little Leaf Lobelathel Lorading Lorhiel Lorregil Lorthodaer Lorwen Lothiel Maelanrith Maelin Malaniel Malareth Malesse Malfinir Malioneth Mandilin Mariel Marineth Marinora Marise Mehlin Melbethil Meldaril Mell Melledh Mellieth Melothil Melrethel Menaelion Mendil Mendredhil Mendreval Mengaer Meninel Mennel Menninia Mennir Menwendel Menwirchel Miliril Millenith Millia Minaelion Mindileth Mindirin Mindora Mindoril Miniel Minonel Minriel Minrion Miranrel Mithen Molamiel Molenaniel Moleras Moneriel Naarendras Naeldil Naerion Naeronel Naerorien Nalia Nallion Nallorwen Namradis Namriel Nara Naridir Narinarth Narinia Narion Narirasi Narwin Natareth Nielaenor Nielas Nien Nienornith Nienras Nieth Nilara Nilbedel Nilbethil Nilenarth Nilenir Niliendras Nilleth Nilliel Nilwen Nimanir Niminthil Nimriell Nimriian Nindenel Ninriledh Ninwin Niranda Niraniel Niriel Nirihill Niruin Nistel Nistyniel Nithelin Nithiel Nitholeth Nithonda Nithriel Nivrel Nivriian Nivrilin Noldathil Nona Norasea Norraneth Norrareth Norriel Norweras Norwess Norwifinn Nothemril Ondineth Onglorien Orabess Oraneth Orchelith Oriadess Orianel Orwinora Panreth Parenel Pariel Parwaen Parwinel Pengaenion Peruin Pishna Ralaenglin Ralai Ralayell Ralerdhil Ralion Rallion Rangil Ranneth Ranniel Rannonda Rathornith Rathril Rayniir Raynineth Raynorien Rendorien Rialanith Rilineth Rinareth Rindirre Rithros Rodaeril Ronarith Rothariel Sanithil Sariel Sarion Saronithel Sarralthir Sarrothiel Seldine Selene Sellineth Selynia Sendel Sendranir Serchel Serwin Serwuin Sethel Sirreth Sorvayel Syalleth Sylthendel Teliwen Tellanil Telona Thaedothiel Thael Thaelion Thaeliwaen Thaellin Thaelril Thaenaneth Thaendil Thaeniril Thaenor Thaeraen Thaereledh Thaeril Thaerin Thaesse Thaleth Thalienglas Thaliwen Thallioniel Thalorel Thaloril Thalrel Thalrinel Thamenarth Thaminiel Thamraen Thamrin Thanael Thara Thariel Tharuin Thiirion Thiirril Thorelir Thralin Thranarel Thranileith Tildri Trea Ulladhel Uunniel Uunril Uurdhel Uurwaen Uurwaerion Vendyne Wendirre Wenridil Whisper Yarmia Zifri
}

army_names = {
    "Army of $PROVINCE$"
}

fleet_names = {
    "Fleet of $PROVINCE$"
}