graphical_culture = africangfx

color = { 19 134 79 }

revolutionary_colors = { 9 13 9}


historical_idea_groups = {
}

historical_units = {
}

monarch_names = {
    "Abzag #0" = 10
    "Abzrolg #0" = 10
    "Abzug #0" = 10
    "Agganor #0" = 10
    "Aghurz #0" = 10
    "Agnar #0" = 10
    "Agrakh #0" = 10
    "Agrobal #0" = 10
    "Agronak #0" = 10
    "Agstarg #0" = 10
    "Aguz #0" = 10
    "Ahzug #0" = 10
    "Arghragdush #0" = 10
    "Arghur #0" = 10
    "Ashzu #0" = 10
    "Atulg #0" = 10
    "Aturgh #0" = 10
    "Avreg #0" = 10
    "Azarg #0" = 10
    "Azgarub #0" = 10
    "Azimbul #0" = 10
    "Azogu #0" = 10
    "Azrath #0" = 10
    "Azuk #0" = 10
    "Azulg #0" = 10
    "Bagamul #0" = 10
    "Bakh #0" = 10
    "Balagog #0" = 10
    "Balarkh #0" = 10
    "Balknakh #0" = 10
    "Balmeg #0" = 10
    "Balorgh #0" = 10
    "Baloth #0" = 10
    "Balrook #0" = 10
    "Balzag #0" = 10
    "Bargo #0" = 10
    "Bargrug #0" = 10
    "Baronk #0" = 10
    "Bash #0" = 10
    "Bashag #0" = 10
    "Bashagorn #0" = 10
    "Bashnag #0" = 10
    "Bat #0" = 10
    "Batgrul #0" = 10
    "Bazgulub #0" = 10
    "Bazrag #0" = 10
    "Bazur #0" = 10
    "Begnar #0" = 10
    "Begok #0" = 10
    "Begozug #0" = 10
    "Bekhwug #0" = 10
    "Bhagrun #0" = 10
    "Biknuk #0" = 10
    "Bisquelas #0" = 10
    "Blodrat #0" = 10
    "Boagog #0" = 10
    "Bogakh #0" = 10
    "Boggeryk #0" = 10
    "Bogham #0" = 10
    "Bognash #0" = 10
    "Bogodug #0" = 10
    "Bogrum #0" = 10
    "Bogzul #0" = 10
    "Boldarkh #0" = 10
    "Bolg #0" = 10
    "Bolgrul #0" = 10
    "Bologra #0" = 10
    "Borab #0" = 10
    "Boragrul #0" = 10
    "Borbuz #0" = 10
    "Borgath #0" = 10
    "Borgh #0" = 10
    "Borkul #0" = 10
    "Bormolg #0" = 10
    "Borolg #0" = 10
    "Borth #0" = 10
    "Borug #0" = 10
    "Borz #0" = 10
    "Borzighu #0" = 10
    "Borzugh #0" = 10
    "Both #0" = 10
    "Bothamul #0" = 10
    "Braadoth #0" = 10
    "Brag #0" = 10
    "Braghul #0" = 10
    "Brog #0" = 10
    "Brogdul #0" = 10
    "Brokil #0" = 10
    "Brokk #0" = 10
    "Brugagikh #0" = 10
    "Brugdush #0" = 10
    "Brughamug #0" = 10
    "Brugo #0" = 10
    "Brulak #0" = 10
    "Bugak #0" = 10
    "Bugdul #0" = 10
    "Bugharz #0" = 10
    "Bugnerg #0" = 10
    "Bugrash #0" = 10
    "Bugrol #0" = 10
    "Bugunh #0" = 10
    "Bulg #0" = 10
    "Bullig #0" = 10
    "Bulozog #0" = 10
    "Bulugbek #0" = 10
    "Bulzog #0" = 10
    "Bumbub #0" = 10
    "Bumnog #0" = 10
    "Buragrub #0" = 10
    "Buramog #0" = 10
    "Burguk #0" = 10
    "Burul #0" = 10
    "Burush #0" = 10
    "Burz #0" = 10
    "Burzgrag #0" = 10
    "Burzunguk #0" = 10
    "Burzura #0" = 10
    "Buzog #0" = 10
    "Carzog #0" = 10
    "Charlvain #0" = 10
    "Cognor #0" = 10
    "Dagnub #0" = 10
    "Dorzogg #0" = 10
    "Dragom #0" = 10
    "Dromash #0" = 10
    "Drudun #0" = 10
    "Dubok #0" = 10
    "Dugakh #0" = 10
    "Dugan #0" = 10
    "Dugroth #0" = 10
    "Dugrul #0" = 10
    "Dugtosh #0" = 10
    "Dugug #0" = 10
    "Dugugikh #0" = 10
    "Dul #0" = 10
    "Dular #0" = 10
    "Dulfish #0" = 10
    "Dulph #0" = 10
    "Dulphago #0" = 10
    "Dulphumph #0" = 10
    "Dulrat #0" = 10
    "Duluk #0" = 10
    "Duma #0" = 10
    "Dumag #0" = 10
    "Dumbuk #0" = 10
    "Dumburz #0" = 10
    "Dumolg #0" = 10
    "Dur #0" = 10
    "Durak #0" = 10
    "Durang #0" = 10
    "Durbul #0" = 10
    "Durgash #0" = 10
    "Durz #0" = 10
    "Durzol #0" = 10
    "Durzub #0" = 10
    "Durzum #0" = 10
    "Dushgor #0" = 10
    "Dushkul #0" = 10
    "Dushnamub #0" = 10
    "Dushugg #0" = 10
    "Fangoz #0" = 10
    "Farbalg #0" = 10
    "Fheg #0" = 10
    "Gadba #0" = 10
    "Gag #0" = 10
    "Gagogru #0" = 10
    "Gahar #0" = 10
    "Gahgdar #0" = 10
    "Gahznar #0" = 10
    "Gard #0" = 10
    "Gargak #0" = 10
    "Garikh #0" = 10
    "Garmeg #0" = 10
    "Garnikh #0" = 10
    "Garothmuk #0" = 10
    "Garzonk #0" = 10
    "Gashdug #0" = 10
    "Gasheg #0" = 10
    "Gashna #0" = 10
    "Gashzug #0" = 10
    "Gat #0" = 10
    "Gaturn #0" = 10
    "Gezdak #0" = 10
    "Gezorz #0" = 10
    "Ghagrub #0" = 10
    "Ghak #0" = 10
    "Ghaknag #0" = 10
    "Ghakorz #0" = 10
    "Ghamborz #0" = 10
    "Ghamokh #0" = 10
    "Ghamonk #0" = 10
    "Ghamorz #0" = 10
    "Ghamosh #0" = 10
    "Ghamron #0" = 10
    "Ghamulg #0" = 10
    "Ghash #0" = 10
    "Ghashugg #0" = 10
    "Ghashur #0" = 10
    "Ghatrugh #0" = 10
    "Ghaturn #0" = 10
    "Ghaz #0" = 10
    "Ghobargh #0" = 10
    "Ghogurz #0" = 10
    "Ghola #0" = 10
    "Ghoragdush #0" = 10
    "Ghorbash #0" = 10
    "Ghorlorz #0" = 10
    "Ghorn #0" = 10
    "Ghornag #0" = 10
    "Ghornugag #0" = 10
    "Ghorub #0" = 10
    "Ghrategg #0" = 10
    "Ghromrash #0" = 10
    "Ghrubugbash #0" = 10
    "Ghrum #0" = 10
    "Ghunzul #0" = 10
    "Gladba #0" = 10
    "Glag #0" = 10
    "Glagbor #0" = 10
    "Glamalg #0" = 10
    "Glarg #0" = 10
    "Glaz #0" = 10
    "Glazgor #0" = 10
    "Glazulg #0" = 10
    "Glegokh #0" = 10
    "Gloorag #0" = 10
    "Gloorot #0" = 10
    "Gloorz #0" = 10
    "Glorgzorgo #0" = 10
    "Gloth #0" = 10
    "Glothozug #0" = 10
    "Glothun #0" = 10
    "Glud #0" = 10
    "Glundeg #0" = 10
    "Glunrum #0" = 10
    "Glunurgakh #0" = 10
    "Glurdag #0" = 10
    "Glurnt #0" = 10
    "Glush #0" = 10
    "Glushonkh #0" = 10
    "Gluthob #0" = 10
    "Gluthush #0" = 10
    "Gobur #0" = 10
    "Goburbak #0" = 10
    "Godrun #0" = 10
    "Gogaz #0" = 10
    "Gogbag #0" = 10
    "Gogrikh #0" = 10
    "Gogron #0" = 10
    "Goh #0" = 10
    "Gohazgu #0" = 10
    "Gohorg #0" = 10
    "Golbag #0" = 10
    "Golg #0" = 10
    "Goorgul #0" = 10
    "Goragol #0" = 10
    "Gorak #0" = 10
    "Goramalg #0" = 10
    "Gorbakh #0" = 10
    "Gorblad #0" = 10
    "Gorbu #0" = 10
    "Gordag #0" = 10
    "Gorgath #0" = 10
    "Gorgo #0" = 10
    "Gorgrolg #0" = 10
    "Gorlar #0" = 10
    "Gorotho #0" = 10
    "Gorrath #0" = 10
    "Gortwog #0" = 10
    "Goruz #0" = 10
    "Gorzesh #0" = 10
    "Gothag #0" = 10
    "Gothurg #0" = 10
    "Gozarth #0" = 10
    "Graalug #0" = 10
    "Graguz #0" = 10
    "Graklak #0" = 10
    "Gralturg #0" = 10
    "Graman #0" = 10
    "Grashbag #0" = 10
    "Grashegg #0" = 10
    "Grashub #0" = 10
    "Grat #0" = 10
    "Gravik #0" = 10
    "Grazhwu #0" = 10
    "Grezgor #0" = 10
    "Grishduf #0" = 10
    "Grodagur #0" = 10
    "Grodoguz #0" = 10
    "Grog #0" = 10
    "Grogmar #0" = 10
    "Gromazgu #0" = 10
    "Grommok #0" = 10
    "Gronov #0" = 10
    "Grookh #0" = 10
    "Grubdosh #0" = 10
    "Grudogub #0" = 10
    "Grugnur #0" = 10
    "Grulbash #0" = 10
    "Gruldum #0" = 10
    "Gruloq #0" = 10
    "Gruluk #0" = 10
    "Grulzul #0" = 10
    "Grumth #0" = 10
    "Grundu #0" = 10
    "Grunyun #0" = 10
    "Grushbub #0" = 10
    "Grushnag #0" = 10
    "Gruudus #0" = 10
    "Gruzdash #0" = 10
    "Gruzgob #0" = 10
    "Gruznak #0" = 10
    "Guarg #0" = 10
    "Gul #0" = 10
    "Gulargh #0" = 10
    "Gularzob #0" = 10
    "Gulburz #0" = 10
    "Gulug #0" = 10
    "Gulzog #0" = 10
    "Gunagud #0" = 10
    "Gunda #0" = 10
    "Gunran #0" = 10
    "Gurag #0" = 10
    "Gurak #0" = 10
    "Gurg #0" = 10
    "Gurgozod #0" = 10
    "Gurlak #0" = 10
    "Guruzug #0" = 10
    "Gushagub #0" = 10
    "Gushorg #0" = 10
    "Guzg #0" = 10
    "Gwilherm #0" = 10
    "Hagard #0" = 10
    "Hanz #0" = 10
    "Hazbur #0" = 10
    "Horak #0" = 10
    "Hothmuk #0" = 10
    "Hruz #0" = 10
    "Ilthag #0" = 10
    "Inazzur #0" = 10
    "Kadrun #0" = 10
    "Kargnuth #0" = 10
    "Kazok #0" = 10
    "Kelrog #0" = 10
    "Kentosh #0" = 10
    "Khadba #0" = 10
    "Khagra #0" = 10
    "Khal #0" = 10
    "Khamagash #0" = 10
    "Kharag #0" = 10
    "Kharg #0" = 10
    "Khargol #0" = 10
    "Kharsh #0" = 10
    "Kharsthun #0" = 10
    "Khartag #0" = 10
    "Khoruzoth #0" = 10
    "Khralek #0" = 10
    "Kirgut #0" = 10
    "Klang #0" = 10
    "Klovag #0" = 10
    "Koffutto #0" = 10
    "Kogaz #0" = 10
    "Kradauk #0" = 10
    "Krodak #0" = 10
    "Krog #0" = 10
    "Krognak #0" = 10
    "Krogrash #0" = 10
    "Kulth #0" = 10
    "Kurd #0" = 10
    "Kurdan #0" = 10
    "Kurlash #0" = 10
    "Kurog #0" = 10
    "Kurz #0" = 10
    "Lagarg #0" = 10
    "Lagrog #0" = 10
    "Lahkgarg #0" = 10
    "Lakhalg #0" = 10
    "Lakhdosh #0" = 10
    "Larak #0" = 10
    "Largakh #0" = 10
    "Larhoth #0" = 10
    "Larob #0" = 10
    "Lashbag #0" = 10
    "Latumph #0" = 10
    "Laurig #0" = 10
    "Lazgel #0" = 10
    "Lob #0" = 10
    "Logbur #0" = 10
    "Logogru #0" = 10
    "Lorbash #0" = 10
    "Lorbumol #0" = 10
    "Lorzub #0" = 10
    "Lothdush #0" = 10
    "Lothgud #0" = 10
    "Lozotusk #0" = 10
    "Lozruth #0" = 10
    "Lozwug #0" = 10
    "Lug #0" = 10
    "Lugbagg #0" = 10
    "Lugbur #0" = 10
    "Lugdakh #0" = 10
    "Lugdugul #0" = 10
    "Lugdum #0" = 10
    "Lugnikh #0" = 10
    "Lugolg #0" = 10
    "Lugrots #0" = 10
    "Lugrub #0" = 10
    "Lugrun #0" = 10
    "Lugulg #0" = 10
    "Lugzod #0" = 10
    "Lum #0" = 10
    "Lumdum #0" = 10
    "Lumgol #0" = 10
    "Lungruk #0" = 10
    "Lurash #0" = 10
    "Lurbozog #0" = 10
    "Lurbuk #0" = 10
    "Lurg #0" = 10
    "Lurgonash #0" = 10
    "Lurog #0" = 10
    "Luronk #0" = 10
    "Luz #0" = 10
    "Luzmash #0" = 10
    "Maaga #0" = 10
    "Mag #0" = 10
    "Magra #0" = 10
    "Magrol #0" = 10
    "Magub #0" = 10
    "Magunh #0" = 10
    "Mahk #0" = 10
    "Makhel #0" = 10
    "Makhoguz #0" = 10
    "Makhug #0" = 10
    "Maknok #0" = 10
    "Makor #0" = 10
    "Malkus #0" = 10
    "Margog #0" = 10
    "Marzul #0" = 10
    "Mash #0" = 10
    "Matuk #0" = 10
    "Maugash #0" = 10
    "Mauhoth #0" = 10
    "Mauhul #0" = 10
    "Mauhulakh #0" = 10
    "Mazabakh #0" = 10
    "Mazgro #0" = 10
    "Mazogug #0" = 10
    "Mazorn #0" = 10
    "Megorz #0" = 10
    "Mekag #0" = 10
    "Modig #0" = 10
    "Mog #0" = 10
    "Mogazgur #0" = 10
    "Moghakh #0" = 10
    "Mogrub #0" = 10
    "Mogrul #0" = 10
    "Mokhrul #0" = 10
    "Mokhul #0" = 10
    "Mol #0" = 10
    "Molg #0" = 10
    "Monru #0" = 10
    "Morbash #0" = 10
    "Morbrogug #0" = 10
    "Mordrog #0" = 10
    "Mordugul #0" = 10
    "Mordularg #0" = 10
    "Morg #0" = 10
    "Morgaz #0" = 10
    "Morgbrath #0" = 10
    "Morlak #0" = 10
    "Morothmash #0" = 10
    "Morotub #0" = 10
    "Mort #0" = 10
    "Moth #0" = 10
    "Mothozog #0" = 10
    "Muduk #0" = 10
    "Mudush #0" = 10
    "Mug #0" = 10
    "Mugdul #0" = 10
    "Muglugd #0" = 10
    "Mugrub #0" = 10
    "Muhaimin #0" = 10
    "Muk #0" = 10
    "Mul #0" = 10
    "Mulatub #0" = 10
    "Mulgargh #0" = 10
    "Mulgu #0" = 10
    "Mulur #0" = 10
    "Mulush #0" = 10
    "Mulzalt #0" = 10
    "Mungro #0" = 10
    "Murag #0" = 10
    "Murdodosh #0" = 10
    "Murgonak #0" = 10
    "Murgoz #0" = 10
    "Murgrud #0" = 10
    "Murkh #0" = 10
    "Murkub #0" = 10
    "Murlog #0" = 10
    "Murukh #0" = 10
    "Murzog #0" = 10
    "Murzol #0" = 10
    "Muzb #0" = 10
    "Muzbar #0" = 10
    "Muzdrulz #0" = 10
    "Muzgalg #0" = 10
    "Muzgash #0" = 10
    "Muzgonk #0" = 10
    "Muzgu #0" = 10
    "Muzogu #0" = 10
    "Nabshuq #0" = 10
    "Nag #0" = 10
    "Nagoth #0" = 10
    "Nagrub #0" = 10
    "Nagrul #0" = 10
    "Nahzgra #0" = 10
    "Nahzush #0" = 10
    "Nakhul #0" = 10
    "Namoroth #0" = 10
    "Nar #0" = 10
    "Narazz #0" = 10
    "Nargbagorn #0" = 10
    "Narhag #0" = 10
    "Narkhagikh #0" = 10
    "Narkhozikh #0" = 10
    "Narkhukulg #0" = 10
    "Narkularz #0" = 10
    "Nash #0" = 10
    "Nashruth #0" = 10
    "Nenesh #0" = 10
    "Norgol #0" = 10
    "Nugok #0" = 10
    "Nugwugg #0" = 10
    "Nunkuk #0" = 10
    "Obdeg #0" = 10
    "Obgol #0" = 10
    "Obgurob #0" = 10
    "Obrash #0" = 10
    "Ofglog #0" = 10
    "Oglub #0" = 10
    "Ogmash #0" = 10
    "Ogodosh #0" = 10
    "Ogog #0" = 10
    "Ogol #0" = 10
    "Ogorosh #0" = 10
    "Ogozod #0" = 10
    "Ogruk #0" = 10
    "Ogrul #0" = 10
    "Ogrumbu #0" = 10
    "Ogularz #0" = 10
    "Ogumalg #0" = 10
    "Ogzar #0" = 10
    "Ogzor #0" = 10
    "Okrat #0" = 10
    "Olfim #0" = 10
    "Olfin #0" = 10
    "Olfrig #0" = 10
    "Olgol #0" = 10
    "Olpac #0" = 10
    "Olugush #0" = 10
    "Olumba #0" = 10
    "Olur #0" = 10
    "Ontogu #0" = 10
    "Oodeg #0" = 10
    "Oodegu #0" = 10
    "Oogron #0" = 10
    "Oorg #0" = 10
    "Oorgurn #0" = 10
    "Oorlug #0" = 10
    "Oosh #0" = 10
    "Orakh #0" = 10
    "Ordooth #0" = 10
    "Orgak #0" = 10
    "Orgat #0" = 10
    "Orgdragog #0" = 10
    "Orgdugrash #0" = 10
    "Orgotash #0" = 10
    "Orgush #0" = 10
    "Orntosh #0" = 10
    "Orok #0" = 10
    "Orzbara #0" = 10
    "Orzuk #0" = 10
    "Osgrikh #0" = 10
    "Osgulug #0" = 10
    "Othbug #0" = 10
    "Othigu #0" = 10
    "Othogor #0" = 10
    "Othohoth #0" = 10
    "Otholug #0" = 10
    "Othukul #0" = 10
    "Othulg #0" = 10
    "Othzog #0" = 10
    "Ozor #0" = 10
    "Pergol #0" = 10
    "Putor #0" = 10
    "Rablarz #0" = 10
    "Ragbul #0" = 10
    "Ragbur #0" = 10
    "Ragnast #0" = 10
    "Ramash #0" = 10
    "Ramazbur #0" = 10
    "Ramorgol #0" = 10
    "Ramosh #0" = 10
    "Razgor #0" = 10
    "Razgugul #0" = 10
    "Razgurug #0" = 10
    "Rhosh #0" = 10
    "Rogbum #0" = 10
    "Rogdul #0" = 10
    "Rognar #0" = 10
    "Rogrug #0" = 10
    "Rogurog #0" = 10
    "Roguzog #0" = 10
    "Rokaug #0" = 10
    "Rokut #0" = 10
    "Roog #0" = 10
    "Rooghub #0" = 10
    "Rooglag #0" = 10
    "Rorburz #0" = 10
    "Rozag #0" = 10
    "Rugdrulz #0" = 10
    "Rugdugbash #0" = 10
    "Rugdumph #0" = 10
    "Rugmeg #0" = 10
    "Ruzgrol #0" = 10
    "Sgagul #0" = 10
    "Sgolag #0" = 10
    "Shab #0" = 10
    "Shagol #0" = 10
    "Shagrod #0" = 10
    "Shagrol #0" = 10
    "Shakh #0" = 10
    "Shakharg #0" = 10
    "Shakhighu #0" = 10
    "Shamagug #0" = 10
    "Shamar #0" = 10
    "Shamlakh #0" = 10
    "Shamob #0" = 10
    "Shargam #0" = 10
    "Shargarkh #0" = 10
    "Shargunh #0" = 10
    "Sharkagub #0" = 10
    "Sharkub #0" = 10
    "Sharkuzog #0" = 10
    "Sharnag #0" = 10
    "Shat #0" = 10
    "Shazgob #0" = 10
    "Shobob #0" = 10
    "Shogarz #0" = 10
    "Shogorn #0" = 10
    "Shugral #0" = 10
    "Shukul #0" = 10
    "Shulong #0" = 10
    "Shulthog #0" = 10
    "Shum #0" = 10
    "Shura #0" = 10
    "Shurkol #0" = 10
    "Shurkul #0" = 10
    "Shurrog #0" = 10
    "Shuzug #0" = 10
    "Skagurn #0" = 10
    "Skagwar #0" = 10
    "Skalgunh #0" = 10
    "Skalguth #0" = 10
    "Skarath #0" = 10
    "Skordo #0" = 10
    "Skorgat #0" = 10
    "Skulzak #0" = 10
    "Slagwug #0" = 10
    "Slayag #0" = 10
    "Slegbash #0" = 10
    "Smagbogoth #0" = 10
    "Smagg #0" = 10
    "Smauk #0" = 10
    "Snabazkur #0" = 10
    "Snagbash #0" = 10
    "Snagdurl #0" = 10
    "Snagg #0" = 10
    "Snagh #0" = 10
    "Snaglak #0" = 10
    "Snakh #0" = 10
    "Snakha #0" = 10
    "Snakzut #0" = 10
    "Snalikh #0" = 10
    "Snarbugag #0" = 10
    "Snargorg #0" = 10
    "Snat #0" = 10
    "Snazumph #0" = 10
    "Sneg #0" = 10
    "Snegbug #0" = 10
    "Snegburgak #0" = 10
    "Snegh #0" = 10
    "Sneghar #0" = 10
    "Snikhbat #0" = 10
    "Snoog #0" = 10
    "Snoorg #0" = 10
    "Snugar #0" = 10
    "Snugok #0" = 10
    "Snukh #0" = 10
    "Snushbat #0" = 10
    "Sogh #0" = 10
    "Spagel #0" = 10
    "Storgh #0" = 10
    "Stugbrulz #0" = 10
    "Stugbulukh #0" = 10
    "Szugburg #0" = 10
    "Szugogroth #0" = 10
    "Targak #0" = 10
    "Targoth #0" = 10
    "Tazgol #0" = 10
    "Tazgul #0" = 10
    "Thagam #0" = 10
    "Thagbruth #0" = 10
    "Thagbush #0" = 10
    "Thakaz #0" = 10
    "Thakh #0" = 10
    "Thakush #0" = 10
    "Tharag #0" = 10
    "Tharkul #0" = 10
    "Thaz #0" = 10
    "Thazeg #0" = 10
    "Thaznog #0" = 10
    "Thegur #0" = 10
    "Thereg #0" = 10
    "Tholog #0" = 10
    "Thoogh #0" = 10
    "Thorkh #0" = 10
    "Thorzh #0" = 10
    "Thorzhul #0" = 10
    "Thrag #0" = 10
    "Thragdosh #0" = 10
    "Thragosh #0" = 10
    "Threg #0" = 10
    "Thrug #0" = 10
    "Thrugb #0" = 10
    "Thrunikh #0" = 10
    "Thukbug #0" = 10
    "Thungdosh #0" = 10
    "Todrak #0" = 10
    "Togbrig #0" = 10
    "Tograz #0" = 10
    "Torg #0" = 10
    "Torug #0" = 10
    "Tugam #0" = 10
    "Tugawuz #0" = 10
    "Tumuthag #0" = 10
    "Tungthu #0" = 10
    "Ufthag #0" = 10
    "Ugdumph #0" = 10
    "Ugdush #0" = 10
    "Uggnath #0" = 10
    "Ughash #0" = 10
    "Ugorz #0" = 10
    "Ugruntuk #0" = 10
    "Uguntig #0" = 10
    "Ugurz #0" = 10
    "Ulag #0" = 10
    "Ulagash #0" = 10
    "Ulagug #0" = 10
    "Ulam #0" = 10
    "Ulang #0" = 10
    "Ulgdagorn #0" = 10
    "Ulghesh #0" = 10
    "Ulmamug #0" = 10
    "Ulmug #0" = 10
    "Ulozikh #0" = 10
    "Umug #0" = 10
    "Umurn #0" = 10
    "Undrigug #0" = 10
    "Undugar #0" = 10
    "Ungruk #0" = 10
    "Unrahg #0" = 10
    "Unthrikh #0" = 10
    "Urag #0" = 10
    "Uragor #0" = 10
    "Urak #0" = 10
    "Uram #0" = 10
    "Urbul #0" = 10
    "Urdbug #0" = 10
    "Urgdosh #0" = 10
    "Urim #0" = 10
    "Urok #0" = 10
    "Urul #0" = 10
    "Urzog #0" = 10
    "Ushamph #0" = 10
    "Ushang #0" = 10
    "Ushat #0" = 10
    "Ushnar #0" = 10
    "Usn #0" = 10
    "Usnagikh #0" = 10
    "Uugus #0" = 10
    "Uulgarg #0" = 10
    "Uuth #0" = 10
    "Uznom #0" = 10
    "Uzul #0" = 10
    "Vargos #0" = 10
    "Vulmon #0" = 10
    "Vundrum #0" = 10
    "Vunp #0" = 10
    "Waghuth #0" = 10
    "Wardush #0" = 10
    "Wort #0" = 10
    "Wuzgu #0" = 10
    "Yadba #0" = 10
    "Yagak #0" = 10
    "Yagarg #0" = 10
    "Yagorkh #0" = 10
    "Yagramak #0" = 10
    "Yak #0" = 10
    "Yakegg #0" = 10
    "Yam #0" = 10
    "Yamarz #0" = 10
    "Yambagorn #0" = 10
    "Yambul #0" = 10
    "Yamukuz #0" = 10
    "Yar #0" = 10
    "Yargob #0" = 10
    "Yargol #0" = 10
    "Yargonk #0" = 10
    "Yarnabakh #0" = 10
    "Yarnag #0" = 10
    "Yarulg #0" = 10
    "Yashnarz #0" = 10
    "Yat #0" = 10
    "Yatog #0" = 10
    "Yatur #0" = 10
    "Yggnast #0" = 10
    "Yggoz #0" = 10
    "Yggruk #0" = 10
    "Yggurz #0" = 10
    "Yozth #0" = 10
    "Yzzgol #0" = 10
    "Zagh #0" = 10
    "Zaghurbak #0" = 10
    "Zagrakh #0" = 10
    "Zagrugh #0" = 10
    "Zbulg #0" = 10
    "Zegol #0" = 10
    "Zgog #0" = 10
    "Zhagush #0" = 10
    "Zhasim #0" = 10
    "Zhosh #0" = 10
    "Zilbash #0" = 10
    "Zogbag #0" = 10
    "Zosh #0" = 10
    "Zugnor #0" = 10
    "Zulbash #0" = 10
    "Zulbek #0" = 10
    "Zulgozu #0" = 10
    "Zulgroth #0" = 10
    "Zulgukh #0" = 10
    "Zulohoth #0" = 10
    "Zumog #0" = 10
    "Zungarg #0" = 10
    "Zunlog #0" = 10

    "Magarakh #0" = -10
    "Ghamarguk #0" = -10
    "Glurala #0" = -10
    "Gorsha #0" = -10
    "Lobamob #0" = -10
    "Moramat #0" = -10
    "Ronag #0" = -10
    "Sgugh #0" = -10
    "Stulga #0" = -10
    "Agrob #0" = -10
    "Badbog #0" = -10
    "Bashuk #0" = -10
    "Bogdub #0" = -10
    "Bugdurash #0" = -10
    "Bula #0" = -10
    "Bulak #0" = -10
    "Bulfim #0" = -10
    "Bum #0" = -10
    "Burub #0" = -10
    "Burzob #0" = -10
    "Dura #0" = -10
    "Durgat #0" = -10
    "Durz #0" = -10
    "Gashnakh #0" = -10
    "Ghob #0" = -10
    "Glasha #0" = -10
    "Glob #0" = -10
    "Gluronk #0" = -10
    "Gonk #0" = -10
    "Grat #0" = -10
    "Grazob #0" = -10
    "Gulfim #0" = -10
    "Kharzug #0" = -10
    "Lagakh #0" = -10
    "Lambug #0" = -10
    "Lazgar #0" = -10
    "Mogak #0" = -10
    "Morn #0" = -10
    "Murob #0" = -10
    "Murzush #0" = -10
    "Nargol #0" = -10
    "Orbul #0" = -10
    "Ragash #0" = -10
    "Rolfish #0" = -10
    "Rulfim #0" = -10
    "Shadbak #0" = -10
    "Shagar #0" = -10
    "Shagdub #0" = -10
    "Sharn #0" = -10
    "Sharog #0" = -10
    "Shelur #0" = -10
    "Sloomalah #0" = -10
    "Uloth #0" = -10
    "Ulumpha #0" = -10
    "Urzoth #0" = -10
    "Urzul #0" = -10
    "Ushug #0" = -10
    "Yazgash #0" = -10
    "Batul #0" = -10
    "Borba #0" = -10
    "Bumph #0" = -10
    "Homraz #0" = -10
    "Mazoga #0" = -10
    "Mog #0" = -10
    "Mor #0" = -10
    "Oghash #0" = -10
    "Orag #0" = -10
    "Rogbut #0" = -10
    "Rogmesh #0" = -10
    "Snak #0" = -10
    "Ugak #0" = -10
    "Umar #0" = -10
    "Umog #0" = -10
    "Arob #0" = -10
    "Atub #0" = -10
    "Bagrak #0" = -10
    "Batum #0" = -10
    "Bolar #0" = -10
    "Bor #0" = -10
    "Borgakh #0" = -10
    "Dulug #0" = -10
    "Garakh #0" = -10
    "Ghak #0" = -10
    "Gharol #0" = -10
    "Ghorza #0" = -10
    "Gul #0" = -10
    "Lash #0" = -10
    "Lushak #0" = -10
    "Mogdurz #0" = -10
    "Murbul #0" = -10
    "Sharamph #0" = -10
    "Shel #0" = -10
    "Shuftharz #0" = -10
    "Ugor #0" = -10
    "Urog #0" = -10
    "Urzoga #0" = -10
    "Yag #0" = -10
    "Yatul #0" = -10
    "Abimfash #0" = -10
    "Adkul #0" = -10
    "Adlugbuk #0" = -10
    "Agazu #0" = -10
    "Agdesh #0" = -10
    "Aglash #0" = -10
    "Agli #0" = -10
    "Agral #0" = -10
    "Agrash #0" = -10
    "Agrulla #0" = -10
    "Agzurz #0" = -10
    "Akarah #0" = -10
    "Akash #0" = -10
    "Akgruhl #0" = -10
    "Akkra #0" = -10
    "Aklash #0" = -10
    "Akur #0" = -10
    "Alga #0" = -10
    "Algrakh #0" = -10
    "Alzula #0" = -10
    "Anbarah #0" = -10
    "Arakh #0" = -10
    "Argurgol #0" = -10
    "Arzakh #0" = -10
    "Arzorag #0" = -10
    "Ashaka #0" = -10
    "Ashgara #0" = -10
    "Ashgel #0" = -10
    "Ashrashag #0" = -10
    "Atarga #0" = -10
    "Atoga #0" = -10
    "Atorag #0" = -10
    "Atugol #0" = -10
    "Atzurbesh #0" = -10
    "Aza #0" = -10
    "Azabesh #0" = -10
    "Azadhai #0" = -10
    "Azga #0" = -10
    "Azhnakha #0" = -10
    "Azhnolga #0" = -10
    "Azhnura #0" = -10
    "Azilkh #0" = -10
    "Azlakha #0" = -10
    "Azulga #0" = -10
    "Baag #0" = -10
    "Baagug #0" = -10
    "Badush #0" = -10
    "Bafthaka #0" = -10
    "Bagda #0" = -10
    "Bagrugbesh #0" = -10
    "Bagul #0" = -10
    "Bagula #0" = -10
    "Barza #0" = -10
    "Barazal #0" = -10
    "Bashgara #0" = -10
    "Bashotha #0" = -10
    "Batara #0" = -10
    "Batasha #0" = -10
    "Batorabesh #0" = -10
    "Bazbava #0" = -10
    "Bazgabesh #0" = -10
    "Bazgara #0" = -10
    "Bhagruan #0" = -10
    "Bizra #0" = -10
    "Bluga #0" = -10
    "Bolaag #0" = -10
    "Bolash #0" = -10
    "Bolgar #0" = -10
    "Bolugbeka #0" = -10
    "Borbgur #0" = -10
    "Borbuga #0" = -10
    "Borgburakh #0" = -10
    "Borgdorga #0" = -10
    "Borghak #0" = -10
    "Borgrara #0" = -10
    "Boroth #0" = -10
    "Borzog #0" = -10
    "Brekgun #0" = -10
    "Bugbekh #0" = -10
    "Bugbesh #0" = -10
    "Bugha #0" = -10
    "Bulag #0" = -10
    "Bularkh #0" = -10
    "Bulfor #0" = -10
    "Bumava #0" = -10
    "Bumbuk #0" = -10
    "Bumzuna #0" = -10
    "Dagarha #0" = -10
    "Darezha #0" = -10
    "Drienne #0" = -10
    "Droka #0" = -10
    "Druga #0" = -10
    "Dufbash #0" = -10
    "Dulasha #0" = -10
    "Dulfra #0" = -10
    "Dulfraga #0" = -10
    "Dulkhi #0" = -10
    "Dulroi #0" = -10
    "Dulzugha #0" = -10
    "Dumoga #0" = -10
    "Dumuguk #0" = -10
    "Dumula #0" = -10
    "Dumurzog #0" = -10
    "Duragma #0" = -10
    "Durash #0" = -10
    "Durga #0" = -10
    "Durgura #0" = -10
    "Durhaz #0" = -10
    "Durogbesh #0" = -10
    "Dushug #0" = -10
    "Erisa #0" = -10
    "Fnagdesh #0" = -10
    "Gahgra #0" = -10
    "Gargahz #0" = -10
    "Gargum #0" = -10
    "Garl #0" = -10
    "Garlor #0" = -10
    "Garlub #0" = -10
    "Garotusha #0" = -10
    "Ghamzeh #0" = -10
    "Gharakul #0" = -10
    "Gharn #0" = -10
    "Ghat #0" = -10
    "Gheshol #0" = -10
    "Ghobub #0" = -10
    "Ghogogg #0" = -10
    "Ghoral #0" = -10
    "Ghorbog #0" = -10
    "Ghorzolga #0" = -10
    "Ghratutha #0" = -10
    "Glagag #0" = -10
    "Glagosh #0" = -10
    "Glarikha #0" = -10
    "Glash #0" = -10
    "Glath #0" = -10
    "Glatha #0" = -10
    "Glathuhl #0" = -10
    "Glathut #0" = -10
    "Glega #0" = -10
    "Glesh #0" = -10
    "Glolbikla #0" = -10
    "Glorgel #0" = -10
    "Glothum #0" = -10
    "Glurbasha #0" = -10
    "Glurduk #0" = -10
    "Glurmghal #0" = -10
    "Glurzul #0" = -10
    "Gluth #0" = -10
    "Gluthesh #0" = -10
    "Gluthogna #0" = -10
    "Gnush #0" = -10
    "Gogul #0" = -10
    "Golakha #0" = -10
    "Golga #0" = -10
    "Golgakul #0" = -10
    "Gonbubal #0" = -10
    "Gonbush #0" = -10
    "Gondubaga #0" = -10
    "Goorga #0" = -10
    "Grabash #0" = -10
    "Graghesh #0" = -10
    "Grahla #0" = -10
    "Grahuar #0" = -10
    "Grakguhl #0" = -10
    "Graklha #0" = -10
    "Grash #0" = -10
    "Grashla #0" = -10
    "Grashorag #0" = -10
    "Grashug #0" = -10
    "Gratorga #0" = -10
    "Grazda #0" = -10
    "Grazdar #0" = -10
    "Grazubesha #0" = -10
    "Grenbet #0" = -10
    "Groddi #0" = -10
    "Grubalash #0" = -10
    "Grubathag #0" = -10
    "Grubazh #0" = -10
    "Grubesha #0" = -10
    "Grugleg #0" = -10
    "Grularz #0" = -10
    "Grumgha #0" = -10
    "Grundag #0" = -10
    "Gruzbura #0" = -10
    "Guazh #0" = -10
    "Gula #0" = -10
    "Gulara #0" = -10
    "Gulgula #0" = -10
    "Gulorz #0" = -10
    "Gulugash #0" = -10
    "Gulza #0" = -10
    "Gulzurgol #0" = -10
    "Gunzga #0" = -10
    "Gurhul #0" = -10
    "Gurikha #0" = -10
    "Gursthuk #0" = -10
    "Gurum #0" = -10
    "Guth #0" = -10
    "Guurzash #0" = -10
    "Guuth #0" = -10
    "Guz #0" = -10
    "Guzash #0" = -10
    "Guzmara #0" = -10
    "Haghai #0" = -10
    "Harfza #0" = -10
    "Harza #0" = -10
    "Hurabesh #0" = -10
    "Ilg #0" = -10
    "Irsugha #0" = -10
    "Jorthan #0" = -10
    "Junlock #0" = -10
    "Kashurthag #0" = -10
    "Kelagi #0" = -10
    "Khagral #0" = -10
    "Khagruk #0" = -10
    "Khaguga #0" = -10
    "Khaguur #0" = -10
    "Kharekh #0" = -10
    "Kharza #0" = -10
    "Kharzolga #0" = -10
    "Khazrakh #0" = -10
    "Kora #0" = -10
    "Korgha #0" = -10
    "Krithgra #0" = -10
    "Kroma #0" = -10
    "Kruaga #0" = -10
    "Kuhlon #0" = -10
    "Kurz #0" = -10
    "Lagabul #0" = -10
    "Laganakh #0" = -10
    "Lagbaal #0" = -10
    "Lagbuga #0" = -10
    "Lagdabash #0" = -10
    "Lagra #0" = -10
    "Lagruda #0" = -10
    "Lahzga #0" = -10
    "Lakhazga #0" = -10
    "Lamazh #0" = -10
    "Lambur #0" = -10
    "Lamburak #0" = -10
    "Lamugbek #0" = -10
    "Lamur #0" = -10
    "Lamzakha #0" = -10
    "Larzgug #0" = -10
    "Lashakh #0" = -10
    "Lashbesh #0" = -10
    "Lashbura #0" = -10
    "Lashdura #0" = -10
    "Lashgikh #0" = -10
    "Lashgurgol #0" = -10
    "Lashza #0" = -10
    "Lazdutha #0" = -10
    "Lazghal #0" = -10
    "Lazgara #0" = -10
    "Legdul #0" = -10
    "Lhazbura #0" = -10
    "Lig #0" = -10
    "Logdotha #0" = -10
    "Loglorag #0" = -10
    "Logru #0" = -10
    "Lokra #0" = -10
    "Lorak #0" = -10
    "Lorku #0" = -10
    "Lorogdu #0" = -10
    "Luga #0" = -10
    "Lugharz #0" = -10
    "Luglorash #0" = -10
    "Lugrugha #0" = -10
    "Lugurzog #0" = -10
    "Lulgra #0" = -10
    "Lurgush #0" = -10
    "Luruzesh #0" = -10
    "Lurz #0" = -10
    "Mabgikha #0" = -10
    "Mabgrolabesh #0" = -10
    "Mabgrorga #0" = -10
    "Mabgrubaga #0" = -10
    "Mabgruhl #0" = -10
    "Magula #0" = -10
    "Maraka #0" = -10
    "Marutha #0" = -10
    "Maugruhl #0" = -10
    "Mazgroth #0" = -10
    "Mazrah #0" = -10
    "Mazuka #0" = -10
    "Megruk #0" = -10
    "Mogdal #0" = -10
    "Moglurkgul #0" = -10
    "Mograg #0" = -10
    "Mogul #0" = -10
    "Mordra #0" = -10
    "Morga #0" = -10
    "Morndag #0" = -10
    "Mornamph #0" = -10
    "Morndolag #0" = -10
    "Morushna #0" = -10
    "Mozgosh #0" = -10
    "Mugaga #0" = -10
    "Mugumurn #0" = -10
    "Muguur #0" = -10
    "Mula #0" = -10
    "Mulgabesh #0" = -10
    "Mulgrul #0" = -10
    "Multa #0" = -10
    "Mulzah #0" = -10
    "Mulzara #0" = -10
    "Murboga #0" = -10
    "Murotha #0" = -10
    "Murzgut #0" = -10
    "Muzgraga #0" = -10
    "Naroga #0" = -10
    "Narol #0" = -10
    "Narzbash #0" = -10
    "Narzdush #0" = -10
    "Nazdura #0" = -10
    "Nazhag #0" = -10
    "Nazhataga #0" = -10
    "Nazubesh #0" = -10
    "Noguza #0" = -10
    "Nulra #0" = -10
    "Nunchak #0" = -10
    "Nuza #0" = -10
    "Ogzaz #0" = -10
    "Oorga #0" = -10
    "Oorza #0" = -10
    "Oorzuka #0" = -10
    "Orbuhl #0" = -10
    "Orcolag #0" = -10
    "Ordasha #0" = -10
    "Ordatha #0" = -10
    "Orgotha #0" = -10
    "Orlozag #0" = -10
    "Orlugash #0" = -10
    "Orluguk #0" = -10
    "Orthuna #0" = -10
    "Orutha #0" = -10
    "Orzbara #0" = -10
    "Orzdara #0" = -10
    "Orzorga #0" = -10
    "Oshgana #0" = -10
    "Othbekha #0" = -10
    "Othgozag #0" = -10
    "Othikha #0" = -10
    "Othrag #0" = -10
    "Othrika #0" = -10
    "Ozrog #0" = -10
    "Pruzag #0" = -10
    "Pruzga #0" = -10
    "Ragbarlag #0" = -10
    "Ragushna #0" = -10
    "Rakhaz #0" = -10
    "Rakuga #0" = -10
    "Ranarsh #0" = -10
    "Razasha #0" = -10
    "Razbela #0" = -10
    "Rogag #0" = -10
    "Rogba #0" = -10
    "Rogbual #0" = -10
    "Rogoga #0" = -10
    "Rogzesh #0" = -10
    "Roku #0" = -10
    "Rolbutha #0" = -10
    "Rolfikha #0" = -10
    "Rolfzal #0" = -10
    "Rolga #0" = -10
    "Rulbagab #0" = -10
    "Rulbza #0" = -10
    "Ruldor #0" = -10
    "Ruldzusha #0" = -10
    "Rulfala #0" = -10
    "Rulfub #0" = -10
    "Rulfuna #0" = -10
    "Rulfzub #0" = -10
    "Rulgum #0" = -10
    "Sgala #0" = -10
    "Sgrugbesh #0" = -10
    "Sgrugha #0" = -10
    "Sgrula #0" = -10
    "Shabaga #0" = -10
    "Shabeg #0" = -10
    "Shabeshga #0" = -10
    "Shabgrut #0" = -10
    "Shabon #0" = -10
    "Shagareg #0" = -10
    "Shagduka #0" = -10
    "Shagora #0" = -10
    "Shagrum #0" = -10
    "Shagrush #0" = -10
    "Shagugbeka #0" = -10
    "Shagura #0" = -10
    "Shakul #0" = -10
    "Shaldagan #0" = -10
    "Shalug #0" = -10
    "Shamuk #0" = -10
    "Shamush #0" = -10
    "Shara #0" = -10
    "Sharbarga #0" = -10
    "Sharbzur #0" = -10
    "Sharduka #0" = -10
    "Shardush #0" = -10
    "Shardzozag #0" = -10
    "Sharga #0" = -10
    "Shargalash #0" = -10
    "Shargduguk #0" = -10
    "Shargra #0" = -10
    "Sharuk #0" = -10
    "Sharushnam #0" = -10
    "Shaza #0" = -10
    "Shebakh #0" = -10
    "Shelboth #0" = -10
    "Sheluka #0" = -10
    "Shera #0" = -10
    "Shgrag #0" = -10
    "Sholg #0" = -10
    "Shubesha #0" = -10
    "Shufdal #0" = -10
    "Shufgrut #0" = -10
    "Shufthakul #0" = -10
    "Shuga #0" = -10
    "Shugzur #0" = -10
    "Shurkul #0" = -10
    "Shuzrag #0" = -10
    "Sloobdakha #0" = -10
    "Sloogolga #0" = -10
    "Sluz #0" = -10
    "Snabgrara #0" = -10
    "Snabugha #0" = -10
    "Snagara #0" = -10
    "Snaghusha #0" = -10
    "Snarataga #0" = -10
    "Snarga #0" = -10
    "Snargara #0" = -10
    "Snaruga #0" = -10
    "Snarzikha #0" = -10
    "Sneehash #0" = -10
    "Snilga #0" = -10
    "Snoogh #0" = -10
    "Snushbesh #0" = -10
    "Solgra #0" = -10
    "Stilga #0" = -10
    "Stroda #0" = -10
    "Stuga #0" = -10
    "Stughrush #0" = -10
    "Tamozag #0" = -10
    "Theg #0" = -10
    "Thegbesh #0" = -10
    "Thegshakul #0" = -10
    "Thegshalash #0" = -10
    "Theshaga #0" = -10
    "Theshgoth #0" = -10
    "Thishnaku #0" = -10
    "Thoga #0" = -10
    "Thogra #0" = -10
    "Thrugrak #0" = -10
    "Thugnekh #0" = -10
    "Thulga #0" = -10
    "Thushleg #0" = -10
    "Torghi #0" = -10
    "Tugha #0" = -10
    "Ubzigub #0" = -10
    "Udai #0" = -10
    "Ufalga #0" = -10
    "Ufgabesh #0" = -10
    "Ufgalash #0" = -10
    "Ufgaz #0" = -10
    "Ufgel #0" = -10
    "Ufgra #0" = -10
    "Uftheg #0" = -10
    "Ugarnesh #0" = -10
    "Ugduk #0" = -10
    "Ugrash #0" = -10
    "Ugrush #0" = -10
    "Uldushna #0" = -10
    "Ulg #0" = -10
    "Ulgush #0" = -10
    "Ulliceta #0" = -10
    "Ulsha #0" = -10
    "Ulu #0" = -10
    "Ulubesh #0" = -10
    "Uluga #0" = -10
    "Ulukhaz #0" = -10
    "Umbaka #0" = -10
    "Umbugbek #0" = -10
    "Umgubesh #0" = -10
    "Umutha #0" = -10
    "Umzolabesh #0" = -10
    "Undorga #0" = -10
    "Undush #0" = -10
    "Undusha #0" = -10
    "Unsulag #0" = -10
    "Uratag #0" = -10
    "Urbalash #0" = -10
    "Urbutha #0" = -10
    "Urbzag #0" = -10
    "Urdboga #0" = -10
    "Urgarlag #0" = -10
    "Urshra #0" = -10
    "Uruka #0" = -10
    "Urzula #0" = -10
    "Usha #0" = -10
    "Ushaga #0" = -10
    "Ushenat #0" = -10
    "Ushruka #0" = -10
    "Ushuta #0" = -10
    "Ushutha #0" = -10
    "Uthik #0" = -10
    "Uzka #0" = -10
    "Vosh #0" = -10
    "Vumnish #0" = -10
    "Vush #0" = -10
    "Vusha #0" = -10
    "Yagrigbesh #0" = -10
    "Yakhu #0" = -10
    "Yarlak #0" = -10
    "Yarulorz #0" = -10
    "Yashurah #0" = -10
    "Yatanakh #0" = -10
    "Yatava #0" = -10
    "Yatular #0" = -10
    "Yatzog #0" = -10
    "Yazara #0" = -10
    "Yazgruga #0" = -10
    "Yazoga #0" = -10
    "Zaag #0" = -10
    "Zagla #0" = -10
    "Zagula #0" = -10
    "Zazsha #0" = -10
    "Zelguma #0" = -10
    "Zubesha #0" = -10
    "Zugh #0" = -10
    "Zuugarz #0" = -10
    "Zuuthag #0" = -10
    "Zuuthusha #0" = -10
}

leader_names = {
    Abzag Abzrolg Abzug Agganor Aghurz Agnar Agrakh Agrobal Agronak Agstarg Aguz Ahzug Arghragdush Arghur Ashzu Atulg Aturgh Avreg Azarg Azgarub Azimbul Azogu Azrath Azuk Azulg Bagamul Bakh Balagog Balarkh Balknakh Balmeg Balorgh Baloth Balrook Balzag Bargo Bargrug Baronk Bash Bashag Bashagorn Bashnag Bat Batgrul Bazgulub Bazrag Bazur Begnar Begok Begozug Bekhwug Bhagrun Biknuk Bisquelas Blodrat Boagog Bogakh Boggeryk Bogham Bognash Bogodug Bogrum Bogzul Boldarkh Bolg Bolgrul Bologra Borab Boragrul Borbuz Borgath Borgh Borkul Bormolg Borolg Borth Borug Borz Borzighu Borzugh Both Bothamul Braadoth Brag Braghul Brog Brogdul Brokil Brokk Brugagikh Brugdush Brughamug Brugo Brulak Bugak Bugdul Bugharz Bugnerg Bugrash Bugrol Bugunh Bulg Bullig Bulozog Bulugbek Bulzog Bumbub Bumnog Buragrub Buramog Burguk Burul Burush Burz Burzgrag Burzunguk Burzura Buzog Carzog Charlvain Cognor Dagnub Dorzogg Dragom Dromash Drudun Dubok Dugakh Dugan Dugroth Dugrul Dugtosh Dugug Dugugikh Dul Dular Dulfish Dulph Dulphago Dulphumph Dulrat Duluk Duma Dumag Dumbuk Dumburz Dumolg Dur Durak Durang Durbul Durgash Durz Durzol Durzub Durzum Dushgor Dushkul Dushnamub Dushugg Fangoz Farbalg Fheg Gadba Gag Gagogru Gahar Gahgdar Gahznar Gard Gargak Garikh Garmeg Garnikh Garothmuk Garzonk Gashdug Gasheg Gashna Gashzug Gat Gaturn Gezdak Gezorz Ghagrub Ghak Ghaknag Ghakorz Ghamborz Ghamokh Ghamonk Ghamorz Ghamosh Ghamron Ghamulg Ghash Ghashugg Ghashur Ghatrugh Ghaturn Ghaz Ghobargh Ghogurz Ghola Ghoragdush Ghorbash Ghorlorz Ghorn Ghornag Ghornugag Ghorub Ghrategg Ghromrash Ghrubugbash Ghrum Ghunzul Gladba Glag Glagbor Glamalg Glarg Glaz Glazgor Glazulg Glegokh Gloorag Gloorot Gloorz Glorgzorgo Gloth Glothozug Glothun Glud Glundeg Glunrum Glunurgakh Glurdag Glurnt Glush Glushonkh Gluthob Gluthush Gobur Goburbak Godrun Gogaz Gogbag Gogrikh Gogron Goh Gohazgu Gohorg Golbag Golg Goorgul Goragol Gorak Goramalg Gorbakh Gorblad Gorbu Gordag Gorgath Gorgo Gorgrolg Gorlar Gorotho Gorrath Gortwog Goruz Gorzesh Gothag Gothurg Gozarth Graalug Graguz Graklak Gralturg Graman Grashbag Grashegg Grashub Grat Gravik Grazhwu Grezgor Grishduf Grodagur Grodoguz Grog Grogmar Gromazgu Grommok Gronov Grookh Grubdosh Grudogub Grugnur Grulbash Gruldum Gruloq Gruluk Grulzul Grumth Grundu Grunyun Grushbub Grushnag Gruudus Gruzdash Gruzgob Gruznak Guarg Gul Gulargh Gularzob Gulburz Gulug Gulzog Gunagud Gunda Gunran Gurag Gurak Gurg Gurgozod Gurlak Guruzug Gushagub Gushorg Guzg Gwilherm Hagard Hanz Hazbur Horak Hothmuk Hruz Ilthag Inazzur Kadrun Kargnuth Kazok Kelrog Kentosh Khadba Khagra Khal Khamagash Kharag Kharg Khargol Kharsh Kharsthun Khartag Khoruzoth Khralek Kirgut Klang Klovag Koffutto Kogaz Kradauk Krodak Krog Krognak Krogrash Kulth Kurd Kurdan Kurlash Kurog Kurz Lagarg Lagrog Lahkgarg Lakhalg Lakhdosh Larak Largakh Larhoth Larob Lashbag Latumph Laurig Lazgel Lob Logbur Logogru Lorbash Lorbumol Lorzub Lothdush Lothgud Lozotusk Lozruth Lozwug Lug Lugbagg Lugbur Lugdakh Lugdugul Lugdum Lugnikh Lugolg Lugrots Lugrub Lugrun Lugulg Lugzod Lum Lumdum Lumgol Lungruk Lurash Lurbozog Lurbuk Lurg Lurgonash Lurog Luronk Luz Luzmash Maaga Mag Magra Magrol Magub Magunh Mahk Makhel Makhoguz Makhug Maknok Makor Malkus Margog Marzul Mash Matuk Maugash Mauhoth Mauhul Mauhulakh Mazabakh Mazgro Mazogug Mazorn Megorz Mekag Modig Mog Mogazgur Moghakh Mogrub Mogrul Mokhrul Mokhul Mol Molg Monru Morbash Morbrogug Mordrog Mordugul Mordularg Morg Morgaz Morgbrath Morlak Morothmash Morotub Mort Moth Mothozog Muduk Mudush Mug Mugdul Muglugd Mugrub Muhaimin Muk Mul Mulatub Mulgargh Mulgu Mulur Mulush Mulzalt Mungro Murag Murdodosh Murgonak Murgoz Murgrud Murkh Murkub Murlog Murukh Murzog Murzol Muzb Muzbar Muzdrulz Muzgalg Muzgash Muzgonk Muzgu Muzogu Nabshuq Nag Nagoth Nagrub Nagrul Nahzgra Nahzush Nakhul Namoroth Nar Narazz Nargbagorn Narhag Narkhagikh Narkhozikh Narkhukulg Narkularz Nash Nashruth Nenesh Norgol Nugok Nugwugg Nunkuk Obdeg Obgol Obgurob Obrash Ofglog Oglub Ogmash Ogodosh Ogog Ogol Ogorosh Ogozod Ogruk Ogrul Ogrumbu Ogularz Ogumalg Ogzar Ogzor Okrat Olfim Olfin Olfrig Olgol Olpac Olugush Olumba Olur Ontogu Oodeg Oodegu Oogron Oorg Oorgurn Oorlug Oosh Orakh Ordooth Orgak Orgat Orgdragog Orgdugrash Orgotash Orgush Orntosh Orok Orzbara Orzuk Osgrikh Osgulug Othbug Othigu Othogor Othohoth Otholug Othukul Othulg Othzog Ozor Pergol Putor Rablarz Ragbul Ragbur Ragnast Ramash Ramazbur Ramorgol Ramosh Razgor Razgugul Razgurug Rhosh Rogbum Rogdul Rognar Rogrug Rogurog Roguzog Rokaug Rokut Roog Rooghub Rooglag Rorburz Rozag Rugdrulz Rugdugbash Rugdumph Rugmeg Ruzgrol Sgagul Sgolag Shab Shagol Shagrod Shagrol Shakh Shakharg Shakhighu Shamagug Shamar Shamlakh Shamob Shargam Shargarkh Shargunh Sharkagub Sharkub Sharkuzog Sharnag Shat Shazgob Shobob Shogarz Shogorn Shugral Shukul Shulong Shulthog Shum Shura Shurkol Shurkul Shurrog Shuzug Skagurn Skagwar Skalgunh Skalguth Skarath Skordo Skorgat Skulzak Slagwug Slayag Slegbash Smagbogoth Smagg Smauk Snabazkur Snagbash Snagdurl Snagg Snagh Snaglak Snakh Snakha Snakzut Snalikh Snarbugag Snargorg Snat Snazumph Sneg Snegbug Snegburgak Snegh Sneghar Snikhbat Snoog Snoorg Snugar Snugok Snukh Snushbat Sogh Spagel Storgh Stugbrulz Stugbulukh Szugburg Szugogroth Targak Targoth Tazgol Tazgul Thagam Thagbruth Thagbush Thakaz Thakh Thakush Tharag Tharkul Thaz Thazeg Thaznog Thegur Thereg Tholog Thoogh Thorkh Thorzh Thorzhul Thrag Thragdosh Thragosh Threg Thrug Thrugb Thrunikh Thukbug Thungdosh Todrak Togbrig Tograz Torg Torug Tugam Tugawuz Tumuthag Tungthu Ufthag Ugdumph Ugdush Uggnath Ughash Ugorz Ugruntuk Uguntig Ugurz Ulag Ulagash Ulagug Ulam Ulang Ulgdagorn Ulghesh Ulmamug Ulmug Ulozikh Umug Umurn Undrigug Undugar Ungruk Unrahg Unthrikh Urag Uragor Urak Uram Urbul Urdbug Urgdosh Urim Urok Urul Urzog Ushamph Ushang Ushat Ushnar Usn Usnagikh Uugus Uulgarg Uuth Uznom Uzul Vargos Vulmon Vundrum Vunp Waghuth Wardush Wort Wuzgu Yadba Yagak Yagarg Yagorkh Yagramak Yak Yakegg Yam Yamarz Yambagorn Yambul Yamukuz Yar Yargob Yargol Yargonk Yarnabakh Yarnag Yarulg Yashnarz Yat Yatog Yatur Yggnast Yggoz Yggruk Yggurz Yozth Yzzgol Zagh Zaghurbak Zagrakh Zagrugh Zbulg Zegol Zgog Zhagush Zhasim Zhosh Zilbash Zogbag Zosh Zugnor Zulbash Zulbek Zulgozu Zulgroth Zulgukh Zulohoth Zumog Zungarg Zunlog
}

ship_names = {
    Magarakh Ghamarguk Glurala Gorsha Lobamob Moramat Ronag Sgugh Stulga Agrob Badbog Bashuk Bogdub Bugdurash Bula Bulak Bulfim Bum Burub Burzob Dura Durgat Durz Gashnakh Ghob Glasha Glob Gluronk Gonk Grat Grazob Gulfim Kharzug Lagakh Lambug Lazgar Mogak Morn Murob Murzush Nargol Orbul Ragash Rolfish Rulfim Shadbak Shagar Shagdub Sharn Sharog Shelur Sloomalah Uloth Ulumpha Urzoth Urzul Ushug Yazgash Batul Borba Bumph Homraz Mazoga Mog Mor Oghash Orag Rogbut Rogmesh Snak Ugak Umar Umog Arob Atub Bagrak Batum Bolar Bor Borgakh Dulug Garakh Ghak Gharol Ghorza Gul Lash Lushak Mogdurz Murbul Sharamph Shel Shuftharz Ugor Urog Urzoga Yag Yatul Abimfash Adkul Adlugbuk Agazu Agdesh Aglash Agli Agral Agrash Agrulla Agzurz Akarah Akash Akgruhl Akkra Aklash Akur Alga Algrakh Alzula Anbarah Arakh Argurgol Arzakh Arzorag Ashaka Ashgara Ashgel Ashrashag Atarga Atoga Atorag Atugol Atzurbesh Aza Azabesh Azadhai Azga Azhnakha Azhnolga Azhnura Azilkh Azlakha Azulga Baag Baagug Badush Bafthaka Bagda Bagrugbesh Bagul Bagula Barza Barazal Bashgara Bashotha Batara Batasha Batorabesh Bazbava Bazgabesh Bazgara Bhagruan Bizra Bluga Bolaag Bolash Bolgar Bolugbeka Borbgur Borbuga Borgburakh Borgdorga Borghak Borgrara Boroth Borzog Brekgun Bugbekh Bugbesh Bugha Bulag Bularkh Bulfor Bumava Bumbuk Bumzuna Dagarha Darezha Drienne Droka Druga Dufbash Dulasha Dulfra Dulfraga Dulkhi Dulroi Dulzugha Dumoga Dumuguk Dumula Dumurzog Duragma Durash Durga Durgura Durhaz Durogbesh Dushug Erisa Fnagdesh Gahgra Gargahz Gargum Garl Garlor Garlub Garotusha Ghamzeh Gharakul Gharn Ghat Gheshol Ghobub Ghogogg Ghoral Ghorbog Ghorzolga Ghratutha Glagag Glagosh Glarikha Glash Glath Glatha Glathuhl Glathut Glega Glesh Glolbikla Glorgel Glothum Glurbasha Glurduk Glurmghal Glurzul Gluth Gluthesh Gluthogna Gnush Gogul Golakha Golga Golgakul Gonbubal Gonbush Gondubaga Goorga Grabash Graghesh Grahla Grahuar Grakguhl Graklha Grash Grashla Grashorag Grashug Gratorga Grazda Grazdar Grazubesha Grenbet Groddi Grubalash Grubathag Grubazh Grubesha Grugleg Grularz Grumgha Grundag Gruzbura Guazh Gula Gulara Gulgula Gulorz Gulugash Gulza Gulzurgol Gunzga Gurhul Gurikha Gursthuk Gurum Guth Guurzash Guuth Guz Guzash Guzmara Haghai Harfza Harza Hurabesh Ilg Irsugha Jorthan Junlock Kashurthag Kelagi Khagral Khagruk Khaguga Khaguur Kharekh Kharza Kharzolga Khazrakh Kora Korgha Krithgra Kroma Kruaga Kuhlon Kurz Lagabul Laganakh Lagbaal Lagbuga Lagdabash Lagra Lagruda Lahzga Lakhazga Lamazh Lambur Lamburak Lamugbek Lamur Lamzakha Larzgug Lashakh Lashbesh Lashbura Lashdura Lashgikh Lashgurgol Lashza Lazdutha Lazghal Lazgara Legdul Lhazbura Lig Logdotha Loglorag Logru Lokra Lorak Lorku Lorogdu Luga Lugharz Luglorash Lugrugha Lugurzog Lulgra Lurgush Luruzesh Lurz Mabgikha Mabgrolabesh Mabgrorga Mabgrubaga Mabgruhl Magula Maraka Marutha Maugruhl Mazgroth Mazrah Mazuka Megruk Mogdal Moglurkgul Mograg Mogul Mordra Morga Morndag Mornamph Morndolag Morushna Mozgosh Mugaga Mugumurn Muguur Mula Mulgabesh Mulgrul Multa Mulzah Mulzara Murboga Murotha Murzgut Muzgraga Naroga Narol Narzbash Narzdush Nazdura Nazhag Nazhataga Nazubesh Noguza Nulra Nunchak Nuza Ogzaz Oorga Oorza Oorzuka Orbuhl Orcolag Ordasha Ordatha Orgotha Orlozag Orlugash Orluguk Orthuna Orutha Orzbara Orzdara Orzorga Oshgana Othbekha Othgozag Othikha Othrag Othrika Ozrog Pruzag Pruzga Ragbarlag Ragushna Rakhaz Rakuga Ranarsh Razasha Razbela Rogag Rogba Rogbual Rogoga Rogzesh Roku Rolbutha Rolfikha Rolfzal Rolga Rulbagab Rulbza Ruldor Ruldzusha Rulfala Rulfub Rulfuna Rulfzub Rulgum Sgala Sgrugbesh Sgrugha Sgrula Shabaga Shabeg Shabeshga Shabgrut Shabon Shagareg Shagduka Shagora Shagrum Shagrush Shagugbeka Shagura Shakul Shaldagan Shalug Shamuk Shamush Shara Sharbarga Sharbzur Sharduka Shardush Shardzozag Sharga Shargalash Shargduguk Shargra Sharuk Sharushnam Shaza Shebakh Shelboth Sheluka Shera Shgrag Sholg Shubesha Shufdal Shufgrut Shufthakul Shuga Shugzur Shurkul Shuzrag Sloobdakha Sloogolga Sluz Snabgrara Snabugha Snagara Snaghusha Snarataga Snarga Snargara Snaruga Snarzikha Sneehash Snilga Snoogh Snushbesh Solgra Stilga Stroda Stuga Stughrush Tamozag Theg Thegbesh Thegshakul Thegshalash Theshaga Theshgoth Thishnaku Thoga Thogra Thrugrak Thugnekh Thulga Thushleg Torghi Tugha Ubzigub Udai Ufalga Ufgabesh Ufgalash Ufgaz Ufgel Ufgra Uftheg Ugarnesh Ugduk Ugrash Ugrush Uldushna Ulg Ulgush Ulliceta Ulsha Ulu Ulubesh Uluga Ulukhaz Umbaka Umbugbek Umgubesh Umutha Umzolabesh Undorga Undush Undusha Unsulag Uratag Urbalash Urbutha Urbzag Urdboga Urgarlag Urshra Uruka Urzula Usha Ushaga Ushenat Ushruka Ushuta Ushutha Uthik Uzka Vosh Vumnish Vush Vusha Yagrigbesh Yakhu Yarlak Yarulorz Yashurah Yatanakh Yatava Yatular Yatzog Yazara Yazgruga Yazoga Zaag Zagla Zagula Zazsha Zelguma Zubesha Zugh Zuugarz Zuuthag Zuuthusha
}

army_names = {
    "Army of $PROVINCE$"
}

fleet_names = {
    "Fleet of $PROVINCE$"
}